[
  {
    "link_thumb": "https://live.staticflickr.com/65535/49710540503_607bf0d548_n.jpg",
    "id_album": "430704260",
    "description": "Child_104870",
    "title": "Child_104870",
    "link_img": "https://live.staticflickr.com/65535/49710540503_9626e61957_o.jpg",
    "id_image": "Child_104870",
    "count_view": 0
  },
  {
    "link_thumb": "https://live.staticflickr.com/65535/49710540663_d3ea8de40b_n.jpg",
    "id_album": "430704260",
    "description": "Child_117292",
    "title": "Child_117292",
    "link_img": "https://live.staticflickr.com/65535/49710540663_7f4cefe5b9_o.jpg",
    "id_image": "Child_117292",
    "count_view": 0
  },
  {
    "link_thumb": "https://live.staticflickr.com/65535/49711076131_8bd835da0d_n.jpg",
    "id_album": "430704260",
    "description": "Child_158922",
    "title": "Child_158922",
    "link_img": "https://live.staticflickr.com/65535/49711076131_b3ab095343_o.jpg",
    "id_image": "Child_158922",
    "count_view": 0
  },
  {
    "link_thumb": "https://live.staticflickr.com/65535/49711400557_ec57cda0fc_n.jpg",
    "id_album": "430704260",
    "description": "Child_162752",
    "title": "Child_162752",
    "link_img": "https://live.staticflickr.com/65535/49711400557_81834bf7a8_o.jpg",
    "id_image": "Child_162752",
    "count_view": 0
  },
  {
    "link_thumb": "https://live.staticflickr.com/65535/49711076476_134619a633_n.jpg",
    "id_album": "430704260",
    "description": "Child_183123",
    "title": "Child_183123",
    "link_img": "https://live.staticflickr.com/65535/49711076476_0cbf34776a_o.jpg",
    "id_image": "Child_183123",
    "count_view": 0
  },
  {
    "link_thumb": "https://live.staticflickr.com/65535/49710541393_92ae3f8849_n.jpg",
    "id_album": "430704260",
    "description": "Child_249225",
    "title": "Child_249225",
    "link_img": "https://live.staticflickr.com/65535/49710541393_a826163370_o.jpg",
    "id_image": "Child_249225",
    "count_view": 0
  },
  {
    "link_thumb": "https://live.staticflickr.com/65535/49710541638_c1fe23efc1_n.jpg",
    "id_album": "430704260",
    "description": "Child_388102",
    "title": "Child_388102",
    "link_img": "https://live.staticflickr.com/65535/49710541638_b02911a047_o.jpg",
    "id_image": "Child_388102",
    "count_view": 0
  },
  {
    "link_thumb": "https://live.staticflickr.com/65535/49711077041_4ce9e96c41_n.jpg",
    "id_album": "430704260",
    "description": "Child_391640",
    "title": "Child_391640",
    "link_img": "https://live.staticflickr.com/65535/49711077041_dce32329f6_o.jpg",
    "id_image": "Child_391640",
    "count_view": 0
  },
  {
    "link_thumb": "https://live.staticflickr.com/65535/49711077196_364ae8d74d_n.jpg",
    "id_album": "430704260",
    "description": "Child_566148",
    "title": "Child_566148",
    "link_img": "https://live.staticflickr.com/65535/49711077196_c8a27696c4_o.jpg",
    "id_image": "Child_566148",
    "count_view": 0
  },
  {
    "link_thumb": "https://live.staticflickr.com/65535/49711401507_5c714aae4d_n.jpg",
    "id_album": "430704260",
    "description": "Child_617913",
    "title": "Child_617913",
    "link_img": "https://live.staticflickr.com/65535/49711401507_6efaeff7a7_o.jpg",
    "id_image": "Child_617913",
    "count_view": 0
  },
  {
    "link_thumb": "https://live.staticflickr.com/65535/49710542163_7c7295d2a1_n.jpg",
    "id_album": "430704260",
    "description": "Child_674937",
    "title": "Child_674937",
    "link_img": "https://live.staticflickr.com/65535/49710542163_4d82e3336d_o.jpg",
    "id_image": "Child_674937",
    "count_view": 0
  },
  {
    "link_thumb": "https://live.staticflickr.com/65535/49711401767_cae039137a_n.jpg",
    "id_album": "430704260",
    "description": "Child_685352",
    "title": "Child_685352",
    "link_img": "https://live.staticflickr.com/65535/49711401767_5292c8e040_o.jpg",
    "id_image": "Child_685352",
    "count_view": 0
  },
  {
    "link_thumb": "https://live.staticflickr.com/65535/49710542378_8f7d535662_n.jpg",
    "id_album": "430704260",
    "description": "Child_686948",
    "title": "Child_686948",
    "link_img": "https://live.staticflickr.com/65535/49710542378_c1d459bda8_o.jpg",
    "id_image": "Child_686948",
    "count_view": 0
  },
  {
    "link_thumb": "https://live.staticflickr.com/65535/49710542663_f880320e35_n.jpg",
    "id_album": "430704260",
    "description": "Child_700060",
    "title": "Child_700060",
    "link_img": "https://live.staticflickr.com/65535/49710542663_8b6482db39_o.jpg",
    "id_image": "Child_700060",
    "count_view": 0
  },
  {
    "link_thumb": "https://live.staticflickr.com/65535/49711078136_043fced20c_n.jpg",
    "id_album": "430704260",
    "description": "Child_701420",
    "title": "Child_701420",
    "link_img": "https://live.staticflickr.com/65535/49711078136_93d9bc872c_o.jpg",
    "id_image": "Child_701420",
    "count_view": 0
  },
  {
    "link_thumb": "https://live.staticflickr.com/65535/49710543018_aa0f7901b4_n.jpg",
    "id_album": "430704260",
    "description": "Child_702024",
    "title": "Child_702024",
    "link_img": "https://live.staticflickr.com/65535/49710543018_431f7f2727_o.jpg",
    "id_image": "Child_702024",
    "count_view": 0
  },
  {
    "link_thumb": "https://live.staticflickr.com/65535/49711078321_682edc794f_n.jpg",
    "id_album": "430704260",
    "description": "Child_702025",
    "title": "Child_702025",
    "link_img": "https://live.staticflickr.com/65535/49711078321_962b307a8c_o.jpg",
    "id_image": "Child_702025",
    "count_view": 0
  },
  {
    "link_thumb": "https://live.staticflickr.com/65535/49711402862_4455e49957_n.jpg",
    "id_album": "430704260",
    "description": "Child_703289",
    "title": "Child_703289",
    "link_img": "https://live.staticflickr.com/65535/49711402862_4288633ecc_o.jpg",
    "id_image": "Child_703289",
    "count_view": 0
  },
  {
    "link_thumb": "https://live.staticflickr.com/65535/49711078601_1d5150e7b8_n.jpg",
    "id_album": "430704260",
    "description": "Child_708923",
    "title": "Child_708923",
    "link_img": "https://live.staticflickr.com/65535/49711078601_56396dc15f_o.jpg",
    "id_image": "Child_708923",
    "count_view": 0
  },
  {
    "link_thumb": "https://live.staticflickr.com/65535/49710543553_db3600715f_n.jpg",
    "id_album": "430704260",
    "description": "Child_709238",
    "title": "Child_709238",
    "link_img": "https://live.staticflickr.com/65535/49710543553_c724f52a0f_o.jpg",
    "id_image": "Child_709238",
    "count_view": 0
  },
  {
    "link_thumb": "https://live.staticflickr.com/65535/49710543723_112d79a957_n.jpg",
    "id_album": "430704260",
    "description": "Child_709243",
    "title": "Child_709243",
    "link_img": "https://live.staticflickr.com/65535/49710543723_a2a50edb6b_o.jpg",
    "id_image": "Child_709243",
    "count_view": 0
  },
  {
    "link_thumb": "https://live.staticflickr.com/65535/49711079076_15a2b3d106_n.jpg",
    "id_album": "430704260",
    "description": "Child_709419",
    "title": "Child_709419",
    "link_img": "https://live.staticflickr.com/65535/49711079076_88ec0c164d_o.jpg",
    "id_image": "Child_709419",
    "count_view": 0
  },
  {
    "link_thumb": "https://live.staticflickr.com/65535/49711403637_bd030dfe62_n.jpg",
    "id_album": "430704260",
    "description": "Child_710405",
    "title": "Child_710405",
    "link_img": "https://live.staticflickr.com/65535/49711403637_e65640169e_o.jpg",
    "id_image": "Child_710405",
    "count_view": 0
  },
  {
    "link_thumb": "https://live.staticflickr.com/65535/49711079331_cfa70000b8_n.jpg",
    "id_album": "430704260",
    "description": "Child_710458",
    "title": "Child_710458",
    "link_img": "https://live.staticflickr.com/65535/49711079331_66a368795f_o.jpg",
    "id_image": "Child_710458",
    "count_view": 0
  },
  {
    "link_thumb": "https://live.staticflickr.com/65535/49710544268_3dd4173127_n.jpg",
    "id_album": "430704260",
    "description": "Child_712975",
    "title": "Child_712975",
    "link_img": "https://live.staticflickr.com/65535/49710544268_b4c3a117aa_o.jpg",
    "id_image": "Child_712975",
    "count_view": 0
  },
  {
    "link_thumb": "https://live.staticflickr.com/65535/49710544418_f0607aa77e_n.jpg",
    "id_album": "430704260",
    "description": "Child_715986",
    "title": "Child_715986",
    "link_img": "https://live.staticflickr.com/65535/49710544418_7186b61745_o.jpg",
    "id_image": "Child_715986",
    "count_view": 0
  },
  {
    "link_thumb": "https://live.staticflickr.com/65535/49711404287_18bfaf155a_n.jpg",
    "id_album": "430704260",
    "description": "Child_716241",
    "title": "Child_716241",
    "link_img": "https://live.staticflickr.com/65535/49711404287_7f905c694f_o.jpg",
    "id_image": "Child_716241",
    "count_view": 0
  },
  {
    "link_thumb": "https://live.staticflickr.com/65535/49711079881_fb35a12fe3_n.jpg",
    "id_album": "430704260",
    "description": "Child_724557",
    "title": "Child_724557",
    "link_img": "https://live.staticflickr.com/65535/49711079881_d35bdcc852_o.jpg",
    "id_image": "Child_724557",
    "count_view": 0
  },
  {
    "link_thumb": "https://live.staticflickr.com/65535/49710544863_482d068a16_n.jpg",
    "id_album": "430704260",
    "description": "Child_727578",
    "title": "Child_727578",
    "link_img": "https://live.staticflickr.com/65535/49710544863_68427256ea_o.jpg",
    "id_image": "Child_727578",
    "count_view": 0
  },
  {
    "link_thumb": "https://live.staticflickr.com/65535/49711404727_4221ca0cee_n.jpg",
    "id_album": "430704260",
    "description": "Child_729317",
    "title": "Child_729317",
    "link_img": "https://live.staticflickr.com/65535/49711404727_0e8e5206cd_o.jpg",
    "id_image": "Child_729317",
    "count_view": 0
  },
  {
    "link_thumb": "https://live.staticflickr.com/65535/49711080361_91b618b871_n.jpg",
    "id_album": "430704260",
    "description": "Child_730198",
    "title": "Child_730198",
    "link_img": "https://live.staticflickr.com/65535/49711080361_82721f28ab_o.jpg",
    "id_image": "Child_730198",
    "count_view": 0
  },
  {
    "link_thumb": "https://live.staticflickr.com/65535/49711405022_69ed6f3eb4_n.jpg",
    "id_album": "430704260",
    "description": "Child_731149",
    "title": "Child_731149",
    "link_img": "https://live.staticflickr.com/65535/49711405022_9edd22d73a_o.jpg",
    "id_image": "Child_731149",
    "count_view": 0
  },
  {
    "link_thumb": "https://live.staticflickr.com/65535/49711080676_cd0f791c1d_n.jpg",
    "id_album": "430704260",
    "description": "Child_736393",
    "title": "Child_736393",
    "link_img": "https://live.staticflickr.com/65535/49711080676_1765e7f70c_o.jpg",
    "id_image": "Child_736393",
    "count_view": 0
  },
  {
    "link_thumb": "https://live.staticflickr.com/65535/49711080881_bcea3183df_n.jpg",
    "id_album": "430704260",
    "description": "Child_740797",
    "title": "Child_740797",
    "link_img": "https://live.staticflickr.com/65535/49711080881_f82507ab14_o.jpg",
    "id_image": "Child_740797",
    "count_view": 0
  },
  {
    "link_thumb": "https://live.staticflickr.com/65535/49711405562_b899b3c12d_n.jpg",
    "id_album": "430704260",
    "description": "Child_742504",
    "title": "Child_742504",
    "link_img": "https://live.staticflickr.com/65535/49711405562_05d69fbeb6_o.jpg",
    "id_image": "Child_742504",
    "count_view": 0
  },
  {
    "link_thumb": "https://live.staticflickr.com/65535/49711405697_3f908271e3_n.jpg",
    "id_album": "430704260",
    "description": "Child_747963",
    "title": "Child_747963",
    "link_img": "https://live.staticflickr.com/65535/49711405697_0aba42e763_o.jpg",
    "id_image": "Child_747963",
    "count_view": 0
  },
  {
    "link_thumb": "https://live.staticflickr.com/65535/49710546173_066e9afefc_n.jpg",
    "id_album": "430704260",
    "description": "Child_753386",
    "title": "Child_753386",
    "link_img": "https://live.staticflickr.com/65535/49710546173_458a481850_o.jpg",
    "id_image": "Child_753386",
    "count_view": 0
  },
  {
    "link_thumb": "https://live.staticflickr.com/65535/49711081501_ecf590a570_n.jpg",
    "id_album": "430704260",
    "description": "Child_756526",
    "title": "Child_756526",
    "link_img": "https://live.staticflickr.com/65535/49711081501_a1f1bd4e95_o.jpg",
    "id_image": "Child_756526",
    "count_view": 0
  },
  {
    "link_thumb": "https://live.staticflickr.com/65535/49711406097_9e6c682255_n.jpg",
    "id_album": "430704260",
    "description": "Child_772582",
    "title": "Child_772582",
    "link_img": "https://live.staticflickr.com/65535/49711406097_53aaa42d46_o.jpg",
    "id_image": "Child_772582",
    "count_view": 0
  },
  {
    "link_thumb": "https://live.staticflickr.com/65535/49711081756_72c5a0ca09_n.jpg",
    "id_album": "430704260",
    "description": "Child_776996",
    "title": "Child_776996",
    "link_img": "https://live.staticflickr.com/65535/49711081756_d03f8e670f_o.jpg",
    "id_image": "Child_776996",
    "count_view": 0
  },
  {
    "link_thumb": "https://live.staticflickr.com/65535/49710546868_04225f2a6b_n.jpg",
    "id_album": "430704260",
    "description": "Child_777260",
    "title": "Child_777260",
    "link_img": "https://live.staticflickr.com/65535/49710546868_beec576521_o.jpg",
    "id_image": "Child_777260",
    "count_view": 0
  },
  {
    "link_thumb": "https://live.staticflickr.com/65535/49711082051_99d707fcdc_n.jpg",
    "id_album": "430704260",
    "description": "Child_777611",
    "title": "Child_777611",
    "link_img": "https://live.staticflickr.com/65535/49711082051_2ffc924737_o.jpg",
    "id_image": "Child_777611",
    "count_view": 0
  },
  {
    "link_thumb": "https://live.staticflickr.com/65535/49711082176_0f0300a7af_n.jpg",
    "id_album": "430704260",
    "description": "Child_787875",
    "title": "Child_787875",
    "link_img": "https://live.staticflickr.com/65535/49711082176_1caf233a22_o.jpg",
    "id_image": "Child_787875",
    "count_view": 0
  },
  {
    "link_thumb": "https://live.staticflickr.com/65535/49710547238_a5c7cbb832_n.jpg",
    "id_album": "430704260",
    "description": "Child_830188",
    "title": "Child_830188",
    "link_img": "https://live.staticflickr.com/65535/49710547238_810442ddab_o.jpg",
    "id_image": "Child_830188",
    "count_view": 0
  },
  {
    "link_thumb": "https://live.staticflickr.com/65535/49710547428_5d50922a03_n.jpg",
    "id_album": "430704260",
    "description": "Child_855573",
    "title": "Child_855573",
    "link_img": "https://live.staticflickr.com/65535/49710547428_49b4a36896_o.jpg",
    "id_image": "Child_855573",
    "count_view": 0
  },
  {
    "link_thumb": "https://live.staticflickr.com/65535/49711407167_b9719d3738_n.jpg",
    "id_album": "430704260",
    "description": "Child_856408",
    "title": "Child_856408",
    "link_img": "https://live.staticflickr.com/65535/49711407167_2f1b247bc7_o.jpg",
    "id_image": "Child_856408",
    "count_view": 0
  },
  {
    "link_thumb": "https://live.staticflickr.com/65535/49711407282_80d0c49f9a_n.jpg",
    "id_album": "430704260",
    "description": "Child_857921",
    "title": "Child_857921",
    "link_img": "https://live.staticflickr.com/65535/49711407282_19fd326e7e_o.jpg",
    "id_image": "Child_857921",
    "count_view": 0
  },
  {
    "link_thumb": "https://live.staticflickr.com/65535/49710547818_a46e4a658a_n.jpg",
    "id_album": "430704260",
    "description": "Child_863528",
    "title": "Child_863528",
    "link_img": "https://live.staticflickr.com/65535/49710547818_964fa18a06_o.jpg",
    "id_image": "Child_863528",
    "count_view": 0
  },
  {
    "link_thumb": "https://live.staticflickr.com/65535/49711407532_cb9b6e1c90_n.jpg",
    "id_album": "430704260",
    "description": "Child_863688",
    "title": "Child_863688",
    "link_img": "https://live.staticflickr.com/65535/49711407532_8364442f73_o.jpg",
    "id_image": "Child_863688",
    "count_view": 0
  },
  {
    "link_thumb": "https://live.staticflickr.com/65535/49711407687_ecb9e1bf2e_n.jpg",
    "id_album": "430704260",
    "description": "Child_864606",
    "title": "Child_864606",
    "link_img": "https://live.staticflickr.com/65535/49711407687_463b745620_o.jpg",
    "id_image": "Child_864606",
    "count_view": 0
  },
  {
    "link_thumb": "https://live.staticflickr.com/65535/49711083341_79b608f5f0_n.jpg",
    "id_album": "430704260",
    "description": "Child_874508",
    "title": "Child_874508",
    "link_img": "https://live.staticflickr.com/65535/49711083341_1b58ec1c3f_o.jpg",
    "id_image": "Child_874508",
    "count_view": 0
  },
  {
    "link_thumb": "https://live.staticflickr.com/65535/49710548303_b4c2a4ea02_n.jpg",
    "id_album": "430704260",
    "description": "Child_880095",
    "title": "Child_880095",
    "link_img": "https://live.staticflickr.com/65535/49710548303_06bf07eb13_o.jpg",
    "id_image": "Child_880095",
    "count_view": 0
  },
  {
    "link_thumb": "https://live.staticflickr.com/65535/49710548428_e67c4ddf03_n.jpg",
    "id_album": "430704260",
    "description": "Child_887870",
    "title": "Child_887870",
    "link_img": "https://live.staticflickr.com/65535/49710548428_f3ff4bfe15_o.jpg",
    "id_image": "Child_887870",
    "count_view": 0
  },
  {
    "link_thumb": "https://live.staticflickr.com/65535/49711408202_84d20c986c_n.jpg",
    "id_album": "430704260",
    "description": "Child_900343",
    "title": "Child_900343",
    "link_img": "https://live.staticflickr.com/65535/49711408202_f0a9c32c5d_o.jpg",
    "id_image": "Child_900343",
    "count_view": 0
  },
  {
    "link_thumb": "https://live.staticflickr.com/65535/49711083906_7e4297b589_n.jpg",
    "id_album": "430704260",
    "description": "Child_905703",
    "title": "Child_905703",
    "link_img": "https://live.staticflickr.com/65535/49711083906_41e074d8be_o.jpg",
    "id_image": "Child_905703",
    "count_view": 0
  },
  {
    "link_thumb": "https://live.staticflickr.com/65535/49711408502_fcc8183863_n.jpg",
    "id_album": "430704260",
    "description": "Child_909532",
    "title": "Child_909532",
    "link_img": "https://live.staticflickr.com/65535/49711408502_1614127222_o.jpg",
    "id_image": "Child_909532",
    "count_view": 0
  },
  {
    "link_thumb": "https://live.staticflickr.com/65535/49711084156_c63c3e085d_n.jpg",
    "id_album": "430704260",
    "description": "Child_910933",
    "title": "Child_910933",
    "link_img": "https://live.staticflickr.com/65535/49711084156_0eb77983ca_o.jpg",
    "id_image": "Child_910933",
    "count_view": 0
  },
  {
    "link_thumb": "https://live.staticflickr.com/65535/49711084296_b86cdf3e90_n.jpg",
    "id_album": "430704260",
    "description": "Child_910964",
    "title": "Child_910964",
    "link_img": "https://live.staticflickr.com/65535/49711084296_aac8c45eb5_o.jpg",
    "id_image": "Child_910964",
    "count_view": 0
  },
  {
    "link_thumb": "https://live.staticflickr.com/65535/49711084511_20922d5287_n.jpg",
    "id_album": "430704260",
    "description": "Child_919144",
    "title": "Child_919144",
    "link_img": "https://live.staticflickr.com/65535/49711084511_5ea514dd61_o.jpg",
    "id_image": "Child_919144",
    "count_view": 0
  },
  {
    "link_thumb": "https://live.staticflickr.com/65535/49711084721_36721f422f_n.jpg",
    "id_album": "430704260",
    "description": "Child_921600",
    "title": "Child_921600",
    "link_img": "https://live.staticflickr.com/65535/49711084721_82aa00e399_o.jpg",
    "id_image": "Child_921600",
    "count_view": 0
  },
  {
    "link_thumb": "https://live.staticflickr.com/65535/49710549603_c486675cca_n.jpg",
    "id_album": "430704260",
    "description": "Child_921990",
    "title": "Child_921990",
    "link_img": "https://live.staticflickr.com/65535/49710549603_cf31d0d751_o.jpg",
    "id_image": "Child_921990",
    "count_view": 0
  },
  {
    "link_thumb": "https://live.staticflickr.com/65535/49711409487_0b479c6e15_n.jpg",
    "id_album": "430704260",
    "description": "Child_926004",
    "title": "Child_926004",
    "link_img": "https://live.staticflickr.com/65535/49711409487_4635d5b4a7_o.jpg",
    "id_image": "Child_926004",
    "count_view": 0
  },
  {
    "link_thumb": "https://live.staticflickr.com/65535/49710549858_2dd54b3be8_n.jpg",
    "id_album": "430704260",
    "description": "Child_932938",
    "title": "Child_932938",
    "link_img": "https://live.staticflickr.com/65535/49710549858_366d13eff9_o.jpg",
    "id_image": "Child_932938",
    "count_view": 0
  },
  {
    "link_thumb": "https://live.staticflickr.com/65535/49711409747_ca0d8c1b17_n.jpg",
    "id_album": "430704260",
    "description": "Child_938170",
    "title": "Child_938170",
    "link_img": "https://live.staticflickr.com/65535/49711409747_f4def5d852_o.jpg",
    "id_image": "Child_938170",
    "count_view": 0
  },
  {
    "link_thumb": "https://live.staticflickr.com/65535/49711409902_d50bb87ef4_n.jpg",
    "id_album": "430704260",
    "description": "Child_942159",
    "title": "Child_942159",
    "link_img": "https://live.staticflickr.com/65535/49711409902_998d69d5a5_o.jpg",
    "id_image": "Child_942159",
    "count_view": 0
  },
  {
    "link_thumb": "https://live.staticflickr.com/65535/49711085666_a48c148ce7_n.jpg",
    "id_album": "430704260",
    "description": "Child_951099",
    "title": "Child_951099",
    "link_img": "https://live.staticflickr.com/65535/49711085666_0d963951c7_o.jpg",
    "id_image": "Child_951099",
    "count_view": 0
  },
  {
    "link_thumb": "https://live.staticflickr.com/65535/49710550413_bc74ae2c4b_n.jpg",
    "id_album": "430704260",
    "description": "Child_952598",
    "title": "Child_952598",
    "link_img": "https://live.staticflickr.com/65535/49710550413_47163a6461_o.jpg",
    "id_image": "Child_952598",
    "count_view": 0
  },
  {
    "link_thumb": "https://live.staticflickr.com/65535/49710550538_a1a9b11f96_n.jpg",
    "id_album": "430704260",
    "description": "Child_958227",
    "title": "Child_958227",
    "link_img": "https://live.staticflickr.com/65535/49710550538_0ee09937fe_o.jpg",
    "id_image": "Child_958227",
    "count_view": 0
  },
  {
    "link_thumb": "https://live.staticflickr.com/65535/49711410527_9990590e0b_n.jpg",
    "id_album": "430704260",
    "description": "Child_985951",
    "title": "Child_985951",
    "link_img": "https://live.staticflickr.com/65535/49711410527_9ec4a406dc_o.jpg",
    "id_image": "Child_985951",
    "count_view": 0
  },
  {
    "link_thumb": "https://live.staticflickr.com/65535/49711410692_3236ea420b_n.jpg",
    "id_album": "430704260",
    "description": "Child_987625",
    "title": "Child_987625",
    "link_img": "https://live.staticflickr.com/65535/49711410692_4a3c912fb3_o.jpg",
    "id_image": "Child_987625",
    "count_view": 0
  },
  {
    "link_thumb": "https://live.staticflickr.com/65535/49710551098_8f2435b082_n.jpg",
    "id_album": "430704260",
    "description": "Child_991371",
    "title": "Child_991371",
    "link_img": "https://live.staticflickr.com/65535/49710551098_ed496a0d66_o.jpg",
    "id_image": "Child_991371",
    "count_view": 0
  },
  {
    "link_thumb": "https://live.staticflickr.com/65535/49711411082_8cc1d59025_n.jpg",
    "id_album": "430704260",
    "description": "Child_996283",
    "title": "Child_996283",
    "link_img": "https://live.staticflickr.com/65535/49711411082_8632382a76_o.jpg",
    "id_image": "Child_996283",
    "count_view": 0
  }
]