[
  {
    "link_thumb": "https://live.staticflickr.com/65535/49710560448_6a1555ee4d_n.jpg",
    "id_album": "-1964113117",
    "description": "City_304689",
    "title": "City_304689",
    "link_img": "https://live.staticflickr.com/65535/49710560448_c0dd9b3f1d_o.jpg",
    "id_image": "City_304689",
    "count_view": 0
  },
  {
    "link_thumb": "https://live.staticflickr.com/65535/49711590193_0f4116fe65_n.jpg",
    "id_album": "407101116",
    "description": "SeaMonster_911860",
    "title": "SeaMonster_911860",
    "link_img": "https://live.staticflickr.com/65535/49711590193_32677d672d_o.jpg",
    "id_image": "SeaMonster_911860",
    "count_view": 0
  },
  {
    "link_thumb": "https://live.staticflickr.com/65535/49711223492_b02ec1c90a_n.jpg",
    "id_album": "-1913845949",
    "description": "Animal_330424",
    "title": "Animal_330424",
    "link_img": "https://live.staticflickr.com/65535/49711223492_fb0f4ff4c4_o.jpg",
    "id_image": "Animal_330424",
    "count_view": 0
  },
  {
    "link_thumb": "https://live.staticflickr.com/65535/49711029813_8b63389b8b_n.jpg",
    "id_album": "850176884",
    "description": "Dragon_917197",
    "title": "Dragon_917197",
    "link_img": "https://live.staticflickr.com/65535/49711029813_3c3ee15f3f_o.jpg",
    "id_image": "Dragon_917197",
    "count_view": 0
  },
  {
    "link_thumb": "https://live.staticflickr.com/65535/49710360948_fd93dc6b15_n.jpg",
    "id_album": "-1913845949",
    "description": "Animal_188896",
    "title": "Animal_188896",
    "link_img": "https://live.staticflickr.com/65535/49710360948_b658d8c11c_o.jpg",
    "id_image": "Animal_188896",
    "count_view": 0
  },
  {
    "link_thumb": "https://live.staticflickr.com/65535/49711325836_2b40728fd6_n.jpg",
    "id_album": "1903411565",
    "description": "Deer_112505",
    "title": "Deer_112505",
    "link_img": "https://live.staticflickr.com/65535/49711325836_1a1ae1f67e_o.jpg",
    "id_image": "Deer_112505",
    "count_view": 0
  },
  {
    "link_thumb": "https://live.staticflickr.com/65535/49711370048_e72b58d42c_n.jpg",
    "id_album": "-833110404",
    "description": "Landscape_274801",
    "title": "Landscape_274801",
    "link_img": "https://live.staticflickr.com/65535/49711370048_343c96973b_o.jpg",
    "id_image": "Landscape_274801",
    "count_view": 0
  },
  {
    "link_thumb": "https://live.staticflickr.com/65535/49712043407_b51683cbde_n.jpg",
    "id_album": "-1083189875",
    "description": "Forest_906150",
    "title": "Forest_906150",
    "link_img": "https://live.staticflickr.com/65535/49712043407_595bf31a06_o.jpg",
    "id_image": "Forest_906150",
    "count_view": 0
  },
  {
    "link_thumb": "https://live.staticflickr.com/65535/49711439461_bed5afc656_n.jpg",
    "id_album": "850176884",
    "description": "Dragon_387814",
    "title": "Dragon_387814",
    "link_img": "https://live.staticflickr.com/65535/49711439461_e09be07bf6_o.jpg",
    "id_image": "Dragon_387814",
    "count_view": 0
  },
  {
    "link_thumb": "https://live.staticflickr.com/65535/49712686911_a947b684d3_n.jpg",
    "id_album": "-1675918237",
    "description": "WomenWarrior_864371",
    "title": "WomenWarrior_864371",
    "link_img": "https://live.staticflickr.com/65535/49712686911_956c596ab6_o.jpg",
    "id_image": "WomenWarrior_864371",
    "count_view": 0
  },
  {
    "link_thumb": "https://live.staticflickr.com/65535/49710590698_b4af443a4b_n.jpg",
    "id_album": "-1964113117",
    "description": "City_873644",
    "title": "City_873644",
    "link_img": "https://live.staticflickr.com/65535/49710590698_7f532a56d9_o.jpg",
    "id_image": "City_873644",
    "count_view": 0
  },
  {
    "link_thumb": "https://live.staticflickr.com/65535/49912646707_c2d1911bba_n.jpg",
    "id_album": "-1703946758",
    "description": "ANIME_PIC_ec05b78c9d121de16f6a36599e7cb674",
    "title": "ANIME_PIC_ec05b78c9d121de16f6a36599e7cb674",
    "link_img": "https://live.staticflickr.com/65535/49912646707_81fe96c092_o.jpg",
    "id_image": "ANIME_PIC_ec05b78c9d121de16f6a36599e7cb674",
    "count_view": 0
  },
  {
    "link_thumb": "https://live.staticflickr.com/65535/49711186622_d5c81e64d9_n.jpg",
    "id_album": "-2109465612",
    "description": "Adventure_244179",
    "title": "Adventure_244179",
    "link_img": "https://live.staticflickr.com/65535/49711186622_f57d92c247_o.jpg",
    "id_image": "Adventure_244179",
    "count_view": 0
  },
  {
    "link_thumb": "https://live.staticflickr.com/65535/49711191701_bde4f359ed_n.jpg",
    "id_album": "-437872736",
    "description": "Creature_317217",
    "title": "Creature_317217",
    "link_img": "https://live.staticflickr.com/65535/49711191701_cb384a91c0_o.jpg",
    "id_image": "Creature_317217",
    "count_view": 0
  },
  {
    "link_thumb": "https://live.staticflickr.com/65535/49711722573_d0a3a55098_n.jpg",
    "id_album": "478331085",
    "description": "Witch_233881",
    "title": "Witch_233881",
    "link_img": "https://live.staticflickr.com/65535/49711722573_4d841e4fa8_o.jpg",
    "id_image": "Witch_233881",
    "count_view": 0
  },
  {
    "link_thumb": "https://live.staticflickr.com/65535/49711587398_4904d8f6da_n.jpg",
    "id_album": "407101116",
    "description": "SeaMonster_652772",
    "title": "SeaMonster_652772",
    "link_img": "https://live.staticflickr.com/65535/49711587398_f3d48bbe4a_o.jpg",
    "id_image": "SeaMonster_652772",
    "count_view": 0
  },
  {
    "link_thumb": "https://live.staticflickr.com/65535/49711017631_67c319fed6_n.jpg",
    "id_album": "-1846011410",
    "description": "Bird_689851",
    "title": "Bird_689851",
    "link_img": "https://live.staticflickr.com/65535/49711017631_4d8868f73d_o.jpg",
    "id_image": "Bird_689851",
    "count_view": 0
  },
  {
    "link_thumb": "https://live.staticflickr.com/65535/49710944993_2fe74d92f4_n.jpg",
    "id_album": "850176884",
    "description": "Dragon_559688",
    "title": "Dragon_559688",
    "link_img": "https://live.staticflickr.com/65535/49710944993_a7dc29bf6a_o.jpg",
    "id_image": "Dragon_559688",
    "count_view": 0
  },
  {
    "link_thumb": "https://live.staticflickr.com/65535/49711262858_a80606da39_n.jpg",
    "id_album": "1402713104",
    "description": "Landscape_672548",
    "title": "Landscape_672548",
    "link_img": "https://live.staticflickr.com/65535/49711262858_5b9f656ddd_o.jpg",
    "id_image": "Landscape_672548",
    "count_view": 0
  },
  {
    "link_thumb": "https://live.staticflickr.com/65535/49711082176_0f0300a7af_n.jpg",
    "id_album": "430704260",
    "description": "Child_787875",
    "title": "Child_787875",
    "link_img": "https://live.staticflickr.com/65535/49711082176_1caf233a22_o.jpg",
    "id_image": "Child_787875",
    "count_view": 0
  },
  {
    "link_thumb": "https://live.staticflickr.com/65535/49712427231_3fef745b03_n.jpg",
    "id_album": "1861288871",
    "description": "Women_138349",
    "title": "Women_138349",
    "link_img": "https://live.staticflickr.com/65535/49712427231_49cd165488_o.jpg",
    "id_image": "Women_138349",
    "count_view": 0
  },
  {
    "link_thumb": "https://live.staticflickr.com/65535/49711348871_3a53e95d34_n.jpg",
    "id_album": "850176884",
    "description": "DRAGON26101916500546",
    "title": "DRAGON26101916500546",
    "link_img": "https://live.staticflickr.com/65535/49711348871_61a3054e9d_o.jpg",
    "id_image": "DRAGON26101916500546",
    "count_view": 0
  },
  {
    "link_thumb": "https://live.staticflickr.com/65535/49712282201_a3943d6f5c_n.jpg",
    "id_album": "-709711865",
    "description": "Wolf_647562",
    "title": "Wolf_647562",
    "link_img": "https://live.staticflickr.com/65535/49712282201_72d5f51fc7_o.jpg",
    "id_image": "Wolf_647562",
    "count_view": 0
  },
  {
    "link_thumb": "https://live.staticflickr.com/65535/49711539278_a6c976bb9a_n.jpg",
    "id_album": "-1326601535",
    "description": "Phoenix_600284",
    "title": "Phoenix_600284",
    "link_img": "https://live.staticflickr.com/65535/49711539278_3c71cd91a8_o.jpg",
    "id_image": "Phoenix_600284",
    "count_view": 0
  },
  {
    "link_thumb": "https://live.staticflickr.com/65535/49711339862_e5dbba37ec_n.jpg",
    "id_album": "-1846011410",
    "description": "Bird_289720",
    "title": "Bird_289720",
    "link_img": "https://live.staticflickr.com/65535/49711339862_c082d754ea_o.jpg",
    "id_image": "Bird_289720",
    "count_view": 0
  },
  {
    "link_thumb": "https://live.staticflickr.com/65535/49711948933_66b888f0e9_n.jpg",
    "id_album": "1861288871",
    "description": "Women_840617",
    "title": "Women_840617",
    "link_img": "https://live.staticflickr.com/65535/49711948933_f8fc595731_o.jpg",
    "id_image": "Women_840617",
    "count_view": 0
  },
  {
    "link_thumb": "https://live.staticflickr.com/65535/49711470718_be47cce660_n.jpg",
    "id_album": "-1613076477",
    "description": "Magic_953099",
    "title": "Magic_953099",
    "link_img": "https://live.staticflickr.com/65535/49711470718_531f9ae8fa_o.jpg",
    "id_image": "Magic_953099",
    "count_view": 0
  },
  {
    "link_thumb": "https://live.staticflickr.com/65535/49711329778_8d21ee8ef0_n.jpg",
    "id_album": "1402713104",
    "description": "Landscape_944311",
    "title": "Landscape_944311",
    "link_img": "https://live.staticflickr.com/65535/49711329778_7454161021_o.jpg",
    "id_image": "Landscape_944311",
    "count_view": 0
  },
  {
    "link_thumb": "https://live.staticflickr.com/65535/49712288301_80deeafc07_n.jpg",
    "id_album": "-709711865",
    "description": "Wolf_735449",
    "title": "Wolf_735449",
    "link_img": "https://live.staticflickr.com/65535/49712288301_6c692ec27f_o.jpg",
    "id_image": "Wolf_735449",
    "count_view": 0
  },
  {
    "link_thumb": "https://live.staticflickr.com/65535/49711968301_300d2f0e41_n.jpg",
    "id_album": "-833110404",
    "description": "Landscape_552101",
    "title": "Landscape_552101",
    "link_img": "https://live.staticflickr.com/65535/49711968301_79ac173148_o.jpg",
    "id_image": "Landscape_552101",
    "count_view": 0
  },
  {
    "link_thumb": "https://live.staticflickr.com/65535/49711259757_65a7d4b999_n.jpg",
    "id_album": "-1560111795",
    "description": "Archer_991009",
    "title": "Archer_991009",
    "link_img": "https://live.staticflickr.com/65535/49711259757_a3817d740e_o.jpg",
    "id_image": "Archer_991009",
    "count_view": 0
  },
  {
    "link_thumb": "https://live.staticflickr.com/65535/49711690326_58e0f41a11_n.jpg",
    "id_album": "-1083189875",
    "description": "Forest_220544",
    "title": "Forest_220544",
    "link_img": "https://live.staticflickr.com/65535/49711690326_2b349402ed_o.jpg",
    "id_image": "Forest_220544",
    "count_view": 0
  },
  {
    "link_thumb": "https://live.staticflickr.com/65535/49711295402_45b5c0feb1_n.jpg",
    "id_album": "523598895",
    "description": "Artistic_546318",
    "title": "Artistic_546318",
    "link_img": "https://live.staticflickr.com/65535/49711295402_422d06dbd9_o.jpg",
    "id_image": "Artistic_546318",
    "count_view": 0
  },
  {
    "link_thumb": "https://live.staticflickr.com/65535/49711456357_1f0bb53275_n.jpg",
    "id_album": "-1964113117",
    "description": "City_937797",
    "title": "City_937797",
    "link_img": "https://live.staticflickr.com/65535/49711456357_a2a3f90137_o.jpg",
    "id_image": "City_937797",
    "count_view": 0
  },
  {
    "link_thumb": "https://live.staticflickr.com/65535/49712254837_49f1f36c70_n.jpg",
    "id_album": "-833110404",
    "description": "Landscape_393475",
    "title": "Landscape_393475",
    "link_img": "https://live.staticflickr.com/65535/49712254837_d6c19d84d6_o.jpg",
    "id_image": "Landscape_393475",
    "count_view": 0
  },
  {
    "link_thumb": "https://live.staticflickr.com/65535/49711902276_5055c2b94a_n.jpg",
    "id_album": "-833110404",
    "description": "Landscape_267742",
    "title": "Landscape_267742",
    "link_img": "https://live.staticflickr.com/65535/49711902276_af8ea26307_o.jpg",
    "id_image": "Landscape_267742",
    "count_view": 0
  },
  {
    "link_thumb": "https://live.staticflickr.com/65535/49711796161_57e48a8a18_n.jpg",
    "id_album": "1402713104",
    "description": "Landscape_655891",
    "title": "Landscape_655891",
    "link_img": "https://live.staticflickr.com/65535/49711796161_ae26548f72_o.jpg",
    "id_image": "Landscape_655891",
    "count_view": 0
  },
  {
    "link_thumb": "https://live.staticflickr.com/65535/49712445016_bc9ceef7e1_n.jpg",
    "id_album": "1861288871",
    "description": "Women_489575",
    "title": "Women_489575",
    "link_img": "https://live.staticflickr.com/65535/49712445016_1967981aaf_o.jpg",
    "id_image": "Women_489575",
    "count_view": 0
  },
  {
    "link_thumb": "https://live.staticflickr.com/65535/49711131028_42f3e2db15_n.jpg",
    "id_album": "-1972042284",
    "description": "Fairy_439130",
    "title": "Fairy_439130",
    "link_img": "https://live.staticflickr.com/65535/49711131028_be608a7367_o.jpg",
    "id_image": "Fairy_439130",
    "count_view": 0
  },
  {
    "link_thumb": "https://live.staticflickr.com/65535/49710963248_74de4a18e6_n.jpg",
    "id_album": "850176884",
    "description": "Dragon_629990",
    "title": "Dragon_629990",
    "link_img": "https://live.staticflickr.com/65535/49710963248_4b4cb39920_o.jpg",
    "id_image": "Dragon_629990",
    "count_view": 0
  },
  {
    "link_thumb": "https://live.staticflickr.com/65535/49711000158_a242e45606_n.jpg",
    "id_album": "850176884",
    "description": "Dragon_853616",
    "title": "Dragon_853616",
    "link_img": "https://live.staticflickr.com/65535/49711000158_c9dee7beb2_o.jpg",
    "id_image": "Dragon_853616",
    "count_view": 0
  },
  {
    "link_thumb": "https://live.staticflickr.com/65535/49711147576_cedeacc174_n.jpg",
    "id_album": "-437872736",
    "description": "Creature_155258",
    "title": "Creature_155258",
    "link_img": "https://live.staticflickr.com/65535/49711147576_8efe8f9c4b_o.jpg",
    "id_image": "Creature_155258",
    "count_view": 0
  },
  {
    "link_thumb": "https://live.staticflickr.com/65535/49710922188_3701a02e1b_n.jpg",
    "id_album": "850176884",
    "description": "Dragon_477073",
    "title": "Dragon_477073",
    "link_img": "https://live.staticflickr.com/65535/49710922188_139a091596_o.jpg",
    "id_image": "Dragon_477073",
    "count_view": 0
  },
  {
    "link_thumb": "https://live.staticflickr.com/65535/49711553608_0ba2cd5e60_n.jpg",
    "id_album": "606798642",
    "description": "RedRidingHood_294924",
    "title": "RedRidingHood_294924",
    "link_img": "https://live.staticflickr.com/65535/49711553608_a78305d262_o.jpg",
    "id_image": "RedRidingHood_294924",
    "count_view": 0
  },
  {
    "link_thumb": "https://live.staticflickr.com/65535/49711295391_9c76981d64_n.jpg",
    "id_album": "-437872736",
    "description": "Creature_958904",
    "title": "Creature_958904",
    "link_img": "https://live.staticflickr.com/65535/49711295391_56b94b3ba6_o.jpg",
    "id_image": "Creature_958904",
    "count_view": 0
  },
  {
    "link_thumb": "https://live.staticflickr.com/65535/49710625788_68d3a22597_n.jpg",
    "id_album": "-437872736",
    "description": "Creature_224884",
    "title": "Creature_224884",
    "link_img": "https://live.staticflickr.com/65535/49710625788_a37c8cab0b_o.jpg",
    "id_image": "Creature_224884",
    "count_view": 0
  },
  {
    "link_thumb": "https://live.staticflickr.com/65535/49798809851_10d837e67a_n.jpg",
    "id_album": "-1703946758",
    "description": "ANIME_PIC_1c5307de2c56ac4a1f28dc6df2f07127",
    "title": "ANIME_PIC_1c5307de2c56ac4a1f28dc6df2f07127",
    "link_img": "https://live.staticflickr.com/65535/49798809851_b2de783894_o.jpg",
    "id_image": "ANIME_PIC_1c5307de2c56ac4a1f28dc6df2f07127",
    "count_view": 0
  },
  {
    "link_thumb": "https://live.staticflickr.com/65535/49710806398_4e9e7b36f0_n.jpg",
    "id_album": "7198985",
    "description": "Demon_788780",
    "title": "Demon_788780",
    "link_img": "https://live.staticflickr.com/65535/49710806398_7e5a58aa1d_o.jpg",
    "id_image": "Demon_788780",
    "count_view": 0
  },
  {
    "link_thumb": "https://live.staticflickr.com/65535/49711154651_861af08144_n.jpg",
    "id_album": "-437872736",
    "description": "Creature_185539",
    "title": "Creature_185539",
    "link_img": "https://live.staticflickr.com/65535/49711154651_f531251826_o.jpg",
    "id_image": "Creature_185539",
    "count_view": 0
  },
  {
    "link_thumb": "https://live.staticflickr.com/65535/49711663532_da8d1ce4c6_n.jpg",
    "id_album": "7198985",
    "description": "Demon_687114",
    "title": "Demon_687114",
    "link_img": "https://live.staticflickr.com/65535/49711663532_a3d4d33390_o.jpg",
    "id_image": "Demon_687114",
    "count_view": 0
  },
  {
    "link_thumb": "https://live.staticflickr.com/65535/49712426566_b6c1aabc05_n.jpg",
    "id_album": "1861288871",
    "description": "Women_136363",
    "title": "Women_136363",
    "link_img": "https://live.staticflickr.com/65535/49712426566_f5e8f1f96a_o.jpg",
    "id_image": "Women_136363",
    "count_view": 0
  },
  {
    "link_thumb": "https://live.staticflickr.com/65535/49710839963_72cf69bcd6_n.jpg",
    "id_album": "850176884",
    "description": "Dragon_173315",
    "title": "Dragon_173315",
    "link_img": "https://live.staticflickr.com/65535/49710839963_5844c63409_o.jpg",
    "id_image": "Dragon_173315",
    "count_view": 0
  },
  {
    "link_thumb": "https://live.staticflickr.com/65535/49711613026_8ac6eb66b8_n.jpg",
    "id_album": "134100487",
    "description": "Elf_488486",
    "title": "Elf_488486",
    "link_img": "https://live.staticflickr.com/65535/49711613026_12255bed7d_o.jpg",
    "id_image": "Elf_488486",
    "count_view": 0
  },
  {
    "link_thumb": "https://live.staticflickr.com/65535/49710904756_1ede9a718c_n.jpg",
    "id_album": "-1913845949",
    "description": "Animal_636026",
    "title": "Animal_636026",
    "link_img": "https://live.staticflickr.com/65535/49710904756_27e9f9d124_o.jpg",
    "id_image": "Animal_636026",
    "count_view": 0
  },
  {
    "link_thumb": "https://live.staticflickr.com/65535/49713018697_08d9bf41fa_n.jpg",
    "id_album": "-1675918237",
    "description": "WomenWarrior_886638",
    "title": "WomenWarrior_886638",
    "link_img": "https://live.staticflickr.com/65535/49713018697_3f08532908_o.jpg",
    "id_image": "WomenWarrior_886638",
    "count_view": 0
  },
  {
    "link_thumb": "https://live.staticflickr.com/65535/49711675932_fd5294567c_n.jpg",
    "id_album": "850176884",
    "description": "DRAGON26101916503072",
    "title": "DRAGON26101916503072",
    "link_img": "https://live.staticflickr.com/65535/49711675932_5b71616957_o.jpg",
    "id_image": "DRAGON26101916503072",
    "count_view": 0
  },
  {
    "link_thumb": "https://live.staticflickr.com/65535/49712023302_0b9297370a_n.jpg",
    "id_album": "-1083189875",
    "description": "Forest_557539",
    "title": "Forest_557539",
    "link_img": "https://live.staticflickr.com/65535/49712023302_f15139a159_o.jpg",
    "id_image": "Forest_557539",
    "count_view": 0
  },
  {
    "link_thumb": "https://live.staticflickr.com/65535/49710543553_db3600715f_n.jpg",
    "id_album": "430704260",
    "description": "Child_709238",
    "title": "Child_709238",
    "link_img": "https://live.staticflickr.com/65535/49710543553_c724f52a0f_o.jpg",
    "id_image": "Child_709238",
    "count_view": 0
  },
  {
    "link_thumb": "https://live.staticflickr.com/65535/49711350806_22860f9310_n.jpg",
    "id_album": "850176884",
    "description": "DRAGON26101916501651",
    "title": "DRAGON26101916501651",
    "link_img": "https://live.staticflickr.com/65535/49711350806_3e458ab33d_o.jpg",
    "id_image": "DRAGON26101916501651",
    "count_view": 0
  },
  {
    "link_thumb": "https://live.staticflickr.com/65535/49710555163_a4137d7303_n.jpg",
    "id_album": "-1964113117",
    "description": "City_200076",
    "title": "City_200076",
    "link_img": "https://live.staticflickr.com/65535/49710555163_2ec30ed668_o.jpg",
    "id_image": "City_200076",
    "count_view": 0
  },
  {
    "link_thumb": "https://live.staticflickr.com/65535/49710355328_1bbc215a38_n.jpg",
    "id_album": "-1000175186",
    "description": "AngelWarrior_886701",
    "title": "AngelWarrior_886701",
    "link_img": "https://live.staticflickr.com/65535/49710355328_e49efe28c3_o.jpg",
    "id_image": "AngelWarrior_886701",
    "count_view": 0
  },
  {
    "link_thumb": "https://live.staticflickr.com/65535/49711756596_302f38b9ae_n.jpg",
    "id_album": "-1933715543",
    "description": "Horse_123856",
    "title": "Horse_123856",
    "link_img": "https://live.staticflickr.com/65535/49711756596_76eed336f3_o.jpg",
    "id_image": "Horse_123856",
    "count_view": 0
  },
  {
    "link_thumb": "https://live.staticflickr.com/65535/49711419752_51a190be7f_n.jpg",
    "id_album": "-1964113117",
    "description": "City_296484",
    "title": "City_296484",
    "link_img": "https://live.staticflickr.com/65535/49711419752_e6b7dd08b3_o.jpg",
    "id_image": "City_296484",
    "count_view": 0
  },
  {
    "link_thumb": "https://live.staticflickr.com/65535/49711490078_7885f071d7_n.jpg",
    "id_album": "1721880108",
    "description": "Mermaid_392979",
    "title": "Mermaid_392979",
    "link_img": "https://live.staticflickr.com/65535/49711490078_c2f821c6ef_o.jpg",
    "id_image": "Mermaid_392979",
    "count_view": 0
  },
  {
    "link_thumb": "https://live.staticflickr.com/65535/49710389713_7a11932c31_n.jpg",
    "id_album": "-1913845949",
    "description": "Animal_945386",
    "title": "Animal_945386",
    "link_img": "https://live.staticflickr.com/65535/49710389713_884418a898_o.jpg",
    "id_image": "Animal_945386",
    "count_view": 0
  },
  {
    "link_thumb": "https://live.staticflickr.com/65535/49711518007_6004af642c_n.jpg",
    "id_album": "-437872736",
    "description": "Creature_320200",
    "title": "Creature_320200",
    "link_img": "https://live.staticflickr.com/65535/49711518007_bba8314dc6_o.jpg",
    "id_image": "Creature_320200",
    "count_view": 0
  },
  {
    "link_thumb": "https://live.staticflickr.com/65535/49712266531_16c2f4a6b5_n.jpg",
    "id_album": "-656526651",
    "description": "Wizard_218349",
    "title": "Wizard_218349",
    "link_img": "https://live.staticflickr.com/65535/49712266531_e73db72368_o.jpg",
    "id_image": "Wizard_218349",
    "count_view": 0
  },
  {
    "link_thumb": "https://live.staticflickr.com/65535/49712459042_1f0b445702_n.jpg",
    "id_album": "-395228614",
    "description": "Ship_597355",
    "title": "Ship_597355",
    "link_img": "https://live.staticflickr.com/65535/49712459042_5aeef7266c_o.jpg",
    "id_image": "Ship_597355",
    "count_view": 0
  },
  {
    "link_thumb": "https://live.staticflickr.com/65535/49710708313_1917fd34c6_n.jpg",
    "id_album": "-437872736",
    "description": "Creature_521899",
    "title": "Creature_521899",
    "link_img": "https://live.staticflickr.com/65535/49710708313_d8e6a3e890_o.jpg",
    "id_image": "Creature_521899",
    "count_view": 0
  },
  {
    "link_thumb": "https://live.staticflickr.com/65535/49710536023_52cc96a1d4_n.jpg",
    "id_album": "-1741487325",
    "description": "Cat_702870",
    "title": "Cat_702870",
    "link_img": "https://live.staticflickr.com/65535/49710536023_5efcbe3eb4_o.jpg",
    "id_image": "Cat_702870",
    "count_view": 0
  },
  {
    "link_thumb": "https://live.staticflickr.com/65535/49710458638_ef68eba4fd_n.jpg",
    "id_album": "1187037014",
    "description": "Battle_318710",
    "title": "Battle_318710",
    "link_img": "https://live.staticflickr.com/65535/49710458638_0d60cd4554_o.jpg",
    "id_image": "Battle_318710",
    "count_view": 0
  },
  {
    "link_thumb": "https://live.staticflickr.com/65535/49711717336_6d2f9f870e_n.jpg",
    "id_album": "-1083189875",
    "description": "Forest_881805",
    "title": "Forest_881805",
    "link_img": "https://live.staticflickr.com/65535/49711717336_69f558820d_o.jpg",
    "id_image": "Forest_881805",
    "count_view": 0
  },
  {
    "link_thumb": "https://live.staticflickr.com/65535/49711045271_34a5f2ccd2_n.jpg",
    "id_album": "-1541846310",
    "description": "Castle_435647",
    "title": "Castle_435647",
    "link_img": "https://live.staticflickr.com/65535/49711045271_0e74168905_o.jpg",
    "id_image": "Castle_435647",
    "count_view": 0
  },
  {
    "link_thumb": "https://live.staticflickr.com/65535/49711376341_6df17362fb_n.jpg",
    "id_album": "850176884",
    "description": "Dragon_173316",
    "title": "Dragon_173316",
    "link_img": "https://live.staticflickr.com/65535/49711376341_67caa78e7c_o.jpg",
    "id_image": "Dragon_173316",
    "count_view": 0
  },
  {
    "link_thumb": "https://live.staticflickr.com/65535/49710351118_b9f22941ea_n.jpg",
    "id_album": "-1000175186",
    "description": "AngelWarrior_667445",
    "title": "AngelWarrior_667445",
    "link_img": "https://live.staticflickr.com/65535/49710351118_41ff394328_o.jpg",
    "id_image": "AngelWarrior_667445",
    "count_view": 0
  },
  {
    "link_thumb": "https://live.staticflickr.com/65535/49712766507_e4ba3ea7e4_n.jpg",
    "id_album": "1861288871",
    "description": "Women_477500",
    "title": "Women_477500",
    "link_img": "https://live.staticflickr.com/65535/49712766507_1e517cfac3_o.jpg",
    "id_image": "Women_477500",
    "count_view": 0
  },
  {
    "link_thumb": "https://live.staticflickr.com/65535/49712540812_dfbed32344_n.jpg",
    "id_album": "-1261420436",
    "description": "Warrior_685306",
    "title": "Warrior_685306",
    "link_img": "https://live.staticflickr.com/65535/49712540812_780826f494_o.jpg",
    "id_image": "Warrior_685306",
    "count_view": 0
  },
  {
    "link_thumb": "https://live.staticflickr.com/65535/49712632547_0efbda5276_n.jpg",
    "id_album": "-1126835654",
    "description": "Women_857981",
    "title": "Women_857981",
    "link_img": "https://live.staticflickr.com/65535/49712632547_831e805700_o.jpg",
    "id_image": "Women_857981",
    "count_view": 0
  },
  {
    "link_thumb": "https://live.staticflickr.com/65535/49711156368_488d22f639_n.jpg",
    "id_album": "-1083189875",
    "description": "Forest_220971",
    "title": "Forest_220971",
    "link_img": "https://live.staticflickr.com/65535/49711156368_18867997f8_o.jpg",
    "id_image": "Forest_220971",
    "count_view": 0
  },
  {
    "link_thumb": "https://live.staticflickr.com/65535/49710571258_d4c7dc98a4_n.jpg",
    "id_album": "-1964113117",
    "description": "City_545969",
    "title": "City_545969",
    "link_img": "https://live.staticflickr.com/65535/49710571258_dd68521623_o.jpg",
    "id_image": "City_545969",
    "count_view": 0
  },
  {
    "link_thumb": "https://live.staticflickr.com/65535/49711501327_05be76711b_n.jpg",
    "id_album": "-437872736",
    "description": "Creature_282615",
    "title": "Creature_282615",
    "link_img": "https://live.staticflickr.com/65535/49711501327_acba770e93_o.jpg",
    "id_image": "Creature_282615",
    "count_view": 0
  },
  {
    "link_thumb": "https://live.staticflickr.com/65535/49711859757_5881ec0bff_n.jpg",
    "id_album": "850176884",
    "description": "Dragon_861727",
    "title": "Dragon_861727",
    "link_img": "https://live.staticflickr.com/65535/49711859757_1d6c88c665_o.jpg",
    "id_image": "Dragon_861727",
    "count_view": 0
  },
  {
    "link_thumb": "https://live.staticflickr.com/65535/49711186842_240247ca7b_n.jpg",
    "id_album": "-2109465612",
    "description": "Adventure_244188",
    "title": "Adventure_244188",
    "link_img": "https://live.staticflickr.com/65535/49711186842_619791bba5_o.jpg",
    "id_image": "Adventure_244188",
    "count_view": 0
  },
  {
    "link_thumb": "https://live.staticflickr.com/65535/49711522272_07b13e8d7a_n.jpg",
    "id_album": "-437872736",
    "description": "Creature_325529",
    "title": "Creature_325529",
    "link_img": "https://live.staticflickr.com/65535/49711522272_2e0711d8ec_o.jpg",
    "id_image": "Creature_325529",
    "count_view": 0
  },
  {
    "link_thumb": "https://live.staticflickr.com/65535/49711354236_fe5c78055e_n.jpg",
    "id_album": "850176884",
    "description": "Dragon_104523",
    "title": "Dragon_104523",
    "link_img": "https://live.staticflickr.com/65535/49711354236_0f18841e02_o.jpg",
    "id_image": "Dragon_104523",
    "count_view": 0
  },
  {
    "link_thumb": "https://live.staticflickr.com/65535/49711340322_09e5dfc7d6_n.jpg",
    "id_album": "-1846011410",
    "description": "Bird_493966",
    "title": "Bird_493966",
    "link_img": "https://live.staticflickr.com/65535/49711340322_3255e682be_o.jpg",
    "id_image": "Bird_493966",
    "count_view": 0
  },
  {
    "link_thumb": "https://live.staticflickr.com/65535/49712353281_eb50a96dfe_n.jpg",
    "id_album": "-1126835654",
    "description": "Women_998287",
    "title": "Women_998287",
    "link_img": "https://live.staticflickr.com/65535/49712353281_967e5371ab_o.jpg",
    "id_image": "Women_998287",
    "count_view": 0
  },
  {
    "link_thumb": "https://live.staticflickr.com/65535/49710460273_3e07f05904_n.jpg",
    "id_album": "1187037014",
    "description": "Battle_331046",
    "title": "Battle_331046",
    "link_img": "https://live.staticflickr.com/65535/49710460273_a651ea64a8_o.jpg",
    "id_image": "Battle_331046",
    "count_view": 0
  },
  {
    "link_thumb": "https://live.staticflickr.com/65535/49712595697_04d9887b87_n.jpg",
    "id_album": "-709711865",
    "description": "Wolf_389664",
    "title": "Wolf_389664",
    "link_img": "https://live.staticflickr.com/65535/49712595697_3a493386ab_o.jpg",
    "id_image": "Wolf_389664",
    "count_view": 0
  },
  {
    "link_thumb": "https://live.staticflickr.com/65535/49710866088_f7ce5506fc_n.jpg",
    "id_album": "850176884",
    "description": "Dragon_255080",
    "title": "Dragon_255080",
    "link_img": "https://live.staticflickr.com/65535/49710866088_a93706fa84_o.jpg",
    "id_image": "Dragon_255080",
    "count_view": 0
  },
  {
    "link_thumb": "https://live.staticflickr.com/65535/49710892963_a647f28872_n.jpg",
    "id_album": "850176884",
    "description": "Dragon_343583",
    "title": "Dragon_343583",
    "link_img": "https://live.staticflickr.com/65535/49710892963_e71d562c0c_o.jpg",
    "id_image": "Dragon_343583",
    "count_view": 0
  },
  {
    "link_thumb": "https://live.staticflickr.com/65535/49710400043_52416115e7_n.jpg",
    "id_album": "-1560111795",
    "description": "Archer_706858",
    "title": "Archer_706858",
    "link_img": "https://live.staticflickr.com/65535/49710400043_989f000ec6_o.jpg",
    "id_image": "Archer_706858",
    "count_view": 0
  },
  {
    "link_thumb": "https://live.staticflickr.com/65535/49711789522_ec452cd28a_n.jpg",
    "id_album": "850176884",
    "description": "Dragon_517884",
    "title": "Dragon_517884",
    "link_img": "https://live.staticflickr.com/65535/49711789522_4ebfebc1f9_o.jpg",
    "id_image": "Dragon_517884",
    "count_view": 0
  },
  {
    "link_thumb": "https://live.staticflickr.com/65535/49711510872_1e202bc9ec_n.jpg",
    "id_album": "-437872736",
    "description": "Creature_308639",
    "title": "Creature_308639",
    "link_img": "https://live.staticflickr.com/65535/49711510872_924119396b_o.jpg",
    "id_image": "Creature_308639",
    "count_view": 0
  },
  {
    "link_thumb": "https://live.staticflickr.com/65535/49711611562_710e9a75af_n.jpg",
    "id_album": "-437872736",
    "description": "Creature_958711",
    "title": "Creature_958711",
    "link_img": "https://live.staticflickr.com/65535/49711611562_9efd963847_o.jpg",
    "id_image": "Creature_958711",
    "count_view": 0
  },
  {
    "link_thumb": "https://live.staticflickr.com/65535/49711918186_11baab8e7d_n.jpg",
    "id_album": "-833110404",
    "description": "Landscape_294960",
    "title": "Landscape_294960",
    "link_img": "https://live.staticflickr.com/65535/49711918186_7e6c74bf14_o.jpg",
    "id_image": "Landscape_294960",
    "count_view": 0
  },
  {
    "link_thumb": "https://live.staticflickr.com/65535/49711661363_7fbc0ef349_n.jpg",
    "id_album": "-1261420436",
    "description": "Warrior_112730",
    "title": "Warrior_112730",
    "link_img": "https://live.staticflickr.com/65535/49711661363_c0c363520d_o.jpg",
    "id_image": "Warrior_112730",
    "count_view": 0
  },
  {
    "link_thumb": "https://live.staticflickr.com/65535/49711184251_6703e9e86b_n.jpg",
    "id_album": "-437872736",
    "description": "Creature_305778",
    "title": "Creature_305778",
    "link_img": "https://live.staticflickr.com/65535/49711184251_5f19c31784_o.jpg",
    "id_image": "Creature_305778",
    "count_view": 0
  },
  {
    "link_thumb": "https://live.staticflickr.com/65535/49711512603_9514f5cee6_n.jpg",
    "id_album": "1892085513",
    "description": "Oriental_922708",
    "title": "Oriental_922708",
    "link_img": "https://live.staticflickr.com/65535/49711512603_101664ee1b_o.jpg",
    "id_image": "Oriental_922708",
    "count_view": 0
  },
  {
    "link_thumb": "https://live.staticflickr.com/65535/49713031887_d9e23102d5_n.jpg",
    "id_album": "-1207759647",
    "description": "Zodiac_736018",
    "title": "Zodiac_736018",
    "link_img": "https://live.staticflickr.com/65535/49713031887_7e57425b20_o.jpg",
    "id_image": "Zodiac_736018",
    "count_view": 0
  },
  {
    "link_thumb": "https://live.staticflickr.com/65535/49710424438_5e8d603782_n.jpg",
    "id_album": "523598895",
    "description": "Artistic_253355",
    "title": "Artistic_253355",
    "link_img": "https://live.staticflickr.com/65535/49710424438_687d483766_o.jpg",
    "id_image": "Artistic_253355",
    "count_view": 0
  },
  {
    "link_thumb": "https://live.staticflickr.com/65535/49711278647_a1a491b7c8_n.jpg",
    "id_album": "523598895",
    "description": "Artistic_221476",
    "title": "Artistic_221476",
    "link_img": "https://live.staticflickr.com/65535/49711278647_78295fccf7_o.jpg",
    "id_image": "Artistic_221476",
    "count_view": 0
  },
  {
    "link_thumb": "https://live.staticflickr.com/65535/49711558371_5759618168_n.jpg",
    "id_album": "850176884",
    "description": "Dragon_909558",
    "title": "Dragon_909558",
    "link_img": "https://live.staticflickr.com/65535/49711558371_3bca7caca1_o.jpg",
    "id_image": "Dragon_909558",
    "count_view": 0
  },
  {
    "link_thumb": "https://live.staticflickr.com/65535/49712649477_5180844342_n.jpg",
    "id_album": "-1126835654",
    "description": "Women_884832",
    "title": "Women_884832",
    "link_img": "https://live.staticflickr.com/65535/49712649477_543f7b9eb2_o.jpg",
    "id_image": "Women_884832",
    "count_view": 0
  },
  {
    "link_thumb": "https://live.staticflickr.com/65535/49712177142_75109798e4_n.jpg",
    "id_album": "1402713104",
    "description": "Landscape_906143",
    "title": "Landscape_906143",
    "link_img": "https://live.staticflickr.com/65535/49712177142_f89bce3ab4_o.jpg",
    "id_image": "Landscape_906143",
    "count_view": 0
  },
  {
    "link_thumb": "https://live.staticflickr.com/65535/49712045306_2a545ebda3_n.jpg",
    "id_album": "1892085513",
    "description": "Oriental_387470",
    "title": "Oriental_387470",
    "link_img": "https://live.staticflickr.com/65535/49712045306_196c66ac9e_o.jpg",
    "id_image": "Oriental_387470",
    "count_view": 0
  },
  {
    "link_thumb": "https://live.staticflickr.com/65535/49711110726_6fac86d24c_n.jpg",
    "id_album": "-1964113117",
    "description": "City_676331",
    "title": "City_676331",
    "link_img": "https://live.staticflickr.com/65535/49711110726_cc4971f8a8_o.jpg",
    "id_image": "City_676331",
    "count_view": 0
  },
  {
    "link_thumb": "https://live.staticflickr.com/65535/49711489831_33c57c8179_n.jpg",
    "id_album": "850176884",
    "description": "Dragon_592170",
    "title": "Dragon_592170",
    "link_img": "https://live.staticflickr.com/65535/49711489831_a0b07ab6cb_o.jpg",
    "id_image": "Dragon_592170",
    "count_view": 0
  },
  {
    "link_thumb": "https://live.staticflickr.com/65535/49710616743_6ed5236288_n.jpg",
    "id_album": "-437872736",
    "description": "Creature_179439",
    "title": "Creature_179439",
    "link_img": "https://live.staticflickr.com/65535/49710616743_034fc35c1f_o.jpg",
    "id_image": "Creature_179439",
    "count_view": 0
  },
  {
    "link_thumb": "https://live.staticflickr.com/65535/49710899051_730e2885dc_n.jpg",
    "id_album": "-1913845949",
    "description": "Animal_329595",
    "title": "Animal_329595",
    "link_img": "https://live.staticflickr.com/65535/49710899051_3711b4d5c3_o.jpg",
    "id_image": "Animal_329595",
    "count_view": 0
  },
  {
    "link_thumb": "https://live.staticflickr.com/65535/49711603561_c3cdf3d5c1_n.jpg",
    "id_album": "134100487",
    "description": "Elf_174300",
    "title": "Elf_174300",
    "link_img": "https://live.staticflickr.com/65535/49711603561_5441b94314_o.jpg",
    "id_image": "Elf_174300",
    "count_view": 0
  },
  {
    "link_thumb": "https://live.staticflickr.com/65535/49710756238_3a03e95648_n.jpg",
    "id_album": "-437872736",
    "description": "Creature_958880",
    "title": "Creature_958880",
    "link_img": "https://live.staticflickr.com/65535/49710756238_997dbc42b8_o.jpg",
    "id_image": "Creature_958880",
    "count_view": 0
  },
  {
    "link_thumb": "https://live.staticflickr.com/65535/49710388998_52292c408b_n.jpg",
    "id_album": "-1913845949",
    "description": "Animal_928191",
    "title": "Animal_928191",
    "link_img": "https://live.staticflickr.com/65535/49710388998_a975857902_o.jpg",
    "id_image": "Animal_928191",
    "count_view": 0
  },
  {
    "link_thumb": "https://live.staticflickr.com/65535/49711516787_bbf22e14b2_n.jpg",
    "id_album": "-437872736",
    "description": "Creature_316473",
    "title": "Creature_316473",
    "link_img": "https://live.staticflickr.com/65535/49711516787_7862f90d3d_o.jpg",
    "id_image": "Creature_316473",
    "count_view": 0
  },
  {
    "link_thumb": "https://live.staticflickr.com/65535/49711808641_3792eff050_n.jpg",
    "id_album": "1402713104",
    "description": "Landscape_710497",
    "title": "Landscape_710497",
    "link_img": "https://live.staticflickr.com/65535/49711808641_36a2e05abf_o.jpg",
    "id_image": "Landscape_710497",
    "count_view": 0
  },
  {
    "link_thumb": "https://live.staticflickr.com/65535/49710870351_6e271aa386_n.jpg",
    "id_album": "-956471126",
    "description": "AliceInWonderland_176806",
    "title": "AliceInWonderland_176806",
    "link_img": "https://live.staticflickr.com/65535/49710870351_55ae331523_o.jpg",
    "id_image": "AliceInWonderland_176806",
    "count_view": 0
  },
  {
    "link_thumb": "https://live.staticflickr.com/65535/49711994747_fc0999f554_n.jpg",
    "id_album": "-1972042284",
    "description": "Fairy_599318",
    "title": "Fairy_599318",
    "link_img": "https://live.staticflickr.com/65535/49711994747_806a52ba86_o.jpg",
    "id_image": "Fairy_599318",
    "count_view": 0
  },
  {
    "link_thumb": "https://live.staticflickr.com/65535/49710529043_84dafc65cb_n.jpg",
    "id_album": "-1541846310",
    "description": "Castle_883177",
    "title": "Castle_883177",
    "link_img": "https://live.staticflickr.com/65535/49710529043_713e527c21_o.jpg",
    "id_image": "Castle_883177",
    "count_view": 0
  },
  {
    "link_thumb": "https://live.staticflickr.com/65535/49711735682_ba85ebaede_n.jpg",
    "id_album": "850176884",
    "description": "Dragon_303639",
    "title": "Dragon_303639",
    "link_img": "https://live.staticflickr.com/65535/49711735682_af2967dda2_o.jpg",
    "id_image": "Dragon_303639",
    "count_view": 0
  },
  {
    "link_thumb": "https://live.staticflickr.com/65535/49711195093_50ed97b7c5_n.jpg",
    "id_album": "402434752",
    "description": "Giant_223018",
    "title": "Giant_223018",
    "link_img": "https://live.staticflickr.com/65535/49711195093_a10b9db748_o.jpg",
    "id_image": "Giant_223018",
    "count_view": 0
  },
  {
    "link_thumb": "https://live.staticflickr.com/65535/49711124006_d2e2e6bc45_n.jpg",
    "id_album": "-1964113117",
    "description": "City_869805",
    "title": "City_869805",
    "link_img": "https://live.staticflickr.com/65535/49711124006_3a29028613_o.jpg",
    "id_image": "City_869805",
    "count_view": 0
  },
  {
    "link_thumb": "https://live.staticflickr.com/65535/49712158561_29e30ebd75_n.jpg",
    "id_album": "405170427",
    "description": "Tiger_421828",
    "title": "Tiger_421828",
    "link_img": "https://live.staticflickr.com/65535/49712158561_8d84c072b8_o.jpg",
    "id_image": "Tiger_421828",
    "count_view": 0
  },
  {
    "link_thumb": "https://live.staticflickr.com/65535/49711915093_228c23e7ea_n.jpg",
    "id_album": "1861288871",
    "description": "Women_745509",
    "title": "Women_745509",
    "link_img": "https://live.staticflickr.com/65535/49711915093_ea68386b0e_o.jpg",
    "id_image": "Women_745509",
    "count_view": 0
  },
  {
    "link_thumb": "https://live.staticflickr.com/65535/49711365363_d19e6a7212_n.jpg",
    "id_album": "-833110404",
    "description": "Landscape_259426",
    "title": "Landscape_259426",
    "link_img": "https://live.staticflickr.com/65535/49711365363_a48db8ddb0_o.jpg",
    "id_image": "Landscape_259426",
    "count_view": 0
  },
  {
    "link_thumb": "https://live.staticflickr.com/65535/49711753601_e861a78f50_n.jpg",
    "id_album": "857581314",
    "description": "Griffin_611277",
    "title": "Griffin_611277",
    "link_img": "https://live.staticflickr.com/65535/49711753601_e003350cce_o.jpg",
    "id_image": "Griffin_611277",
    "count_view": 0
  },
  {
    "link_thumb": "https://live.staticflickr.com/65535/49711242116_b71cf9a8a7_n.jpg",
    "id_album": "-437872736",
    "description": "Creature_517955",
    "title": "Creature_517955",
    "link_img": "https://live.staticflickr.com/65535/49711242116_4c5437e33d_o.jpg",
    "id_image": "Creature_517955",
    "count_view": 0
  },
  {
    "link_thumb": "https://live.staticflickr.com/65535/49711847001_c2e15665b1_n.jpg",
    "id_album": "1402713104",
    "description": "Landscape_872980",
    "title": "Landscape_872980",
    "link_img": "https://live.staticflickr.com/65535/49711847001_4ff4bf4e40_o.jpg",
    "id_image": "Landscape_872980",
    "count_view": 0
  },
  {
    "link_thumb": "https://live.staticflickr.com/65535/49710648278_e8216ab9be_n.jpg",
    "id_album": "-437872736",
    "description": "Creature_303724",
    "title": "Creature_303724",
    "link_img": "https://live.staticflickr.com/65535/49710648278_ac8cb63443_o.jpg",
    "id_image": "Creature_303724",
    "count_view": 0
  },
  {
    "link_thumb": "https://live.staticflickr.com/65535/49712173757_c184c559de_n.jpg",
    "id_album": "1402713104",
    "description": "Landscape_883450",
    "title": "Landscape_883450",
    "link_img": "https://live.staticflickr.com/65535/49712173757_44a3244251_o.jpg",
    "id_image": "Landscape_883450",
    "count_view": 0
  },
  {
    "link_thumb": "https://live.staticflickr.com/65535/49710980971_3593227141_n.jpg",
    "id_album": "523598895",
    "description": "Artistic_909591",
    "title": "Artistic_909591",
    "link_img": "https://live.staticflickr.com/65535/49710980971_e3c8f1e07e_o.jpg",
    "id_image": "Artistic_909591",
    "count_view": 0
  },
  {
    "link_thumb": "https://live.staticflickr.com/65535/49710915423_ed37569561_n.jpg",
    "id_album": "850176884",
    "description": "Dragon_451184",
    "title": "Dragon_451184",
    "link_img": "https://live.staticflickr.com/65535/49710915423_bf5b4849cf_o.jpg",
    "id_image": "Dragon_451184",
    "count_view": 0
  },
  {
    "link_thumb": "https://live.staticflickr.com/65535/49711635558_b4219ed2b8_n.jpg",
    "id_album": "46520366",
    "description": "Turtle_366269",
    "title": "Turtle_366269",
    "link_img": "https://live.staticflickr.com/65535/49711635558_2d55b9fd37_o.jpg",
    "id_image": "Turtle_366269",
    "count_view": 0
  },
  {
    "link_thumb": "https://live.staticflickr.com/65535/49711976506_78bf2577b1_n.jpg",
    "id_album": "-1284959130",
    "description": "LegendOfTheFiveRings_248695",
    "title": "LegendOfTheFiveRings_248695",
    "link_img": "https://live.staticflickr.com/65535/49711976506_17d270fe6e_o.jpg",
    "id_image": "LegendOfTheFiveRings_248695",
    "count_view": 0
  },
  {
    "link_thumb": "https://live.staticflickr.com/65535/49712558077_c4bbf5689a_n.jpg",
    "id_album": "-1261420436",
    "description": "Warrior_922177",
    "title": "Warrior_922177",
    "link_img": "https://live.staticflickr.com/65535/49712558077_e4c33bd91a_o.jpg",
    "id_image": "Warrior_922177",
    "count_view": 0
  },
  {
    "link_thumb": "https://live.staticflickr.com/65535/49710812978_06789d434b_n.jpg",
    "id_album": "850176884",
    "description": "DRAGON26101916495223",
    "title": "DRAGON26101916495223",
    "link_img": "https://live.staticflickr.com/65535/49710812978_ab8bea8a7b_o.jpg",
    "id_image": "DRAGON26101916495223",
    "count_view": 0
  },
  {
    "link_thumb": "https://live.staticflickr.com/65535/49711509886_7c08fab482_n.jpg",
    "id_album": "850176884",
    "description": "Dragon_697556",
    "title": "Dragon_697556",
    "link_img": "https://live.staticflickr.com/65535/49711509886_d45d6368ef_o.jpg",
    "id_image": "Dragon_697556",
    "count_view": 0
  },
  {
    "link_thumb": "https://live.staticflickr.com/65535/49712163093_1cfaf2ae08_n.jpg",
    "id_album": "-1675918237",
    "description": "WomenWarrior_900658",
    "title": "WomenWarrior_900658",
    "link_img": "https://live.staticflickr.com/65535/49712163093_837df87618_o.jpg",
    "id_image": "WomenWarrior_900658",
    "count_view": 0
  },
  {
    "link_thumb": "https://live.staticflickr.com/65535/49712139468_f53af4cecc_n.jpg",
    "id_album": "-1675918237",
    "description": "WomenWarrior_797947",
    "title": "WomenWarrior_797947",
    "link_img": "https://live.staticflickr.com/65535/49712139468_4505a4ea09_o.jpg",
    "id_image": "WomenWarrior_797947",
    "count_view": 0
  },
  {
    "link_thumb": "https://live.staticflickr.com/65535/49711657707_b996c82d9c_n.jpg",
    "id_album": "7198985",
    "description": "Demon_220631",
    "title": "Demon_220631",
    "link_img": "https://live.staticflickr.com/65535/49711657707_41005c1ab5_o.jpg",
    "id_image": "Demon_220631",
    "count_view": 0
  },
  {
    "link_thumb": "https://live.staticflickr.com/65535/49711970343_3694a2c6e7_n.jpg",
    "id_album": "-867594484",
    "description": "Women_557021",
    "title": "Women_557021",
    "link_img": "https://live.staticflickr.com/65535/49711970343_610a87a59e_o.jpg",
    "id_image": "Women_557021",
    "count_view": 0
  },
  {
    "link_thumb": "https://live.staticflickr.com/65535/49712524466_3e3ef8821e_n.jpg",
    "id_album": "-867594484",
    "description": "Women_631992",
    "title": "Women_631992",
    "link_img": "https://live.staticflickr.com/65535/49712524466_dd9f69c5d7_o.jpg",
    "id_image": "Women_631992",
    "count_view": 0
  },
  {
    "link_thumb": "https://live.staticflickr.com/65535/49711477756_e50bbb263a_n.jpg",
    "id_album": "850176884",
    "description": "Dragon_540537",
    "title": "Dragon_540537",
    "link_img": "https://live.staticflickr.com/65535/49711477756_669ce6612e_o.jpg",
    "id_image": "Dragon_540537",
    "count_view": 0
  },
  {
    "link_thumb": "https://live.staticflickr.com/65535/49711202106_d544eb3840_n.jpg",
    "id_album": "-437872736",
    "description": "Creature_332260",
    "title": "Creature_332260",
    "link_img": "https://live.staticflickr.com/65535/49711202106_74cd8d7ae4_o.jpg",
    "id_image": "Creature_332260",
    "count_view": 0
  },
  {
    "link_thumb": "https://live.staticflickr.com/65535/49712448851_4d14c6137f_n.jpg",
    "id_album": "1861288871",
    "description": "Women_496378",
    "title": "Women_496378",
    "link_img": "https://live.staticflickr.com/65535/49712448851_651f01194c_o.jpg",
    "id_image": "Women_496378",
    "count_view": 0
  },
  {
    "link_thumb": "https://live.staticflickr.com/65535/49711321202_f92b56a2b1_n.jpg",
    "id_album": "1187037014",
    "description": "Battle_386990",
    "title": "Battle_386990",
    "link_img": "https://live.staticflickr.com/65535/49711321202_02e64494dd_o.jpg",
    "id_image": "Battle_386990",
    "count_view": 0
  },
  {
    "link_thumb": "https://live.staticflickr.com/65535/49710378458_79fbc8646d_n.jpg",
    "id_album": "-1913845949",
    "description": "Animal_636302",
    "title": "Animal_636302",
    "link_img": "https://live.staticflickr.com/65535/49710378458_95c05901ff_o.jpg",
    "id_image": "Animal_636302",
    "count_view": 0
  },
  {
    "link_thumb": "https://live.staticflickr.com/65535/49711501782_e9a8c4e103_n.jpg",
    "id_album": "-437872736",
    "description": "Creature_284312",
    "title": "Creature_284312",
    "link_img": "https://live.staticflickr.com/65535/49711501782_6ff442991a_o.jpg",
    "id_image": "Creature_284312",
    "count_view": 0
  },
  {
    "link_thumb": "https://live.staticflickr.com/65535/49712217782_ea9260382b_n.jpg",
    "id_album": "-833110404",
    "description": "Landscape_235709",
    "title": "Landscape_235709",
    "link_img": "https://live.staticflickr.com/65535/49712217782_b5b1e027a9_o.jpg",
    "id_image": "Landscape_235709",
    "count_view": 0
  },
  {
    "link_thumb": "https://live.staticflickr.com/65535/49711465801_568b105296_n.jpg",
    "id_album": "850176884",
    "description": "Dragon_509424",
    "title": "Dragon_509424",
    "link_img": "https://live.staticflickr.com/65535/49711465801_0ea5319386_o.jpg",
    "id_image": "Dragon_509424",
    "count_view": 0
  },
  {
    "link_thumb": "https://live.staticflickr.com/65535/49712493936_22f6568e33_n.jpg",
    "id_album": "-867594484",
    "description": "Women_519289",
    "title": "Women_519289",
    "link_img": "https://live.staticflickr.com/65535/49712493936_1eb4930a25_o.jpg",
    "id_image": "Women_519289",
    "count_view": 0
  },
  {
    "link_thumb": "https://live.staticflickr.com/65535/49712165687_3e7e98ac66_n.jpg",
    "id_album": "1402713104",
    "description": "Landscape_868852",
    "title": "Landscape_868852",
    "link_img": "https://live.staticflickr.com/65535/49712165687_b6a8d62e4f_o.jpg",
    "id_image": "Landscape_868852",
    "count_view": 0
  },
  {
    "link_thumb": "https://live.staticflickr.com/65535/49711244737_e653daed6d_n.jpg",
    "id_album": "-1913845949",
    "description": "Animal_897930",
    "title": "Animal_897930",
    "link_img": "https://live.staticflickr.com/65535/49711244737_eb48143fcf_o.jpg",
    "id_image": "Animal_897930",
    "count_view": 0
  },
  {
    "link_thumb": "https://live.staticflickr.com/65535/49712295206_07a8562923_n.jpg",
    "id_album": "-709711865",
    "description": "Wolf_884140",
    "title": "Wolf_884140",
    "link_img": "https://live.staticflickr.com/65535/49712295206_bceb0b7cf3_o.jpg",
    "id_image": "Wolf_884140",
    "count_view": 0
  },
  {
    "link_thumb": "https://live.staticflickr.com/65535/49711753502_c23858175b_n.jpg",
    "id_album": "850176884",
    "description": "Dragon_358294",
    "title": "Dragon_358294",
    "link_img": "https://live.staticflickr.com/65535/49711753502_211b3065d1_o.jpg",
    "id_image": "Dragon_358294",
    "count_view": 0
  },
  {
    "link_thumb": "https://live.staticflickr.com/65535/49711993393_b4dcffb339_n.jpg",
    "id_album": "-867594484",
    "description": "Women_659604",
    "title": "Women_659604",
    "link_img": "https://live.staticflickr.com/65535/49711993393_214c17d64d_o.jpg",
    "id_image": "Women_659604",
    "count_view": 0
  },
  {
    "link_thumb": "https://live.staticflickr.com/65535/49711407666_3d312e9254_n.jpg",
    "id_album": "850176884",
    "description": "Dragon_272513",
    "title": "Dragon_272513",
    "link_img": "https://live.staticflickr.com/65535/49711407666_8364c942a1_o.jpg",
    "id_image": "Dragon_272513",
    "count_view": 0
  },
  {
    "link_thumb": "https://live.staticflickr.com/65535/49712608212_20c18e0f4b_n.jpg",
    "id_album": "-709711865",
    "description": "Wolf_680906",
    "title": "Wolf_680906",
    "link_img": "https://live.staticflickr.com/65535/49712608212_030a86cd22_o.jpg",
    "id_image": "Wolf_680906",
    "count_view": 0
  },
  {
    "link_thumb": "https://live.staticflickr.com/65535/49711587861_26d849caf9_n.jpg",
    "id_album": "850176884",
    "description": "Dragon_980604",
    "title": "Dragon_980604",
    "link_img": "https://live.staticflickr.com/65535/49711587861_c4c4726314_o.jpg",
    "id_image": "Dragon_980604",
    "count_view": 0
  },
  {
    "link_thumb": "https://live.staticflickr.com/65535/49711027636_3f3e005398_n.jpg",
    "id_album": "406431601",
    "description": "Building_875521",
    "title": "Building_875521",
    "link_img": "https://live.staticflickr.com/65535/49711027636_0805860e16_o.jpg",
    "id_image": "Building_875521",
    "count_view": 0
  },
  {
    "link_thumb": "https://live.staticflickr.com/65535/49711016061_86d66480dd_n.jpg",
    "id_album": "-1846011410",
    "description": "Bird_294579",
    "title": "Bird_294579",
    "link_img": "https://live.staticflickr.com/65535/49711016061_a311c8afb2_o.jpg",
    "id_image": "Bird_294579",
    "count_view": 0
  },
  {
    "link_thumb": "https://live.staticflickr.com/65535/49712019582_0edd7c9751_n.jpg",
    "id_album": "-1083189875",
    "description": "Forest_430654",
    "title": "Forest_430654",
    "link_img": "https://live.staticflickr.com/65535/49712019582_6d1dd9b2c0_o.jpg",
    "id_image": "Forest_430654",
    "count_view": 0
  },
  {
    "link_thumb": "https://live.staticflickr.com/65535/49711920367_810efcf47f_n.jpg",
    "id_album": "-1594184835",
    "description": "Dwarf_616992",
    "title": "Dwarf_616992",
    "link_img": "https://live.staticflickr.com/65535/49711920367_9b1788df8a_o.jpg",
    "id_image": "Dwarf_616992",
    "count_view": 0
  },
  {
    "link_thumb": "https://live.staticflickr.com/65535/49711220961_49e716f5cd_n.jpg",
    "id_album": "-437872736",
    "description": "Creature_379488",
    "title": "Creature_379488",
    "link_img": "https://live.staticflickr.com/65535/49711220961_2907d2dca5_o.jpg",
    "id_image": "Creature_379488",
    "count_view": 0
  },
  {
    "link_thumb": "https://live.staticflickr.com/65535/49711731042_6fe36e7eab_n.jpg",
    "id_album": "850176884",
    "description": "Dragon_278234",
    "title": "Dragon_278234",
    "link_img": "https://live.staticflickr.com/65535/49711731042_24d27efd02_o.jpg",
    "id_image": "Dragon_278234",
    "count_view": 0
  },
  {
    "link_thumb": "https://live.staticflickr.com/65535/49711038168_af22c3d802_n.jpg",
    "id_album": "850176884",
    "description": "Dragon_940939",
    "title": "Dragon_940939",
    "link_img": "https://live.staticflickr.com/65535/49711038168_7d15549708_o.jpg",
    "id_image": "Dragon_940939",
    "count_view": 0
  },
  {
    "link_thumb": "https://live.staticflickr.com/65535/49711490781_e2755730f6_n.jpg",
    "id_album": "850176884",
    "description": "Dragon_595233",
    "title": "Dragon_595233",
    "link_img": "https://live.staticflickr.com/65535/49711490781_f0606d4863_o.jpg",
    "id_image": "Dragon_595233",
    "count_view": 0
  },
  {
    "link_thumb": "https://live.staticflickr.com/65535/49711885907_057c2a0ab0_n.jpg",
    "id_album": "850176884",
    "description": "Dragon_915559",
    "title": "Dragon_915559",
    "link_img": "https://live.staticflickr.com/65535/49711885907_bc7af5f2a3_o.jpg",
    "id_image": "Dragon_915559",
    "count_view": 0
  },
  {
    "link_thumb": "https://live.staticflickr.com/65535/49710906531_b02e7db9b7_n.jpg",
    "id_album": "-1913845949",
    "description": "Animal_636039",
    "title": "Animal_636039",
    "link_img": "https://live.staticflickr.com/65535/49710906531_8cf82b4a55_o.jpg",
    "id_image": "Animal_636039",
    "count_view": 0
  },
  {
    "link_thumb": "https://live.staticflickr.com/65535/49711244746_94ba0ee2e1_n.jpg",
    "id_album": "-437872736",
    "description": "Creature_525090",
    "title": "Creature_525090",
    "link_img": "https://live.staticflickr.com/65535/49711244746_76c665cda5_o.jpg",
    "id_image": "Creature_525090",
    "count_view": 0
  },
  {
    "link_thumb": "https://live.staticflickr.com/65535/49711291776_31fb920b0c_n.jpg",
    "id_album": "-437872736",
    "description": "Creature_958875",
    "title": "Creature_958875",
    "link_img": "https://live.staticflickr.com/65535/49711291776_d59ee63289_o.jpg",
    "id_image": "Creature_958875",
    "count_view": 0
  },
  {
    "link_thumb": "https://live.staticflickr.com/65535/49712143081_953e9471cb_n.jpg",
    "id_album": "-5356651",
    "description": "Sorcerer_244277",
    "title": "Sorcerer_244277",
    "link_img": "https://live.staticflickr.com/65535/49712143081_898d59be6f_o.jpg",
    "id_image": "Sorcerer_244277",
    "count_view": 0
  },
  {
    "link_thumb": "https://live.staticflickr.com/65535/49711382607_fbcc7a3a38_n.jpg",
    "id_album": "-1541846310",
    "description": "Castle_855868",
    "title": "Castle_855868",
    "link_img": "https://live.staticflickr.com/65535/49711382607_65d1ff4d9f_o.jpg",
    "id_image": "Castle_855868",
    "count_view": 0
  },
  {
    "link_thumb": "https://live.staticflickr.com/65535/49711596382_68182e284f_n.jpg",
    "id_album": "-437872736",
    "description": "Creature_910965",
    "title": "Creature_910965",
    "link_img": "https://live.staticflickr.com/65535/49711596382_ef879be2fc_o.jpg",
    "id_image": "Creature_910965",
    "count_view": 0
  },
  {
    "link_thumb": "https://live.staticflickr.com/65535/49712174752_2c0abcdabc_n.jpg",
    "id_album": "1402713104",
    "description": "Landscape_890631",
    "title": "Landscape_890631",
    "link_img": "https://live.staticflickr.com/65535/49712174752_fdf8a4923b_o.jpg",
    "id_image": "Landscape_890631",
    "count_view": 0
  },
  {
    "link_thumb": "https://live.staticflickr.com/65535/49710811313_2b902c239f_n.jpg",
    "id_album": "850176884",
    "description": "DRAGON2610191649383",
    "title": "DRAGON2610191649383",
    "link_img": "https://live.staticflickr.com/65535/49710811313_4368fcea27_o.jpg",
    "id_image": "DRAGON2610191649383",
    "count_view": 0
  },
  {
    "link_thumb": "https://live.staticflickr.com/65535/49711009991_22b92c69a5_n.jpg",
    "id_album": "1187037014",
    "description": "Battle_831996",
    "title": "Battle_831996",
    "link_img": "https://live.staticflickr.com/65535/49711009991_f8b7fd138a_o.jpg",
    "id_image": "Battle_831996",
    "count_view": 0
  },
  {
    "link_thumb": "https://live.staticflickr.com/65535/49711553877_1165b002ec_n.jpg",
    "id_album": "-437872736",
    "description": "Creature_402745",
    "title": "Creature_402745",
    "link_img": "https://live.staticflickr.com/65535/49711553877_e0fd9bae0b_o.jpg",
    "id_image": "Creature_402745",
    "count_view": 0
  },
  {
    "link_thumb": "https://live.staticflickr.com/65535/49711209891_1ddea4b868_n.jpg",
    "id_album": "-437872736",
    "description": "Creature_342924",
    "title": "Creature_342924",
    "link_img": "https://live.staticflickr.com/65535/49711209891_18f6205eb0_o.jpg",
    "id_image": "Creature_342924",
    "count_view": 0
  },
  {
    "link_thumb": "https://live.staticflickr.com/65535/49711265148_f0bfb1d027_n.jpg",
    "id_album": "1402713104",
    "description": "Landscape_678328",
    "title": "Landscape_678328",
    "link_img": "https://live.staticflickr.com/65535/49711265148_2f45e20f8f_o.jpg",
    "id_image": "Landscape_678328",
    "count_view": 0
  },
  {
    "link_thumb": "https://live.staticflickr.com/65535/49711851093_9685dac773_n.jpg",
    "id_album": "295204930",
    "description": "Women_380667",
    "title": "Women_380667",
    "link_img": "https://live.staticflickr.com/65535/49711851093_dfca556fab_o.jpg",
    "id_image": "Women_380667",
    "count_view": 0
  },
  {
    "link_thumb": "https://live.staticflickr.com/65535/49712122172_dda3f01574_n.jpg",
    "id_album": "1402713104",
    "description": "Landscape_678115",
    "title": "Landscape_678115",
    "link_img": "https://live.staticflickr.com/65535/49712122172_6a9521b17d_o.jpg",
    "id_image": "Landscape_678115",
    "count_view": 0
  },
  {
    "link_thumb": "https://live.staticflickr.com/65535/49710893071_948306f828_n.jpg",
    "id_album": "-1913845949",
    "description": "Animal_151729",
    "title": "Animal_151729",
    "link_img": "https://live.staticflickr.com/65535/49710893071_2d255d4c16_o.jpg",
    "id_image": "Animal_151729",
    "count_view": 0
  },
  {
    "link_thumb": "https://live.staticflickr.com/65535/49711831577_dc7a57c7bb_n.jpg",
    "id_album": "850176884",
    "description": "Dragon_701607",
    "title": "Dragon_701607",
    "link_img": "https://live.staticflickr.com/65535/49711831577_5f1a2f49e4_o.jpg",
    "id_image": "Dragon_701607",
    "count_view": 0
  },
  {
    "link_thumb": "https://live.staticflickr.com/65535/49711495802_1134c92cbe_n.jpg",
    "id_album": "-437872736",
    "description": "Creature_267639",
    "title": "Creature_267639",
    "link_img": "https://live.staticflickr.com/65535/49711495802_b369b5dd32_o.jpg",
    "id_image": "Creature_267639",
    "count_view": 0
  },
  {
    "link_thumb": "https://live.staticflickr.com/65535/49712550832_a0880393b2_n.jpg",
    "id_album": "-1261420436",
    "description": "Warrior_893972",
    "title": "Warrior_893972",
    "link_img": "https://live.staticflickr.com/65535/49712550832_696890d7f5_o.jpg",
    "id_image": "Warrior_893972",
    "count_view": 0
  },
  {
    "link_thumb": "https://live.staticflickr.com/65535/49711201886_3917bde3c7_n.jpg",
    "id_album": "-437872736",
    "description": "Creature_331865",
    "title": "Creature_331865",
    "link_img": "https://live.staticflickr.com/65535/49711201886_39f84d7469_o.jpg",
    "id_image": "Creature_331865",
    "count_view": 0
  },
  {
    "link_thumb": "https://live.staticflickr.com/65535/49711455273_7668a224b5_n.jpg",
    "id_album": "1006968559",
    "description": "LordoftheRings_551161",
    "title": "LordoftheRings_551161",
    "link_img": "https://live.staticflickr.com/65535/49711455273_1234dea441_o.jpg",
    "id_image": "LordoftheRings_551161",
    "count_view": 0
  },
  {
    "link_thumb": "https://live.staticflickr.com/65535/49711410426_f8b2136c6b_n.jpg",
    "id_album": "850176884",
    "description": "Dragon_284769",
    "title": "Dragon_284769",
    "link_img": "https://live.staticflickr.com/65535/49711410426_383e9e8ce6_o.jpg",
    "id_image": "Dragon_284769",
    "count_view": 0
  },
  {
    "link_thumb": "https://live.staticflickr.com/65535/49711043283_cca4456f35_n.jpg",
    "id_album": "850176884",
    "description": "Dragon_958215",
    "title": "Dragon_958215",
    "link_img": "https://live.staticflickr.com/65535/49711043283_c6a3bdaf92_o.jpg",
    "id_image": "Dragon_958215",
    "count_view": 0
  },
  {
    "link_thumb": "https://live.staticflickr.com/65535/49711681531_97f930d4e8_n.jpg",
    "id_album": "-1972042284",
    "description": "Fairy_789290",
    "title": "Fairy_789290",
    "link_img": "https://live.staticflickr.com/65535/49711681531_ee7c729bf7_o.jpg",
    "id_image": "Fairy_789290",
    "count_view": 0
  },
  {
    "link_thumb": "https://live.staticflickr.com/65535/49711960957_2819b7b019_n.jpg",
    "id_album": "134100487",
    "description": "Elf_859484",
    "title": "Elf_859484",
    "link_img": "https://live.staticflickr.com/65535/49711960957_f2b6dac579_o.jpg",
    "id_image": "Elf_859484",
    "count_view": 0
  },
  {
    "link_thumb": "https://live.staticflickr.com/65535/49711998626_e6d58e16cf_n.jpg",
    "id_album": "-1859457952",
    "description": "Love_948130",
    "title": "Love_948130",
    "link_img": "https://live.staticflickr.com/65535/49711998626_e33f791c3a_o.jpg",
    "id_image": "Love_948130",
    "count_view": 0
  },
  {
    "link_thumb": "https://live.staticflickr.com/65535/49799146007_bda7a86d11_n.jpg",
    "id_album": "-1703946758",
    "description": "ANIME_PIC_d274db31fbe28cf4f6a8e98c356bc7c9",
    "title": "ANIME_PIC_d274db31fbe28cf4f6a8e98c356bc7c9",
    "link_img": "https://live.staticflickr.com/65535/49799146007_1a7d3f1f57_o.jpg",
    "id_image": "ANIME_PIC_d274db31fbe28cf4f6a8e98c356bc7c9",
    "count_view": 0
  },
  {
    "link_thumb": "https://live.staticflickr.com/65535/49710594158_cedffe95c5_n.jpg",
    "id_album": "-1964113117",
    "description": "City_918788",
    "title": "City_918788",
    "link_img": "https://live.staticflickr.com/65535/49710594158_2752a7a58f_o.jpg",
    "id_image": "City_918788",
    "count_view": 0
  },
  {
    "link_thumb": "https://live.staticflickr.com/65535/49712209026_23b7efb36e_n.jpg",
    "id_album": "-1261420436",
    "description": "Warrior_484320",
    "title": "Warrior_484320",
    "link_img": "https://live.staticflickr.com/65535/49712209026_2577f6f4af_o.jpg",
    "id_image": "Warrior_484320",
    "count_view": 0
  },
  {
    "link_thumb": "https://live.staticflickr.com/65535/49711795336_4922a50bf4_n.jpg",
    "id_album": "1402713104",
    "description": "Landscape_648836",
    "title": "Landscape_648836",
    "link_img": "https://live.staticflickr.com/65535/49711795336_e11d6cb8c5_o.jpg",
    "id_image": "Landscape_648836",
    "count_view": 0
  },
  {
    "link_thumb": "https://live.staticflickr.com/65535/49711595786_5b90944d98_n.jpg",
    "id_album": "-1594184835",
    "description": "Dwarf_393197",
    "title": "Dwarf_393197",
    "link_img": "https://live.staticflickr.com/65535/49711595786_718c46cf0c_o.jpg",
    "id_image": "Dwarf_393197",
    "count_view": 0
  },
  {
    "link_thumb": "https://live.staticflickr.com/65535/49710845388_f325b560da_n.jpg",
    "id_album": "850176884",
    "description": "Dragon_188563",
    "title": "Dragon_188563",
    "link_img": "https://live.staticflickr.com/65535/49710845388_a125d80ebb_o.jpg",
    "id_image": "Dragon_188563",
    "count_view": 0
  },
  {
    "link_thumb": "https://live.staticflickr.com/65535/49711836728_04ff64d62c_n.jpg",
    "id_album": "295204930",
    "description": "Women_274492",
    "title": "Women_274492",
    "link_img": "https://live.staticflickr.com/65535/49711836728_d6ee595266_o.jpg",
    "id_image": "Women_274492",
    "count_view": 0
  },
  {
    "link_thumb": "https://live.staticflickr.com/65535/49711226471_7cecf9a604_n.jpg",
    "id_album": "-437872736",
    "description": "Creature_395685",
    "title": "Creature_395685",
    "link_img": "https://live.staticflickr.com/65535/49711226471_d6dc256d9d_o.jpg",
    "id_image": "Creature_395685",
    "count_view": 0
  },
  {
    "link_thumb": "https://live.staticflickr.com/65535/49712152898_414f0aba93_n.jpg",
    "id_album": "-1675918237",
    "description": "WomenWarrior_864649",
    "title": "WomenWarrior_864649",
    "link_img": "https://live.staticflickr.com/65535/49712152898_be9a4c1667_o.jpg",
    "id_image": "WomenWarrior_864649",
    "count_view": 0
  },
  {
    "link_thumb": "https://live.staticflickr.com/65535/49711839947_856c8d5665_n.jpg",
    "id_album": "850176884",
    "description": "Dragon_735463",
    "title": "Dragon_735463",
    "link_img": "https://live.staticflickr.com/65535/49711839947_c3de9ca440_o.jpg",
    "id_image": "Dragon_735463",
    "count_view": 0
  },
  {
    "link_thumb": "https://live.staticflickr.com/65535/49711661998_ae22d70747_n.jpg",
    "id_album": "-1261420436",
    "description": "Warrior_11362",
    "title": "Warrior_11362",
    "link_img": "https://live.staticflickr.com/65535/49711661998_7578b9d734_o.jpg",
    "id_image": "Warrior_11362",
    "count_view": 0
  },
  {
    "link_thumb": "https://live.staticflickr.com/65535/49712113802_41f6e40cab_n.jpg",
    "id_album": "469960528",
    "description": "Knight_981248",
    "title": "Knight_981248",
    "link_img": "https://live.staticflickr.com/65535/49712113802_04e0920999_o.jpg",
    "id_image": "Knight_981248",
    "count_view": 0
  },
  {
    "link_thumb": "https://live.staticflickr.com/65535/49710421673_63363fe9f9_n.jpg",
    "id_album": "523598895",
    "description": "Artistic_225864",
    "title": "Artistic_225864",
    "link_img": "https://live.staticflickr.com/65535/49710421673_16f3ae73a7_o.jpg",
    "id_image": "Artistic_225864",
    "count_view": 0
  },
  {
    "link_thumb": "https://live.staticflickr.com/65535/49711742887_5608334de5_n.jpg",
    "id_album": "850176884",
    "description": "Dragon_324332",
    "title": "Dragon_324332",
    "link_img": "https://live.staticflickr.com/65535/49711742887_ca81ec79ee_o.jpg",
    "id_image": "Dragon_324332",
    "count_view": 0
  },
  {
    "link_thumb": "https://live.staticflickr.com/65535/49712607757_a0d6fcb191_n.jpg",
    "id_album": "-709711865",
    "description": "Wolf_676256",
    "title": "Wolf_676256",
    "link_img": "https://live.staticflickr.com/65535/49712607757_be0a8aae5d_o.jpg",
    "id_image": "Wolf_676256",
    "count_view": 0
  },
  {
    "link_thumb": "https://live.staticflickr.com/65535/49711911293_5df7a54e05_n.jpg",
    "id_album": "1861288871",
    "description": "Women_493923",
    "title": "Women_493923",
    "link_img": "https://live.staticflickr.com/65535/49711911293_6708b9025c_o.jpg",
    "id_image": "Women_493923",
    "count_view": 0
  },
  {
    "link_thumb": "https://live.staticflickr.com/65535/49711960758_c01da4614a_n.jpg",
    "id_album": "-867594484",
    "description": "Women_520618",
    "title": "Women_520618",
    "link_img": "https://live.staticflickr.com/65535/49711960758_c6b5641088_o.jpg",
    "id_image": "Women_520618",
    "count_view": 0
  },
  {
    "link_thumb": "https://live.staticflickr.com/65535/49711251713_f0ecdd8cc6_n.jpg",
    "id_album": "469960528",
    "description": "Knight_784933",
    "title": "Knight_784933",
    "link_img": "https://live.staticflickr.com/65535/49711251713_af0d6c3399_o.jpg",
    "id_image": "Knight_784933",
    "count_view": 0
  },
  {
    "link_thumb": "https://live.staticflickr.com/65535/49711243038_beaf32f5bb_n.jpg",
    "id_album": "469960528",
    "description": "Knight_158925",
    "title": "Knight_158925",
    "link_img": "https://live.staticflickr.com/65535/49711243038_1e870f6d13_o.jpg",
    "id_image": "Knight_158925",
    "count_view": 0
  },
  {
    "link_thumb": "https://live.staticflickr.com/65535/49711943378_d26ed45da7_n.jpg",
    "id_album": "1861288871",
    "description": "Women_817412",
    "title": "Women_817412",
    "link_img": "https://live.staticflickr.com/65535/49711943378_b32f21637d_o.jpg",
    "id_image": "Women_817412",
    "count_view": 0
  },
  {
    "link_thumb": "https://live.staticflickr.com/65535/49710956891_c6fa3cec4c_n.jpg",
    "id_album": "523598895",
    "description": "Artistic_242816",
    "title": "Artistic_242816",
    "link_img": "https://live.staticflickr.com/65535/49710956891_62f3138857_o.jpg",
    "id_image": "Artistic_242816",
    "count_view": 0
  },
  {
    "link_thumb": "https://live.staticflickr.com/65535/49711334173_67e843e8ff_n.jpg",
    "id_album": "1402713104",
    "description": "Landscape_955023",
    "title": "Landscape_955023",
    "link_img": "https://live.staticflickr.com/65535/49711334173_7c2f22c7fa_o.jpg",
    "id_image": "Landscape_955023",
    "count_view": 0
  },
  {
    "link_thumb": "https://live.staticflickr.com/65535/49711048163_522866a5d4_n.jpg",
    "id_album": "850176884",
    "description": "Dragon_969411",
    "title": "Dragon_969411",
    "link_img": "https://live.staticflickr.com/65535/49711048163_4e99db6f5a_o.jpg",
    "id_image": "Dragon_969411",
    "count_view": 0
  },
  {
    "link_thumb": "https://live.staticflickr.com/65535/49711753232_00f8da4bf9_n.jpg",
    "id_album": "850176884",
    "description": "Dragon_357186",
    "title": "Dragon_357186",
    "link_img": "https://live.staticflickr.com/65535/49711753232_1d60479854_o.jpg",
    "id_image": "Dragon_357186",
    "count_view": 0
  },
  {
    "link_thumb": "https://live.staticflickr.com/65535/49710993336_46d3becc75_n.jpg",
    "id_album": "1187037014",
    "description": "Battle_328332",
    "title": "Battle_328332",
    "link_img": "https://live.staticflickr.com/65535/49710993336_9c81162f0a_o.jpg",
    "id_image": "Battle_328332",
    "count_view": 0
  },
  {
    "link_thumb": "https://live.staticflickr.com/65535/49711964277_6017558874_n.jpg",
    "id_album": "134100487",
    "description": "Elf_933369",
    "title": "Elf_933369",
    "link_img": "https://live.staticflickr.com/65535/49711964277_a6c0c7164f_o.jpg",
    "id_image": "Elf_933369",
    "count_view": 0
  },
  {
    "link_thumb": "https://live.staticflickr.com/65535/49711631138_fceb36e66c_n.jpg",
    "id_album": "405170427",
    "description": "Tiger_878394",
    "title": "Tiger_878394",
    "link_img": "https://live.staticflickr.com/65535/49711631138_a18224774c_o.jpg",
    "id_image": "Tiger_878394",
    "count_view": 0
  },
  {
    "link_thumb": "https://live.staticflickr.com/65535/49711672988_88cf647c28_n.jpg",
    "id_album": "-1261420436",
    "description": "Warrior_417132",
    "title": "Warrior_417132",
    "link_img": "https://live.staticflickr.com/65535/49711672988_18ed3bfa51_o.jpg",
    "id_image": "Warrior_417132",
    "count_view": 0
  },
  {
    "link_thumb": "https://live.staticflickr.com/65535/49711033493_05ed19f067_n.jpg",
    "id_album": "850176884",
    "description": "Dragon_923718",
    "title": "Dragon_923718",
    "link_img": "https://live.staticflickr.com/65535/49711033493_7f1f86bfc0_o.jpg",
    "id_image": "Dragon_923718",
    "count_view": 0
  },
  {
    "link_thumb": "https://live.staticflickr.com/65535/49711209321_46e1e01df4_n.jpg",
    "id_album": "-437872736",
    "description": "Creature_342057",
    "title": "Creature_342057",
    "link_img": "https://live.staticflickr.com/65535/49711209321_92b080849e_o.jpg",
    "id_image": "Creature_342057",
    "count_view": 0
  },
  {
    "link_thumb": "https://live.staticflickr.com/65535/49711141736_34cb8025eb_n.jpg",
    "id_album": "-437872736",
    "description": "Creature_130083",
    "title": "Creature_130083",
    "link_img": "https://live.staticflickr.com/65535/49711141736_4608de9373_o.jpg",
    "id_image": "Creature_130083",
    "count_view": 0
  },
  {
    "link_thumb": "https://live.staticflickr.com/65535/49711809048_0765bf0157_n.jpg",
    "id_album": "-1126835654",
    "description": "Women_954029",
    "title": "Women_954029",
    "link_img": "https://live.staticflickr.com/65535/49711809048_f2b2c22364_o.jpg",
    "id_image": "Women_954029",
    "count_view": 0
  },
  {
    "link_thumb": "https://live.staticflickr.com/65535/49710891263_93ac19649d_n.jpg",
    "id_album": "850176884",
    "description": "Dragon_333312",
    "title": "Dragon_333312",
    "link_img": "https://live.staticflickr.com/65535/49710891263_af093680ed_o.jpg",
    "id_image": "Dragon_333312",
    "count_view": 0
  },
  {
    "link_thumb": "https://live.staticflickr.com/65535/49711737373_d9d6cccf4d_n.jpg",
    "id_album": "-709711865",
    "description": "Wolf_236488",
    "title": "Wolf_236488",
    "link_img": "https://live.staticflickr.com/65535/49711737373_266054f27c_o.jpg",
    "id_image": "Wolf_236488",
    "count_view": 0
  },
  {
    "link_thumb": "https://live.staticflickr.com/65535/49711115488_31c708bc55_n.jpg",
    "id_album": "-1972042284",
    "description": "Fairy_234542",
    "title": "Fairy_234542",
    "link_img": "https://live.staticflickr.com/65535/49711115488_de809939a2_o.jpg",
    "id_image": "Fairy_234542",
    "count_view": 0
  },
  {
    "link_thumb": "https://live.staticflickr.com/65535/49711276106_fd60100d57_n.jpg",
    "id_album": "-437872736",
    "description": "Creature_928576",
    "title": "Creature_928576",
    "link_img": "https://live.staticflickr.com/65535/49711276106_98d7ddcd92_o.jpg",
    "id_image": "Creature_928576",
    "count_view": 0
  },
  {
    "link_thumb": "https://live.staticflickr.com/65535/49711220147_0642a9a7a1_n.jpg",
    "id_album": "-1913845949",
    "description": "Animal_209780",
    "title": "Animal_209780",
    "link_img": "https://live.staticflickr.com/65535/49711220147_765a7a4f5d_o.jpg",
    "id_image": "Animal_209780",
    "count_view": 0
  },
  {
    "link_thumb": "https://live.staticflickr.com/65535/49711757857_fa1401e999_n.jpg",
    "id_album": "850176884",
    "description": "Dragon_378443",
    "title": "Dragon_378443",
    "link_img": "https://live.staticflickr.com/65535/49711757857_fa3ab63dde_o.jpg",
    "id_image": "Dragon_378443",
    "count_view": 0
  },
  {
    "link_thumb": "https://live.staticflickr.com/65535/49711464088_49f98486a6_n.jpg",
    "id_album": "-1613076477",
    "description": "Magic_295197",
    "title": "Magic_295197",
    "link_img": "https://live.staticflickr.com/65535/49711464088_7da3ba6dfa_o.jpg",
    "id_image": "Magic_295197",
    "count_view": 0
  },
  {
    "link_thumb": "https://live.staticflickr.com/65535/49711611653_f2e06161d1_n.jpg",
    "id_album": "1240974613",
    "description": "Sorceress_934985",
    "title": "Sorceress_934985",
    "link_img": "https://live.staticflickr.com/65535/49711611653_19590465e2_o.jpg",
    "id_image": "Sorceress_934985",
    "count_view": 0
  },
  {
    "link_thumb": "https://live.staticflickr.com/65535/49712509441_2b5ef7c0bb_n.jpg",
    "id_album": "-867594484",
    "description": "Women_567066",
    "title": "Women_567066",
    "link_img": "https://live.staticflickr.com/65535/49712509441_1367f7c067_o.jpg",
    "id_image": "Women_567066",
    "count_view": 0
  },
  {
    "link_thumb": "https://live.staticflickr.com/65535/49712435182_d08b768cd9_n.jpg",
    "id_album": "-1611961467",
    "description": "Samurai_842664",
    "title": "Samurai_842664",
    "link_img": "https://live.staticflickr.com/65535/49712435182_fbf7449cd0_o.jpg",
    "id_image": "Samurai_842664",
    "count_view": 0
  },
  {
    "link_thumb": "https://live.staticflickr.com/65535/49711355537_380ce06556_n.jpg",
    "id_album": "-1541846310",
    "description": "Castle_129703",
    "title": "Castle_129703",
    "link_img": "https://live.staticflickr.com/65535/49711355537_2f8c9861a8_o.jpg",
    "id_image": "Castle_129703",
    "count_view": 0
  },
  {
    "link_thumb": "https://live.staticflickr.com/65535/49712171983_41b655e38c_n.jpg",
    "id_album": "-1207759647",
    "description": "Zodiac_277121",
    "title": "Zodiac_277121",
    "link_img": "https://live.staticflickr.com/65535/49712171983_5856a62df4_o.jpg",
    "id_image": "Zodiac_277121",
    "count_view": 0
  },
  {
    "link_thumb": "https://live.staticflickr.com/65535/49712355912_2598dd4a7c_n.jpg",
    "id_album": "-14582214",
    "description": "Ocean_373275",
    "title": "Ocean_373275",
    "link_img": "https://live.staticflickr.com/65535/49712355912_10bf04019c_o.jpg",
    "id_image": "Ocean_373275",
    "count_view": 0
  },
  {
    "link_thumb": "https://live.staticflickr.com/65535/49712176991_385cbb010f_n.jpg",
    "id_album": "431597977",
    "description": "Unicorn_229679",
    "title": "Unicorn_229679",
    "link_img": "https://live.staticflickr.com/65535/49712176991_ce73409591_o.jpg",
    "id_image": "Unicorn_229679",
    "count_view": 0
  },
  {
    "link_thumb": "https://live.staticflickr.com/65535/49710958166_a7592738d9_n.jpg",
    "id_album": "523598895",
    "description": "Artistic_280176",
    "title": "Artistic_280176",
    "link_img": "https://live.staticflickr.com/65535/49710958166_d2b5449605_o.jpg",
    "id_image": "Artistic_280176",
    "count_view": 0
  },
  {
    "link_thumb": "https://live.staticflickr.com/65535/49710527763_f5861265bd_n.jpg",
    "id_album": "-1541846310",
    "description": "Castle_869602",
    "title": "Castle_869602",
    "link_img": "https://live.staticflickr.com/65535/49710527763_077a087ce2_o.jpg",
    "id_image": "Castle_869602",
    "count_view": 0
  },
  {
    "link_thumb": "https://live.staticflickr.com/65535/49711357193_aa55fc512a_n.jpg",
    "id_album": "-833110404",
    "description": "Landscape_204015",
    "title": "Landscape_204015",
    "link_img": "https://live.staticflickr.com/65535/49711357193_6deef8eff7_o.jpg",
    "id_image": "Landscape_204015",
    "count_view": 0
  },
  {
    "link_thumb": "https://live.staticflickr.com/65535/49711428361_ecde265075_n.jpg",
    "id_album": "850176884",
    "description": "Dragon_340194",
    "title": "Dragon_340194",
    "link_img": "https://live.staticflickr.com/65535/49711428361_5b24c04b21_o.jpg",
    "id_image": "Dragon_340194",
    "count_view": 0
  },
  {
    "link_thumb": "https://live.staticflickr.com/65535/49712125288_9973fbea0e_n.jpg",
    "id_album": "-1675918237",
    "description": "WomenWarrior_716711",
    "title": "WomenWarrior_716711",
    "link_img": "https://live.staticflickr.com/65535/49712125288_8211c961fb_o.jpg",
    "id_image": "WomenWarrior_716711",
    "count_view": 0
  },
  {
    "link_thumb": "https://live.staticflickr.com/65535/49711514657_01fbe0c7a5_n.jpg",
    "id_album": "-437872736",
    "description": "Creature_313364",
    "title": "Creature_313364",
    "link_img": "https://live.staticflickr.com/65535/49711514657_aedcabf31f_o.jpg",
    "id_image": "Creature_313364",
    "count_view": 0
  },
  {
    "link_thumb": "https://live.staticflickr.com/65535/49711498077_e65ca0ccdf_n.jpg",
    "id_album": "-437872736",
    "description": "Creature_270097",
    "title": "Creature_270097",
    "link_img": "https://live.staticflickr.com/65535/49711498077_07ddc91871_o.jpg",
    "id_image": "Creature_270097",
    "count_view": 0
  },
  {
    "link_thumb": "https://live.staticflickr.com/65535/49711208048_fccfa38884_n.jpg",
    "id_album": "1131236559",
    "description": "Gods_229828",
    "title": "Gods_229828",
    "link_img": "https://live.staticflickr.com/65535/49711208048_383cbb64dc_o.jpg",
    "id_image": "Gods_229828",
    "count_view": 0
  },
  {
    "link_thumb": "https://live.staticflickr.com/65535/49711612562_1f5324aa1f_n.jpg",
    "id_album": "-437872736",
    "description": "Creature_958717",
    "title": "Creature_958717",
    "link_img": "https://live.staticflickr.com/65535/49711612562_8a584584ee_o.jpg",
    "id_image": "Creature_958717",
    "count_view": 0
  },
  {
    "link_thumb": "https://live.staticflickr.com/65535/49710433023_1fe249a95c_n.jpg",
    "id_album": "523598895",
    "description": "Artistic_400774",
    "title": "Artistic_400774",
    "link_img": "https://live.staticflickr.com/65535/49710433023_fee687ed94_o.jpg",
    "id_image": "Artistic_400774",
    "count_view": 0
  },
  {
    "link_thumb": "https://live.staticflickr.com/65535/49711279223_21e51abbe9_n.jpg",
    "id_album": "1402713104",
    "description": "Landscape_732306",
    "title": "Landscape_732306",
    "link_img": "https://live.staticflickr.com/65535/49711279223_b6f6e242cb_o.jpg",
    "id_image": "Landscape_732306",
    "count_view": 0
  },
  {
    "link_thumb": "https://live.staticflickr.com/65535/49712433782_0ccc8b25e8_n.jpg",
    "id_album": "-1611961467",
    "description": "Samurai_779400",
    "title": "Samurai_779400",
    "link_img": "https://live.staticflickr.com/65535/49712433782_db4193b47c_o.jpg",
    "id_image": "Samurai_779400",
    "count_view": 0
  }
]