[
  {
    "total_img": 0,
    "number_page": 0,
    "title": "Ship",
    "tag": "Ship,",
    "description": "Ship",
    "link_thumb": "https://live.staticflickr.com/65535/49712127571_5fcf80d4d6_n.jpg",
    "id_album": "-395228614",
    "total_view": 56
  }
]