[
  {
    "link_thumb": "https://live.staticflickr.com/65535/49711088806_ff0f1eb855_n.jpg",
    "id_album": "-1964113117",
    "description": "City_154349",
    "title": "City_154349",
    "link_img": "https://live.staticflickr.com/65535/49711088806_7ea5e6faf0_o.jpg",
    "id_image": "City_154349",
    "count_view": 0
  },
  {
    "link_thumb": "https://live.staticflickr.com/65535/49711936432_08bf35c768_n.jpg",
    "id_album": "134100487",
    "description": "Elf_488556",
    "title": "Elf_488556",
    "link_img": "https://live.staticflickr.com/65535/49711936432_11d3ebc35a_o.jpg",
    "id_image": "Elf_488556",
    "count_view": 0
  },
  {
    "link_thumb": "https://live.staticflickr.com/65535/49711608373_bee9eb1fce_n.jpg",
    "id_album": "-5356651",
    "description": "Sorcerer_530751",
    "title": "Sorcerer_530751",
    "link_img": "https://live.staticflickr.com/65535/49711608373_7dd3ff5138_o.jpg",
    "id_image": "Sorcerer_530751",
    "count_view": 0
  },
  {
    "link_thumb": "https://live.staticflickr.com/65535/49711177596_d5357b3b86_n.jpg",
    "id_album": "-437872736",
    "description": "Creature_291922",
    "title": "Creature_291922",
    "link_img": "https://live.staticflickr.com/65535/49711177596_50dc2fca73_o.jpg",
    "id_image": "Creature_291922",
    "count_view": 0
  },
  {
    "link_thumb": "https://live.staticflickr.com/65535/49711589837_5f30013121_n.jpg",
    "id_album": "-437872736",
    "description": "Creature_742057",
    "title": "Creature_742057",
    "link_img": "https://live.staticflickr.com/65535/49711589837_78f81f264f_o.jpg",
    "id_image": "Creature_742057",
    "count_view": 0
  },
  {
    "link_thumb": "https://live.staticflickr.com/65535/49712870522_2293042367_n.jpg",
    "id_album": "-1675918237",
    "description": "WomenWarrior_251297",
    "title": "WomenWarrior_251297",
    "link_img": "https://live.staticflickr.com/65535/49712870522_bf70728771_o.jpg",
    "id_image": "WomenWarrior_251297",
    "count_view": 0
  },
  {
    "link_thumb": "https://live.staticflickr.com/65535/49710798148_77949ab12b_n.jpg",
    "id_album": "7198985",
    "description": "Demon_214363",
    "title": "Demon_214363",
    "link_img": "https://live.staticflickr.com/65535/49710798148_5e7543b73b_o.jpg",
    "id_image": "Demon_214363",
    "count_view": 0
  },
  {
    "link_thumb": "https://live.staticflickr.com/65535/49711467791_080345d6bf_n.jpg",
    "id_album": "850176884",
    "description": "Dragon_513531",
    "title": "Dragon_513531",
    "link_img": "https://live.staticflickr.com/65535/49711467791_2441888b6a_o.jpg",
    "id_image": "Dragon_513531",
    "count_view": 0
  },
  {
    "link_thumb": "https://live.staticflickr.com/65535/49711472471_acf94089d9_n.jpg",
    "id_album": "850176884",
    "description": "Dragon_524629",
    "title": "Dragon_524629",
    "link_img": "https://live.staticflickr.com/65535/49711472471_04a6a8399f_o.jpg",
    "id_image": "Dragon_524629",
    "count_view": 0
  },
  {
    "link_thumb": "https://live.staticflickr.com/65535/49713007327_f98f7114ea_n.jpg",
    "id_album": "-1675918237",
    "description": "WomenWarrior_850738",
    "title": "WomenWarrior_850738",
    "link_img": "https://live.staticflickr.com/65535/49713007327_a01d8e4ff1_o.jpg",
    "id_image": "WomenWarrior_850738",
    "count_view": 0
  },
  {
    "link_thumb": "https://live.staticflickr.com/65535/49710939081_abab89d204_n.jpg",
    "id_album": "523598895",
    "description": "Artistic_118976",
    "title": "Artistic_118976",
    "link_img": "https://live.staticflickr.com/65535/49710939081_6b040e95fe_o.jpg",
    "id_image": "Artistic_118976",
    "count_view": 0
  },
  {
    "link_thumb": "https://live.staticflickr.com/65535/49712175922_9f77978b07_n.jpg",
    "id_album": "1402713104",
    "description": "Landscape_900551",
    "title": "Landscape_900551",
    "link_img": "https://live.staticflickr.com/65535/49712175922_a34e68b678_o.jpg",
    "id_image": "Landscape_900551",
    "count_view": 0
  },
  {
    "link_thumb": "https://live.staticflickr.com/65535/49711094746_4fb506827e_n.jpg",
    "id_album": "-1964113117",
    "description": "City_294405",
    "title": "City_294405",
    "link_img": "https://live.staticflickr.com/65535/49711094746_9a698973b9_o.jpg",
    "id_image": "City_294405",
    "count_view": 0
  },
  {
    "link_thumb": "https://live.staticflickr.com/65535/49711429626_1db2ae9d71_n.jpg",
    "id_album": "850176884",
    "description": "Dragon_347113",
    "title": "Dragon_347113",
    "link_img": "https://live.staticflickr.com/65535/49711429626_8c2edc16d1_o.jpg",
    "id_image": "Dragon_347113",
    "count_view": 0
  },
  {
    "link_thumb": "https://live.staticflickr.com/65535/49711867546_fe101556c4_n.jpg",
    "id_album": "1402713104",
    "description": "Landscape_949175",
    "title": "Landscape_949175",
    "link_img": "https://live.staticflickr.com/65535/49711867546_eb1ae174b2_o.jpg",
    "id_image": "Landscape_949175",
    "count_view": 0
  },
  {
    "link_thumb": "https://live.staticflickr.com/65535/49711783966_182c616f71_n.jpg",
    "id_album": "469960528",
    "description": "Knight_65909",
    "title": "Knight_65909",
    "link_img": "https://live.staticflickr.com/65535/49711783966_64071c588a_o.jpg",
    "id_image": "Knight_65909",
    "count_view": 0
  },
  {
    "link_thumb": "https://live.staticflickr.com/65535/49711842476_294df560dd_n.jpg",
    "id_album": "1402713104",
    "description": "Landscape_868511",
    "title": "Landscape_868511",
    "link_img": "https://live.staticflickr.com/65535/49711842476_f264895910_o.jpg",
    "id_image": "Landscape_868511",
    "count_view": 0
  },
  {
    "link_thumb": "https://live.staticflickr.com/65535/49711715256_5d92f8d7fc_n.jpg",
    "id_album": "-1083189875",
    "description": "Forest_866901",
    "title": "Forest_866901",
    "link_img": "https://live.staticflickr.com/65535/49711715256_98732015d3_o.jpg",
    "id_image": "Forest_866901",
    "count_view": 0
  },
  {
    "link_thumb": "https://live.staticflickr.com/65535/49712198556_8caa9a800c_n.jpg",
    "id_album": "-1261420436",
    "description": "Warrior_152659",
    "title": "Warrior_152659",
    "link_img": "https://live.staticflickr.com/65535/49712198556_34f485f5e7_o.jpg",
    "id_image": "Warrior_152659",
    "count_view": 0
  },
  {
    "link_thumb": "https://live.staticflickr.com/65535/49711804223_9218e5a6ac_n.jpg",
    "id_album": "-1126835654",
    "description": "Women_928533",
    "title": "Women_928533",
    "link_img": "https://live.staticflickr.com/65535/49711804223_3a724165b4_o.jpg",
    "id_image": "Women_928533",
    "count_view": 0
  },
  {
    "link_thumb": "https://live.staticflickr.com/65535/49710501513_032ce68949_n.jpg",
    "id_album": "-1541846310",
    "description": "Castle_188894",
    "title": "Castle_188894",
    "link_img": "https://live.staticflickr.com/65535/49710501513_b6b7f14cb2_o.jpg",
    "id_image": "Castle_188894",
    "count_view": 0
  },
  {
    "link_thumb": "https://live.staticflickr.com/65535/49710771023_e8060ea8dd_n.jpg",
    "id_album": "-437872736",
    "description": "Creature_962103",
    "title": "Creature_962103",
    "link_img": "https://live.staticflickr.com/65535/49710771023_b0441f3a50_o.jpg",
    "id_image": "Creature_962103",
    "count_view": 0
  },
  {
    "link_thumb": "https://live.staticflickr.com/65535/49710863118_821df9e4a9_n.jpg",
    "id_album": "850176884",
    "description": "Dragon_248485",
    "title": "Dragon_248485",
    "link_img": "https://live.staticflickr.com/65535/49710863118_bd5098fc80_o.jpg",
    "id_image": "Dragon_248485",
    "count_view": 0
  },
  {
    "link_thumb": "https://live.staticflickr.com/65535/49711949733_ef31de2475_n.jpg",
    "id_album": "-867594484",
    "description": "Women_496566",
    "title": "Women_496566",
    "link_img": "https://live.staticflickr.com/65535/49711949733_5727fe881a_o.jpg",
    "id_image": "Women_496566",
    "count_view": 0
  },
  {
    "link_thumb": "https://live.staticflickr.com/65535/49712204181_09f6e61f3e_n.jpg",
    "id_album": "-1261420436",
    "description": "Warrior_261150",
    "title": "Warrior_261150",
    "link_img": "https://live.staticflickr.com/65535/49712204181_3d6b6fc432_o.jpg",
    "id_image": "Warrior_261150",
    "count_view": 0
  },
  {
    "link_thumb": "https://live.staticflickr.com/65535/49711238108_510997c50d_n.jpg",
    "id_album": "1957967226",
    "description": "House_962003",
    "title": "House_962003",
    "link_img": "https://live.staticflickr.com/65535/49711238108_9bc3530702_o.jpg",
    "id_image": "House_962003",
    "count_view": 0
  },
  {
    "link_thumb": "https://live.staticflickr.com/65535/49711414252_18b3ccdd0c_n.jpg",
    "id_album": "-1964113117",
    "description": "City_176950",
    "title": "City_176950",
    "link_img": "https://live.staticflickr.com/65535/49711414252_109737ebb7_o.jpg",
    "id_image": "City_176950",
    "count_view": 0
  },
  {
    "link_thumb": "https://live.staticflickr.com/65535/49711820831_8c06f02df4_n.jpg",
    "id_album": "1402713104",
    "description": "Landscape_788786",
    "title": "Landscape_788786",
    "link_img": "https://live.staticflickr.com/65535/49711820831_95948b2126_o.jpg",
    "id_image": "Landscape_788786",
    "count_view": 0
  },
  {
    "link_thumb": "https://live.staticflickr.com/65535/49711707678_eae14a7d19_n.jpg",
    "id_album": "1173975892",
    "description": "Werewolf_239335",
    "title": "Werewolf_239335",
    "link_img": "https://live.staticflickr.com/65535/49711707678_c7fb17bce4_o.jpg",
    "id_image": "Werewolf_239335",
    "count_view": 0
  },
  {
    "link_thumb": "https://live.staticflickr.com/65535/49711986641_8956be26e7_n.jpg",
    "id_album": "1006968559",
    "description": "LordoftheRings_114236",
    "title": "LordoftheRings_114236",
    "link_img": "https://live.staticflickr.com/65535/49711986641_aa1aa9f4c2_o.jpg",
    "id_image": "LordoftheRings_114236",
    "count_view": 0
  },
  {
    "link_thumb": "https://live.staticflickr.com/65535/49711623588_12277bce48_n.jpg",
    "id_album": "405170427",
    "description": "Tiger_451352",
    "title": "Tiger_451352",
    "link_img": "https://live.staticflickr.com/65535/49711623588_be323661b3_o.jpg",
    "id_image": "Tiger_451352",
    "count_view": 0
  },
  {
    "link_thumb": "https://live.staticflickr.com/65535/49710943486_6c69bfdf73_n.jpg",
    "id_album": "523598895",
    "description": "Artistic_151124",
    "title": "Artistic_151124",
    "link_img": "https://live.staticflickr.com/65535/49710943486_365c8e2474_o.jpg",
    "id_image": "Artistic_151124",
    "count_view": 0
  },
  {
    "link_thumb": "https://live.staticflickr.com/65535/49711051766_895a7f1291_n.jpg",
    "id_album": "-1541846310",
    "description": "Castle_677280",
    "title": "Castle_677280",
    "link_img": "https://live.staticflickr.com/65535/49711051766_851f63b41f_o.jpg",
    "id_image": "Castle_677280",
    "count_view": 0
  },
  {
    "link_thumb": "https://live.staticflickr.com/65535/49710791753_187e835040_n.jpg",
    "id_album": "1903411565",
    "description": "Deer_709751",
    "title": "Deer_709751",
    "link_img": "https://live.staticflickr.com/65535/49710791753_c9bbae095f_o.jpg",
    "id_image": "Deer_709751",
    "count_view": 0
  },
  {
    "link_thumb": "https://live.staticflickr.com/65535/49711095683_a2a8f81ccd_n.jpg",
    "id_album": "134100487",
    "description": "Elf_705428",
    "title": "Elf_705428",
    "link_img": "https://live.staticflickr.com/65535/49711095683_ea967e88de_o.jpg",
    "id_image": "Elf_705428",
    "count_view": 0
  },
  {
    "link_thumb": "https://live.staticflickr.com/65535/49711647963_4a4158babc_n.jpg",
    "id_album": "431597977",
    "description": "Unicorn_777023",
    "title": "Unicorn_777023",
    "link_img": "https://live.staticflickr.com/65535/49711647963_cd5ed9c125_o.jpg",
    "id_image": "Unicorn_777023",
    "count_view": 0
  },
  {
    "link_thumb": "https://live.staticflickr.com/65535/49711581833_1d2c03c1fa_n.jpg",
    "id_album": "407101116",
    "description": "SeaMonster_109537",
    "title": "SeaMonster_109537",
    "link_img": "https://live.staticflickr.com/65535/49711581833_d71fea7f9c_o.jpg",
    "id_image": "SeaMonster_109537",
    "count_view": 0
  },
  {
    "link_thumb": "https://live.staticflickr.com/65535/49712435341_38a522696e_n.jpg",
    "id_album": "1861288871",
    "description": "Women_222786",
    "title": "Women_222786",
    "link_img": "https://live.staticflickr.com/65535/49712435341_a9b4334258_o.jpg",
    "id_image": "Women_222786",
    "count_view": 0
  },
  {
    "link_thumb": "https://live.staticflickr.com/65535/49711586932_194cdf31c3_n.jpg",
    "id_album": "-437872736",
    "description": "Creature_703186",
    "title": "Creature_703186",
    "link_img": "https://live.staticflickr.com/65535/49711586932_afc1c13291_o.jpg",
    "id_image": "Creature_703186",
    "count_view": 0
  },
  {
    "link_thumb": "https://live.staticflickr.com/65535/49710910041_9ca29ed2e9_n.jpg",
    "id_album": "-1913845949",
    "description": "Animal_636069",
    "title": "Animal_636069",
    "link_img": "https://live.staticflickr.com/65535/49710910041_7783b9db83_o.jpg",
    "id_image": "Animal_636069",
    "count_view": 0
  },
  {
    "link_thumb": "https://live.staticflickr.com/65535/49711049253_d7be6a6ff8_n.jpg",
    "id_album": "850176884",
    "description": "Dragon_972157",
    "title": "Dragon_972157",
    "link_img": "https://live.staticflickr.com/65535/49711049253_68cef3df88_o.jpg",
    "id_image": "Dragon_972157",
    "count_view": 0
  },
  {
    "link_thumb": "https://live.staticflickr.com/65535/49711158241_3ec309747c_n.jpg",
    "id_album": "-437872736",
    "description": "Creature_214894",
    "title": "Creature_214894",
    "link_img": "https://live.staticflickr.com/65535/49711158241_341823ca86_o.jpg",
    "id_image": "Creature_214894",
    "count_view": 0
  },
  {
    "link_thumb": "https://live.staticflickr.com/65535/49712678802_31dd882620_n.jpg",
    "id_album": "295204930",
    "description": "Women_138346",
    "title": "Women_138346",
    "link_img": "https://live.staticflickr.com/65535/49712678802_1c4a00f9e9_o.jpg",
    "id_image": "Women_138346",
    "count_view": 0
  },
  {
    "link_thumb": "https://live.staticflickr.com/65535/49712090336_aec1545442_n.jpg",
    "id_album": "606798642",
    "description": "RedRidingHood_752059",
    "title": "RedRidingHood_752059",
    "link_img": "https://live.staticflickr.com/65535/49712090336_b3c14f2710_o.jpg",
    "id_image": "RedRidingHood_752059",
    "count_view": 0
  },
  {
    "link_thumb": "https://live.staticflickr.com/65535/49711244488_044af030f3_n.jpg",
    "id_album": "469960528",
    "description": "Knight_314704",
    "title": "Knight_314704",
    "link_img": "https://live.staticflickr.com/65535/49711244488_84e2f4ce15_o.jpg",
    "id_image": "Knight_314704",
    "count_view": 0
  },
  {
    "link_thumb": "https://live.staticflickr.com/65535/49711034606_841f67ca68_n.jpg",
    "id_album": "-1541846310",
    "description": "Castle_173960",
    "title": "Castle_173960",
    "link_img": "https://live.staticflickr.com/65535/49711034606_3fbe30e988_o.jpg",
    "id_image": "Castle_173960",
    "count_view": 0
  },
  {
    "link_thumb": "https://live.staticflickr.com/65535/49711480203_4a6cbe47e9_n.jpg",
    "id_album": "-222719689",
    "description": "Men_372528",
    "title": "Men_372528",
    "link_img": "https://live.staticflickr.com/65535/49711480203_09c4a58c1c_o.jpg",
    "id_image": "Men_372528",
    "count_view": 0
  },
  {
    "link_thumb": "https://live.staticflickr.com/65535/49711273247_dc3e51f3f3_n.jpg",
    "id_album": "523598895",
    "description": "Artistic_184489",
    "title": "Artistic_184489",
    "link_img": "https://live.staticflickr.com/65535/49711273247_9e23e754ab_o.jpg",
    "id_image": "Artistic_184489",
    "count_view": 0
  },
  {
    "link_thumb": "https://live.staticflickr.com/65535/49712483257_02afd47ee1_n.jpg",
    "id_album": "405170427",
    "description": "Tiger_665579",
    "title": "Tiger_665579",
    "link_img": "https://live.staticflickr.com/65535/49712483257_340b320a5d_o.jpg",
    "id_image": "Tiger_665579",
    "count_view": 0
  },
  {
    "link_thumb": "https://live.staticflickr.com/65535/49712155682_9e020c13d5_n.jpg",
    "id_album": "1402713104",
    "description": "Landscape_864102",
    "title": "Landscape_864102",
    "link_img": "https://live.staticflickr.com/65535/49712155682_2d88cca2b5_o.jpg",
    "id_image": "Landscape_864102",
    "count_view": 0
  },
  {
    "link_thumb": "https://live.staticflickr.com/65535/49711348011_b122fa933c_n.jpg",
    "id_album": "850176884",
    "description": "DRAGON26101916495833",
    "title": "DRAGON26101916495833",
    "link_img": "https://live.staticflickr.com/65535/49711348011_ae53253de2_o.jpg",
    "id_image": "DRAGON26101916495833",
    "count_view": 0
  },
  {
    "link_thumb": "https://live.staticflickr.com/65535/49712594792_9165f47850_n.jpg",
    "id_album": "-709711865",
    "description": "Wolf_280851",
    "title": "Wolf_280851",
    "link_img": "https://live.staticflickr.com/65535/49712594792_29b4bbe28c_o.jpg",
    "id_image": "Wolf_280851",
    "count_view": 0
  },
  {
    "link_thumb": "https://live.staticflickr.com/65535/49711345321_122eab3ff6_n.jpg",
    "id_album": "850176884",
    "description": "DRAGON2610191649292",
    "title": "DRAGON2610191649292",
    "link_img": "https://live.staticflickr.com/65535/49711345321_699228f766_o.jpg",
    "id_image": "DRAGON2610191649292",
    "count_view": 0
  },
  {
    "link_thumb": "https://live.staticflickr.com/65535/49711856397_b06706383a_n.jpg",
    "id_album": "850176884",
    "description": "Dragon_852184",
    "title": "Dragon_852184",
    "link_img": "https://live.staticflickr.com/65535/49711856397_44e28c908f_o.jpg",
    "id_image": "Dragon_852184",
    "count_view": 0
  },
  {
    "link_thumb": "https://live.staticflickr.com/65535/49711586603_1456e5a73c_n.jpg",
    "id_album": "407101116",
    "description": "SeaMonster_379188",
    "title": "SeaMonster_379188",
    "link_img": "https://live.staticflickr.com/65535/49711586603_c71ea4869b_o.jpg",
    "id_image": "SeaMonster_379188",
    "count_view": 0
  },
  {
    "link_thumb": "https://live.staticflickr.com/65535/49711488297_98174e4a3b_n.jpg",
    "id_album": "-437872736",
    "description": "Creature_234580",
    "title": "Creature_234580",
    "link_img": "https://live.staticflickr.com/65535/49711488297_a0821e1cf3_o.jpg",
    "id_image": "Creature_234580",
    "count_view": 0
  },
  {
    "link_thumb": "https://live.staticflickr.com/65535/49711063736_55ca38f91a_n.jpg",
    "id_album": "-1541846310",
    "description": "Castle_878221",
    "title": "Castle_878221",
    "link_img": "https://live.staticflickr.com/65535/49711063736_2490326a65_o.jpg",
    "id_image": "Castle_878221",
    "count_view": 0
  },
  {
    "link_thumb": "https://live.staticflickr.com/65535/49710866091_beda5aa09a_n.jpg",
    "id_album": "-2109465612",
    "description": "Adventure_283596",
    "title": "Adventure_283596",
    "link_img": "https://live.staticflickr.com/65535/49710866091_018c00d5e7_o.jpg",
    "id_image": "Adventure_283596",
    "count_view": 0
  },
  {
    "link_thumb": "https://live.staticflickr.com/65535/49711549861_e041701b6f_n.jpg",
    "id_album": "850176884",
    "description": "Dragon_883172",
    "title": "Dragon_883172",
    "link_img": "https://live.staticflickr.com/65535/49711549861_e322d17f33_o.jpg",
    "id_image": "Dragon_883172",
    "count_view": 0
  },
  {
    "link_thumb": "https://live.staticflickr.com/65535/49711042731_1fd4a4244b_n.jpg",
    "id_album": "-1541846310",
    "description": "Castle_323764",
    "title": "Castle_323764",
    "link_img": "https://live.staticflickr.com/65535/49711042731_d0064f12d0_o.jpg",
    "id_image": "Castle_323764",
    "count_view": 0
  },
  {
    "link_thumb": "https://live.staticflickr.com/65535/49711543447_2a44eb91be_n.jpg",
    "id_album": "-437872736",
    "description": "Creature_372458",
    "title": "Creature_372458",
    "link_img": "https://live.staticflickr.com/65535/49711543447_41364c55b8_o.jpg",
    "id_image": "Creature_372458",
    "count_view": 0
  },
  {
    "link_thumb": "https://live.staticflickr.com/65535/49711359046_6eda0acd4f_n.jpg",
    "id_album": "850176884",
    "description": "Dragon_121152",
    "title": "Dragon_121152",
    "link_img": "https://live.staticflickr.com/65535/49711359046_876881a1bd_o.jpg",
    "id_image": "Dragon_121152",
    "count_view": 0
  },
  {
    "link_thumb": "https://live.staticflickr.com/65535/49711386426_71b1e81ee3_n.jpg",
    "id_album": "850176884",
    "description": "Dragon_213667",
    "title": "Dragon_213667",
    "link_img": "https://live.staticflickr.com/65535/49711386426_fc4314a467_o.jpg",
    "id_image": "Dragon_213667",
    "count_view": 0
  },
  {
    "link_thumb": "https://live.staticflickr.com/65535/49711750006_c3d00b22d6_n.jpg",
    "id_album": "857581314",
    "description": "Griffin_197573",
    "title": "Griffin_197573",
    "link_img": "https://live.staticflickr.com/65535/49711750006_2ebbb42176_o.jpg",
    "id_image": "Griffin_197573",
    "count_view": 0
  },
  {
    "link_thumb": "https://live.staticflickr.com/65535/49711759352_e7ce46294a_n.jpg",
    "id_album": "850176884",
    "description": "Dragon_386168",
    "title": "Dragon_386168",
    "link_img": "https://live.staticflickr.com/65535/49711759352_18bca411e7_o.jpg",
    "id_image": "Dragon_386168",
    "count_view": 0
  },
  {
    "link_thumb": "https://live.staticflickr.com/65535/49711084296_b86cdf3e90_n.jpg",
    "id_album": "430704260",
    "description": "Child_910964",
    "title": "Child_910964",
    "link_img": "https://live.staticflickr.com/65535/49711084296_aac8c45eb5_o.jpg",
    "id_image": "Child_910964",
    "count_view": 0
  },
  {
    "link_thumb": "https://live.staticflickr.com/65535/49711856172_ab0ddc74e4_n.jpg",
    "id_album": "850176884",
    "description": "Dragon_851436",
    "title": "Dragon_851436",
    "link_img": "https://live.staticflickr.com/65535/49711856172_4698ea4fdd_o.jpg",
    "id_image": "Dragon_851436",
    "count_view": 0
  },
  {
    "link_thumb": "https://live.staticflickr.com/65535/49711405066_e81d9681e6_n.jpg",
    "id_album": "850176884",
    "description": "Dragon_267114",
    "title": "Dragon_267114",
    "link_img": "https://live.staticflickr.com/65535/49711405066_2dfc0a53d8_o.jpg",
    "id_image": "Dragon_267114",
    "count_view": 0
  },
  {
    "link_thumb": "https://live.staticflickr.com/65535/49711913997_94bc39c944_n.jpg",
    "id_album": "850176884",
    "description": "Dragon_989259",
    "title": "Dragon_989259",
    "link_img": "https://live.staticflickr.com/65535/49711913997_2e3db6dc8a_o.jpg",
    "id_image": "Dragon_989259",
    "count_view": 0
  },
  {
    "link_thumb": "https://live.staticflickr.com/65535/49711728733_39b4cae390_n.jpg",
    "id_album": "478331085",
    "description": "Witch_88501",
    "title": "Witch_88501",
    "link_img": "https://live.staticflickr.com/65535/49711728733_57382c21a5_o.jpg",
    "id_image": "Witch_88501",
    "count_view": 0
  },
  {
    "link_thumb": "https://live.staticflickr.com/65535/49711449961_37894b8fbd_n.jpg",
    "id_album": "850176884",
    "description": "Dragon_447623",
    "title": "Dragon_447623",
    "link_img": "https://live.staticflickr.com/65535/49711449961_a7bcce5153_o.jpg",
    "id_image": "Dragon_447623",
    "count_view": 0
  },
  {
    "link_thumb": "https://live.staticflickr.com/65535/49710666778_b91db7d892_n.jpg",
    "id_album": "-437872736",
    "description": "Creature_332031",
    "title": "Creature_332031",
    "link_img": "https://live.staticflickr.com/65535/49710666778_391f21b71d_o.jpg",
    "id_image": "Creature_332031",
    "count_view": 0
  },
  {
    "link_thumb": "https://live.staticflickr.com/65535/49711590433_b0341347af_n.jpg",
    "id_album": "407101116",
    "description": "SeaMonster_915894",
    "title": "SeaMonster_915894",
    "link_img": "https://live.staticflickr.com/65535/49711590433_a883f8573e_o.jpg",
    "id_image": "SeaMonster_915894",
    "count_view": 0
  },
  {
    "link_thumb": "https://live.staticflickr.com/65535/49711890193_735a97129a_n.jpg",
    "id_album": "1861288871",
    "description": "Women_130933",
    "title": "Women_130933",
    "link_img": "https://live.staticflickr.com/65535/49711890193_26e37145cd_o.jpg",
    "id_image": "Women_130933",
    "count_view": 0
  },
  {
    "link_thumb": "https://live.staticflickr.com/65535/49711638668_ef978f1895_n.jpg",
    "id_album": "46520366",
    "description": "Turtle_969694",
    "title": "Turtle_969694",
    "link_img": "https://live.staticflickr.com/65535/49711638668_d3654dda64_o.jpg",
    "id_image": "Turtle_969694",
    "count_view": 0
  },
  {
    "link_thumb": "https://live.staticflickr.com/65535/49711515847_b2cc39878d_n.jpg",
    "id_album": "-437872736",
    "description": "Creature_315079",
    "title": "Creature_315079",
    "link_img": "https://live.staticflickr.com/65535/49711515847_cd3fa019b0_o.jpg",
    "id_image": "Creature_315079",
    "count_view": 0
  },
  {
    "link_thumb": "https://live.staticflickr.com/65535/49712559457_6dcf540c61_n.jpg",
    "id_album": "-1261420436",
    "description": "Warrior_927157",
    "title": "Warrior_927157",
    "link_img": "https://live.staticflickr.com/65535/49712559457_30d3727f94_o.jpg",
    "id_image": "Warrior_927157",
    "count_view": 0
  },
  {
    "link_thumb": "https://live.staticflickr.com/65535/49726864408_f291e326a0_n.jpg",
    "id_album": "850176884",
    "description": "Dragon_599131",
    "title": "Dragon_599131",
    "link_img": "https://live.staticflickr.com/65535/49726864408_6aeac83828_o.jpg",
    "id_image": "Dragon_599131",
    "count_view": 0
  },
  {
    "link_thumb": "https://live.staticflickr.com/65535/49711885522_ccef71053b_n.jpg",
    "id_album": "850176884",
    "description": "Dragon_913015",
    "title": "Dragon_913015",
    "link_img": "https://live.staticflickr.com/65535/49711885522_aafd9de2a2_o.jpg",
    "id_image": "Dragon_913015",
    "count_view": 0
  },
  {
    "link_thumb": "https://live.staticflickr.com/65535/49710373663_0cc9a38452_n.jpg",
    "id_album": "-1913845949",
    "description": "Animal_636044",
    "title": "Animal_636044",
    "link_img": "https://live.staticflickr.com/65535/49710373663_43cc341f36_o.jpg",
    "id_image": "Animal_636044",
    "count_view": 0
  },
  {
    "link_thumb": "https://live.staticflickr.com/65535/49712222752_758cfc2141_n.jpg",
    "id_album": "-833110404",
    "description": "Landscape_249853",
    "title": "Landscape_249853",
    "link_img": "https://live.staticflickr.com/65535/49712222752_7cacac4209_o.jpg",
    "id_image": "Landscape_249853",
    "count_view": 0
  },
  {
    "link_thumb": "https://live.staticflickr.com/65535/49712502321_0dfef3ec3f_n.jpg",
    "id_album": "-867594484",
    "description": "Women_548680",
    "title": "Women_548680",
    "link_img": "https://live.staticflickr.com/65535/49712502321_bea667318c_o.jpg",
    "id_image": "Women_548680",
    "count_view": 0
  },
  {
    "link_thumb": "https://live.staticflickr.com/65535/49711726157_78c5be16cb_n.jpg",
    "id_album": "850176884",
    "description": "Dragon_265079",
    "title": "Dragon_265079",
    "link_img": "https://live.staticflickr.com/65535/49711726157_4cc3fae264_o.jpg",
    "id_image": "Dragon_265079",
    "count_view": 0
  },
  {
    "link_thumb": "https://live.staticflickr.com/65535/49712713147_dac544f733_n.jpg",
    "id_album": "295204930",
    "description": "Women_393634",
    "title": "Women_393634",
    "link_img": "https://live.staticflickr.com/65535/49712713147_eb46f29438_o.jpg",
    "id_image": "Women_393634",
    "count_view": 0
  },
  {
    "link_thumb": "https://live.staticflickr.com/65535/49712041801_5a46f9f057_n.jpg",
    "id_album": "1892085513",
    "description": "Oriental_297029",
    "title": "Oriental_297029",
    "link_img": "https://live.staticflickr.com/65535/49712041801_fc045e2816_o.jpg",
    "id_image": "Oriental_297029",
    "count_view": 0
  },
  {
    "link_thumb": "https://live.staticflickr.com/65535/49711745893_0e86fb7faf_n.jpg",
    "id_album": "-709711865",
    "description": "Wolf_635013",
    "title": "Wolf_635013",
    "link_img": "https://live.staticflickr.com/65535/49711745893_9c374105b3_o.jpg",
    "id_image": "Wolf_635013",
    "count_view": 0
  },
  {
    "link_thumb": "https://live.staticflickr.com/65535/49712212207_e2ea3dd0f5_n.jpg",
    "id_album": "-833110404",
    "description": "Landscape_146504",
    "title": "Landscape_146504",
    "link_img": "https://live.staticflickr.com/65535/49712212207_627afaa789_o.jpg",
    "id_image": "Landscape_146504",
    "count_view": 0
  },
  {
    "link_thumb": "https://live.staticflickr.com/65535/49711201377_088d92256d_n.jpg",
    "id_album": "-1000175186",
    "description": "AngelWarrior_264307",
    "title": "AngelWarrior_264307",
    "link_img": "https://live.staticflickr.com/65535/49711201377_6252fba222_o.jpg",
    "id_image": "AngelWarrior_264307",
    "count_view": 0
  },
  {
    "link_thumb": "https://live.staticflickr.com/65535/49711145336_4f8a37b311_n.jpg",
    "id_album": "-437872736",
    "description": "Creature_152645",
    "title": "Creature_152645",
    "link_img": "https://live.staticflickr.com/65535/49711145336_09b8968b2a_o.jpg",
    "id_image": "Creature_152645",
    "count_view": 0
  },
  {
    "link_thumb": "https://live.staticflickr.com/65535/49712655071_4703fcf02d_n.jpg",
    "id_album": "-1675918237",
    "description": "WomenWarrior_694674",
    "title": "WomenWarrior_694674",
    "link_img": "https://live.staticflickr.com/65535/49712655071_a189e30430_o.jpg",
    "id_image": "WomenWarrior_694674",
    "count_view": 0
  },
  {
    "link_thumb": "https://live.staticflickr.com/65535/49712097441_e8c18845c3_n.jpg",
    "id_album": "1223576123",
    "description": "Ruin_703347",
    "title": "Ruin_703347",
    "link_img": "https://live.staticflickr.com/65535/49712097441_739ecb13ac_o.jpg",
    "id_image": "Ruin_703347",
    "count_view": 0
  },
  {
    "link_thumb": "https://live.staticflickr.com/65535/49712173757_c184c559de_n.jpg",
    "id_album": "1402713104",
    "description": "Landscape_883450",
    "title": "Landscape_883450",
    "link_img": "https://live.staticflickr.com/65535/49712173757_44a3244251_o.jpg",
    "id_image": "Landscape_883450",
    "count_view": 0
  },
  {
    "link_thumb": "https://live.staticflickr.com/65535/49710863008_d4fc57f1a8_n.jpg",
    "id_album": "850176884",
    "description": "Dragon_247870",
    "title": "Dragon_247870",
    "link_img": "https://live.staticflickr.com/65535/49710863008_d49c334e01_o.jpg",
    "id_image": "Dragon_247870",
    "count_view": 0
  },
  {
    "link_thumb": "https://live.staticflickr.com/65535/49712233682_074389de57_n.jpg",
    "id_album": "-833110404",
    "description": "Landscape_285194",
    "title": "Landscape_285194",
    "link_img": "https://live.staticflickr.com/65535/49712233682_8bf0f30045_o.jpg",
    "id_image": "Landscape_285194",
    "count_view": 0
  },
  {
    "link_thumb": "https://live.staticflickr.com/65535/49711605388_3be4d366bf_n.jpg",
    "id_album": "-5356651",
    "description": "Sorcerer_112719",
    "title": "Sorcerer_112719",
    "link_img": "https://live.staticflickr.com/65535/49711605388_e49412dee8_o.jpg",
    "id_image": "Sorcerer_112719",
    "count_view": 0
  },
  {
    "link_thumb": "https://live.staticflickr.com/65535/49711013338_b98929b506_n.jpg",
    "id_album": "850176884",
    "description": "Dragon_878422",
    "title": "Dragon_878422",
    "link_img": "https://live.staticflickr.com/65535/49711013338_0546ffcdae_o.jpg",
    "id_image": "Dragon_878422",
    "count_view": 0
  },
  {
    "link_thumb": "https://live.staticflickr.com/65535/49711690922_facd7a2144_n.jpg",
    "id_album": "850176884",
    "description": "Dragon_129822",
    "title": "Dragon_129822",
    "link_img": "https://live.staticflickr.com/65535/49711690922_0989c53c12_o.jpg",
    "id_image": "Dragon_129822",
    "count_view": 0
  },
  {
    "link_thumb": "https://live.staticflickr.com/65535/49711553608_0ba2cd5e60_n.jpg",
    "id_album": "606798642",
    "description": "RedRidingHood_294924",
    "title": "RedRidingHood_294924",
    "link_img": "https://live.staticflickr.com/65535/49711553608_a78305d262_o.jpg",
    "id_image": "RedRidingHood_294924",
    "count_view": 0
  },
  {
    "link_thumb": "https://live.staticflickr.com/65535/49711230013_78e5738d44_n.jpg",
    "id_album": "1957967226",
    "description": "House_357503",
    "title": "House_357503",
    "link_img": "https://live.staticflickr.com/65535/49711230013_70d6251ce7_o.jpg",
    "id_image": "House_357503",
    "count_view": 0
  },
  {
    "link_thumb": "https://live.staticflickr.com/65535/49712420892_95d45267fd_n.jpg",
    "id_album": "1223576123",
    "description": "Ruin_870483",
    "title": "Ruin_870483",
    "link_img": "https://live.staticflickr.com/65535/49712420892_d9a1cc7717_o.jpg",
    "id_image": "Ruin_870483",
    "count_view": 0
  },
  {
    "link_thumb": "https://live.staticflickr.com/65535/49712774432_db6dcc19af_n.jpg",
    "id_album": "1861288871",
    "description": "Women_745743",
    "title": "Women_745743",
    "link_img": "https://live.staticflickr.com/65535/49712774432_f7d6f63511_o.jpg",
    "id_image": "Women_745743",
    "count_view": 0
  },
  {
    "link_thumb": "https://live.staticflickr.com/65535/49712705636_5df526426d_n.jpg",
    "id_album": "-1207759647",
    "description": "Zodiac_286854",
    "title": "Zodiac_286854",
    "link_img": "https://live.staticflickr.com/65535/49712705636_b1750e135e_o.jpg",
    "id_image": "Zodiac_286854",
    "count_view": 0
  },
  {
    "link_thumb": "https://live.staticflickr.com/65535/49711204473_08b51f252c_n.jpg",
    "id_album": "402434752",
    "description": "Giant_972112",
    "title": "Giant_972112",
    "link_img": "https://live.staticflickr.com/65535/49711204473_751e38cf75_o.jpg",
    "id_image": "Giant_972112",
    "count_view": 0
  },
  {
    "link_thumb": "https://live.staticflickr.com/65535/49710518498_4069d6cb3c_n.jpg",
    "id_album": "-1541846310",
    "description": "Castle_703392",
    "title": "Castle_703392",
    "link_img": "https://live.staticflickr.com/65535/49710518498_e7c53732f6_o.jpg",
    "id_image": "Castle_703392",
    "count_view": 0
  },
  {
    "link_thumb": "https://live.staticflickr.com/65535/49711693492_b60b8da1e1_n.jpg",
    "id_album": "850176884",
    "description": "Dragon_144579",
    "title": "Dragon_144579",
    "link_img": "https://live.staticflickr.com/65535/49711693492_702f216c65_o.jpg",
    "id_image": "Dragon_144579",
    "count_view": 0
  },
  {
    "link_thumb": "https://live.staticflickr.com/65535/49712778987_1aa1e48661_n.jpg",
    "id_album": "1861288871",
    "description": "Women_750340",
    "title": "Women_750340",
    "link_img": "https://live.staticflickr.com/65535/49712778987_a1d6a4a494_o.jpg",
    "id_image": "Women_750340",
    "count_view": 0
  },
  {
    "link_thumb": "https://live.staticflickr.com/65535/49710544418_f0607aa77e_n.jpg",
    "id_album": "430704260",
    "description": "Child_715986",
    "title": "Child_715986",
    "link_img": "https://live.staticflickr.com/65535/49710544418_7186b61745_o.jpg",
    "id_image": "Child_715986",
    "count_view": 0
  },
  {
    "link_thumb": "https://live.staticflickr.com/65535/49711534233_1223078a46_n.jpg",
    "id_album": "-1326601535",
    "description": "Phoenix_307448",
    "title": "Phoenix_307448",
    "link_img": "https://live.staticflickr.com/65535/49711534233_aa539439f8_o.jpg",
    "id_image": "Phoenix_307448",
    "count_view": 0
  },
  {
    "link_thumb": "https://live.staticflickr.com/65535/49711004391_603889fefd_n.jpg",
    "id_album": "1187037014",
    "description": "Battle_594682",
    "title": "Battle_594682",
    "link_img": "https://live.staticflickr.com/65535/49711004391_2bb300f587_o.jpg",
    "id_image": "Battle_594682",
    "count_view": 0
  },
  {
    "link_thumb": "https://live.staticflickr.com/65535/49712607002_7e55532236_n.jpg",
    "id_album": "-709711865",
    "description": "Wolf_655554",
    "title": "Wolf_655554",
    "link_img": "https://live.staticflickr.com/65535/49712607002_70c3495f9f_o.jpg",
    "id_image": "Wolf_655554",
    "count_view": 0
  },
  {
    "link_thumb": "https://live.staticflickr.com/65535/49711545196_d786eb5010_n.jpg",
    "id_album": "850176884",
    "description": "Dragon_873495",
    "title": "Dragon_873495",
    "link_img": "https://live.staticflickr.com/65535/49711545196_44957d0a46_o.jpg",
    "id_image": "Dragon_873495",
    "count_view": 0
  },
  {
    "link_thumb": "https://live.staticflickr.com/65535/49711469592_42754aedf2_n.jpg",
    "id_album": "-437872736",
    "description": "Creature_152624",
    "title": "Creature_152624",
    "link_img": "https://live.staticflickr.com/65535/49711469592_93a0ea27ca_o.jpg",
    "id_image": "Creature_152624",
    "count_view": 0
  },
  {
    "link_thumb": "https://live.staticflickr.com/65535/49710718078_6c8713e2b2_n.jpg",
    "id_album": "-437872736",
    "description": "Creature_618486",
    "title": "Creature_618486",
    "link_img": "https://live.staticflickr.com/65535/49710718078_ef3b5a0595_o.jpg",
    "id_image": "Creature_618486",
    "count_view": 0
  },
  {
    "link_thumb": "https://live.staticflickr.com/65535/49711048163_522866a5d4_n.jpg",
    "id_album": "850176884",
    "description": "Dragon_969411",
    "title": "Dragon_969411",
    "link_img": "https://live.staticflickr.com/65535/49711048163_4e99db6f5a_o.jpg",
    "id_image": "Dragon_969411",
    "count_view": 0
  },
  {
    "link_thumb": "https://live.staticflickr.com/65535/49711263232_24ae449351_n.jpg",
    "id_album": "523598895",
    "description": "Artistic_118667",
    "title": "Artistic_118667",
    "link_img": "https://live.staticflickr.com/65535/49711263232_76a2da7b71_o.jpg",
    "id_image": "Artistic_118667",
    "count_view": 0
  },
  {
    "link_thumb": "https://live.staticflickr.com/65535/49711236511_8450191efc_n.jpg",
    "id_album": "-437872736",
    "description": "Creature_493913",
    "title": "Creature_493913",
    "link_img": "https://live.staticflickr.com/65535/49711236511_f6e00f330e_o.jpg",
    "id_image": "Creature_493913",
    "count_view": 0
  },
  {
    "link_thumb": "https://live.staticflickr.com/65535/49711431836_7cc832866d_n.jpg",
    "id_album": "850176884",
    "description": "Dragon_353791",
    "title": "Dragon_353791",
    "link_img": "https://live.staticflickr.com/65535/49711431836_bc52b5a7a2_o.jpg",
    "id_image": "Dragon_353791",
    "count_view": 0
  },
  {
    "link_thumb": "https://live.staticflickr.com/65535/49711354956_8c826c161d_n.jpg",
    "id_album": "850176884",
    "description": "Dragon_109212",
    "title": "Dragon_109212",
    "link_img": "https://live.staticflickr.com/65535/49711354956_4973074168_o.jpg",
    "id_image": "Dragon_109212",
    "count_view": 0
  },
  {
    "link_thumb": "https://live.staticflickr.com/65535/49711238782_a3e31d9e81_n.jpg",
    "id_album": "-1913845949",
    "description": "Animal_692972",
    "title": "Animal_692972",
    "link_img": "https://live.staticflickr.com/65535/49711238782_99f890821d_o.jpg",
    "id_image": "Animal_692972",
    "count_view": 0
  },
  {
    "link_thumb": "https://live.staticflickr.com/65535/49711032961_af1c1e2b79_n.jpg",
    "id_album": "-1541846310",
    "description": "Castle_146685",
    "title": "Castle_146685",
    "link_img": "https://live.staticflickr.com/65535/49711032961_63bd805d19_o.jpg",
    "id_image": "Castle_146685",
    "count_view": 0
  },
  {
    "link_thumb": "https://live.staticflickr.com/65535/49710493468_d2e3cf6a59_n.jpg",
    "id_album": "406431601",
    "description": "Building_922959",
    "title": "Building_922959",
    "link_img": "https://live.staticflickr.com/65535/49710493468_6290e23fe4_o.jpg",
    "id_image": "Building_922959",
    "count_view": 0
  },
  {
    "link_thumb": "https://live.staticflickr.com/65535/49711112158_7f60623036_n.jpg",
    "id_album": "-1972042284",
    "description": "Fairy_154167",
    "title": "Fairy_154167",
    "link_img": "https://live.staticflickr.com/65535/49711112158_0e420195af_o.jpg",
    "id_image": "Fairy_154167",
    "count_view": 0
  },
  {
    "link_thumb": "https://live.staticflickr.com/65535/49711247142_7f8273547b_n.jpg",
    "id_album": "-1913845949",
    "description": "Animal_946574",
    "title": "Animal_946574",
    "link_img": "https://live.staticflickr.com/65535/49711247142_63854ac6dc_o.jpg",
    "id_image": "Animal_946574",
    "count_view": 0
  },
  {
    "link_thumb": "https://live.staticflickr.com/65535/49711157683_03a3c7bbb4_n.jpg",
    "id_album": "-1083189875",
    "description": "Forest_244085",
    "title": "Forest_244085",
    "link_img": "https://live.staticflickr.com/65535/49711157683_af40b50bc1_o.jpg",
    "id_image": "Forest_244085",
    "count_view": 0
  },
  {
    "link_thumb": "https://live.staticflickr.com/65535/49711283336_2125062f43_n.jpg",
    "id_album": "-437872736",
    "description": "Creature_958684",
    "title": "Creature_958684",
    "link_img": "https://live.staticflickr.com/65535/49711283336_82e9e9a168_o.jpg",
    "id_image": "Creature_958684",
    "count_view": 0
  },
  {
    "link_thumb": "https://live.staticflickr.com/65535/49710357858_d18082d13d_n.jpg",
    "id_album": "-1000175186",
    "description": "AngelWarrior_993604",
    "title": "AngelWarrior_993604",
    "link_img": "https://live.staticflickr.com/65535/49710357858_3e47d892e6_o.jpg",
    "id_image": "AngelWarrior_993604",
    "count_view": 0
  },
  {
    "link_thumb": "https://live.staticflickr.com/65535/49710864406_848c17c4a8_n.jpg",
    "id_album": "-2109465612",
    "description": "Adventure_250349",
    "title": "Adventure_250349",
    "link_img": "https://live.staticflickr.com/65535/49710864406_7d05341d5e_o.jpg",
    "id_image": "Adventure_250349",
    "count_view": 0
  },
  {
    "link_thumb": "https://live.staticflickr.com/65535/49710882833_64e491f68e_n.jpg",
    "id_album": "850176884",
    "description": "Dragon_321627",
    "title": "Dragon_321627",
    "link_img": "https://live.staticflickr.com/65535/49710882833_bfa6150ebf_o.jpg",
    "id_image": "Dragon_321627",
    "count_view": 0
  },
  {
    "link_thumb": "https://live.staticflickr.com/65535/49711257157_105ddb2de5_n.jpg",
    "id_album": "-1560111795",
    "description": "Archer_701062",
    "title": "Archer_701062",
    "link_img": "https://live.staticflickr.com/65535/49711257157_70c511b9c4_o.jpg",
    "id_image": "Archer_701062",
    "count_view": 0
  },
  {
    "link_thumb": "https://live.staticflickr.com/65535/49710839803_939b20b687_n.jpg",
    "id_album": "850176884",
    "description": "Dragon_169766",
    "title": "Dragon_169766",
    "link_img": "https://live.staticflickr.com/65535/49710839803_91b616490a_o.jpg",
    "id_image": "Dragon_169766",
    "count_view": 0
  },
  {
    "link_thumb": "https://live.staticflickr.com/65535/49711995437_af80f82e3a_n.jpg",
    "id_album": "-1972042284",
    "description": "Fairy_644447",
    "title": "Fairy_644447",
    "link_img": "https://live.staticflickr.com/65535/49711995437_783334b252_o.jpg",
    "id_image": "Fairy_644447",
    "count_view": 0
  },
  {
    "link_thumb": "https://live.staticflickr.com/65535/49711192632_67d31b2b97_n.jpg",
    "id_album": "-2109465612",
    "description": "Adventure_702073",
    "title": "Adventure_702073",
    "link_img": "https://live.staticflickr.com/65535/49711192632_d3ec8fe5bd_o.jpg",
    "id_image": "Adventure_702073",
    "count_view": 0
  },
  {
    "link_thumb": "https://live.staticflickr.com/65535/49711795148_2fb99bb7dc_n.jpg",
    "id_album": "-1126835654",
    "description": "Women_887135",
    "title": "Women_887135",
    "link_img": "https://live.staticflickr.com/65535/49711795148_a7d868d6f8_o.jpg",
    "id_image": "Women_887135",
    "count_view": 0
  },
  {
    "link_thumb": "https://live.staticflickr.com/65535/49712619847_2b14fdff09_n.jpg",
    "id_album": "-709711865",
    "description": "Wolf_917186",
    "title": "Wolf_917186",
    "link_img": "https://live.staticflickr.com/65535/49712619847_b230d53a0a_o.jpg",
    "id_image": "Wolf_917186",
    "count_view": 0
  },
  {
    "link_thumb": "https://live.staticflickr.com/65535/49711579123_1594d14abd_n.jpg",
    "id_album": "-1611961467",
    "description": "Samurai_934644",
    "title": "Samurai_934644",
    "link_img": "https://live.staticflickr.com/65535/49711579123_e6a8dd2105_o.jpg",
    "id_image": "Samurai_934644",
    "count_view": 0
  },
  {
    "link_thumb": "https://live.staticflickr.com/65535/49712241022_7c587defdd_n.jpg",
    "id_album": "-833110404",
    "description": "Landscape_294934",
    "title": "Landscape_294934",
    "link_img": "https://live.staticflickr.com/65535/49712241022_86c90fd335_o.jpg",
    "id_image": "Landscape_294934",
    "count_view": 0
  },
  {
    "link_thumb": "https://live.staticflickr.com/65535/49711780021_42dbd3e8da_n.jpg",
    "id_album": "469960528",
    "description": "Knight_341833",
    "title": "Knight_341833",
    "link_img": "https://live.staticflickr.com/65535/49711780021_c1f3793f07_o.jpg",
    "id_image": "Knight_341833",
    "count_view": 0
  },
  {
    "link_thumb": "https://live.staticflickr.com/65535/49710719773_a5130c4d70_n.jpg",
    "id_album": "-437872736",
    "description": "Creature_655555",
    "title": "Creature_655555",
    "link_img": "https://live.staticflickr.com/65535/49710719773_b3cba6f9da_o.jpg",
    "id_image": "Creature_655555",
    "count_view": 0
  },
  {
    "link_thumb": "https://live.staticflickr.com/65535/49711417257_fec441b556_n.jpg",
    "id_album": "-1964113117",
    "description": "City_232422",
    "title": "City_232422",
    "link_img": "https://live.staticflickr.com/65535/49711417257_5989575536_o.jpg",
    "id_image": "City_232422",
    "count_view": 0
  },
  {
    "link_thumb": "https://live.staticflickr.com/65535/49710929243_9149483988_n.jpg",
    "id_album": "850176884",
    "description": "Dragon_505250",
    "title": "Dragon_505250",
    "link_img": "https://live.staticflickr.com/65535/49710929243_343a9792ac_o.jpg",
    "id_image": "Dragon_505250",
    "count_view": 0
  },
  {
    "link_thumb": "https://live.staticflickr.com/65535/49710751343_970e9f392e_n.jpg",
    "id_album": "-437872736",
    "description": "Creature_958710",
    "title": "Creature_958710",
    "link_img": "https://live.staticflickr.com/65535/49710751343_c2dc17a249_o.jpg",
    "id_image": "Creature_958710",
    "count_view": 0
  },
  {
    "link_thumb": "https://live.staticflickr.com/65535/49711542426_9ae9a6c918_n.jpg",
    "id_album": "850176884",
    "description": "Dragon_869185",
    "title": "Dragon_869185",
    "link_img": "https://live.staticflickr.com/65535/49711542426_7352864e46_o.jpg",
    "id_image": "Dragon_869185",
    "count_view": 0
  },
  {
    "link_thumb": "https://live.staticflickr.com/65535/49711310677_6412c15d88_n.jpg",
    "id_album": "1187037014",
    "description": "Battle_239864",
    "title": "Battle_239864",
    "link_img": "https://live.staticflickr.com/65535/49711310677_d00e961ce1_o.jpg",
    "id_image": "Battle_239864",
    "count_view": 0
  },
  {
    "link_thumb": "https://live.staticflickr.com/65535/49711281972_0433de4b67_n.jpg",
    "id_album": "523598895",
    "description": "Artistic_253843",
    "title": "Artistic_253843",
    "link_img": "https://live.staticflickr.com/65535/49711281972_429e9c2f11_o.jpg",
    "id_image": "Artistic_253843",
    "count_view": 0
  },
  {
    "link_thumb": "https://live.staticflickr.com/65535/49711480438_2c19dcfb70_n.jpg",
    "id_album": "-222719689",
    "description": "Men_382224",
    "title": "Men_382224",
    "link_img": "https://live.staticflickr.com/65535/49711480438_a18564a1cb_o.jpg",
    "id_image": "Men_382224",
    "count_view": 0
  },
  {
    "link_thumb": "https://live.staticflickr.com/65535/49711720412_8c24952b50_n.jpg",
    "id_album": "850176884",
    "description": "Dragon_245873",
    "title": "Dragon_245873",
    "link_img": "https://live.staticflickr.com/65535/49711720412_dc104f591d_o.jpg",
    "id_image": "Dragon_245873",
    "count_view": 0
  },
  {
    "link_thumb": "https://live.staticflickr.com/65535/49710849518_4a81e9f5ba_n.jpg",
    "id_album": "850176884",
    "description": "Dragon_212896",
    "title": "Dragon_212896",
    "link_img": "https://live.staticflickr.com/65535/49710849518_a3e184ae51_o.jpg",
    "id_image": "Dragon_212896",
    "count_view": 0
  },
  {
    "link_thumb": "https://live.staticflickr.com/65535/49711984127_d147b4ee3e_n.jpg",
    "id_album": "-1972042284",
    "description": "Fairy_357588",
    "title": "Fairy_357588",
    "link_img": "https://live.staticflickr.com/65535/49711984127_0d85cf3be4_o.jpg",
    "id_image": "Fairy_357588",
    "count_view": 0
  },
  {
    "link_thumb": "https://live.staticflickr.com/65535/49710729323_b142f84ca2_n.jpg",
    "id_album": "-437872736",
    "description": "Creature_740977",
    "title": "Creature_740977",
    "link_img": "https://live.staticflickr.com/65535/49710729323_713b87c8c1_o.jpg",
    "id_image": "Creature_740977",
    "count_view": 0
  },
  {
    "link_thumb": "https://live.staticflickr.com/65535/49711370048_e72b58d42c_n.jpg",
    "id_album": "-833110404",
    "description": "Landscape_274801",
    "title": "Landscape_274801",
    "link_img": "https://live.staticflickr.com/65535/49711370048_343c96973b_o.jpg",
    "id_image": "Landscape_274801",
    "count_view": 0
  },
  {
    "link_thumb": "https://live.staticflickr.com/65535/49711761967_29ee03083a_n.jpg",
    "id_album": "850176884",
    "description": "Dragon_397643",
    "title": "Dragon_397643",
    "link_img": "https://live.staticflickr.com/65535/49711761967_a3718d0562_o.jpg",
    "id_image": "Dragon_397643",
    "count_view": 0
  },
  {
    "link_thumb": "https://live.staticflickr.com/65535/49711323078_1a0b0c509f_n.jpg",
    "id_album": "1402713104",
    "description": "Landscape_919782",
    "title": "Landscape_919782",
    "link_img": "https://live.staticflickr.com/65535/49711323078_70ffd5a327_o.jpg",
    "id_image": "Landscape_919782",
    "count_view": 0
  },
  {
    "link_thumb": "https://live.staticflickr.com/65535/49712540641_46366557ac_n.jpg",
    "id_album": "-867594484",
    "description": "Women_694547",
    "title": "Women_694547",
    "link_img": "https://live.staticflickr.com/65535/49712540641_e78518235e_o.jpg",
    "id_image": "Women_694547",
    "count_view": 0
  },
  {
    "link_thumb": "https://live.staticflickr.com/65535/49711842181_528e323558_n.jpg",
    "id_album": "1402713104",
    "description": "Landscape_868401",
    "title": "Landscape_868401",
    "link_img": "https://live.staticflickr.com/65535/49711842181_6eebf79482_o.jpg",
    "id_image": "Landscape_868401",
    "count_view": 0
  },
  {
    "link_thumb": "https://live.staticflickr.com/65535/49712624802_4a47634ac3_n.jpg",
    "id_album": "-362161606",
    "description": "WOMAN2610191652114",
    "title": "WOMAN2610191652114",
    "link_img": "https://live.staticflickr.com/65535/49712624802_8915aef2b3_o.jpg",
    "id_image": "WOMAN2610191652114",
    "count_view": 0
  },
  {
    "link_thumb": "https://live.staticflickr.com/65535/49711271463_c0f991cc03_n.jpg",
    "id_album": "1402713104",
    "description": "Landscape_707133",
    "title": "Landscape_707133",
    "link_img": "https://live.staticflickr.com/65535/49711271463_3396a4c501_o.jpg",
    "id_image": "Landscape_707133",
    "count_view": 0
  },
  {
    "link_thumb": "https://live.staticflickr.com/65535/49711593963_84d8e3437c_n.jpg",
    "id_album": "-395228614",
    "description": "Ship_172769",
    "title": "Ship_172769",
    "link_img": "https://live.staticflickr.com/65535/49711593963_1783b6755f_o.jpg",
    "id_image": "Ship_172769",
    "count_view": 0
  },
  {
    "link_thumb": "https://live.staticflickr.com/65535/49711839787_da2f4bdb05_n.jpg",
    "id_album": "850176884",
    "description": "Dragon_735347",
    "title": "Dragon_735347",
    "link_img": "https://live.staticflickr.com/65535/49711839787_becae278fd_o.jpg",
    "id_image": "Dragon_735347",
    "count_view": 0
  },
  {
    "link_thumb": "https://live.staticflickr.com/65535/49711813441_c2e85d44e6_n.jpg",
    "id_album": "1402713104",
    "description": "Landscape_727650",
    "title": "Landscape_727650",
    "link_img": "https://live.staticflickr.com/65535/49711813441_1f1a3f797a_o.jpg",
    "id_image": "Landscape_727650",
    "count_view": 0
  },
  {
    "link_thumb": "https://live.staticflickr.com/65535/49711771418_b54d52440c_n.jpg",
    "id_album": "-1126835654",
    "description": "Women_114208",
    "title": "Women_114208",
    "link_img": "https://live.staticflickr.com/65535/49711771418_c95ba2a711_o.jpg",
    "id_image": "Women_114208",
    "count_view": 0
  },
  {
    "link_thumb": "https://live.staticflickr.com/65535/49711243928_be66beeb2c_n.jpg",
    "id_album": "469960528",
    "description": "Knight_290265",
    "title": "Knight_290265",
    "link_img": "https://live.staticflickr.com/65535/49711243928_592fb8cb0c_o.jpg",
    "id_image": "Knight_290265",
    "count_view": 0
  },
  {
    "link_thumb": "https://live.staticflickr.com/65535/49711008273_a11a27c874_n.jpg",
    "id_album": "850176884",
    "description": "Dragon_870493",
    "title": "Dragon_870493",
    "link_img": "https://live.staticflickr.com/65535/49711008273_5066aabdc9_o.jpg",
    "id_image": "Dragon_870493",
    "count_view": 0
  },
  {
    "link_thumb": "https://live.staticflickr.com/65535/49712336006_c8a3c9180f_n.jpg",
    "id_album": "-1126835654",
    "description": "Women_911880",
    "title": "Women_911880",
    "link_img": "https://live.staticflickr.com/65535/49712336006_b4fe7cf489_o.jpg",
    "id_image": "Women_911880",
    "count_view": 0
  },
  {
    "link_thumb": "https://live.staticflickr.com/65535/49712517196_f01454af86_n.jpg",
    "id_album": "-867594484",
    "description": "Women_592773",
    "title": "Women_592773",
    "link_img": "https://live.staticflickr.com/65535/49712517196_58d4c08600_o.jpg",
    "id_image": "Women_592773",
    "count_view": 0
  },
  {
    "link_thumb": "https://live.staticflickr.com/65535/49711268982_d4576844fb_n.jpg",
    "id_album": "523598895",
    "description": "Artistic_152438",
    "title": "Artistic_152438",
    "link_img": "https://live.staticflickr.com/65535/49711268982_dac977a3b7_o.jpg",
    "id_image": "Artistic_152438",
    "count_view": 0
  },
  {
    "link_thumb": "https://live.staticflickr.com/65535/49711388812_d31e731759_n.jpg",
    "id_album": "-1541846310",
    "description": "Castle_891859",
    "title": "Castle_891859",
    "link_img": "https://live.staticflickr.com/65535/49711388812_c52e888242_o.jpg",
    "id_image": "Castle_891859",
    "count_view": 0
  },
  {
    "link_thumb": "https://live.staticflickr.com/65535/49710756083_e00c20292f_n.jpg",
    "id_album": "-437872736",
    "description": "Creature_958879",
    "title": "Creature_958879",
    "link_img": "https://live.staticflickr.com/65535/49710756083_1ea915aae0_o.jpg",
    "id_image": "Creature_958879",
    "count_view": 0
  },
  {
    "link_thumb": "https://live.staticflickr.com/65535/49711248326_27c6fa25fd_n.jpg",
    "id_album": "-437872736",
    "description": "Creature_561467",
    "title": "Creature_561467",
    "link_img": "https://live.staticflickr.com/65535/49711248326_0b2e81a614_o.jpg",
    "id_image": "Creature_561467",
    "count_view": 0
  },
  {
    "link_thumb": "https://live.staticflickr.com/65535/49711887907_7d29cd4d6a_n.jpg",
    "id_album": "850176884",
    "description": "Dragon_920315",
    "title": "Dragon_920315",
    "link_img": "https://live.staticflickr.com/65535/49711887907_c30d56ef6a_o.jpg",
    "id_image": "Dragon_920315",
    "count_view": 0
  },
  {
    "link_thumb": "https://live.staticflickr.com/65535/49712104892_7ffc0e88c0_n.jpg",
    "id_album": "469960528",
    "description": "Knight_511167",
    "title": "Knight_511167",
    "link_img": "https://live.staticflickr.com/65535/49712104892_e9bd4fb90d_o.jpg",
    "id_image": "Knight_511167",
    "count_view": 0
  },
  {
    "link_thumb": "https://live.staticflickr.com/65535/49711001191_6453314af0_n.jpg",
    "id_album": "1187037014",
    "description": "Battle_495623",
    "title": "Battle_495623",
    "link_img": "https://live.staticflickr.com/65535/49711001191_b509612c09_o.jpg",
    "id_image": "Battle_495623",
    "count_view": 0
  },
  {
    "link_thumb": "https://live.staticflickr.com/65535/49711259633_d66baa4766_n.jpg",
    "id_album": "1402713104",
    "description": "Landscape_646636",
    "title": "Landscape_646636",
    "link_img": "https://live.staticflickr.com/65535/49711259633_1ac19ab2e7_o.jpg",
    "id_image": "Landscape_646636",
    "count_view": 0
  },
  {
    "link_thumb": "https://live.staticflickr.com/65535/49711580523_f7270d43fa_n.jpg",
    "id_album": "-1611961467",
    "description": "Samurai_987362",
    "title": "Samurai_987362",
    "link_img": "https://live.staticflickr.com/65535/49711580523_b06a142f69_o.jpg",
    "id_image": "Samurai_987362",
    "count_view": 0
  },
  {
    "link_thumb": "https://live.staticflickr.com/65535/49710724898_6982816aa6_n.jpg",
    "id_album": "-437872736",
    "description": "Creature_690260",
    "title": "Creature_690260",
    "link_img": "https://live.staticflickr.com/65535/49710724898_e055452539_o.jpg",
    "id_image": "Creature_690260",
    "count_view": 0
  },
  {
    "link_thumb": "https://live.staticflickr.com/65535/49710530608_433151e8c6_n.jpg",
    "id_album": "-1541846310",
    "description": "Castle_892772",
    "title": "Castle_892772",
    "link_img": "https://live.staticflickr.com/65535/49710530608_8bcc12440a_o.jpg",
    "id_image": "Castle_892772",
    "count_view": 0
  },
  {
    "link_thumb": "https://live.staticflickr.com/65535/49711001393_7f08f9fdc7_n.jpg",
    "id_album": "850176884",
    "description": "Dragon_857306",
    "title": "Dragon_857306",
    "link_img": "https://live.staticflickr.com/65535/49711001393_cbdf5e0eee_o.jpg",
    "id_image": "Dragon_857306",
    "count_view": 0
  },
  {
    "link_thumb": "https://live.staticflickr.com/65535/49711150361_fcd3ed792b_n.jpg",
    "id_album": "-437872736",
    "description": "Creature_164775",
    "title": "Creature_164775",
    "link_img": "https://live.staticflickr.com/65535/49711150361_8359947fae_o.jpg",
    "id_image": "Creature_164775",
    "count_view": 0
  },
  {
    "link_thumb": "https://live.staticflickr.com/65535/49710629908_de0d8340c2_n.jpg",
    "id_album": "-437872736",
    "description": "Creature_241150",
    "title": "Creature_241150",
    "link_img": "https://live.staticflickr.com/65535/49710629908_284cc56643_o.jpg",
    "id_image": "Creature_241150",
    "count_view": 0
  },
  {
    "link_thumb": "https://live.staticflickr.com/65535/49712339582_ea5a093ca8_n.jpg",
    "id_album": "-222719689",
    "description": "Men_527067",
    "title": "Men_527067",
    "link_img": "https://live.staticflickr.com/65535/49712339582_d5aba9f325_o.jpg",
    "id_image": "Men_527067",
    "count_view": 0
  },
  {
    "link_thumb": "https://live.staticflickr.com/65535/49711316643_08ee0a207b_n.jpg",
    "id_album": "1402713104",
    "description": "Landscape_890107",
    "title": "Landscape_890107",
    "link_img": "https://live.staticflickr.com/65535/49711316643_6dc1fa6133_o.jpg",
    "id_image": "Landscape_890107",
    "count_view": 0
  },
  {
    "link_thumb": "https://live.staticflickr.com/65535/49711243177_1f85701637_n.jpg",
    "id_album": "-1913845949",
    "description": "Animal_868513",
    "title": "Animal_868513",
    "link_img": "https://live.staticflickr.com/65535/49711243177_b3b34cc140_o.jpg",
    "id_image": "Animal_868513",
    "count_view": 0
  },
  {
    "link_thumb": "https://live.staticflickr.com/65535/49711226617_d6eeed52b3_n.jpg",
    "id_album": "-1913845949",
    "description": "Animal_512019",
    "title": "Animal_512019",
    "link_img": "https://live.staticflickr.com/65535/49711226617_86decfff1d_o.jpg",
    "id_image": "Animal_512019",
    "count_view": 0
  },
  {
    "link_thumb": "https://live.staticflickr.com/65535/49711379033_1e43d9a4f7_n.jpg",
    "id_album": "-833110404",
    "description": "Landscape_289745",
    "title": "Landscape_289745",
    "link_img": "https://live.staticflickr.com/65535/49711379033_2c39f69f7f_o.jpg",
    "id_image": "Landscape_289745",
    "count_view": 0
  },
  {
    "link_thumb": "https://live.staticflickr.com/65535/49711196732_466d2e23d2_n.jpg",
    "id_album": "-956471126",
    "description": "AliceInWonderland_876336",
    "title": "AliceInWonderland_876336",
    "link_img": "https://live.staticflickr.com/65535/49711196732_aef8b63ea9_o.jpg",
    "id_image": "AliceInWonderland_876336",
    "count_view": 0
  },
  {
    "link_thumb": "https://live.staticflickr.com/65535/49711524373_3e2d6b71b3_n.jpg",
    "id_album": "-639976841",
    "description": "Pegasus_136423",
    "title": "Pegasus_136423",
    "link_img": "https://live.staticflickr.com/65535/49711524373_2d73797717_o.jpg",
    "id_image": "Pegasus_136423",
    "count_view": 0
  },
  {
    "link_thumb": "https://live.staticflickr.com/65535/49711845433_f4e2d15cfe_n.jpg",
    "id_album": "295204930",
    "description": "Women_340996",
    "title": "Women_340996",
    "link_img": "https://live.staticflickr.com/65535/49711845433_83281837d4_o.jpg",
    "id_image": "Women_340996",
    "count_view": 0
  },
  {
    "link_thumb": "https://live.staticflickr.com/65535/49711564683_3b0e7f2c02_n.jpg",
    "id_album": "1223576123",
    "description": "Ruin_964118",
    "title": "Ruin_964118",
    "link_img": "https://live.staticflickr.com/65535/49711564683_bb5076de33_o.jpg",
    "id_image": "Ruin_964118",
    "count_view": 0
  },
  {
    "link_thumb": "https://live.staticflickr.com/65535/49712748417_4100e43f2c_n.jpg",
    "id_album": "1861288871",
    "description": "Women_123967",
    "title": "Women_123967",
    "link_img": "https://live.staticflickr.com/65535/49712748417_792e8b3fd3_o.jpg",
    "id_image": "Women_123967",
    "count_view": 0
  },
  {
    "link_thumb": "https://live.staticflickr.com/65535/49711355668_5319f4485f_n.jpg",
    "id_album": "-833110404",
    "description": "Landscape_187704",
    "title": "Landscape_187704",
    "link_img": "https://live.staticflickr.com/65535/49711355668_0ec5e2b569_o.jpg",
    "id_image": "Landscape_187704",
    "count_view": 0
  },
  {
    "link_thumb": "https://live.staticflickr.com/65535/49712671447_583a8c7a49_n.jpg",
    "id_album": "-1126835654",
    "description": "Women_983729",
    "title": "Women_983729",
    "link_img": "https://live.staticflickr.com/65535/49712671447_3d96145f14_o.jpg",
    "id_image": "Women_983729",
    "count_view": 0
  },
  {
    "link_thumb": "https://live.staticflickr.com/65535/49711099623_d1c37622af_n.jpg",
    "id_album": "134100487",
    "description": "Elf_785285",
    "title": "Elf_785285",
    "link_img": "https://live.staticflickr.com/65535/49711099623_a3870072d5_o.jpg",
    "id_image": "Elf_785285",
    "count_view": 0
  },
  {
    "link_thumb": "https://live.staticflickr.com/65535/49711705717_7cbe26f272_n.jpg",
    "id_album": "850176884",
    "description": "Dragon_199621",
    "title": "Dragon_199621",
    "link_img": "https://live.staticflickr.com/65535/49711705717_01fdea4afe_o.jpg",
    "id_image": "Dragon_199621",
    "count_view": 0
  },
  {
    "link_thumb": "https://live.staticflickr.com/65535/49711311407_e8ac805b68_n.jpg",
    "id_album": "1187037014",
    "description": "Battle_242335",
    "title": "Battle_242335",
    "link_img": "https://live.staticflickr.com/65535/49711311407_1b37d33196_o.jpg",
    "id_image": "Battle_242335",
    "count_view": 0
  },
  {
    "link_thumb": "https://live.staticflickr.com/65535/49710985396_229118e7e3_n.jpg",
    "id_album": "1187037014",
    "description": "Battle_205953",
    "title": "Battle_205953",
    "link_img": "https://live.staticflickr.com/65535/49710985396_4d47b8372b_o.jpg",
    "id_image": "Battle_205953",
    "count_view": 0
  },
  {
    "link_thumb": "https://live.staticflickr.com/65535/49712267582_2b5d0c5bd6_n.jpg",
    "id_album": "-833110404",
    "description": "Landscape_435405",
    "title": "Landscape_435405",
    "link_img": "https://live.staticflickr.com/65535/49712267582_c3ec427c12_o.jpg",
    "id_image": "Landscape_435405",
    "count_view": 0
  },
  {
    "link_thumb": "https://live.staticflickr.com/65535/49710486233_9770d02a6a_n.jpg",
    "id_album": "-1846011410",
    "description": "Bird_976332",
    "title": "Bird_976332",
    "link_img": "https://live.staticflickr.com/65535/49710486233_613dfa8426_o.jpg",
    "id_image": "Bird_976332",
    "count_view": 0
  },
  {
    "link_thumb": "https://live.staticflickr.com/65535/49712024142_b4f64ae5b6_n.jpg",
    "id_album": "-1083189875",
    "description": "Forest_590162",
    "title": "Forest_590162",
    "link_img": "https://live.staticflickr.com/65535/49712024142_a5e79a698d_o.jpg",
    "id_image": "Forest_590162",
    "count_view": 0
  },
  {
    "link_thumb": "https://live.staticflickr.com/65535/49711660407_7c10af9876_n.jpg",
    "id_album": "7198985",
    "description": "Demon_499631",
    "title": "Demon_499631",
    "link_img": "https://live.staticflickr.com/65535/49711660407_4e1a06ffc0_o.jpg",
    "id_image": "Demon_499631",
    "count_view": 0
  },
  {
    "link_thumb": "https://live.staticflickr.com/65535/49711796893_d80c946f62_n.jpg",
    "id_album": "-1126835654",
    "description": "Women_896020",
    "title": "Women_896020",
    "link_img": "https://live.staticflickr.com/65535/49711796893_f1f5fca58d_o.jpg",
    "id_image": "Women_896020",
    "count_view": 0
  },
  {
    "link_thumb": "https://live.staticflickr.com/65535/49711245541_ab08617068_n.jpg",
    "id_album": "-437872736",
    "description": "Creature_533623",
    "title": "Creature_533623",
    "link_img": "https://live.staticflickr.com/65535/49711245541_0832901be1_o.jpg",
    "id_image": "Creature_533623",
    "count_view": 0
  },
  {
    "link_thumb": "https://live.staticflickr.com/65535/49712205586_463e59191b_n.jpg",
    "id_album": "-1261420436",
    "description": "Warrior_304260",
    "title": "Warrior_304260",
    "link_img": "https://live.staticflickr.com/65535/49712205586_b914a3bf3f_o.jpg",
    "id_image": "Warrior_304260",
    "count_view": 0
  },
  {
    "link_thumb": "https://live.staticflickr.com/65535/49710398688_291cbbf642_n.jpg",
    "id_album": "-1560111795",
    "description": "Archer_490010",
    "title": "Archer_490010",
    "link_img": "https://live.staticflickr.com/65535/49710398688_0e3443521e_o.jpg",
    "id_image": "Archer_490010",
    "count_view": 0
  },
  {
    "link_thumb": "https://live.staticflickr.com/65535/49712608212_20c18e0f4b_n.jpg",
    "id_album": "-709711865",
    "description": "Wolf_680906",
    "title": "Wolf_680906",
    "link_img": "https://live.staticflickr.com/65535/49712608212_030a86cd22_o.jpg",
    "id_image": "Wolf_680906",
    "count_view": 0
  },
  {
    "link_thumb": "https://live.staticflickr.com/65535/49711402053_0fcdd1b725_n.jpg",
    "id_album": "-833110404",
    "description": "Landscape_405771",
    "title": "Landscape_405771",
    "link_img": "https://live.staticflickr.com/65535/49711402053_21a1fe0fa7_o.jpg",
    "id_image": "Landscape_405771",
    "count_view": 0
  },
  {
    "link_thumb": "https://live.staticflickr.com/65535/49710984361_b60646a951_n.jpg",
    "id_album": "1187037014",
    "description": "Battle_176704",
    "title": "Battle_176704",
    "link_img": "https://live.staticflickr.com/65535/49710984361_ed862bbc8a_o.jpg",
    "id_image": "Battle_176704",
    "count_view": 0
  },
  {
    "link_thumb": "https://live.staticflickr.com/65535/49710584538_8e34e15bd2_n.jpg",
    "id_album": "-1964113117",
    "description": "City_829620",
    "title": "City_829620",
    "link_img": "https://live.staticflickr.com/65535/49710584538_2aba0cedc5_o.jpg",
    "id_image": "City_829620",
    "count_view": 0
  },
  {
    "link_thumb": "https://live.staticflickr.com/65535/49711007436_a76bb6c948_n.jpg",
    "id_album": "1187037014",
    "description": "Battle_696459",
    "title": "Battle_696459",
    "link_img": "https://live.staticflickr.com/65535/49711007436_a11560b81a_o.jpg",
    "id_image": "Battle_696459",
    "count_view": 0
  },
  {
    "link_thumb": "https://live.staticflickr.com/65535/49710437458_b47a8e8e85_n.jpg",
    "id_album": "523598895",
    "description": "Artistic_546309",
    "title": "Artistic_546309",
    "link_img": "https://live.staticflickr.com/65535/49710437458_abf25dc5c6_o.jpg",
    "id_image": "Artistic_546309",
    "count_view": 0
  },
  {
    "link_thumb": "https://live.staticflickr.com/65535/49710890293_85edf06958_n.jpg",
    "id_album": "850176884",
    "description": "Dragon_331502",
    "title": "Dragon_331502",
    "link_img": "https://live.staticflickr.com/65535/49710890293_1ac139bbaa_o.jpg",
    "id_image": "Dragon_331502",
    "count_view": 0
  },
  {
    "link_thumb": "https://live.staticflickr.com/65535/49711108061_1e71596716_n.jpg",
    "id_album": "-1964113117",
    "description": "City_586383",
    "title": "City_586383",
    "link_img": "https://live.staticflickr.com/65535/49711108061_b8f0ef5c38_o.jpg",
    "id_image": "City_586383",
    "count_view": 0
  },
  {
    "link_thumb": "https://live.staticflickr.com/65535/49710690203_0aa77b6f2b_n.jpg",
    "id_album": "-437872736",
    "description": "Creature_393167",
    "title": "Creature_393167",
    "link_img": "https://live.staticflickr.com/65535/49710690203_032b6796dd_o.jpg",
    "id_image": "Creature_393167",
    "count_view": 0
  },
  {
    "link_thumb": "https://live.staticflickr.com/65535/49711292722_4f5ffcdee9_n.jpg",
    "id_album": "523598895",
    "description": "Artistic_460110",
    "title": "Artistic_460110",
    "link_img": "https://live.staticflickr.com/65535/49711292722_fc2f19063f_o.jpg",
    "id_image": "Artistic_460110",
    "count_view": 0
  },
  {
    "link_thumb": "https://live.staticflickr.com/65535/49711477756_e50bbb263a_n.jpg",
    "id_album": "850176884",
    "description": "Dragon_540537",
    "title": "Dragon_540537",
    "link_img": "https://live.staticflickr.com/65535/49711477756_669ce6612e_o.jpg",
    "id_image": "Dragon_540537",
    "count_view": 0
  },
  {
    "link_thumb": "https://live.staticflickr.com/65535/49710495313_d70ed353a2_n.jpg",
    "id_album": "406431601",
    "description": "Building_977475",
    "title": "Building_977475",
    "link_img": "https://live.staticflickr.com/65535/49710495313_339038da7f_o.jpg",
    "id_image": "Building_977475",
    "count_view": 0
  },
  {
    "link_thumb": "https://live.staticflickr.com/65535/49711379318_0d07322422_n.jpg",
    "id_album": "-833110404",
    "description": "Landscape_290330",
    "title": "Landscape_290330",
    "link_img": "https://live.staticflickr.com/65535/49711379318_0e5e314ffb_o.jpg",
    "id_image": "Landscape_290330",
    "count_view": 0
  },
  {
    "link_thumb": "https://live.staticflickr.com/65535/49710950358_70bd06e899_n.jpg",
    "id_album": "850176884",
    "description": "Dragon_582406",
    "title": "Dragon_582406",
    "link_img": "https://live.staticflickr.com/65535/49710950358_1530095beb_o.jpg",
    "id_image": "Dragon_582406",
    "count_view": 0
  },
  {
    "link_thumb": "https://live.staticflickr.com/65535/49710979223_eabd13b31e_n.jpg",
    "id_album": "850176884",
    "description": "Dragon_720211",
    "title": "Dragon_720211",
    "link_img": "https://live.staticflickr.com/65535/49710979223_c2c16720f7_o.jpg",
    "id_image": "Dragon_720211",
    "count_view": 0
  },
  {
    "link_thumb": "https://live.staticflickr.com/65535/49710862738_59fa9e3689_n.jpg",
    "id_album": "850176884",
    "description": "Dragon_247372",
    "title": "Dragon_247372",
    "link_img": "https://live.staticflickr.com/65535/49710862738_abe285c5ae_o.jpg",
    "id_image": "Dragon_247372",
    "count_view": 0
  },
  {
    "link_thumb": "https://live.staticflickr.com/65535/49711378547_49b097663e_n.jpg",
    "id_album": "-1541846310",
    "description": "Castle_707113",
    "title": "Castle_707113",
    "link_img": "https://live.staticflickr.com/65535/49711378547_39ef049b13_o.jpg",
    "id_image": "Castle_707113",
    "count_view": 0
  },
  {
    "link_thumb": "https://live.staticflickr.com/65535/49711167881_cfefa41417_n.jpg",
    "id_album": "-437872736",
    "description": "Creature_260862",
    "title": "Creature_260862",
    "link_img": "https://live.staticflickr.com/65535/49711167881_1ff72b7781_o.jpg",
    "id_image": "Creature_260862",
    "count_view": 0
  },
  {
    "link_thumb": "https://live.staticflickr.com/65535/49712516486_5d16b73215_n.jpg",
    "id_album": "-867594484",
    "description": "Women_587817",
    "title": "Women_587817",
    "link_img": "https://live.staticflickr.com/65535/49712516486_f2299015e6_o.jpg",
    "id_image": "Women_587817",
    "count_view": 0
  },
  {
    "link_thumb": "https://live.staticflickr.com/65535/49711729298_dc44c85e67_n.jpg",
    "id_album": "478331085",
    "description": "Witch_91300",
    "title": "Witch_91300",
    "link_img": "https://live.staticflickr.com/65535/49711729298_42b2753b73_o.jpg",
    "id_image": "Witch_91300",
    "count_view": 0
  },
  {
    "link_thumb": "https://live.staticflickr.com/65535/49711300668_5f7ca1870c_n.jpg",
    "id_album": "1402713104",
    "description": "Landscape_864520",
    "title": "Landscape_864520",
    "link_img": "https://live.staticflickr.com/65535/49711300668_2e67c110af_o.jpg",
    "id_image": "Landscape_864520",
    "count_view": 0
  },
  {
    "link_thumb": "https://live.staticflickr.com/65535/49712068867_6cda9cd94e_n.jpg",
    "id_album": "1131236559",
    "description": "Gods_56082",
    "title": "Gods_56082",
    "link_img": "https://live.staticflickr.com/65535/49712068867_78b14dae6e_o.jpg",
    "id_image": "Gods_56082",
    "count_view": 0
  },
  {
    "link_thumb": "https://live.staticflickr.com/65535/49711727307_dd8d7f276f_n.jpg",
    "id_album": "850176884",
    "description": "Dragon_268472",
    "title": "Dragon_268472",
    "link_img": "https://live.staticflickr.com/65535/49711727307_2cd2b06a5f_o.jpg",
    "id_image": "Dragon_268472",
    "count_view": 0
  },
  {
    "link_thumb": "https://live.staticflickr.com/65535/49712176987_8ddf5c5c7e_n.jpg",
    "id_album": "1402713104",
    "description": "Landscape_906140",
    "title": "Landscape_906140",
    "link_img": "https://live.staticflickr.com/65535/49712176987_408bd4d059_o.jpg",
    "id_image": "Landscape_906140",
    "count_view": 0
  },
  {
    "link_thumb": "https://live.staticflickr.com/65535/49711650043_924b621096_n.jpg",
    "id_album": "431597977",
    "description": "Unicorn_96705",
    "title": "Unicorn_96705",
    "link_img": "https://live.staticflickr.com/65535/49711650043_44d6d4fcb8_o.jpg",
    "id_image": "Unicorn_96705",
    "count_view": 0
  },
  {
    "link_thumb": "https://live.staticflickr.com/65535/49711684342_5fc9d90008_n.jpg",
    "id_album": "850176884",
    "description": "Dragon_122304",
    "title": "Dragon_122304",
    "link_img": "https://live.staticflickr.com/65535/49711684342_e6b9375dbb_o.jpg",
    "id_image": "Dragon_122304",
    "count_view": 0
  },
  {
    "link_thumb": "https://live.staticflickr.com/65535/49710730303_d6bc445545_n.jpg",
    "id_album": "-437872736",
    "description": "Creature_76447",
    "title": "Creature_76447",
    "link_img": "https://live.staticflickr.com/65535/49710730303_29e5057bb4_o.jpg",
    "id_image": "Creature_76447",
    "count_view": 0
  },
  {
    "link_thumb": "https://live.staticflickr.com/65535/49710870351_6e271aa386_n.jpg",
    "id_album": "-956471126",
    "description": "AliceInWonderland_176806",
    "title": "AliceInWonderland_176806",
    "link_img": "https://live.staticflickr.com/65535/49710870351_55ae331523_o.jpg",
    "id_image": "AliceInWonderland_176806",
    "count_view": 0
  },
  {
    "link_thumb": "https://live.staticflickr.com/65535/49712984987_efcbb55393_n.jpg",
    "id_album": "-1675918237",
    "description": "WomenWarrior_720318",
    "title": "WomenWarrior_720318",
    "link_img": "https://live.staticflickr.com/65535/49712984987_779243f108_o.jpg",
    "id_image": "WomenWarrior_720318",
    "count_view": 0
  },
  {
    "link_thumb": "https://live.staticflickr.com/65535/49711273637_037b551802_n.jpg",
    "id_album": "523598895",
    "description": "Artistic_187799",
    "title": "Artistic_187799",
    "link_img": "https://live.staticflickr.com/65535/49711273637_43b855cc8f_o.jpg",
    "id_image": "Artistic_187799",
    "count_view": 0
  },
  {
    "link_thumb": "https://live.staticflickr.com/65535/49711168713_9251fe70ca_n.jpg",
    "id_album": "-1083189875",
    "description": "Forest_676685",
    "title": "Forest_676685",
    "link_img": "https://live.staticflickr.com/65535/49711168713_7f8b04ec0c_o.jpg",
    "id_image": "Forest_676685",
    "count_view": 0
  },
  {
    "link_thumb": "https://live.staticflickr.com/65535/49711729103_03e287b595_n.jpg",
    "id_album": "478331085",
    "description": "Witch_899788",
    "title": "Witch_899788",
    "link_img": "https://live.staticflickr.com/65535/49711729103_70fec1bae4_o.jpg",
    "id_image": "Witch_899788",
    "count_view": 0
  },
  {
    "link_thumb": "https://live.staticflickr.com/65535/49711775053_71ddd86586_n.jpg",
    "id_album": "-1126835654",
    "description": "Women_853016",
    "title": "Women_853016",
    "link_img": "https://live.staticflickr.com/65535/49711775053_811df3831e_o.jpg",
    "id_image": "Women_853016",
    "count_view": 0
  },
  {
    "link_thumb": "https://live.staticflickr.com/65535/49711249982_571fe551c9_n.jpg",
    "id_album": "-1913845949",
    "description": "Animal_982290",
    "title": "Animal_982290",
    "link_img": "https://live.staticflickr.com/65535/49711249982_7757770791_o.jpg",
    "id_image": "Animal_982290",
    "count_view": 0
  },
  {
    "link_thumb": "https://live.staticflickr.com/65535/49712408346_8ee0e70d68_n.jpg",
    "id_album": "295204930",
    "description": "Women_703659",
    "title": "Women_703659",
    "link_img": "https://live.staticflickr.com/65535/49712408346_d69b4de792_o.jpg",
    "id_image": "Women_703659",
    "count_view": 0
  },
  {
    "link_thumb": "https://live.staticflickr.com/65535/49711223126_b328cb4d80_n.jpg",
    "id_album": "-437872736",
    "description": "Creature_384541",
    "title": "Creature_384541",
    "link_img": "https://live.staticflickr.com/65535/49711223126_69415a9042_o.jpg",
    "id_image": "Creature_384541",
    "count_view": 0
  },
  {
    "link_thumb": "https://live.staticflickr.com/65535/49711303096_21b590f651_n.jpg",
    "id_album": "-437872736",
    "description": "Creature_958964",
    "title": "Creature_958964",
    "link_img": "https://live.staticflickr.com/65535/49711303096_c2c1b5e219_o.jpg",
    "id_image": "Creature_958964",
    "count_view": 0
  },
  {
    "link_thumb": "https://live.staticflickr.com/65535/49712188707_c269963f13_n.jpg",
    "id_album": "1402713104",
    "description": "Landscape_945946",
    "title": "Landscape_945946",
    "link_img": "https://live.staticflickr.com/65535/49712188707_c423817a82_o.jpg",
    "id_image": "Landscape_945946",
    "count_view": 0
  },
  {
    "link_thumb": "https://live.staticflickr.com/65535/49710491008_c63890ac54_n.jpg",
    "id_album": "406431601",
    "description": "Building_861555",
    "title": "Building_861555",
    "link_img": "https://live.staticflickr.com/65535/49710491008_83d85bedcc_o.jpg",
    "id_image": "Building_861555",
    "count_view": 0
  },
  {
    "link_thumb": "https://live.staticflickr.com/65535/49711477476_207fe6d671_n.jpg",
    "id_album": "850176884",
    "description": "Dragon_540526",
    "title": "Dragon_540526",
    "link_img": "https://live.staticflickr.com/65535/49711477476_7a374053aa_o.jpg",
    "id_image": "Dragon_540526",
    "count_view": 0
  },
  {
    "link_thumb": "https://live.staticflickr.com/65535/49711405697_3f908271e3_n.jpg",
    "id_album": "430704260",
    "description": "Child_747963",
    "title": "Child_747963",
    "link_img": "https://live.staticflickr.com/65535/49711405697_0aba42e763_o.jpg",
    "id_image": "Child_747963",
    "count_view": 0
  },
  {
    "link_thumb": "https://live.staticflickr.com/65535/49712470777_06b82d24a7_n.jpg",
    "id_album": "1240974613",
    "description": "Sorceress_994732",
    "title": "Sorceress_994732",
    "link_img": "https://live.staticflickr.com/65535/49712470777_37d78a7d96_o.jpg",
    "id_image": "Sorceress_994732",
    "count_view": 0
  },
  {
    "link_thumb": "https://live.staticflickr.com/65535/49710437033_45391b63df_n.jpg",
    "id_album": "523598895",
    "description": "Artistic_546249",
    "title": "Artistic_546249",
    "link_img": "https://live.staticflickr.com/65535/49710437033_50f2902bf0_o.jpg",
    "id_image": "Artistic_546249",
    "count_view": 0
  },
  {
    "link_thumb": "https://live.staticflickr.com/65535/49712062736_8689d44be5_n.jpg",
    "id_album": "-639976841",
    "description": "Pegasus_314710",
    "title": "Pegasus_314710",
    "link_img": "https://live.staticflickr.com/65535/49712062736_5ec7dbb37a_o.jpg",
    "id_image": "Pegasus_314710",
    "count_view": 0
  },
  {
    "link_thumb": "https://live.staticflickr.com/65535/49711736387_1a689515a3_n.jpg",
    "id_album": "850176884",
    "description": "Dragon_308644",
    "title": "Dragon_308644",
    "link_img": "https://live.staticflickr.com/65535/49711736387_3d96e22b39_o.jpg",
    "id_image": "Dragon_308644",
    "count_view": 0
  },
  {
    "link_thumb": "https://live.staticflickr.com/65535/49711008893_bba01a87d1_n.jpg",
    "id_album": "850176884",
    "description": "Dragon_871535",
    "title": "Dragon_871535",
    "link_img": "https://live.staticflickr.com/65535/49711008893_bb0b298051_o.jpg",
    "id_image": "Dragon_871535",
    "count_view": 0
  },
  {
    "link_thumb": "https://live.staticflickr.com/65535/49711930727_7ba4f8840c_n.jpg",
    "id_album": "134100487",
    "description": "Elf_288393",
    "title": "Elf_288393",
    "link_img": "https://live.staticflickr.com/65535/49711930727_4e6fa7e843_o.jpg",
    "id_image": "Elf_288393",
    "count_view": 0
  },
  {
    "link_thumb": "https://live.staticflickr.com/65535/49711746252_d0892f7b32_n.jpg",
    "id_album": "850176884",
    "description": "Dragon_329353",
    "title": "Dragon_329353",
    "link_img": "https://live.staticflickr.com/65535/49711746252_53587ffec6_o.jpg",
    "id_image": "Dragon_329353",
    "count_view": 0
  }
]