[
  {
    "link_thumb": "https://live.staticflickr.com/65535/49712436481_1b1620405e_n.jpg",
    "id_album": "1861288871",
    "description": "Women_233091",
    "title": "Women_233091",
    "link_img": "https://live.staticflickr.com/65535/49712436481_b17f029104_o.jpg",
    "id_image": "Women_233091",
    "count_view": 0
  },
  {
    "link_thumb": "https://live.staticflickr.com/65535/49712501006_b29fc3ebda_n.jpg",
    "id_album": "-867594484",
    "description": "Women_541330",
    "title": "Women_541330",
    "link_img": "https://live.staticflickr.com/65535/49712501006_a577c6d69d_o.jpg",
    "id_image": "Women_541330",
    "count_view": 0
  },
  {
    "link_thumb": "https://live.staticflickr.com/65535/49711350222_6fb1306998_n.jpg",
    "id_album": "406431601",
    "description": "Building_867577",
    "title": "Building_867577",
    "link_img": "https://live.staticflickr.com/65535/49711350222_9f93839d12_o.jpg",
    "id_image": "Building_867577",
    "count_view": 0
  },
  {
    "link_thumb": "https://live.staticflickr.com/65535/49711028123_ede2f41789_n.jpg",
    "id_album": "850176884",
    "description": "Dragon_912994",
    "title": "Dragon_912994",
    "link_img": "https://live.staticflickr.com/65535/49711028123_6e9dda9d71_o.jpg",
    "id_image": "Dragon_912994",
    "count_view": 0
  },
  {
    "link_thumb": "https://live.staticflickr.com/65535/49711197431_47fa6508f1_n.jpg",
    "id_album": "-437872736",
    "description": "Creature_326302",
    "title": "Creature_326302",
    "link_img": "https://live.staticflickr.com/65535/49711197431_60da6f8736_o.jpg",
    "id_image": "Creature_326302",
    "count_view": 0
  },
  {
    "link_thumb": "https://live.staticflickr.com/65535/49711390092_fb506d049e_n.jpg",
    "id_album": "-1541846310",
    "description": "Castle_89508",
    "title": "Castle_89508",
    "link_img": "https://live.staticflickr.com/65535/49711390092_ca92f7cee9_o.jpg",
    "id_image": "Castle_89508",
    "count_view": 0
  },
  {
    "link_thumb": "https://live.staticflickr.com/65535/49710424438_5e8d603782_n.jpg",
    "id_album": "523598895",
    "description": "Artistic_253355",
    "title": "Artistic_253355",
    "link_img": "https://live.staticflickr.com/65535/49710424438_687d483766_o.jpg",
    "id_image": "Artistic_253355",
    "count_view": 0
  },
  {
    "link_thumb": "https://live.staticflickr.com/65535/49711566317_efc0f56ec8_n.jpg",
    "id_album": "-437872736",
    "description": "Creature_513416",
    "title": "Creature_513416",
    "link_img": "https://live.staticflickr.com/65535/49711566317_b1e85e0770_o.jpg",
    "id_image": "Creature_513416",
    "count_view": 0
  },
  {
    "link_thumb": "https://live.staticflickr.com/65535/49711001461_24f048b936_n.jpg",
    "id_album": "1187037014",
    "description": "Battle_511012",
    "title": "Battle_511012",
    "link_img": "https://live.staticflickr.com/65535/49711001461_64d22979f1_o.jpg",
    "id_image": "Battle_511012",
    "count_view": 0
  },
  {
    "link_thumb": "https://live.staticflickr.com/65535/49799128097_6aed688761_n.jpg",
    "id_album": "-1703946758",
    "description": "ANIME_PIC_5a0635d6d626ed1fd286d994394df529",
    "title": "ANIME_PIC_5a0635d6d626ed1fd286d994394df529",
    "link_img": "https://live.staticflickr.com/65535/49799128097_4368ba5166_o.jpg",
    "id_image": "ANIME_PIC_5a0635d6d626ed1fd286d994394df529",
    "count_view": 0
  },
  {
    "link_thumb": "https://live.staticflickr.com/65535/49712287997_a9a112a97a_n.jpg",
    "id_album": "-833110404",
    "description": "Landscape_546324",
    "title": "Landscape_546324",
    "link_img": "https://live.staticflickr.com/65535/49712287997_db034c2971_o.jpg",
    "id_image": "Landscape_546324",
    "count_view": 0
  },
  {
    "link_thumb": "https://live.staticflickr.com/65535/49712100382_4eae95f9c2_n.jpg",
    "id_album": "469960528",
    "description": "Knight_105357",
    "title": "Knight_105357",
    "link_img": "https://live.staticflickr.com/65535/49712100382_61e428e9de_o.jpg",
    "id_image": "Knight_105357",
    "count_view": 0
  },
  {
    "link_thumb": "https://live.staticflickr.com/65535/49711659608_6ef1131ffa_n.jpg",
    "id_album": "1215289234",
    "description": "WARIOR2610191651262",
    "title": "WARIOR2610191651262",
    "link_img": "https://live.staticflickr.com/65535/49711659608_27fc1701d7_o.jpg",
    "id_image": "WARIOR2610191651262",
    "count_view": 0
  },
  {
    "link_thumb": "https://live.staticflickr.com/65535/49711182232_7d4a49eb07_n.jpg",
    "id_album": "-218097820",
    "description": "ASongOfIceAndFire_748566",
    "title": "ASongOfIceAndFire_748566",
    "link_img": "https://live.staticflickr.com/65535/49711182232_15eec7aa76_o.jpg",
    "id_image": "ASongOfIceAndFire_748566",
    "count_view": 0
  },
  {
    "link_thumb": "https://live.staticflickr.com/65535/49711204152_bf6b930723_n.jpg",
    "id_album": "-1000175186",
    "description": "AngelWarrior_471111",
    "title": "AngelWarrior_471111",
    "link_img": "https://live.staticflickr.com/65535/49711204152_d4b921ab0c_o.jpg",
    "id_image": "AngelWarrior_471111",
    "count_view": 0
  },
  {
    "link_thumb": "https://live.staticflickr.com/65535/49712221286_abb3d78507_n.jpg",
    "id_album": "-1261420436",
    "description": "Warrior_711439",
    "title": "Warrior_711439",
    "link_img": "https://live.staticflickr.com/65535/49712221286_42d043c668_o.jpg",
    "id_image": "Warrior_711439",
    "count_view": 0
  },
  {
    "link_thumb": "https://live.staticflickr.com/65535/49710686753_b832b6f03e_n.jpg",
    "id_album": "-437872736",
    "description": "Creature_384062",
    "title": "Creature_384062",
    "link_img": "https://live.staticflickr.com/65535/49710686753_8febc71b2e_o.jpg",
    "id_image": "Creature_384062",
    "count_view": 0
  },
  {
    "link_thumb": "https://live.staticflickr.com/65535/49711590983_a548cb01c3_n.jpg",
    "id_album": "407101116",
    "description": "SeaMonster_969747",
    "title": "SeaMonster_969747",
    "link_img": "https://live.staticflickr.com/65535/49711590983_880f704459_o.jpg",
    "id_image": "SeaMonster_969747",
    "count_view": 0
  },
  {
    "link_thumb": "https://live.staticflickr.com/65535/49711088806_ff0f1eb855_n.jpg",
    "id_album": "-1964113117",
    "description": "City_154349",
    "title": "City_154349",
    "link_img": "https://live.staticflickr.com/65535/49711088806_7ea5e6faf0_o.jpg",
    "id_image": "City_154349",
    "count_view": 0
  },
  {
    "link_thumb": "https://live.staticflickr.com/65535/49711876212_c74070d551_n.jpg",
    "id_album": "850176884",
    "description": "Dragon_900181",
    "title": "Dragon_900181",
    "link_img": "https://live.staticflickr.com/65535/49711876212_2e337ca775_o.jpg",
    "id_image": "Dragon_900181",
    "count_view": 0
  },
  {
    "link_thumb": "https://live.staticflickr.com/65535/49711825342_6ebdcd0cc9_n.jpg",
    "id_album": "850176884",
    "description": "Dragon_681010",
    "title": "Dragon_681010",
    "link_img": "https://live.staticflickr.com/65535/49711825342_d351db7678_o.jpg",
    "id_image": "Dragon_681010",
    "count_view": 0
  },
  {
    "link_thumb": "https://live.staticflickr.com/65535/49710342843_33c6a08d55_n.jpg",
    "id_album": "-1000175186",
    "description": "AngelWarrior_25997",
    "title": "AngelWarrior_25997",
    "link_img": "https://live.staticflickr.com/65535/49710342843_239058a980_o.jpg",
    "id_image": "AngelWarrior_25997",
    "count_view": 0
  },
  {
    "link_thumb": "https://live.staticflickr.com/65535/49712095352_6a8144712a_n.jpg",
    "id_album": "1957967226",
    "description": "House_939078",
    "title": "House_939078",
    "link_img": "https://live.staticflickr.com/65535/49712095352_1a0cce5052_o.jpg",
    "id_image": "House_939078",
    "count_view": 0
  },
  {
    "link_thumb": "https://live.staticflickr.com/65535/49710924231_61fd670eb9_n.jpg",
    "id_album": "-1913845949",
    "description": "Animal_959069",
    "title": "Animal_959069",
    "link_img": "https://live.staticflickr.com/65535/49710924231_c933df3735_o.jpg",
    "id_image": "Animal_959069",
    "count_view": 0
  },
  {
    "link_thumb": "https://live.staticflickr.com/65535/49711981603_413b8846f9_n.jpg",
    "id_album": "-867594484",
    "description": "Women_585181",
    "title": "Women_585181",
    "link_img": "https://live.staticflickr.com/65535/49711981603_df1a9e462e_o.jpg",
    "id_image": "Women_585181",
    "count_view": 0
  },
  {
    "link_thumb": "https://live.staticflickr.com/65535/49712538211_6917e7dfef_n.jpg",
    "id_album": "-867594484",
    "description": "Women_692301",
    "title": "Women_692301",
    "link_img": "https://live.staticflickr.com/65535/49712538211_b5d98d73b3_o.jpg",
    "id_image": "Women_692301",
    "count_view": 0
  },
  {
    "link_thumb": "https://live.staticflickr.com/65535/49711813262_35ef7dd4dc_n.jpg",
    "id_album": "850176884",
    "description": "Dragon_599861",
    "title": "Dragon_599861",
    "link_img": "https://live.staticflickr.com/65535/49711813262_68566b8d77_o.jpg",
    "id_image": "Dragon_599861",
    "count_view": 0
  },
  {
    "link_thumb": "https://live.staticflickr.com/65535/49711017841_d38137c23a_n.jpg",
    "id_album": "-1846011410",
    "description": "Bird_702573",
    "title": "Bird_702573",
    "link_img": "https://live.staticflickr.com/65535/49711017841_edd030e7a3_o.jpg",
    "id_image": "Bird_702573",
    "count_view": 0
  },
  {
    "link_thumb": "https://live.staticflickr.com/65535/49710864406_848c17c4a8_n.jpg",
    "id_album": "-2109465612",
    "description": "Adventure_250349",
    "title": "Adventure_250349",
    "link_img": "https://live.staticflickr.com/65535/49710864406_7d05341d5e_o.jpg",
    "id_image": "Adventure_250349",
    "count_view": 0
  },
  {
    "link_thumb": "https://live.staticflickr.com/65535/49711815302_8230dacc0c_n.jpg",
    "id_album": "850176884",
    "description": "Dragon_600270",
    "title": "Dragon_600270",
    "link_img": "https://live.staticflickr.com/65535/49711815302_fdc3454ecc_o.jpg",
    "id_image": "Dragon_600270",
    "count_view": 0
  },
  {
    "link_thumb": "https://live.staticflickr.com/65535/49711984127_d147b4ee3e_n.jpg",
    "id_album": "-1972042284",
    "description": "Fairy_357588",
    "title": "Fairy_357588",
    "link_img": "https://live.staticflickr.com/65535/49711984127_0d85cf3be4_o.jpg",
    "id_image": "Fairy_357588",
    "count_view": 0
  },
  {
    "link_thumb": "https://live.staticflickr.com/65535/49711215716_8ef2617891_n.jpg",
    "id_album": "-437872736",
    "description": "Creature_367140",
    "title": "Creature_367140",
    "link_img": "https://live.staticflickr.com/65535/49711215716_06221bf197_o.jpg",
    "id_image": "Creature_367140",
    "count_view": 0
  },
  {
    "link_thumb": "https://live.staticflickr.com/65535/49712616792_25143b4e1a_n.jpg",
    "id_album": "-709711865",
    "description": "Wolf_883372",
    "title": "Wolf_883372",
    "link_img": "https://live.staticflickr.com/65535/49712616792_85deded41b_o.jpg",
    "id_image": "Wolf_883372",
    "count_view": 0
  },
  {
    "link_thumb": "https://live.staticflickr.com/65535/49712869967_f568a9e626_n.jpg",
    "id_album": "-1675918237",
    "description": "WomenWarrior_246585",
    "title": "WomenWarrior_246585",
    "link_img": "https://live.staticflickr.com/65535/49712869967_51608295ef_o.jpg",
    "id_image": "WomenWarrior_246585",
    "count_view": 0
  },
  {
    "link_thumb": "https://live.staticflickr.com/65535/49711740473_558927f816_n.jpg",
    "id_album": "-709711865",
    "description": "Wolf_550599",
    "title": "Wolf_550599",
    "link_img": "https://live.staticflickr.com/65535/49711740473_609e716619_o.jpg",
    "id_image": "Wolf_550599",
    "count_view": 0
  },
  {
    "link_thumb": "https://live.staticflickr.com/65535/49711801023_603fdd580b_n.jpg",
    "id_album": "-1126835654",
    "description": "Women_906352",
    "title": "Women_906352",
    "link_img": "https://live.staticflickr.com/65535/49711801023_f874babd09_o.jpg",
    "id_image": "Women_906352",
    "count_view": 0
  },
  {
    "link_thumb": "https://live.staticflickr.com/65535/49712376061_48630ecd4b_n.jpg",
    "id_album": "295204930",
    "description": "Women_322950",
    "title": "Women_322950",
    "link_img": "https://live.staticflickr.com/65535/49712376061_6d98bf2f79_o.jpg",
    "id_image": "Women_322950",
    "count_view": 0
  },
  {
    "link_thumb": "https://live.staticflickr.com/65535/49711826477_0964c08040_n.jpg",
    "id_album": "850176884",
    "description": "Dragon_685187",
    "title": "Dragon_685187",
    "link_img": "https://live.staticflickr.com/65535/49711826477_98a0742d2b_o.jpg",
    "id_image": "Dragon_685187",
    "count_view": 0
  },
  {
    "link_thumb": "https://live.staticflickr.com/65535/49711480973_bf7d526fd6_n.jpg",
    "id_album": "-222719689",
    "description": "Men_552111",
    "title": "Men_552111",
    "link_img": "https://live.staticflickr.com/65535/49711480973_a568f1eac9_o.jpg",
    "id_image": "Men_552111",
    "count_view": 0
  },
  {
    "link_thumb": "https://live.staticflickr.com/65535/49711193642_1e37eb8959_n.jpg",
    "id_album": "-956471126",
    "description": "AliceInWonderland_109701",
    "title": "AliceInWonderland_109701",
    "link_img": "https://live.staticflickr.com/65535/49711193642_64d98d2851_o.jpg",
    "id_image": "AliceInWonderland_109701",
    "count_view": 0
  },
  {
    "link_thumb": "https://live.staticflickr.com/65535/49712315056_84d2863071_n.jpg",
    "id_album": "-1126835654",
    "description": "Women_870259",
    "title": "Women_870259",
    "link_img": "https://live.staticflickr.com/65535/49712315056_9af80c36c4_o.jpg",
    "id_image": "Women_870259",
    "count_view": 0
  },
  {
    "link_thumb": "https://live.staticflickr.com/65535/49710384613_ee96cc11ba_n.jpg",
    "id_album": "-1913845949",
    "description": "Animal_858505",
    "title": "Animal_858505",
    "link_img": "https://live.staticflickr.com/65535/49710384613_e76e11fe6c_o.jpg",
    "id_image": "Animal_858505",
    "count_view": 0
  },
  {
    "link_thumb": "https://live.staticflickr.com/65535/49712509441_2b5ef7c0bb_n.jpg",
    "id_album": "-867594484",
    "description": "Women_567066",
    "title": "Women_567066",
    "link_img": "https://live.staticflickr.com/65535/49712509441_1367f7c067_o.jpg",
    "id_image": "Women_567066",
    "count_view": 0
  },
  {
    "link_thumb": "https://live.staticflickr.com/65535/49710650853_7e283fc8f3_n.jpg",
    "id_album": "-437872736",
    "description": "Creature_309798",
    "title": "Creature_309798",
    "link_img": "https://live.staticflickr.com/65535/49710650853_f25041e4f1_o.jpg",
    "id_image": "Creature_309798",
    "count_view": 0
  },
  {
    "link_thumb": "https://live.staticflickr.com/65535/49710652158_6d8c54d88b_n.jpg",
    "id_album": "-437872736",
    "description": "Creature_310657",
    "title": "Creature_310657",
    "link_img": "https://live.staticflickr.com/65535/49710652158_cf28e28917_o.jpg",
    "id_image": "Creature_310657",
    "count_view": 0
  },
  {
    "link_thumb": "https://live.staticflickr.com/65535/49711610993_5626993369_n.jpg",
    "id_album": "1240974613",
    "description": "Sorceress_921598",
    "title": "Sorceress_921598",
    "link_img": "https://live.staticflickr.com/65535/49711610993_2d628390dc_o.jpg",
    "id_image": "Sorceress_921598",
    "count_view": 0
  },
  {
    "link_thumb": "https://live.staticflickr.com/65535/49711206077_7c50b8591b_n.jpg",
    "id_album": "-1000175186",
    "description": "AngelWarrior_510933",
    "title": "AngelWarrior_510933",
    "link_img": "https://live.staticflickr.com/65535/49711206077_e898bdf713_o.jpg",
    "id_image": "AngelWarrior_510933",
    "count_view": 0
  },
  {
    "link_thumb": "https://live.staticflickr.com/65535/49711681823_4e17530da9_n.jpg",
    "id_album": "-1261420436",
    "description": "Warrior_675199",
    "title": "Warrior_675199",
    "link_img": "https://live.staticflickr.com/65535/49711681823_2da105dac2_o.jpg",
    "id_image": "Warrior_675199",
    "count_view": 0
  },
  {
    "link_thumb": "https://live.staticflickr.com/65535/49712713147_dac544f733_n.jpg",
    "id_album": "295204930",
    "description": "Women_393634",
    "title": "Women_393634",
    "link_img": "https://live.staticflickr.com/65535/49712713147_eb46f29438_o.jpg",
    "id_image": "Women_393634",
    "count_view": 0
  },
  {
    "link_thumb": "https://live.staticflickr.com/65535/49711221137_92c8eb3508_n.jpg",
    "id_album": "-1913845949",
    "description": "Animal_234905",
    "title": "Animal_234905",
    "link_img": "https://live.staticflickr.com/65535/49711221137_3f02492b81_o.jpg",
    "id_image": "Animal_234905",
    "count_view": 0
  },
  {
    "link_thumb": "https://live.staticflickr.com/65535/49711249982_571fe551c9_n.jpg",
    "id_album": "-1913845949",
    "description": "Animal_982290",
    "title": "Animal_982290",
    "link_img": "https://live.staticflickr.com/65535/49711249982_7757770791_o.jpg",
    "id_image": "Animal_982290",
    "count_view": 0
  },
  {
    "link_thumb": "https://live.staticflickr.com/65535/49711356746_09bd6e8f10_n.jpg",
    "id_album": "850176884",
    "description": "Dragon_117973",
    "title": "Dragon_117973",
    "link_img": "https://live.staticflickr.com/65535/49711356746_cea57f7df2_o.jpg",
    "id_image": "Dragon_117973",
    "count_view": 0
  },
  {
    "link_thumb": "https://live.staticflickr.com/65535/49712362737_037e3847ea_n.jpg",
    "id_album": "1892085513",
    "description": "Oriental_284858",
    "title": "Oriental_284858",
    "link_img": "https://live.staticflickr.com/65535/49712362737_14b0785f09_o.jpg",
    "id_image": "Oriental_284858",
    "count_view": 0
  },
  {
    "link_thumb": "https://live.staticflickr.com/65535/49711157196_9e05eacb1a_n.jpg",
    "id_album": "-437872736",
    "description": "Creature_208908",
    "title": "Creature_208908",
    "link_img": "https://live.staticflickr.com/65535/49711157196_b1660e4aa4_o.jpg",
    "id_image": "Creature_208908",
    "count_view": 0
  },
  {
    "link_thumb": "https://live.staticflickr.com/65535/49711960957_2819b7b019_n.jpg",
    "id_album": "134100487",
    "description": "Elf_859484",
    "title": "Elf_859484",
    "link_img": "https://live.staticflickr.com/65535/49711960957_f2b6dac579_o.jpg",
    "id_image": "Elf_859484",
    "count_view": 0
  },
  {
    "link_thumb": "https://live.staticflickr.com/65535/49710564353_64eca8b19d_n.jpg",
    "id_album": "-1964113117",
    "description": "City_388268",
    "title": "City_388268",
    "link_img": "https://live.staticflickr.com/65535/49710564353_8e0cf3f7d0_o.jpg",
    "id_image": "City_388268",
    "count_view": 0
  },
  {
    "link_thumb": "https://live.staticflickr.com/65535/49712020843_b3d06b203f_n.jpg",
    "id_album": "-1675918237",
    "description": "WomenWarrior_268215",
    "title": "WomenWarrior_268215",
    "link_img": "https://live.staticflickr.com/65535/49712020843_d89feaa6f2_o.jpg",
    "id_image": "WomenWarrior_268215",
    "count_view": 0
  },
  {
    "link_thumb": "https://live.staticflickr.com/65535/49711452176_96f09d51b4_n.jpg",
    "id_album": "850176884",
    "description": "Dragon_451197",
    "title": "Dragon_451197",
    "link_img": "https://live.staticflickr.com/65535/49711452176_5b3518c004_o.jpg",
    "id_image": "Dragon_451197",
    "count_view": 0
  },
  {
    "link_thumb": "https://live.staticflickr.com/65535/49710852648_a8fbd1e4d6_n.jpg",
    "id_album": "850176884",
    "description": "Dragon_226212",
    "title": "Dragon_226212",
    "link_img": "https://live.staticflickr.com/65535/49710852648_d8ee848871_o.jpg",
    "id_image": "Dragon_226212",
    "count_view": 0
  },
  {
    "link_thumb": "https://live.staticflickr.com/65535/49711256336_32542d886d_n.jpg",
    "id_album": "-437872736",
    "description": "Creature_655693",
    "title": "Creature_655693",
    "link_img": "https://live.staticflickr.com/65535/49711256336_7ec53d3032_o.jpg",
    "id_image": "Creature_655693",
    "count_view": 0
  },
  {
    "link_thumb": "https://live.staticflickr.com/65535/49710903541_8b2abebcff_n.jpg",
    "id_album": "-1913845949",
    "description": "Animal_593089",
    "title": "Animal_593089",
    "link_img": "https://live.staticflickr.com/65535/49710903541_9918c7f365_o.jpg",
    "id_image": "Animal_593089",
    "count_view": 0
  },
  {
    "link_thumb": "https://live.staticflickr.com/65535/49712165833_7f8b977b68_n.jpg",
    "id_album": "-1675918237",
    "description": "WomenWarrior_921993",
    "title": "WomenWarrior_921993",
    "link_img": "https://live.staticflickr.com/65535/49712165833_8364634d29_o.jpg",
    "id_image": "WomenWarrior_921993",
    "count_view": 0
  },
  {
    "link_thumb": "https://live.staticflickr.com/65535/49711543772_9532c77e0a_n.jpg",
    "id_album": "-437872736",
    "description": "Creature_373411",
    "title": "Creature_373411",
    "link_img": "https://live.staticflickr.com/65535/49711543772_83672c7e6c_o.jpg",
    "id_image": "Creature_373411",
    "count_view": 0
  },
  {
    "link_thumb": "https://live.staticflickr.com/65535/49712016717_02743ef627_n.jpg",
    "id_album": "-1083189875",
    "description": "Forest_330860",
    "title": "Forest_330860",
    "link_img": "https://live.staticflickr.com/65535/49712016717_3d4aa4d388_o.jpg",
    "id_image": "Forest_330860",
    "count_view": 0
  },
  {
    "link_thumb": "https://live.staticflickr.com/65535/49712377777_d642ccc40f_n.jpg",
    "id_album": "-1862561193",
    "description": "Other_160937",
    "title": "Other_160937",
    "link_img": "https://live.staticflickr.com/65535/49712377777_fc602ab2db_o.jpg",
    "id_image": "Other_160937",
    "count_view": 0
  },
  {
    "link_thumb": "https://live.staticflickr.com/65535/49710948811_92141958ff_n.jpg",
    "id_album": "523598895",
    "description": "Artistic_184163",
    "title": "Artistic_184163",
    "link_img": "https://live.staticflickr.com/65535/49710948811_ae49c2523f_o.jpg",
    "id_image": "Artistic_184163",
    "count_view": 0
  },
  {
    "link_thumb": "https://live.staticflickr.com/65535/49711270746_e89f49edf7_n.jpg",
    "id_album": "-437872736",
    "description": "Creature_883150",
    "title": "Creature_883150",
    "link_img": "https://live.staticflickr.com/65535/49711270746_5113a7f3bf_o.jpg",
    "id_image": "Creature_883150",
    "count_view": 0
  },
  {
    "link_thumb": "https://live.staticflickr.com/65535/49710994878_3d62b831f3_n.jpg",
    "id_album": "850176884",
    "description": "Dragon_806216",
    "title": "Dragon_806216",
    "link_img": "https://live.staticflickr.com/65535/49710994878_39c596d552_o.jpg",
    "id_image": "Dragon_806216",
    "count_view": 0
  },
  {
    "link_thumb": "https://live.staticflickr.com/65535/49710948661_60cca0dc36_n.jpg",
    "id_album": "523598895",
    "description": "Artistic_181918",
    "title": "Artistic_181918",
    "link_img": "https://live.staticflickr.com/65535/49710948661_da1ec45e7c_o.jpg",
    "id_image": "Artistic_181918",
    "count_view": 0
  },
  {
    "link_thumb": "https://live.staticflickr.com/65535/49710964871_bb045b4f85_n.jpg",
    "id_album": "523598895",
    "description": "Artistic_387366",
    "title": "Artistic_387366",
    "link_img": "https://live.staticflickr.com/65535/49710964871_1ea62e1e54_o.jpg",
    "id_image": "Artistic_387366",
    "count_view": 0
  },
  {
    "link_thumb": "https://live.staticflickr.com/65535/49711592872_e78cd85508_n.jpg",
    "id_album": "-437872736",
    "description": "Creature_852164",
    "title": "Creature_852164",
    "link_img": "https://live.staticflickr.com/65535/49711592872_fd3112faec_o.jpg",
    "id_image": "Creature_852164",
    "count_view": 0
  },
  {
    "link_thumb": "https://live.staticflickr.com/65535/49711486506_6c9a4ce8b8_n.jpg",
    "id_album": "850176884",
    "description": "Dragon_582369",
    "title": "Dragon_582369",
    "link_img": "https://live.staticflickr.com/65535/49711486506_3896433e51_o.jpg",
    "id_image": "Dragon_582369",
    "count_view": 0
  },
  {
    "link_thumb": "https://live.staticflickr.com/65535/49710329878_4578539d4a_n.jpg",
    "id_album": "-2109465612",
    "description": "Adventure_247200",
    "title": "Adventure_247200",
    "link_img": "https://live.staticflickr.com/65535/49710329878_0814113655_o.jpg",
    "id_image": "Adventure_247200",
    "count_view": 0
  },
  {
    "link_thumb": "https://live.staticflickr.com/65535/49711432557_1e631e8f3b_n.jpg",
    "id_album": "-1964113117",
    "description": "City_593481",
    "title": "City_593481",
    "link_img": "https://live.staticflickr.com/65535/49711432557_38eebef3d4_o.jpg",
    "id_image": "City_593481",
    "count_view": 0
  },
  {
    "link_thumb": "https://live.staticflickr.com/65535/49879232126_d0682ab45e_n.jpg",
    "id_album": "-1703946758",
    "description": "ANIME_PIC_d3224c4be8a881b2087b57c1ad3cc00c",
    "title": "ANIME_PIC_d3224c4be8a881b2087b57c1ad3cc00c",
    "link_img": "https://live.staticflickr.com/65535/49879232126_114ff30cae_o.jpg",
    "id_image": "ANIME_PIC_d3224c4be8a881b2087b57c1ad3cc00c",
    "count_view": 0
  },
  {
    "link_thumb": "https://live.staticflickr.com/65535/49712403361_cd705d1c48_n.jpg",
    "id_album": "295204930",
    "description": "Women_695943",
    "title": "Women_695943",
    "link_img": "https://live.staticflickr.com/65535/49712403361_9d62b84493_o.jpg",
    "id_image": "Women_695943",
    "count_view": 0
  },
  {
    "link_thumb": "https://live.staticflickr.com/65535/49711728451_d87bf3309d_n.jpg",
    "id_album": "402434752",
    "description": "Giant_114000",
    "title": "Giant_114000",
    "link_img": "https://live.staticflickr.com/65535/49711728451_a8a6f5a5cb_o.jpg",
    "id_image": "Giant_114000",
    "count_view": 0
  },
  {
    "link_thumb": "https://live.staticflickr.com/65535/49711737522_d3da2ee72f_n.jpg",
    "id_album": "850176884",
    "description": "Dragon_312278",
    "title": "Dragon_312278",
    "link_img": "https://live.staticflickr.com/65535/49711737522_b8850a0d45_o.jpg",
    "id_image": "Dragon_312278",
    "count_view": 0
  },
  {
    "link_thumb": "https://live.staticflickr.com/65535/49712007177_9b3a9a2b36_n.jpg",
    "id_album": "-1972042284",
    "description": "Fairy_875003",
    "title": "Fairy_875003",
    "link_img": "https://live.staticflickr.com/65535/49712007177_138cb93a1e_o.jpg",
    "id_image": "Fairy_875003",
    "count_view": 0
  },
  {
    "link_thumb": "https://live.staticflickr.com/65535/49711104618_0da4b9c250_n.jpg",
    "id_album": "134100487",
    "description": "Elf_898707",
    "title": "Elf_898707",
    "link_img": "https://live.staticflickr.com/65535/49711104618_360cd0c285_o.jpg",
    "id_image": "Elf_898707",
    "count_view": 0
  },
  {
    "link_thumb": "https://live.staticflickr.com/65535/49711356353_a0f94416f9_n.jpg",
    "id_album": "-833110404",
    "description": "Landscape_194302",
    "title": "Landscape_194302",
    "link_img": "https://live.staticflickr.com/65535/49711356353_c0712e591b_o.jpg",
    "id_image": "Landscape_194302",
    "count_view": 0
  },
  {
    "link_thumb": "https://live.staticflickr.com/65535/49710353533_a2d3fd803a_n.jpg",
    "id_album": "-1000175186",
    "description": "AngelWarrior_801378",
    "title": "AngelWarrior_801378",
    "link_img": "https://live.staticflickr.com/65535/49710353533_b70caff791_o.jpg",
    "id_image": "AngelWarrior_801378",
    "count_view": 0
  },
  {
    "link_thumb": "https://live.staticflickr.com/65535/49711906143_f1fc0f6783_n.jpg",
    "id_album": "1861288871",
    "description": "Women_260842",
    "title": "Women_260842",
    "link_img": "https://live.staticflickr.com/65535/49711906143_8724232b05_o.jpg",
    "id_image": "Women_260842",
    "count_view": 0
  },
  {
    "link_thumb": "https://live.staticflickr.com/65535/49712143377_2e3b8d8015_n.jpg",
    "id_album": "1402713104",
    "description": "Landscape_793333",
    "title": "Landscape_793333",
    "link_img": "https://live.staticflickr.com/65535/49712143377_326b8fa85b_o.jpg",
    "id_image": "Landscape_793333",
    "count_view": 0
  },
  {
    "link_thumb": "https://live.staticflickr.com/65535/49710396698_da72e76a86_n.jpg",
    "id_album": "-1560111795",
    "description": "Archer_301061",
    "title": "Archer_301061",
    "link_img": "https://live.staticflickr.com/65535/49710396698_e78e243d8e_o.jpg",
    "id_image": "Archer_301061",
    "count_view": 0
  },
  {
    "link_thumb": "https://live.staticflickr.com/65535/49712123402_29b4b48e5a_n.jpg",
    "id_album": "1402713104",
    "description": "Landscape_680389",
    "title": "Landscape_680389",
    "link_img": "https://live.staticflickr.com/65535/49712123402_3c66fc9951_o.jpg",
    "id_image": "Landscape_680389",
    "count_view": 0
  },
  {
    "link_thumb": "https://live.staticflickr.com/65535/49711745392_510d06cfae_n.jpg",
    "id_album": "850176884",
    "description": "Dragon_328331",
    "title": "Dragon_328331",
    "link_img": "https://live.staticflickr.com/65535/49711745392_59d26b92db_o.jpg",
    "id_image": "Dragon_328331",
    "count_view": 0
  },
  {
    "link_thumb": "https://live.staticflickr.com/65535/49712440497_0a355044e7_n.jpg",
    "id_album": "407101116",
    "description": "SeaMonster_189748",
    "title": "SeaMonster_189748",
    "link_img": "https://live.staticflickr.com/65535/49712440497_f0cc55d616_o.jpg",
    "id_image": "SeaMonster_189748",
    "count_view": 0
  },
  {
    "link_thumb": "https://live.staticflickr.com/65535/49711840172_32404168b5_n.jpg",
    "id_album": "850176884",
    "description": "Dragon_73671",
    "title": "Dragon_73671",
    "link_img": "https://live.staticflickr.com/65535/49711840172_67c0b6c4a1_o.jpg",
    "id_image": "Dragon_73671",
    "count_view": 0
  },
  {
    "link_thumb": "https://live.staticflickr.com/65535/49711911293_5df7a54e05_n.jpg",
    "id_album": "1861288871",
    "description": "Women_493923",
    "title": "Women_493923",
    "link_img": "https://live.staticflickr.com/65535/49711911293_6708b9025c_o.jpg",
    "id_image": "Women_493923",
    "count_view": 0
  },
  {
    "link_thumb": "https://live.staticflickr.com/65535/49710970546_894492580a_n.jpg",
    "id_album": "523598895",
    "description": "Artistic_499461",
    "title": "Artistic_499461",
    "link_img": "https://live.staticflickr.com/65535/49710970546_b880b97b43_o.jpg",
    "id_image": "Artistic_499461",
    "count_view": 0
  },
  {
    "link_thumb": "https://live.staticflickr.com/65535/49710893071_948306f828_n.jpg",
    "id_album": "-1913845949",
    "description": "Animal_151729",
    "title": "Animal_151729",
    "link_img": "https://live.staticflickr.com/65535/49710893071_2d255d4c16_o.jpg",
    "id_image": "Animal_151729",
    "count_view": 0
  },
  {
    "link_thumb": "https://live.staticflickr.com/65535/49712268951_8c503768f7_n.jpg",
    "id_album": "-656526651",
    "description": "Wizard_955763",
    "title": "Wizard_955763",
    "link_img": "https://live.staticflickr.com/65535/49712268951_10d66a5282_o.jpg",
    "id_image": "Wizard_955763",
    "count_view": 0
  },
  {
    "link_thumb": "https://live.staticflickr.com/65535/49712008777_dc17d2a303_n.jpg",
    "id_album": "-1972042284",
    "description": "Fairy_903227",
    "title": "Fairy_903227",
    "link_img": "https://live.staticflickr.com/65535/49712008777_07365b3aee_o.jpg",
    "id_image": "Fairy_903227",
    "count_view": 0
  },
  {
    "link_thumb": "https://live.staticflickr.com/65535/49712563602_1923022a40_n.jpg",
    "id_album": "1173975892",
    "description": "Werewolf_151997",
    "title": "Werewolf_151997",
    "link_img": "https://live.staticflickr.com/65535/49712563602_0752353fdf_o.jpg",
    "id_image": "Werewolf_151997",
    "count_view": 0
  },
  {
    "link_thumb": "https://live.staticflickr.com/65535/49710939946_ccb932191d_n.jpg",
    "id_album": "523598895",
    "description": "Artistic_121546",
    "title": "Artistic_121546",
    "link_img": "https://live.staticflickr.com/65535/49710939946_ab222c3c0c_o.jpg",
    "id_image": "Artistic_121546",
    "count_view": 0
  },
  {
    "link_thumb": "https://live.staticflickr.com/65535/49711239961_082b480fa0_n.jpg",
    "id_album": "-437872736",
    "description": "Creature_511604",
    "title": "Creature_511604",
    "link_img": "https://live.staticflickr.com/65535/49711239961_c74494d070_o.jpg",
    "id_image": "Creature_511604",
    "count_view": 0
  },
  {
    "link_thumb": "https://live.staticflickr.com/65535/49711549221_2d622dd0ca_n.jpg",
    "id_album": "850176884",
    "description": "Dragon_881760",
    "title": "Dragon_881760",
    "link_img": "https://live.staticflickr.com/65535/49711549221_5e0e669055_o.jpg",
    "id_image": "Dragon_881760",
    "count_view": 0
  },
  {
    "link_thumb": "https://live.staticflickr.com/65535/49711906416_4f08684f51_n.jpg",
    "id_album": "-833110404",
    "description": "Landscape_280376",
    "title": "Landscape_280376",
    "link_img": "https://live.staticflickr.com/65535/49711906416_6c16f8fb5d_o.jpg",
    "id_image": "Landscape_280376",
    "count_view": 0
  },
  {
    "link_thumb": "https://live.staticflickr.com/65535/49711489387_de4fd9489a_n.jpg",
    "id_album": "-437872736",
    "description": "Creature_237948",
    "title": "Creature_237948",
    "link_img": "https://live.staticflickr.com/65535/49711489387_96f6e9c617_o.jpg",
    "id_image": "Creature_237948",
    "count_view": 0
  },
  {
    "link_thumb": "https://live.staticflickr.com/65535/49712357462_601121a39d_n.jpg",
    "id_album": "-14582214",
    "description": "Ocean_692164",
    "title": "Ocean_692164",
    "link_img": "https://live.staticflickr.com/65535/49712357462_415900c286_o.jpg",
    "id_image": "Ocean_692164",
    "count_view": 0
  },
  {
    "link_thumb": "https://live.staticflickr.com/65535/49710937438_1bfd09b219_n.jpg",
    "id_album": "850176884",
    "description": "Dragon_526909",
    "title": "Dragon_526909",
    "link_img": "https://live.staticflickr.com/65535/49710937438_232364b5f0_o.jpg",
    "id_image": "Dragon_526909",
    "count_view": 0
  },
  {
    "link_thumb": "https://live.staticflickr.com/65535/49710887923_c64e423dc8_n.jpg",
    "id_album": "850176884",
    "description": "Dragon_328308",
    "title": "Dragon_328308",
    "link_img": "https://live.staticflickr.com/65535/49710887923_4b07b01356_o.jpg",
    "id_image": "Dragon_328308",
    "count_view": 0
  },
  {
    "link_thumb": "https://live.staticflickr.com/65535/49712129277_5f0d7ce271_n.jpg",
    "id_album": "1402713104",
    "description": "Landscape_708757",
    "title": "Landscape_708757",
    "link_img": "https://live.staticflickr.com/65535/49712129277_30943efe26_o.jpg",
    "id_image": "Landscape_708757",
    "count_view": 0
  },
  {
    "link_thumb": "https://live.staticflickr.com/65535/49711943066_898027c982_n.jpg",
    "id_album": "-833110404",
    "description": "Landscape_420133",
    "title": "Landscape_420133",
    "link_img": "https://live.staticflickr.com/65535/49711943066_71195e24e3_o.jpg",
    "id_image": "Landscape_420133",
    "count_view": 0
  },
  {
    "link_thumb": "https://live.staticflickr.com/65535/49711509436_e59da82c72_n.jpg",
    "id_album": "850176884",
    "description": "Dragon_697290",
    "title": "Dragon_697290",
    "link_img": "https://live.staticflickr.com/65535/49711509436_777c6c00da_o.jpg",
    "id_image": "Dragon_697290",
    "count_view": 0
  },
  {
    "link_thumb": "https://live.staticflickr.com/65535/49711736027_b9992c6ded_n.jpg",
    "id_album": "850176884",
    "description": "Dragon_306970",
    "title": "Dragon_306970",
    "link_img": "https://live.staticflickr.com/65535/49711736027_d037ece931_o.jpg",
    "id_image": "Dragon_306970",
    "count_view": 0
  },
  {
    "link_thumb": "https://live.staticflickr.com/65535/49711254206_2bdc3bc5eb_n.jpg",
    "id_album": "-437872736",
    "description": "Creature_616966",
    "title": "Creature_616966",
    "link_img": "https://live.staticflickr.com/65535/49711254206_a8401b5c93_o.jpg",
    "id_image": "Creature_616966",
    "count_view": 0
  },
  {
    "link_thumb": "https://live.staticflickr.com/65535/49711797426_ed4f44222c_n.jpg",
    "id_album": "1402713104",
    "description": "Landscape_667677",
    "title": "Landscape_667677",
    "link_img": "https://live.staticflickr.com/65535/49711797426_a53c206e51_o.jpg",
    "id_image": "Landscape_667677",
    "count_view": 0
  },
  {
    "link_thumb": "https://live.staticflickr.com/65535/49710873411_3e3e77bc23_n.jpg",
    "id_album": "-1000175186",
    "description": "AngelWarrior_112323",
    "title": "AngelWarrior_112323",
    "link_img": "https://live.staticflickr.com/65535/49710873411_a01fa679f3_o.jpg",
    "id_image": "AngelWarrior_112323",
    "count_view": 0
  },
  {
    "link_thumb": "https://live.staticflickr.com/65535/49711277758_c38ebe7ab6_n.jpg",
    "id_album": "1402713104",
    "description": "Landscape_726807",
    "title": "Landscape_726807",
    "link_img": "https://live.staticflickr.com/65535/49711277758_b1b9a85afe_o.jpg",
    "id_image": "Landscape_726807",
    "count_view": 0
  },
  {
    "link_thumb": "https://live.staticflickr.com/65535/49711403676_cedc29e17f_n.jpg",
    "id_album": "850176884",
    "description": "Dragon_262304",
    "title": "Dragon_262304",
    "link_img": "https://live.staticflickr.com/65535/49711403676_4275e9ec80_o.jpg",
    "id_image": "Dragon_262304",
    "count_view": 0
  },
  {
    "link_thumb": "https://live.staticflickr.com/65535/49710725593_9bffecdbc3_n.jpg",
    "id_album": "-437872736",
    "description": "Creature_692421",
    "title": "Creature_692421",
    "link_img": "https://live.staticflickr.com/65535/49710725593_9bc3d14d10_o.jpg",
    "id_image": "Creature_692421",
    "count_view": 0
  },
  {
    "link_thumb": "https://live.staticflickr.com/65535/49710557348_7151f55545_n.jpg",
    "id_album": "-1964113117",
    "description": "City_231216",
    "title": "City_231216",
    "link_img": "https://live.staticflickr.com/65535/49710557348_735d0bc1c8_o.jpg",
    "id_image": "City_231216",
    "count_view": 0
  },
  {
    "link_thumb": "https://live.staticflickr.com/65535/49711806131_6e0eff77a9_n.jpg",
    "id_album": "1402713104",
    "description": "Landscape_705238",
    "title": "Landscape_705238",
    "link_img": "https://live.staticflickr.com/65535/49711806131_da74fcb00b_o.jpg",
    "id_image": "Landscape_705238",
    "count_view": 0
  },
  {
    "link_thumb": "https://live.staticflickr.com/65535/49712091421_ccd873abd3_n.jpg",
    "id_album": "606798642",
    "description": "RedRidingHood_844164",
    "title": "RedRidingHood_844164",
    "link_img": "https://live.staticflickr.com/65535/49712091421_0646923e46_o.jpg",
    "id_image": "RedRidingHood_844164",
    "count_view": 0
  },
  {
    "link_thumb": "https://live.staticflickr.com/65535/49711091036_9e6d6dd311_n.jpg",
    "id_album": "-1964113117",
    "description": "City_202510",
    "title": "City_202510",
    "link_img": "https://live.staticflickr.com/65535/49711091036_acdbfac9e6_o.jpg",
    "id_image": "City_202510",
    "count_view": 0
  },
  {
    "link_thumb": "https://live.staticflickr.com/65535/49710537673_e54ba0ca5b_n.jpg",
    "id_album": "-1741487325",
    "description": "Cat_870592",
    "title": "Cat_870592",
    "link_img": "https://live.staticflickr.com/65535/49710537673_978580571d_o.jpg",
    "id_image": "Cat_870592",
    "count_view": 0
  },
  {
    "link_thumb": "https://live.staticflickr.com/65535/49711153723_7cc265bf4e_n.jpg",
    "id_album": "-1972042284",
    "description": "Fairy_981480",
    "title": "Fairy_981480",
    "link_img": "https://live.staticflickr.com/65535/49711153723_38489180d4_o.jpg",
    "id_image": "Fairy_981480",
    "count_view": 0
  },
  {
    "link_thumb": "https://live.staticflickr.com/65535/49710715568_79d56533f9_n.jpg",
    "id_album": "-437872736",
    "description": "Creature_592378",
    "title": "Creature_592378",
    "link_img": "https://live.staticflickr.com/65535/49710715568_5682606bd2_o.jpg",
    "id_image": "Creature_592378",
    "count_view": 0
  },
  {
    "link_thumb": "https://live.staticflickr.com/65535/49711131081_71db4422cb_n.jpg",
    "id_album": "-1964113117",
    "description": "City_929602",
    "title": "City_929602",
    "link_img": "https://live.staticflickr.com/65535/49711131081_afb1f7da64_o.jpg",
    "id_image": "City_929602",
    "count_view": 0
  },
  {
    "link_thumb": "https://live.staticflickr.com/65535/49712786097_e9a69bf631_n.jpg",
    "id_album": "1861288871",
    "description": "Women_772333",
    "title": "Women_772333",
    "link_img": "https://live.staticflickr.com/65535/49712786097_f3cd65278a_o.jpg",
    "id_image": "Women_772333",
    "count_view": 0
  },
  {
    "link_thumb": "https://live.staticflickr.com/65535/49710985516_6726feecd7_n.jpg",
    "id_album": "1187037014",
    "description": "Battle_210742",
    "title": "Battle_210742",
    "link_img": "https://live.staticflickr.com/65535/49710985516_09f5b52f76_o.jpg",
    "id_image": "Battle_210742",
    "count_view": 0
  },
  {
    "link_thumb": "https://live.staticflickr.com/65535/49710472208_825eb9be70_n.jpg",
    "id_album": "1187037014",
    "description": "Battle_681003",
    "title": "Battle_681003",
    "link_img": "https://live.staticflickr.com/65535/49710472208_d216cd126b_o.jpg",
    "id_image": "Battle_681003",
    "count_view": 0
  },
  {
    "link_thumb": "https://live.staticflickr.com/65535/49711956523_2503d1e63f_n.jpg",
    "id_album": "-867594484",
    "description": "Women_514682",
    "title": "Women_514682",
    "link_img": "https://live.staticflickr.com/65535/49711956523_3579038392_o.jpg",
    "id_image": "Women_514682",
    "count_view": 0
  },
  {
    "link_thumb": "https://live.staticflickr.com/65535/49711515537_00891b7fde_n.jpg",
    "id_album": "-437872736",
    "description": "Creature_314706",
    "title": "Creature_314706",
    "link_img": "https://live.staticflickr.com/65535/49711515537_2e554a220c_o.jpg",
    "id_image": "Creature_314706",
    "count_view": 0
  },
  {
    "link_thumb": "https://live.staticflickr.com/65535/49711412937_8ce5d09584_n.jpg",
    "id_album": "-1964113117",
    "description": "City_150266",
    "title": "City_150266",
    "link_img": "https://live.staticflickr.com/65535/49711412937_db2335a4a2_o.jpg",
    "id_image": "City_150266",
    "count_view": 0
  },
  {
    "link_thumb": "https://live.staticflickr.com/65535/49711894202_735d1a1767_n.jpg",
    "id_album": "850176884",
    "description": "Dragon_935998",
    "title": "Dragon_935998",
    "link_img": "https://live.staticflickr.com/65535/49711894202_ebdfcd881d_o.jpg",
    "id_image": "Dragon_935998",
    "count_view": 0
  },
  {
    "link_thumb": "https://live.staticflickr.com/65535/49711569917_c0b04fdec0_n.jpg",
    "id_album": "-437872736",
    "description": "Creature_525931",
    "title": "Creature_525931",
    "link_img": "https://live.staticflickr.com/65535/49711569917_5e295e18fc_o.jpg",
    "id_image": "Creature_525931",
    "count_view": 0
  },
  {
    "link_thumb": "https://live.staticflickr.com/65535/49710419718_a95828c24e_n.jpg",
    "id_album": "523598895",
    "description": "Artistic_211447",
    "title": "Artistic_211447",
    "link_img": "https://live.staticflickr.com/65535/49710419718_6d618cb5e8_o.jpg",
    "id_image": "Artistic_211447",
    "count_view": 0
  },
  {
    "link_thumb": "https://live.staticflickr.com/65535/49710867801_c0f7ef6e79_n.jpg",
    "id_album": "-2109465612",
    "description": "Adventure_312623",
    "title": "Adventure_312623",
    "link_img": "https://live.staticflickr.com/65535/49710867801_fccc634153_o.jpg",
    "id_image": "Adventure_312623",
    "count_view": 0
  },
  {
    "link_thumb": "https://live.staticflickr.com/65535/49711889266_c1a7f53fa3_n.jpg",
    "id_album": "-833110404",
    "description": "Landscape_146664",
    "title": "Landscape_146664",
    "link_img": "https://live.staticflickr.com/65535/49711889266_4abab126b8_o.jpg",
    "id_image": "Landscape_146664",
    "count_view": 0
  },
  {
    "link_thumb": "https://live.staticflickr.com/65535/49711147476_f719130138_n.jpg",
    "id_album": "-437872736",
    "description": "Creature_155254",
    "title": "Creature_155254",
    "link_img": "https://live.staticflickr.com/65535/49711147476_fa055ee28a_o.jpg",
    "id_image": "Creature_155254",
    "count_view": 0
  },
  {
    "link_thumb": "https://live.staticflickr.com/65535/49710816623_89ed494569_n.jpg",
    "id_album": "850176884",
    "description": "DRAGON26101916502554",
    "title": "DRAGON26101916502554",
    "link_img": "https://live.staticflickr.com/65535/49710816623_71c24c758f_o.jpg",
    "id_image": "DRAGON26101916502554",
    "count_view": 0
  },
  {
    "link_thumb": "https://live.staticflickr.com/65535/49712758202_8014f79953_n.jpg",
    "id_album": "1861288871",
    "description": "Women_215361",
    "title": "Women_215361",
    "link_img": "https://live.staticflickr.com/65535/49712758202_2669076795_o.jpg",
    "id_image": "Women_215361",
    "count_view": 0
  },
  {
    "link_thumb": "https://live.staticflickr.com/65535/49711609886_102b8d0ffd_n.jpg",
    "id_album": "134100487",
    "description": "Elf_370739",
    "title": "Elf_370739",
    "link_img": "https://live.staticflickr.com/65535/49711609886_f6d28d37d5_o.jpg",
    "id_image": "Elf_370739",
    "count_view": 0
  },
  {
    "link_thumb": "https://live.staticflickr.com/65535/49711498077_e65ca0ccdf_n.jpg",
    "id_album": "-437872736",
    "description": "Creature_270097",
    "title": "Creature_270097",
    "link_img": "https://live.staticflickr.com/65535/49711498077_07ddc91871_o.jpg",
    "id_image": "Creature_270097",
    "count_view": 0
  },
  {
    "link_thumb": "https://live.staticflickr.com/65535/49711917858_1a749659b0_n.jpg",
    "id_album": "1861288871",
    "description": "Women_746454",
    "title": "Women_746454",
    "link_img": "https://live.staticflickr.com/65535/49711917858_d61acf7789_o.jpg",
    "id_image": "Women_746454",
    "count_view": 0
  },
  {
    "link_thumb": "https://live.staticflickr.com/65535/49711798117_76334307ac_n.jpg",
    "id_album": "850176884",
    "description": "Dragon_540471",
    "title": "Dragon_540471",
    "link_img": "https://live.staticflickr.com/65535/49711798117_ff615f2f30_o.jpg",
    "id_image": "Dragon_540471",
    "count_view": 0
  },
  {
    "link_thumb": "https://live.staticflickr.com/65535/49712491342_df08e58f1d_n.jpg",
    "id_album": "405170427",
    "description": "Tiger_982828",
    "title": "Tiger_982828",
    "link_img": "https://live.staticflickr.com/65535/49712491342_d8d1a51c7b_o.jpg",
    "id_image": "Tiger_982828",
    "count_view": 0
  },
  {
    "link_thumb": "https://live.staticflickr.com/65535/49711702141_298e53943f_n.jpg",
    "id_album": "-1083189875",
    "description": "Forest_665329",
    "title": "Forest_665329",
    "link_img": "https://live.staticflickr.com/65535/49711702141_a65baa22fe_o.jpg",
    "id_image": "Forest_665329",
    "count_view": 0
  },
  {
    "link_thumb": "https://live.staticflickr.com/65535/49710795433_7a0a01931e_n.jpg",
    "id_album": "1903411565",
    "description": "Deer_938849",
    "title": "Deer_938849",
    "link_img": "https://live.staticflickr.com/65535/49710795433_008eae2cff_o.jpg",
    "id_image": "Deer_938849",
    "count_view": 0
  },
  {
    "link_thumb": "https://live.staticflickr.com/65535/49711469187_7a3340510a_n.jpg",
    "id_album": "-437872736",
    "description": "Creature_152082",
    "title": "Creature_152082",
    "link_img": "https://live.staticflickr.com/65535/49711469187_0998c803c6_o.jpg",
    "id_image": "Creature_152082",
    "count_view": 0
  },
  {
    "link_thumb": "https://live.staticflickr.com/65535/49711767917_ccf085f507_n.jpg",
    "id_album": "850176884",
    "description": "Dragon_441576",
    "title": "Dragon_441576",
    "link_img": "https://live.staticflickr.com/65535/49711767917_d51f49cddf_o.jpg",
    "id_image": "Dragon_441576",
    "count_view": 0
  },
  {
    "link_thumb": "https://live.staticflickr.com/65535/49712002516_0bb7a57c2d_n.jpg",
    "id_album": "-1613076477",
    "description": "Magic_359644",
    "title": "Magic_359644",
    "link_img": "https://live.staticflickr.com/65535/49712002516_cd24df2e64_o.jpg",
    "id_image": "Magic_359644",
    "count_view": 0
  },
  {
    "link_thumb": "https://live.staticflickr.com/65535/49711914952_b7046d3341_n.jpg",
    "id_album": "850176884",
    "description": "Dragon_991647",
    "title": "Dragon_991647",
    "link_img": "https://live.staticflickr.com/65535/49711914952_47797d4b38_o.jpg",
    "id_image": "Dragon_991647",
    "count_view": 0
  },
  {
    "link_thumb": "https://live.staticflickr.com/65535/49711106616_3dca75e1b3_n.jpg",
    "id_album": "-1964113117",
    "description": "City_552100",
    "title": "City_552100",
    "link_img": "https://live.staticflickr.com/65535/49711106616_fc242835c4_o.jpg",
    "id_image": "City_552100",
    "count_view": 0
  },
  {
    "link_thumb": "https://live.staticflickr.com/65535/49710435883_d848797779_n.jpg",
    "id_album": "523598895",
    "description": "Artistic_479745",
    "title": "Artistic_479745",
    "link_img": "https://live.staticflickr.com/65535/49710435883_d826551f79_o.jpg",
    "id_image": "Artistic_479745",
    "count_view": 0
  },
  {
    "link_thumb": "https://live.staticflickr.com/65535/49711993261_0393ec21ae_n.jpg",
    "id_album": "-1859457952",
    "description": "Love_152012",
    "title": "Love_152012",
    "link_img": "https://live.staticflickr.com/65535/49711993261_45d4d6d5bf_o.jpg",
    "id_image": "Love_152012",
    "count_view": 0
  },
  {
    "link_thumb": "https://live.staticflickr.com/65535/49711742923_fffce333d6_n.jpg",
    "id_album": "-709711865",
    "description": "Wolf_558910",
    "title": "Wolf_558910",
    "link_img": "https://live.staticflickr.com/65535/49711742923_3cc32d8a18_o.jpg",
    "id_image": "Wolf_558910",
    "count_view": 0
  },
  {
    "link_thumb": "https://live.staticflickr.com/65535/49711260261_b862e75afb_n.jpg",
    "id_album": "-437872736",
    "description": "Creature_688748",
    "title": "Creature_688748",
    "link_img": "https://live.staticflickr.com/65535/49711260261_26ac091d27_o.jpg",
    "id_image": "Creature_688748",
    "count_view": 0
  },
  {
    "link_thumb": "https://live.staticflickr.com/65535/49712312201_c501c55573_n.jpg",
    "id_album": "-1126835654",
    "description": "Women_863469",
    "title": "Women_863469",
    "link_img": "https://live.staticflickr.com/65535/49712312201_b57099a6ee_o.jpg",
    "id_image": "Women_863469",
    "count_view": 0
  },
  {
    "link_thumb": "https://live.staticflickr.com/65535/49712774927_1402ff631b_n.jpg",
    "id_album": "1861288871",
    "description": "Women_745874",
    "title": "Women_745874",
    "link_img": "https://live.staticflickr.com/65535/49712774927_c88bf1b853_o.jpg",
    "id_image": "Women_745874",
    "count_view": 0
  },
  {
    "link_thumb": "https://live.staticflickr.com/65535/49712187717_e0ec8c3173_n.jpg",
    "id_album": "1402713104",
    "description": "Landscape_944290",
    "title": "Landscape_944290",
    "link_img": "https://live.staticflickr.com/65535/49712187717_c294158f7e_o.jpg",
    "id_image": "Landscape_944290",
    "count_view": 0
  },
  {
    "link_thumb": "https://live.staticflickr.com/65535/49712347911_173808042a_n.jpg",
    "id_album": "-1126835654",
    "description": "Women_982821",
    "title": "Women_982821",
    "link_img": "https://live.staticflickr.com/65535/49712347911_63c6a96b60_o.jpg",
    "id_image": "Women_982821",
    "count_view": 0
  },
  {
    "link_thumb": "https://live.staticflickr.com/65535/49711449608_0949a3d9fe_n.jpg",
    "id_album": "416744915",
    "description": "Lion_914950",
    "title": "Lion_914950",
    "link_img": "https://live.staticflickr.com/65535/49711449608_672dfd2488_o.jpg",
    "id_image": "Lion_914950",
    "count_view": 0
  },
  {
    "link_thumb": "https://live.staticflickr.com/65535/49711614363_5880d55c34_n.jpg",
    "id_album": "1209361954",
    "description": "Sylvan_419374",
    "title": "Sylvan_419374",
    "link_img": "https://live.staticflickr.com/65535/49711614363_1d4aea178c_o.jpg",
    "id_image": "Sylvan_419374",
    "count_view": 0
  },
  {
    "link_thumb": "https://live.staticflickr.com/65535/49710634588_dcf383b13b_n.jpg",
    "id_album": "-437872736",
    "description": "Creature_267123",
    "title": "Creature_267123",
    "link_img": "https://live.staticflickr.com/65535/49710634588_33399992c8_o.jpg",
    "id_image": "Creature_267123",
    "count_view": 0
  },
  {
    "link_thumb": "https://live.staticflickr.com/65535/49710949821_4a14aa12b2_n.jpg",
    "id_album": "523598895",
    "description": "Artistic_200300",
    "title": "Artistic_200300",
    "link_img": "https://live.staticflickr.com/65535/49710949821_c51844167d_o.jpg",
    "id_image": "Artistic_200300",
    "count_view": 0
  },
  {
    "link_thumb": "https://live.staticflickr.com/65535/49712702301_a83e369eba_n.jpg",
    "id_album": "-1675918237",
    "description": "WomenWarrior_969932",
    "title": "WomenWarrior_969932",
    "link_img": "https://live.staticflickr.com/65535/49712702301_1010b25e37_o.jpg",
    "id_image": "WomenWarrior_969932",
    "count_view": 0
  },
  {
    "link_thumb": "https://live.staticflickr.com/65535/49712599522_a2a04f6803_n.jpg",
    "id_album": "-709711865",
    "description": "Wolf_558909",
    "title": "Wolf_558909",
    "link_img": "https://live.staticflickr.com/65535/49712599522_6066638eef_o.jpg",
    "id_image": "Wolf_558909",
    "count_view": 0
  },
  {
    "link_thumb": "https://live.staticflickr.com/65535/49712113112_5674986aa6_n.jpg",
    "id_album": "469960528",
    "description": "Knight_951671",
    "title": "Knight_951671",
    "link_img": "https://live.staticflickr.com/65535/49712113112_63d8290602_o.jpg",
    "id_image": "Knight_951671",
    "count_view": 0
  },
  {
    "link_thumb": "https://live.staticflickr.com/65535/49711677332_9987f2e337_n.jpg",
    "id_album": "850176884",
    "description": "DRAGON26101916503874",
    "title": "DRAGON26101916503874",
    "link_img": "https://live.staticflickr.com/65535/49711677332_07e83a8379_o.jpg",
    "id_image": "DRAGON26101916503874",
    "count_view": 0
  },
  {
    "link_thumb": "https://live.staticflickr.com/65535/49712956887_422f11105b_n.jpg",
    "id_album": "-1675918237",
    "description": "WomenWarrior_547374",
    "title": "WomenWarrior_547374",
    "link_img": "https://live.staticflickr.com/65535/49712956887_28f8b24488_o.jpg",
    "id_image": "WomenWarrior_547374",
    "count_view": 0
  },
  {
    "link_thumb": "https://live.staticflickr.com/65535/49712426502_dc863b3ddf_n.jpg",
    "id_album": "-1611961467",
    "description": "Samurai_300141",
    "title": "Samurai_300141",
    "link_img": "https://live.staticflickr.com/65535/49712426502_45e7e32c8d_o.jpg",
    "id_image": "Samurai_300141",
    "count_view": 0
  },
  {
    "link_thumb": "https://live.staticflickr.com/65535/49799117512_091361ab13_n.jpg",
    "id_album": "-1703946758",
    "description": "ANIME_PIC_32b5ff757f9e30710bbbece5b00a8ccf",
    "title": "ANIME_PIC_32b5ff757f9e30710bbbece5b00a8ccf",
    "link_img": "https://live.staticflickr.com/65535/49799117512_e85ee42f24_o.jpg",
    "id_image": "ANIME_PIC_32b5ff757f9e30710bbbece5b00a8ccf",
    "count_view": 0
  },
  {
    "link_thumb": "https://live.staticflickr.com/65535/49711679851_f06c28783a_n.jpg",
    "id_album": "-1972042284",
    "description": "Fairy_738225",
    "title": "Fairy_738225",
    "link_img": "https://live.staticflickr.com/65535/49711679851_5ff8628682_o.jpg",
    "id_image": "Fairy_738225",
    "count_view": 0
  },
  {
    "link_thumb": "https://live.staticflickr.com/65535/49710899921_b47ba95a6e_n.jpg",
    "id_album": "-1913845949",
    "description": "Animal_334772",
    "title": "Animal_334772",
    "link_img": "https://live.staticflickr.com/65535/49710899921_32c60d891d_o.jpg",
    "id_image": "Animal_334772",
    "count_view": 0
  },
  {
    "link_thumb": "https://live.staticflickr.com/65535/49712076801_043046e9ba_n.jpg",
    "id_album": "-1326601535",
    "description": "Phoenix_714704",
    "title": "Phoenix_714704",
    "link_img": "https://live.staticflickr.com/65535/49712076801_3a19486d3b_o.jpg",
    "id_image": "Phoenix_714704",
    "count_view": 0
  },
  {
    "link_thumb": "https://live.staticflickr.com/65535/49712302737_c1381291cf_n.jpg",
    "id_album": "416744915",
    "description": "Lion_293334",
    "title": "Lion_293334",
    "link_img": "https://live.staticflickr.com/65535/49712302737_e579066896_o.jpg",
    "id_image": "Lion_293334",
    "count_view": 0
  },
  {
    "link_thumb": "https://live.staticflickr.com/65535/49710784178_cdd1081a5c_n.jpg",
    "id_album": "2021464556",
    "description": "Dark_680407",
    "title": "Dark_680407",
    "link_img": "https://live.staticflickr.com/65535/49710784178_8c5e838a18_o.jpg",
    "id_image": "Dark_680407",
    "count_view": 0
  },
  {
    "link_thumb": "https://live.staticflickr.com/65535/49712542066_e92f4bf88d_n.jpg",
    "id_album": "-1675918237",
    "description": "WomenWarrior_100189",
    "title": "WomenWarrior_100189",
    "link_img": "https://live.staticflickr.com/65535/49712542066_e3f9acfcac_o.jpg",
    "id_image": "WomenWarrior_100189",
    "count_view": 0
  },
  {
    "link_thumb": "https://live.staticflickr.com/65535/49711783972_6f84e0b67b_n.jpg",
    "id_album": "850176884",
    "description": "Dragon_497443",
    "title": "Dragon_497443",
    "link_img": "https://live.staticflickr.com/65535/49711783972_52ccaf7778_o.jpg",
    "id_image": "Dragon_497443",
    "count_view": 0
  },
  {
    "link_thumb": "https://live.staticflickr.com/65535/49711320762_c7ba994870_n.jpg",
    "id_album": "1187037014",
    "description": "Battle_382322",
    "title": "Battle_382322",
    "link_img": "https://live.staticflickr.com/65535/49711320762_dd0ccc6101_o.jpg",
    "id_image": "Battle_382322",
    "count_view": 0
  },
  {
    "link_thumb": "https://live.staticflickr.com/65535/49710974871_893328fb70_n.jpg",
    "id_album": "523598895",
    "description": "Artistic_592035",
    "title": "Artistic_592035",
    "link_img": "https://live.staticflickr.com/65535/49710974871_3bedeb9564_o.jpg",
    "id_image": "Artistic_592035",
    "count_view": 0
  },
  {
    "link_thumb": "https://live.staticflickr.com/65535/49712215012_039851aa1c_n.jpg",
    "id_album": "-833110404",
    "description": "Landscape_201532",
    "title": "Landscape_201532",
    "link_img": "https://live.staticflickr.com/65535/49712215012_0de92b912e_o.jpg",
    "id_image": "Landscape_201532",
    "count_view": 0
  },
  {
    "link_thumb": "https://live.staticflickr.com/65535/49711285098_c44d1cac02_n.jpg",
    "id_album": "1402713104",
    "description": "Landscape_787637",
    "title": "Landscape_787637",
    "link_img": "https://live.staticflickr.com/65535/49711285098_1fae38d0c2_o.jpg",
    "id_image": "Landscape_787637",
    "count_view": 0
  },
  {
    "link_thumb": "https://live.staticflickr.com/65535/49711239692_59d3623538_n.jpg",
    "id_album": "-1913845949",
    "description": "Animal_732319",
    "title": "Animal_732319",
    "link_img": "https://live.staticflickr.com/65535/49711239692_555d0baf6a_o.jpg",
    "id_image": "Animal_732319",
    "count_view": 0
  },
  {
    "link_thumb": "https://live.staticflickr.com/65535/49711554026_e14277e5ae_n.jpg",
    "id_album": "850176884",
    "description": "Dragon_900220",
    "title": "Dragon_900220",
    "link_img": "https://live.staticflickr.com/65535/49711554026_2e67f2a82f_o.jpg",
    "id_image": "Dragon_900220",
    "count_view": 0
  },
  {
    "link_thumb": "https://live.staticflickr.com/65535/49711513102_1412fd96f5_n.jpg",
    "id_album": "-437872736",
    "description": "Creature_310906",
    "title": "Creature_310906",
    "link_img": "https://live.staticflickr.com/65535/49711513102_8ec958ec5e_o.jpg",
    "id_image": "Creature_310906",
    "count_view": 0
  },
  {
    "link_thumb": "https://live.staticflickr.com/65535/49712491566_a3c1fba23d_n.jpg",
    "id_album": "-867594484",
    "description": "Women_516895",
    "title": "Women_516895",
    "link_img": "https://live.staticflickr.com/65535/49712491566_9997cf7279_o.jpg",
    "id_image": "Women_516895",
    "count_view": 0
  },
  {
    "link_thumb": "https://live.staticflickr.com/65535/49711745877_6f5276eeea_n.jpg",
    "id_album": "850176884",
    "description": "Dragon_328908",
    "title": "Dragon_328908",
    "link_img": "https://live.staticflickr.com/65535/49711745877_21f1d192a6_o.jpg",
    "id_image": "Dragon_328908",
    "count_view": 0
  },
  {
    "link_thumb": "https://live.staticflickr.com/65535/49712368617_05dff508c6_n.jpg",
    "id_album": "1892085513",
    "description": "Oriental_400272",
    "title": "Oriental_400272",
    "link_img": "https://live.staticflickr.com/65535/49712368617_1a1ec5e2cd_o.jpg",
    "id_image": "Oriental_400272",
    "count_view": 0
  },
  {
    "link_thumb": "https://live.staticflickr.com/65535/49711336837_5e72005489_n.jpg",
    "id_album": "1187037014",
    "description": "Battle_914420",
    "title": "Battle_914420",
    "link_img": "https://live.staticflickr.com/65535/49711336837_5c1507cc8e_o.jpg",
    "id_image": "Battle_914420",
    "count_view": 0
  },
  {
    "link_thumb": "https://live.staticflickr.com/65535/49710875411_fbd4236d1e_n.jpg",
    "id_album": "-1000175186",
    "description": "AngelWarrior_159996",
    "title": "AngelWarrior_159996",
    "link_img": "https://live.staticflickr.com/65535/49710875411_cb2f60006f_o.jpg",
    "id_image": "AngelWarrior_159996",
    "count_view": 0
  },
  {
    "link_thumb": "https://live.staticflickr.com/65535/49712528006_aeda5deae2_n.jpg",
    "id_album": "-867594484",
    "description": "Women_669861",
    "title": "Women_669861",
    "link_img": "https://live.staticflickr.com/65535/49712528006_1a5f0be886_o.jpg",
    "id_image": "Women_669861",
    "count_view": 0
  },
  {
    "link_thumb": "https://live.staticflickr.com/65535/49711360468_912af6e0f7_n.jpg",
    "id_album": "-833110404",
    "description": "Landscape_239981",
    "title": "Landscape_239981",
    "link_img": "https://live.staticflickr.com/65535/49711360468_e3551508f3_o.jpg",
    "id_image": "Landscape_239981",
    "count_view": 0
  },
  {
    "link_thumb": "https://live.staticflickr.com/65535/49711266943_b52de2df30_n.jpg",
    "id_album": "1402713104",
    "description": "Landscape_685284",
    "title": "Landscape_685284",
    "link_img": "https://live.staticflickr.com/65535/49711266943_bfc58475d3_o.jpg",
    "id_image": "Landscape_685284",
    "count_view": 0
  },
  {
    "link_thumb": "https://live.staticflickr.com/65535/49711581541_1f731b4391_n.jpg",
    "id_album": "850176884",
    "description": "Dragon_967461",
    "title": "Dragon_967461",
    "link_img": "https://live.staticflickr.com/65535/49711581541_1d97b907cb_o.jpg",
    "id_image": "Dragon_967461",
    "count_view": 0
  },
  {
    "link_thumb": "https://live.staticflickr.com/65535/49711580523_f7270d43fa_n.jpg",
    "id_album": "-1611961467",
    "description": "Samurai_987362",
    "title": "Samurai_987362",
    "link_img": "https://live.staticflickr.com/65535/49711580523_b06a142f69_o.jpg",
    "id_image": "Samurai_987362",
    "count_view": 0
  },
  {
    "link_thumb": "https://live.staticflickr.com/65535/49712576837_f3b2ee4461_n.jpg",
    "id_album": "786934945",
    "description": "Whale_985588",
    "title": "Whale_985588",
    "link_img": "https://live.staticflickr.com/65535/49712576837_d2ba16bb54_o.jpg",
    "id_image": "Whale_985588",
    "count_view": 0
  },
  {
    "link_thumb": "https://live.staticflickr.com/65535/49711552748_c5f5f950ea_n.jpg",
    "id_album": "606798642",
    "description": "RedRidingHood_118492",
    "title": "RedRidingHood_118492",
    "link_img": "https://live.staticflickr.com/65535/49711552748_3b60e004fb_o.jpg",
    "id_image": "RedRidingHood_118492",
    "count_view": 0
  },
  {
    "link_thumb": "https://live.staticflickr.com/65535/49711459072_0e3c4dae9c_n.jpg",
    "id_album": "-1964113117",
    "description": "City_961975",
    "title": "City_961975",
    "link_img": "https://live.staticflickr.com/65535/49711459072_6633ed251a_o.jpg",
    "id_image": "City_961975",
    "count_view": 0
  },
  {
    "link_thumb": "https://live.staticflickr.com/65535/49711300208_432e0578a3_n.jpg",
    "id_album": "1402713104",
    "description": "Landscape_864270",
    "title": "Landscape_864270",
    "link_img": "https://live.staticflickr.com/65535/49711300208_339807bace_o.jpg",
    "id_image": "Landscape_864270",
    "count_view": 0
  },
  {
    "link_thumb": "https://live.staticflickr.com/65535/49712371336_e75731e5ff_n.jpg",
    "id_album": "295204930",
    "description": "Women_274242",
    "title": "Women_274242",
    "link_img": "https://live.staticflickr.com/65535/49712371336_78628f5325_o.jpg",
    "id_image": "Women_274242",
    "count_view": 0
  },
  {
    "link_thumb": "https://live.staticflickr.com/65535/49711026278_b020c2a9a2_n.jpg",
    "id_album": "850176884",
    "description": "Dragon_91098",
    "title": "Dragon_91098",
    "link_img": "https://live.staticflickr.com/65535/49711026278_a159be6b7a_o.jpg",
    "id_image": "Dragon_91098",
    "count_view": 0
  },
  {
    "link_thumb": "https://live.staticflickr.com/65535/49712206381_93616e4deb_n.jpg",
    "id_album": "-1261420436",
    "description": "Warrior_360104",
    "title": "Warrior_360104",
    "link_img": "https://live.staticflickr.com/65535/49712206381_df0b0e6769_o.jpg",
    "id_image": "Warrior_360104",
    "count_view": 0
  },
  {
    "link_thumb": "https://live.staticflickr.com/65535/49712766247_333abef46e_n.jpg",
    "id_album": "1861288871",
    "description": "Women_472757",
    "title": "Women_472757",
    "link_img": "https://live.staticflickr.com/65535/49712766247_6da95cf7fe_o.jpg",
    "id_image": "Women_472757",
    "count_view": 0
  },
  {
    "link_thumb": "https://live.staticflickr.com/65535/49710928218_1bacb1fab0_n.jpg",
    "id_album": "850176884",
    "description": "Dragon_497602",
    "title": "Dragon_497602",
    "link_img": "https://live.staticflickr.com/65535/49710928218_f4194c420e_o.jpg",
    "id_image": "Dragon_497602",
    "count_view": 0
  },
  {
    "link_thumb": "https://live.staticflickr.com/65535/49710699323_e9fd9472fd_n.jpg",
    "id_album": "-437872736",
    "description": "Creature_486565",
    "title": "Creature_486565",
    "link_img": "https://live.staticflickr.com/65535/49710699323_1f0813c479_o.jpg",
    "id_image": "Creature_486565",
    "count_view": 0
  },
  {
    "link_thumb": "https://live.staticflickr.com/65535/49711209636_9d1eaaffc2_n.jpg",
    "id_album": "-437872736",
    "description": "Creature_342439",
    "title": "Creature_342439",
    "link_img": "https://live.staticflickr.com/65535/49711209636_80c8732064_o.jpg",
    "id_image": "Creature_342439",
    "count_view": 0
  },
  {
    "link_thumb": "https://live.staticflickr.com/65535/49711179752_04a0a971af_n.jpg",
    "id_album": "-218097820",
    "description": "ASongOfIceAndFire_225303",
    "title": "ASongOfIceAndFire_225303",
    "link_img": "https://live.staticflickr.com/65535/49711179752_139cf8d1a5_o.jpg",
    "id_image": "ASongOfIceAndFire_225303",
    "count_view": 0
  },
  {
    "link_thumb": "https://live.staticflickr.com/65535/49712638507_cf4518f372_n.jpg",
    "id_album": "-1126835654",
    "description": "Women_875326",
    "title": "Women_875326",
    "link_img": "https://live.staticflickr.com/65535/49712638507_cc01cba98c_o.jpg",
    "id_image": "Women_875326",
    "count_view": 0
  },
  {
    "link_thumb": "https://live.staticflickr.com/65535/49712187362_f57007a1fc_n.jpg",
    "id_album": "1402713104",
    "description": "Landscape_943147",
    "title": "Landscape_943147",
    "link_img": "https://live.staticflickr.com/65535/49712187362_45df6fdf2e_o.jpg",
    "id_image": "Landscape_943147",
    "count_view": 0
  },
  {
    "link_thumb": "https://live.staticflickr.com/65535/49712291597_14faf924c1_n.jpg",
    "id_album": "-833110404",
    "description": "Landscape_552373",
    "title": "Landscape_552373",
    "link_img": "https://live.staticflickr.com/65535/49712291597_4feea2408e_o.jpg",
    "id_image": "Landscape_552373",
    "count_view": 0
  },
  {
    "link_thumb": "https://live.staticflickr.com/65535/49711500978_070768a812_n.jpg",
    "id_album": "1892085513",
    "description": "Oriental_247470",
    "title": "Oriental_247470",
    "link_img": "https://live.staticflickr.com/65535/49711500978_f656facb51_o.jpg",
    "id_image": "Oriental_247470",
    "count_view": 0
  },
  {
    "link_thumb": "https://live.staticflickr.com/65535/49710339778_bac2a02101_n.jpg",
    "id_album": "-1000175186",
    "description": "AngelWarrior_130015",
    "title": "AngelWarrior_130015",
    "link_img": "https://live.staticflickr.com/65535/49710339778_af9651069f_o.jpg",
    "id_image": "AngelWarrior_130015",
    "count_view": 0
  },
  {
    "link_thumb": "https://live.staticflickr.com/65535/49711439092_6e691d8267_n.jpg",
    "id_album": "-1964113117",
    "description": "City_703155",
    "title": "City_703155",
    "link_img": "https://live.staticflickr.com/65535/49711439092_98b64ea2c6_o.jpg",
    "id_image": "City_703155",
    "count_view": 0
  },
  {
    "link_thumb": "https://live.staticflickr.com/65535/49710853668_238f5ced7d_n.jpg",
    "id_album": "850176884",
    "description": "Dragon_229889",
    "title": "Dragon_229889",
    "link_img": "https://live.staticflickr.com/65535/49710853668_c89548014d_o.jpg",
    "id_image": "Dragon_229889",
    "count_view": 0
  },
  {
    "link_thumb": "https://live.staticflickr.com/65535/49711195342_14741b9efe_n.jpg",
    "id_album": "-956471126",
    "description": "AliceInWonderland_214361",
    "title": "AliceInWonderland_214361",
    "link_img": "https://live.staticflickr.com/65535/49711195342_8fc2baba53_o.jpg",
    "id_image": "AliceInWonderland_214361",
    "count_view": 0
  },
  {
    "link_thumb": "https://live.staticflickr.com/65535/49711378187_6bbf58e9ca_n.jpg",
    "id_album": "-1541846310",
    "description": "Castle_704646",
    "title": "Castle_704646",
    "link_img": "https://live.staticflickr.com/65535/49711378187_072be12351_o.jpg",
    "id_image": "Castle_704646",
    "count_view": 0
  },
  {
    "link_thumb": "https://live.staticflickr.com/65535/49711176611_3b8d33dfe5_n.jpg",
    "id_album": "-437872736",
    "description": "Creature_287699",
    "title": "Creature_287699",
    "link_img": "https://live.staticflickr.com/65535/49711176611_a5e594f677_o.jpg",
    "id_image": "Creature_287699",
    "count_view": 0
  },
  {
    "link_thumb": "https://live.staticflickr.com/65535/49710984798_b0161e45a7_n.jpg",
    "id_album": "850176884",
    "description": "Dragon_749777",
    "title": "Dragon_749777",
    "link_img": "https://live.staticflickr.com/65535/49710984798_e6f34157aa_o.jpg",
    "id_image": "Dragon_749777",
    "count_view": 0
  },
  {
    "link_thumb": "https://live.staticflickr.com/65535/49712249446_afbdf50422_n.jpg",
    "id_album": "786934945",
    "description": "Whale_275908",
    "title": "Whale_275908",
    "link_img": "https://live.staticflickr.com/65535/49712249446_e7274166df_o.jpg",
    "id_image": "Whale_275908",
    "count_view": 0
  },
  {
    "link_thumb": "https://live.staticflickr.com/65535/49712417747_94840249a5_n.jpg",
    "id_album": "1223576123",
    "description": "Ruin_677226",
    "title": "Ruin_677226",
    "link_img": "https://live.staticflickr.com/65535/49712417747_6f8ea18a5e_o.jpg",
    "id_image": "Ruin_677226",
    "count_view": 0
  },
  {
    "link_thumb": "https://live.staticflickr.com/65535/49710946601_31f87f74af_n.jpg",
    "id_album": "523598895",
    "description": "Artistic_163943",
    "title": "Artistic_163943",
    "link_img": "https://live.staticflickr.com/65535/49710946601_3f6b10af85_o.jpg",
    "id_image": "Artistic_163943",
    "count_view": 0
  },
  {
    "link_thumb": "https://live.staticflickr.com/65535/49710527558_cc46bfb6a8_n.jpg",
    "id_album": "-1541846310",
    "description": "Castle_869188",
    "title": "Castle_869188",
    "link_img": "https://live.staticflickr.com/65535/49710527558_87f39eef02_o.jpg",
    "id_image": "Castle_869188",
    "count_view": 0
  },
  {
    "link_thumb": "https://live.staticflickr.com/65535/49712508086_065261af23_n.jpg",
    "id_album": "-867594484",
    "description": "Women_567014",
    "title": "Women_567014",
    "link_img": "https://live.staticflickr.com/65535/49712508086_38436ccc79_o.jpg",
    "id_image": "Women_567014",
    "count_view": 0
  },
  {
    "link_thumb": "https://live.staticflickr.com/65535/49712655247_ab9931b8de_n.jpg",
    "id_album": "-1126835654",
    "description": "Women_902567",
    "title": "Women_902567",
    "link_img": "https://live.staticflickr.com/65535/49712655247_2e45ff9dee_o.jpg",
    "id_image": "Women_902567",
    "count_view": 0
  },
  {
    "link_thumb": "https://live.staticflickr.com/65535/49711461111_5b7e25fcab_n.jpg",
    "id_album": "850176884",
    "description": "Dragon_491236",
    "title": "Dragon_491236",
    "link_img": "https://live.staticflickr.com/65535/49711461111_9acdbae322_o.jpg",
    "id_image": "Dragon_491236",
    "count_view": 0
  },
  {
    "link_thumb": "https://live.staticflickr.com/65535/49711061131_c4cb2f7923_n.jpg",
    "id_album": "-1541846310",
    "description": "Castle_864930",
    "title": "Castle_864930",
    "link_img": "https://live.staticflickr.com/65535/49711061131_1a989314c5_o.jpg",
    "id_image": "Castle_864930",
    "count_view": 0
  },
  {
    "link_thumb": "https://live.staticflickr.com/65535/49712242576_166efce90d_n.jpg",
    "id_album": "1173975892",
    "description": "Werewolf_178661",
    "title": "Werewolf_178661",
    "link_img": "https://live.staticflickr.com/65535/49712242576_83bf2c45df_o.jpg",
    "id_image": "Werewolf_178661",
    "count_view": 0
  },
  {
    "link_thumb": "https://live.staticflickr.com/65535/49710962923_d2a2ea0ec0_n.jpg",
    "id_album": "850176884",
    "description": "Dragon_629322",
    "title": "Dragon_629322",
    "link_img": "https://live.staticflickr.com/65535/49710962923_e96ce6c2ab_o.jpg",
    "id_image": "Dragon_629322",
    "count_view": 0
  },
  {
    "link_thumb": "https://live.staticflickr.com/65535/49710654563_f1dcb6965e_n.jpg",
    "id_album": "-437872736",
    "description": "Creature_314450",
    "title": "Creature_314450",
    "link_img": "https://live.staticflickr.com/65535/49710654563_80eda6e8d7_o.jpg",
    "id_image": "Creature_314450",
    "count_view": 0
  },
  {
    "link_thumb": "https://live.staticflickr.com/65535/49711147896_097caa5c02_n.jpg",
    "id_album": "-437872736",
    "description": "Creature_155291",
    "title": "Creature_155291",
    "link_img": "https://live.staticflickr.com/65535/49711147896_9647db31f5_o.jpg",
    "id_image": "Creature_155291",
    "count_view": 0
  },
  {
    "link_thumb": "https://live.staticflickr.com/65535/49711663142_4786e8e4de_n.jpg",
    "id_album": "7198985",
    "description": "Demon_636600",
    "title": "Demon_636600",
    "link_img": "https://live.staticflickr.com/65535/49711663142_048ca03e8c_o.jpg",
    "id_image": "Demon_636600",
    "count_view": 0
  },
  {
    "link_thumb": "https://live.staticflickr.com/65535/49713018482_60ece738ac_n.jpg",
    "id_album": "-1675918237",
    "description": "WomenWarrior_886633",
    "title": "WomenWarrior_886633",
    "link_img": "https://live.staticflickr.com/65535/49713018482_45ff9301e2_o.jpg",
    "id_image": "WomenWarrior_886633",
    "count_view": 0
  },
  {
    "link_thumb": "https://live.staticflickr.com/65535/49711901621_742e5bfcd6_n.jpg",
    "id_album": "-833110404",
    "description": "Landscape_264527",
    "title": "Landscape_264527",
    "link_img": "https://live.staticflickr.com/65535/49711901621_303c202275_o.jpg",
    "id_image": "Landscape_264527",
    "count_view": 0
  },
  {
    "link_thumb": "https://live.staticflickr.com/65535/49711558848_238df90f9f_n.jpg",
    "id_album": "1223576123",
    "description": "Ruin_323917",
    "title": "Ruin_323917",
    "link_img": "https://live.staticflickr.com/65535/49711558848_61a50f6e47_o.jpg",
    "id_image": "Ruin_323917",
    "count_view": 0
  },
  {
    "link_thumb": "https://live.staticflickr.com/65535/49711939907_a86e8b4f72_n.jpg",
    "id_album": "134100487",
    "description": "Elf_506362",
    "title": "Elf_506362",
    "link_img": "https://live.staticflickr.com/65535/49711939907_8177b78de9_o.jpg",
    "id_image": "Elf_506362",
    "count_view": 0
  },
  {
    "link_thumb": "https://live.staticflickr.com/65535/49711357517_89bf0b0e06_n.jpg",
    "id_album": "-1541846310",
    "description": "Castle_159289",
    "title": "Castle_159289",
    "link_img": "https://live.staticflickr.com/65535/49711357517_78e7956a1b_o.jpg",
    "id_image": "Castle_159289",
    "count_view": 0
  },
  {
    "link_thumb": "https://live.staticflickr.com/65535/49711738406_5c3f38d0e9_n.jpg",
    "id_album": "402434752",
    "description": "Giant_907915",
    "title": "Giant_907915",
    "link_img": "https://live.staticflickr.com/65535/49711738406_fbc006cf40_o.jpg",
    "id_image": "Giant_907915",
    "count_view": 0
  },
  {
    "link_thumb": "https://live.staticflickr.com/65535/49710863313_a9375e6d1f_n.jpg",
    "id_album": "850176884",
    "description": "Dragon_248637",
    "title": "Dragon_248637",
    "link_img": "https://live.staticflickr.com/65535/49710863313_56cb3c3f37_o.jpg",
    "id_image": "Dragon_248637",
    "count_view": 0
  },
  {
    "link_thumb": "https://live.staticflickr.com/65535/49711338298_42d3a00034_n.jpg",
    "id_album": "1402713104",
    "description": "Landscape_958302",
    "title": "Landscape_958302",
    "link_img": "https://live.staticflickr.com/65535/49711338298_55f2746b19_o.jpg",
    "id_image": "Landscape_958302",
    "count_view": 0
  },
  {
    "link_thumb": "https://live.staticflickr.com/65535/49711389832_f9db73a51b_n.jpg",
    "id_album": "-1541846310",
    "description": "Castle_892773",
    "title": "Castle_892773",
    "link_img": "https://live.staticflickr.com/65535/49711389832_1b46707fca_o.jpg",
    "id_image": "Castle_892773",
    "count_view": 0
  },
  {
    "link_thumb": "https://live.staticflickr.com/65535/49711980501_c2402cf091_n.jpg",
    "id_album": "416744915",
    "description": "Lion_369619",
    "title": "Lion_369619",
    "link_img": "https://live.staticflickr.com/65535/49711980501_7c61d14af4_o.jpg",
    "id_image": "Lion_369619",
    "count_view": 0
  },
  {
    "link_thumb": "https://live.staticflickr.com/65535/49711421867_a8855c3065_n.jpg",
    "id_album": "-1964113117",
    "description": "City_329726",
    "title": "City_329726",
    "link_img": "https://live.staticflickr.com/65535/49711421867_a3fb425cf3_o.jpg",
    "id_image": "City_329726",
    "count_view": 0
  },
  {
    "link_thumb": "https://live.staticflickr.com/65535/49711832962_0d50c8c47d_n.jpg",
    "id_album": "850176884",
    "description": "Dragon_711444",
    "title": "Dragon_711444",
    "link_img": "https://live.staticflickr.com/65535/49711832962_dcf89af7e3_o.jpg",
    "id_image": "Dragon_711444",
    "count_view": 0
  },
  {
    "link_thumb": "https://live.staticflickr.com/65535/49711497077_a602b59583_n.jpg",
    "id_album": "-437872736",
    "description": "Creature_269360",
    "title": "Creature_269360",
    "link_img": "https://live.staticflickr.com/65535/49711497077_51c66bf440_o.jpg",
    "id_image": "Creature_269360",
    "count_view": 0
  },
  {
    "link_thumb": "https://live.staticflickr.com/65535/49711605198_4086a53fe0_n.jpg",
    "id_album": "-395228614",
    "description": "Ship_997942",
    "title": "Ship_997942",
    "link_img": "https://live.staticflickr.com/65535/49711605198_fbb72687c7_o.jpg",
    "id_image": "Ship_997942",
    "count_view": 0
  },
  {
    "link_thumb": "https://live.staticflickr.com/65535/49711643838_53e4313803_n.jpg",
    "id_album": "431597977",
    "description": "Unicorn_469481",
    "title": "Unicorn_469481",
    "link_img": "https://live.staticflickr.com/65535/49711643838_ac8e822a3b_o.jpg",
    "id_image": "Unicorn_469481",
    "count_view": 0
  },
  {
    "link_thumb": "https://live.staticflickr.com/65535/49711161913_85a5155b9a_n.jpg",
    "id_album": "-1083189875",
    "description": "Forest_434280",
    "title": "Forest_434280",
    "link_img": "https://live.staticflickr.com/65535/49711161913_679abfa2c4_o.jpg",
    "id_image": "Forest_434280",
    "count_view": 0
  },
  {
    "link_thumb": "https://live.staticflickr.com/65535/49711672516_6c28db9ffc_n.jpg",
    "id_album": "-1972042284",
    "description": "Fairy_677183",
    "title": "Fairy_677183",
    "link_img": "https://live.staticflickr.com/65535/49711672516_d2ded91480_o.jpg",
    "id_image": "Fairy_677183",
    "count_view": 0
  },
  {
    "link_thumb": "https://live.staticflickr.com/65535/49710381203_c67a292a80_n.jpg",
    "id_album": "-1913845949",
    "description": "Animal_700945",
    "title": "Animal_700945",
    "link_img": "https://live.staticflickr.com/65535/49710381203_253d542c92_o.jpg",
    "id_image": "Animal_700945",
    "count_view": 0
  },
  {
    "link_thumb": "https://live.staticflickr.com/65535/49711446063_34c311167b_n.jpg",
    "id_album": "416744915",
    "description": "Lion_642273",
    "title": "Lion_642273",
    "link_img": "https://live.staticflickr.com/65535/49711446063_84e5b51f8c_o.jpg",
    "id_image": "Lion_642273",
    "count_view": 0
  },
  {
    "link_thumb": "https://live.staticflickr.com/65535/49711411161_e8f78b2b90_n.jpg",
    "id_album": "850176884",
    "description": "Dragon_287712",
    "title": "Dragon_287712",
    "link_img": "https://live.staticflickr.com/65535/49711411161_1f437f62a2_o.jpg",
    "id_image": "Dragon_287712",
    "count_view": 0
  },
  {
    "link_thumb": "https://live.staticflickr.com/65535/49710476773_9426006708_n.jpg",
    "id_album": "1187037014",
    "description": "Battle_865974",
    "title": "Battle_865974",
    "link_img": "https://live.staticflickr.com/65535/49710476773_87f6f61316_o.jpg",
    "id_image": "Battle_865974",
    "count_view": 0
  },
  {
    "link_thumb": "https://live.staticflickr.com/65535/49711410586_ccac139b49_n.jpg",
    "id_album": "850176884",
    "description": "Dragon_284814",
    "title": "Dragon_284814",
    "link_img": "https://live.staticflickr.com/65535/49711410586_a337c58813_o.jpg",
    "id_image": "Dragon_284814",
    "count_view": 0
  },
  {
    "link_thumb": "https://live.staticflickr.com/65535/49711914053_43861c2a05_n.jpg",
    "id_album": "1861288871",
    "description": "Women_496562",
    "title": "Women_496562",
    "link_img": "https://live.staticflickr.com/65535/49711914053_c5466df4b2_o.jpg",
    "id_image": "Women_496562",
    "count_view": 0
  },
  {
    "link_thumb": "https://live.staticflickr.com/65535/49711523486_8cdd90608c_n.jpg",
    "id_album": "850176884",
    "description": "Dragon_778147",
    "title": "Dragon_778147",
    "link_img": "https://live.staticflickr.com/65535/49711523486_a62414a8dd_o.jpg",
    "id_image": "Dragon_778147",
    "count_view": 0
  }
]