[
  {
    "link_thumb": "https://live.staticflickr.com/65535/49710667678_12f66d1c5c_n.jpg",
    "id_album": "-437872736",
    "description": "Creature_333727",
    "title": "Creature_333727",
    "link_img": "https://live.staticflickr.com/65535/49710667678_9dfb6173f0_o.jpg",
    "id_image": "Creature_333727",
    "count_view": 0
  },
  {
    "link_thumb": "https://live.staticflickr.com/65535/49711296002_592867229e_n.jpg",
    "id_album": "523598895",
    "description": "Artistic_546342",
    "title": "Artistic_546342",
    "link_img": "https://live.staticflickr.com/65535/49711296002_0ae54066d4_o.jpg",
    "id_image": "Artistic_546342",
    "count_view": 0
  },
  {
    "link_thumb": "https://live.staticflickr.com/65535/49712250341_8bbf3d91b0_n.jpg",
    "id_album": "786934945",
    "description": "Whale_403174",
    "title": "Whale_403174",
    "link_img": "https://live.staticflickr.com/65535/49712250341_0c5ca1c6c3_o.jpg",
    "id_image": "Whale_403174",
    "count_view": 0
  },
  {
    "link_thumb": "https://live.staticflickr.com/65535/49711339276_bc82c68b33_n.jpg",
    "id_album": "7198985",
    "description": "Demon_677229",
    "title": "Demon_677229",
    "link_img": "https://live.staticflickr.com/65535/49711339276_77d9b7b820_o.jpg",
    "id_image": "Demon_677229",
    "count_view": 0
  },
  {
    "link_thumb": "https://live.staticflickr.com/65535/49711621306_139223f09c_n.jpg",
    "id_album": "134100487",
    "description": "Elf_582408",
    "title": "Elf_582408",
    "link_img": "https://live.staticflickr.com/65535/49711621306_7f492ab123_o.jpg",
    "id_image": "Elf_582408",
    "count_view": 0
  },
  {
    "link_thumb": "https://live.staticflickr.com/65535/49711516903_c4e20c770b_n.jpg",
    "id_album": "1892085513",
    "description": "Oriental_978181",
    "title": "Oriental_978181",
    "link_img": "https://live.staticflickr.com/65535/49711516903_b285d5f535_o.jpg",
    "id_image": "Oriental_978181",
    "count_view": 0
  },
  {
    "link_thumb": "https://live.staticflickr.com/65535/49710765313_e31dae1bb6_n.jpg",
    "id_album": "-437872736",
    "description": "Creature_958956",
    "title": "Creature_958956",
    "link_img": "https://live.staticflickr.com/65535/49710765313_902bd2d2ec_o.jpg",
    "id_image": "Creature_958956",
    "count_view": 0
  },
  {
    "link_thumb": "https://live.staticflickr.com/65535/49711748861_1376c5b61a_n.jpg",
    "id_album": "1131236559",
    "description": "Gods_970708",
    "title": "Gods_970708",
    "link_img": "https://live.staticflickr.com/65535/49711748861_64fbdb4ac2_o.jpg",
    "id_image": "Gods_970708",
    "count_view": 0
  },
  {
    "link_thumb": "https://live.staticflickr.com/65535/49711861182_c4c6d14c8e_n.jpg",
    "id_album": "850176884",
    "description": "Dragon_863843",
    "title": "Dragon_863843",
    "link_img": "https://live.staticflickr.com/65535/49711861182_38c1e1550e_o.jpg",
    "id_image": "Dragon_863843",
    "count_view": 0
  },
  {
    "link_thumb": "https://live.staticflickr.com/65535/49711239543_21549e380a_n.jpg",
    "id_album": "-1967191405",
    "description": "Hydra_178963",
    "title": "Hydra_178963",
    "link_img": "https://live.staticflickr.com/65535/49711239543_f50a33b61e_o.jpg",
    "id_image": "Hydra_178963",
    "count_view": 0
  },
  {
    "link_thumb": "https://live.staticflickr.com/65535/49710554783_b892975001_n.jpg",
    "id_album": "-1964113117",
    "description": "City_198123",
    "title": "City_198123",
    "link_img": "https://live.staticflickr.com/65535/49710554783_a4334690ef_o.jpg",
    "id_image": "City_198123",
    "count_view": 0
  },
  {
    "link_thumb": "https://live.staticflickr.com/65535/49711696921_e5994f7a75_n.jpg",
    "id_album": "-1083189875",
    "description": "Forest_472599",
    "title": "Forest_472599",
    "link_img": "https://live.staticflickr.com/65535/49711696921_b88d77a5e7_o.jpg",
    "id_image": "Forest_472599",
    "count_view": 0
  },
  {
    "link_thumb": "https://live.staticflickr.com/65535/49711873437_26b8361c49_n.jpg",
    "id_album": "850176884",
    "description": "Dragon_887569",
    "title": "Dragon_887569",
    "link_img": "https://live.staticflickr.com/65535/49711873437_2bacdc2818_o.jpg",
    "id_image": "Dragon_887569",
    "count_view": 0
  },
  {
    "link_thumb": "https://live.staticflickr.com/65535/49711761931_63d83d88fd_n.jpg",
    "id_album": "-1933715543",
    "description": "Horse_768786",
    "title": "Horse_768786",
    "link_img": "https://live.staticflickr.com/65535/49711761931_5b80c141e4_o.jpg",
    "id_image": "Horse_768786",
    "count_view": 0
  },
  {
    "link_thumb": "https://live.staticflickr.com/65535/49711762327_edc794fb85_n.jpg",
    "id_album": "850176884",
    "description": "Dragon_402986",
    "title": "Dragon_402986",
    "link_img": "https://live.staticflickr.com/65535/49711762327_ca16d340c4_o.jpg",
    "id_image": "Dragon_402986",
    "count_view": 0
  },
  {
    "link_thumb": "https://live.staticflickr.com/65535/49711119941_b277cb25a3_n.jpg",
    "id_album": "-1964113117",
    "description": "City_83743",
    "title": "City_83743",
    "link_img": "https://live.staticflickr.com/65535/49711119941_bf5d9e0fbb_o.jpg",
    "id_image": "City_83743",
    "count_view": 0
  },
  {
    "link_thumb": "https://live.staticflickr.com/65535/49710491008_c63890ac54_n.jpg",
    "id_album": "406431601",
    "description": "Building_861555",
    "title": "Building_861555",
    "link_img": "https://live.staticflickr.com/65535/49710491008_83d85bedcc_o.jpg",
    "id_image": "Building_861555",
    "count_view": 0
  },
  {
    "link_thumb": "https://live.staticflickr.com/65535/49712420131_333aa7af2b_n.jpg",
    "id_album": "295204930",
    "description": "Women_736796",
    "title": "Women_736796",
    "link_img": "https://live.staticflickr.com/65535/49712420131_783c1d4a63_o.jpg",
    "id_image": "Women_736796",
    "count_view": 0
  },
  {
    "link_thumb": "https://live.staticflickr.com/65535/49711370223_be580806a1_n.jpg",
    "id_album": "-833110404",
    "description": "Landscape_274877",
    "title": "Landscape_274877",
    "link_img": "https://live.staticflickr.com/65535/49711370223_feebc56ac6_o.jpg",
    "id_image": "Landscape_274877",
    "count_view": 0
  },
  {
    "link_thumb": "https://live.staticflickr.com/65535/49710429378_0eb9c70dd2_n.jpg",
    "id_album": "523598895",
    "description": "Artistic_357141",
    "title": "Artistic_357141",
    "link_img": "https://live.staticflickr.com/65535/49710429378_768f84a37d_o.jpg",
    "id_image": "Artistic_357141",
    "count_view": 0
  },
  {
    "link_thumb": "https://live.staticflickr.com/65535/49711638721_f15433843b_n.jpg",
    "id_album": "134100487",
    "description": "Elf_877057",
    "title": "Elf_877057",
    "link_img": "https://live.staticflickr.com/65535/49711638721_698e08dc4d_o.jpg",
    "id_image": "Elf_877057",
    "count_view": 0
  },
  {
    "link_thumb": "https://live.staticflickr.com/65535/49711779792_8bbaa8e664_n.jpg",
    "id_album": "850176884",
    "description": "Dragon_480320",
    "title": "Dragon_480320",
    "link_img": "https://live.staticflickr.com/65535/49711779792_8048827b6e_o.jpg",
    "id_image": "Dragon_480320",
    "count_view": 0
  },
  {
    "link_thumb": "https://live.staticflickr.com/65535/49711761687_83425eb87d_n.jpg",
    "id_album": "850176884",
    "description": "Dragon_395382",
    "title": "Dragon_395382",
    "link_img": "https://live.staticflickr.com/65535/49711761687_9e1b56b639_o.jpg",
    "id_image": "Dragon_395382",
    "count_view": 0
  },
  {
    "link_thumb": "https://live.staticflickr.com/65535/49711576142_a034070ace_n.jpg",
    "id_album": "-437872736",
    "description": "Creature_583308",
    "title": "Creature_583308",
    "link_img": "https://live.staticflickr.com/65535/49711576142_e6c11795d4_o.jpg",
    "id_image": "Creature_583308",
    "count_view": 0
  },
  {
    "link_thumb": "https://live.staticflickr.com/65535/49711790931_3cfbc11459_n.jpg",
    "id_album": "469960528",
    "description": "Knight_964224",
    "title": "Knight_964224",
    "link_img": "https://live.staticflickr.com/65535/49711790931_79bbba3df5_o.jpg",
    "id_image": "Knight_964224",
    "count_view": 0
  },
  {
    "link_thumb": "https://live.staticflickr.com/65535/49710380668_54da5b37f0_n.jpg",
    "id_album": "-1913845949",
    "description": "Animal_684516",
    "title": "Animal_684516",
    "link_img": "https://live.staticflickr.com/65535/49710380668_e202cca119_o.jpg",
    "id_image": "Animal_684516",
    "count_view": 0
  },
  {
    "link_thumb": "https://live.staticflickr.com/65535/49710642243_5854d15576_n.jpg",
    "id_album": "-437872736",
    "description": "Creature_290060",
    "title": "Creature_290060",
    "link_img": "https://live.staticflickr.com/65535/49710642243_78e2dd638f_o.jpg",
    "id_image": "Creature_290060",
    "count_view": 0
  },
  {
    "link_thumb": "https://live.staticflickr.com/65535/49711448597_cf1018e64c_n.jpg",
    "id_album": "-1964113117",
    "description": "City_870386",
    "title": "City_870386",
    "link_img": "https://live.staticflickr.com/65535/49711448597_847194ddf3_o.jpg",
    "id_image": "City_870386",
    "count_view": 0
  },
  {
    "link_thumb": "https://live.staticflickr.com/65535/49711980713_71b3065b1f_n.jpg",
    "id_album": "-867594484",
    "description": "Women_585049",
    "title": "Women_585049",
    "link_img": "https://live.staticflickr.com/65535/49711980713_4236ed28d2_o.jpg",
    "id_image": "Women_585049",
    "count_view": 0
  },
  {
    "link_thumb": "https://live.staticflickr.com/65535/49711000976_3b4ffb19a7_n.jpg",
    "id_album": "1187037014",
    "description": "Battle_482594",
    "title": "Battle_482594",
    "link_img": "https://live.staticflickr.com/65535/49711000976_09052ffba3_o.jpg",
    "id_image": "Battle_482594",
    "count_view": 0
  },
  {
    "link_thumb": "https://live.staticflickr.com/65535/49711825187_3a19a04dc6_n.jpg",
    "id_album": "850176884",
    "description": "Dragon_681002",
    "title": "Dragon_681002",
    "link_img": "https://live.staticflickr.com/65535/49711825187_aa86e29996_o.jpg",
    "id_image": "Dragon_681002",
    "count_view": 0
  },
  {
    "link_thumb": "https://live.staticflickr.com/65535/49711943378_d26ed45da7_n.jpg",
    "id_album": "1861288871",
    "description": "Women_817412",
    "title": "Women_817412",
    "link_img": "https://live.staticflickr.com/65535/49711943378_b32f21637d_o.jpg",
    "id_image": "Women_817412",
    "count_view": 0
  },
  {
    "link_thumb": "https://live.staticflickr.com/65535/49711496413_9c0bfe4a7d_n.jpg",
    "id_album": "-14582214",
    "description": "Ocean_332397",
    "title": "Ocean_332397",
    "link_img": "https://live.staticflickr.com/65535/49711496413_750c615f16_o.jpg",
    "id_image": "Ocean_332397",
    "count_view": 0
  },
  {
    "link_thumb": "https://live.staticflickr.com/65535/49713018697_08d9bf41fa_n.jpg",
    "id_album": "-1675918237",
    "description": "WomenWarrior_886638",
    "title": "WomenWarrior_886638",
    "link_img": "https://live.staticflickr.com/65535/49713018697_3f08532908_o.jpg",
    "id_image": "WomenWarrior_886638",
    "count_view": 0
  },
  {
    "link_thumb": "https://live.staticflickr.com/65535/49711314651_a020a6abc4_n.jpg",
    "id_album": "2021464556",
    "description": "Dark_177855",
    "title": "Dark_177855",
    "link_img": "https://live.staticflickr.com/65535/49711314651_8a6639bf44_o.jpg",
    "id_image": "Dark_177855",
    "count_view": 0
  },
  {
    "link_thumb": "https://live.staticflickr.com/65535/49799153077_1e6ed5b3e6_n.jpg",
    "id_album": "-1703946758",
    "description": "ANIME_PIC_ef4395409e818e5592d04db330288cf6",
    "title": "ANIME_PIC_ef4395409e818e5592d04db330288cf6",
    "link_img": "https://live.staticflickr.com/65535/49799153077_22330694b5_o.jpg",
    "id_image": "ANIME_PIC_ef4395409e818e5592d04db330288cf6",
    "count_view": 0
  },
  {
    "link_thumb": "https://live.staticflickr.com/65535/49711377366_20080f04fb_n.jpg",
    "id_album": "850176884",
    "description": "Dragon_178691",
    "title": "Dragon_178691",
    "link_img": "https://live.staticflickr.com/65535/49711377366_993f9c18ec_o.jpg",
    "id_image": "Dragon_178691",
    "count_view": 0
  },
  {
    "link_thumb": "https://live.staticflickr.com/65535/49711399287_c0469cdcec_n.jpg",
    "id_album": "-1741487325",
    "description": "Cat_968837",
    "title": "Cat_968837",
    "link_img": "https://live.staticflickr.com/65535/49711399287_7d7be9e75b_o.jpg",
    "id_image": "Cat_968837",
    "count_view": 0
  },
  {
    "link_thumb": "https://live.staticflickr.com/65535/49711536877_50d12a1b55_n.jpg",
    "id_album": "-437872736",
    "description": "Creature_345313",
    "title": "Creature_345313",
    "link_img": "https://live.staticflickr.com/65535/49711536877_4a8c78d670_o.jpg",
    "id_image": "Creature_345313",
    "count_view": 0
  },
  {
    "link_thumb": "https://live.staticflickr.com/65535/49711208048_fccfa38884_n.jpg",
    "id_album": "1131236559",
    "description": "Gods_229828",
    "title": "Gods_229828",
    "link_img": "https://live.staticflickr.com/65535/49711208048_383cbb64dc_o.jpg",
    "id_image": "Gods_229828",
    "count_view": 0
  },
  {
    "link_thumb": "https://live.staticflickr.com/65535/49711360993_56e1719d02_n.jpg",
    "id_album": "-833110404",
    "description": "Landscape_241393",
    "title": "Landscape_241393",
    "link_img": "https://live.staticflickr.com/65535/49711360993_20348cebf7_o.jpg",
    "id_image": "Landscape_241393",
    "count_view": 0
  },
  {
    "link_thumb": "https://live.staticflickr.com/65535/49711738041_565515d9f8_n.jpg",
    "id_album": "402434752",
    "description": "Giant_878440",
    "title": "Giant_878440",
    "link_img": "https://live.staticflickr.com/65535/49711738041_22550c35cd_o.jpg",
    "id_image": "Giant_878440",
    "count_view": 0
  },
  {
    "link_thumb": "https://live.staticflickr.com/65535/49711213668_bf307f6310_n.jpg",
    "id_album": "1131236559",
    "description": "Gods_951312",
    "title": "Gods_951312",
    "link_img": "https://live.staticflickr.com/65535/49711213668_81b00ac265_o.jpg",
    "id_image": "Gods_951312",
    "count_view": 0
  },
  {
    "link_thumb": "https://live.staticflickr.com/65535/49711821782_21c941fc38_n.jpg",
    "id_album": "850176884",
    "description": "Dragon_640738",
    "title": "Dragon_640738",
    "link_img": "https://live.staticflickr.com/65535/49711821782_c6702c5024_o.jpg",
    "id_image": "Dragon_640738",
    "count_view": 0
  },
  {
    "link_thumb": "https://live.staticflickr.com/65535/49712673092_511a4c27b6_n.jpg",
    "id_album": "-1126835654",
    "description": "Women_993473",
    "title": "Women_993473",
    "link_img": "https://live.staticflickr.com/65535/49712673092_66174280b0_o.jpg",
    "id_image": "Women_993473",
    "count_view": 0
  },
  {
    "link_thumb": "https://live.staticflickr.com/65535/49710898861_f5b43879f9_n.jpg",
    "id_album": "-1913845949",
    "description": "Animal_321590",
    "title": "Animal_321590",
    "link_img": "https://live.staticflickr.com/65535/49710898861_e9804f5705_o.jpg",
    "id_image": "Animal_321590",
    "count_view": 0
  },
  {
    "link_thumb": "https://live.staticflickr.com/65535/49711605167_efafa57a96_n.jpg",
    "id_album": "-437872736",
    "description": "Creature_958666",
    "title": "Creature_958666",
    "link_img": "https://live.staticflickr.com/65535/49711605167_ff7d62f127_o.jpg",
    "id_image": "Creature_958666",
    "count_view": 0
  },
  {
    "link_thumb": "https://live.staticflickr.com/65535/49710376193_65d8006893_n.jpg",
    "id_album": "-1913845949",
    "description": "Animal_636067",
    "title": "Animal_636067",
    "link_img": "https://live.staticflickr.com/65535/49710376193_542434a1d4_o.jpg",
    "id_image": "Animal_636067",
    "count_view": 0
  },
  {
    "link_thumb": "https://live.staticflickr.com/65535/49711708238_1bd6fbc21f_n.jpg",
    "id_album": "1173975892",
    "description": "Werewolf_276299",
    "title": "Werewolf_276299",
    "link_img": "https://live.staticflickr.com/65535/49711708238_b6c03ef61c_o.jpg",
    "id_image": "Werewolf_276299",
    "count_view": 0
  },
  {
    "link_thumb": "https://live.staticflickr.com/65535/49710415368_6196f0c08f_n.jpg",
    "id_album": "523598895",
    "description": "Artistic_181481",
    "title": "Artistic_181481",
    "link_img": "https://live.staticflickr.com/65535/49710415368_d6cc709376_o.jpg",
    "id_image": "Artistic_181481",
    "count_view": 0
  },
  {
    "link_thumb": "https://live.staticflickr.com/65535/49711520892_fa068def2b_n.jpg",
    "id_album": "-437872736",
    "description": "Creature_324078",
    "title": "Creature_324078",
    "link_img": "https://live.staticflickr.com/65535/49711520892_7282965d19_o.jpg",
    "id_image": "Creature_324078",
    "count_view": 0
  },
  {
    "link_thumb": "https://live.staticflickr.com/65535/49710678223_e98484ce2f_n.jpg",
    "id_album": "-437872736",
    "description": "Creature_357258",
    "title": "Creature_357258",
    "link_img": "https://live.staticflickr.com/65535/49710678223_25a1c204e6_o.jpg",
    "id_image": "Creature_357258",
    "count_view": 0
  },
  {
    "link_thumb": "https://live.staticflickr.com/65535/49711796161_57e48a8a18_n.jpg",
    "id_album": "1402713104",
    "description": "Landscape_655891",
    "title": "Landscape_655891",
    "link_img": "https://live.staticflickr.com/65535/49711796161_ae26548f72_o.jpg",
    "id_image": "Landscape_655891",
    "count_view": 0
  },
  {
    "link_thumb": "https://live.staticflickr.com/65535/49711001971_8521ae7105_n.jpg",
    "id_album": "1187037014",
    "description": "Battle_525644",
    "title": "Battle_525644",
    "link_img": "https://live.staticflickr.com/65535/49711001971_78458728b6_o.jpg",
    "id_image": "Battle_525644",
    "count_view": 0
  },
  {
    "link_thumb": "https://live.staticflickr.com/65535/49711023286_52b02b19cc_n.jpg",
    "id_album": "406431601",
    "description": "Building_234254",
    "title": "Building_234254",
    "link_img": "https://live.staticflickr.com/65535/49711023286_b5ca18a63b_o.jpg",
    "id_image": "Building_234254",
    "count_view": 0
  },
  {
    "link_thumb": "https://live.staticflickr.com/65535/49710427283_18cc3cbc36_n.jpg",
    "id_album": "523598895",
    "description": "Artistic_319819",
    "title": "Artistic_319819",
    "link_img": "https://live.staticflickr.com/65535/49710427283_daabe82c40_o.jpg",
    "id_image": "Artistic_319819",
    "count_view": 0
  },
  {
    "link_thumb": "https://live.staticflickr.com/65535/49711407167_b9719d3738_n.jpg",
    "id_album": "430704260",
    "description": "Child_856408",
    "title": "Child_856408",
    "link_img": "https://live.staticflickr.com/65535/49711407167_2f1b247bc7_o.jpg",
    "id_image": "Child_856408",
    "count_view": 0
  },
  {
    "link_thumb": "https://live.staticflickr.com/65535/49711203338_e16e5cfe4a_n.jpg",
    "id_album": "402434752",
    "description": "Giant_881855",
    "title": "Giant_881855",
    "link_img": "https://live.staticflickr.com/65535/49711203338_084bc741ba_o.jpg",
    "id_image": "Giant_881855",
    "count_view": 0
  },
  {
    "link_thumb": "https://live.staticflickr.com/65535/49710556483_a6eaa20744_n.jpg",
    "id_album": "-1964113117",
    "description": "City_211068",
    "title": "City_211068",
    "link_img": "https://live.staticflickr.com/65535/49710556483_67e9c60dd2_o.jpg",
    "id_image": "City_211068",
    "count_view": 0
  },
  {
    "link_thumb": "https://live.staticflickr.com/65535/49879534892_490b882263_n.jpg",
    "id_album": "-1703946758",
    "description": "ANIME_PIC_21fed103fcbd874ed0d537223fc863ed",
    "title": "ANIME_PIC_21fed103fcbd874ed0d537223fc863ed",
    "link_img": "https://live.staticflickr.com/65535/49879534892_0816c8f1e9_o.jpg",
    "id_image": "ANIME_PIC_21fed103fcbd874ed0d537223fc863ed",
    "count_view": 0
  },
  {
    "link_thumb": "https://live.staticflickr.com/65535/49712420892_95d45267fd_n.jpg",
    "id_album": "1223576123",
    "description": "Ruin_870483",
    "title": "Ruin_870483",
    "link_img": "https://live.staticflickr.com/65535/49712420892_d9a1cc7717_o.jpg",
    "id_image": "Ruin_870483",
    "count_view": 0
  },
  {
    "link_thumb": "https://live.staticflickr.com/65535/49712301827_9b810b4464_n.jpg",
    "id_album": "416744915",
    "description": "Lion_121453",
    "title": "Lion_121453",
    "link_img": "https://live.staticflickr.com/65535/49712301827_447a23859a_o.jpg",
    "id_image": "Lion_121453",
    "count_view": 0
  },
  {
    "link_thumb": "https://live.staticflickr.com/65535/49711479328_f0078d0ab1_n.jpg",
    "id_album": "-222719689",
    "description": "Men_261262",
    "title": "Men_261262",
    "link_img": "https://live.staticflickr.com/65535/49711479328_2cdd6e41de_o.jpg",
    "id_image": "Men_261262",
    "count_view": 0
  },
  {
    "link_thumb": "https://live.staticflickr.com/65535/49711480203_4a6cbe47e9_n.jpg",
    "id_album": "-222719689",
    "description": "Men_372528",
    "title": "Men_372528",
    "link_img": "https://live.staticflickr.com/65535/49711480203_09c4a58c1c_o.jpg",
    "id_image": "Men_372528",
    "count_view": 0
  },
  {
    "link_thumb": "https://live.staticflickr.com/65535/49711826477_0964c08040_n.jpg",
    "id_album": "850176884",
    "description": "Dragon_685187",
    "title": "Dragon_685187",
    "link_img": "https://live.staticflickr.com/65535/49711826477_98a0742d2b_o.jpg",
    "id_image": "Dragon_685187",
    "count_view": 0
  },
  {
    "link_thumb": "https://live.staticflickr.com/65535/49711021671_12a08d1c0c_n.jpg",
    "id_album": "406431601",
    "description": "Building_117963",
    "title": "Building_117963",
    "link_img": "https://live.staticflickr.com/65535/49711021671_737219b500_o.jpg",
    "id_image": "Building_117963",
    "count_view": 0
  },
  {
    "link_thumb": "https://live.staticflickr.com/65535/49711731042_6fe36e7eab_n.jpg",
    "id_album": "850176884",
    "description": "Dragon_278234",
    "title": "Dragon_278234",
    "link_img": "https://live.staticflickr.com/65535/49711731042_24d27efd02_o.jpg",
    "id_image": "Dragon_278234",
    "count_view": 0
  },
  {
    "link_thumb": "https://live.staticflickr.com/65535/49712331131_460dcf718f_n.jpg",
    "id_album": "-1126835654",
    "description": "Women_895870",
    "title": "Women_895870",
    "link_img": "https://live.staticflickr.com/65535/49712331131_097d76ddf2_o.jpg",
    "id_image": "Women_895870",
    "count_view": 0
  },
  {
    "link_thumb": "https://live.staticflickr.com/65535/49712131177_0127602e11_n.jpg",
    "id_album": "1402713104",
    "description": "Landscape_710849",
    "title": "Landscape_710849",
    "link_img": "https://live.staticflickr.com/65535/49712131177_cb3b23e507_o.jpg",
    "id_image": "Landscape_710849",
    "count_view": 0
  },
  {
    "link_thumb": "https://live.staticflickr.com/65535/49711799058_d3a2386445_n.jpg",
    "id_album": "-1126835654",
    "description": "Women_903067",
    "title": "Women_903067",
    "link_img": "https://live.staticflickr.com/65535/49711799058_f8db2a4b4b_o.jpg",
    "id_image": "Women_903067",
    "count_view": 0
  },
  {
    "link_thumb": "https://live.staticflickr.com/65535/49711369907_f447e913d8_n.jpg",
    "id_album": "-1541846310",
    "description": "Castle_510374",
    "title": "Castle_510374",
    "link_img": "https://live.staticflickr.com/65535/49711369907_035d0b8676_o.jpg",
    "id_image": "Castle_510374",
    "count_view": 0
  },
  {
    "link_thumb": "https://live.staticflickr.com/65535/49711761322_9089d2bfa2_n.jpg",
    "id_album": "850176884",
    "description": "Dragon_393194",
    "title": "Dragon_393194",
    "link_img": "https://live.staticflickr.com/65535/49711761322_709e842693_o.jpg",
    "id_image": "Dragon_393194",
    "count_view": 0
  },
  {
    "link_thumb": "https://live.staticflickr.com/65535/49710685088_90664a88c4_n.jpg",
    "id_album": "-437872736",
    "description": "Creature_379133",
    "title": "Creature_379133",
    "link_img": "https://live.staticflickr.com/65535/49710685088_f575826222_o.jpg",
    "id_image": "Creature_379133",
    "count_view": 0
  },
  {
    "link_thumb": "https://live.staticflickr.com/65535/49711319786_2347196262_n.jpg",
    "id_album": "2021464556",
    "description": "Dark_602708",
    "title": "Dark_602708",
    "link_img": "https://live.staticflickr.com/65535/49711319786_10341a91ee_o.jpg",
    "id_image": "Dark_602708",
    "count_view": 0
  },
  {
    "link_thumb": "https://live.staticflickr.com/65535/49710607583_31e24369a6_n.jpg",
    "id_album": "-437872736",
    "description": "Creature_146657",
    "title": "Creature_146657",
    "link_img": "https://live.staticflickr.com/65535/49710607583_dd47f85cc9_o.jpg",
    "id_image": "Creature_146657",
    "count_view": 0
  },
  {
    "link_thumb": "https://live.staticflickr.com/65535/49711350558_6f60a4ecf4_n.jpg",
    "id_album": "1402713104",
    "description": "Landscape_994582",
    "title": "Landscape_994582",
    "link_img": "https://live.staticflickr.com/65535/49711350558_0d55e0d679_o.jpg",
    "id_image": "Landscape_994582",
    "count_view": 0
  },
  {
    "link_thumb": "https://live.staticflickr.com/65535/49710806883_7c845f5a2d_n.jpg",
    "id_album": "7198985",
    "description": "Demon_81912",
    "title": "Demon_81912",
    "link_img": "https://live.staticflickr.com/65535/49710806883_9cb83f87d1_o.jpg",
    "id_image": "Demon_81912",
    "count_view": 0
  },
  {
    "link_thumb": "https://live.staticflickr.com/65535/49711607707_f56a0f473d_n.jpg",
    "id_album": "-437872736",
    "description": "Creature_958687",
    "title": "Creature_958687",
    "link_img": "https://live.staticflickr.com/65535/49711607707_e62e305ed7_o.jpg",
    "id_image": "Creature_958687",
    "count_view": 0
  },
  {
    "link_thumb": "https://live.staticflickr.com/65535/49711553348_1132b42378_n.jpg",
    "id_album": "606798642",
    "description": "RedRidingHood_236305",
    "title": "RedRidingHood_236305",
    "link_img": "https://live.staticflickr.com/65535/49711553348_063a5019b8_o.jpg",
    "id_image": "RedRidingHood_236305",
    "count_view": 0
  },
  {
    "link_thumb": "https://live.staticflickr.com/65535/49711839536_fd40f0871f_n.jpg",
    "id_album": "1402713104",
    "description": "Landscape_866905",
    "title": "Landscape_866905",
    "link_img": "https://live.staticflickr.com/65535/49711839536_2cd4768e33_o.jpg",
    "id_image": "Landscape_866905",
    "count_view": 0
  },
  {
    "link_thumb": "https://live.staticflickr.com/65535/49711577676_b1b0eef0cd_n.jpg",
    "id_album": "850176884",
    "description": "Dragon_958209",
    "title": "Dragon_958209",
    "link_img": "https://live.staticflickr.com/65535/49711577676_5dcf5849ec_o.jpg",
    "id_image": "Dragon_958209",
    "count_view": 0
  },
  {
    "link_thumb": "https://live.staticflickr.com/65535/49711615038_d585401335_n.jpg",
    "id_album": "1209361954",
    "description": "Sylvan_918796",
    "title": "Sylvan_918796",
    "link_img": "https://live.staticflickr.com/65535/49711615038_68d5f81476_o.jpg",
    "id_image": "Sylvan_918796",
    "count_view": 0
  },
  {
    "link_thumb": "https://live.staticflickr.com/65535/49711756302_7dd16d39ae_n.jpg",
    "id_album": "850176884",
    "description": "Dragon_374534",
    "title": "Dragon_374534",
    "link_img": "https://live.staticflickr.com/65535/49711756302_eef572f214_o.jpg",
    "id_image": "Dragon_374534",
    "count_view": 0
  },
  {
    "link_thumb": "https://live.staticflickr.com/65535/49712143377_2e3b8d8015_n.jpg",
    "id_album": "1402713104",
    "description": "Landscape_793333",
    "title": "Landscape_793333",
    "link_img": "https://live.staticflickr.com/65535/49712143377_326b8fa85b_o.jpg",
    "id_image": "Landscape_793333",
    "count_view": 0
  },
  {
    "link_thumb": "https://live.staticflickr.com/65535/49711372417_eaa68ff2eb_n.jpg",
    "id_album": "-1541846310",
    "description": "Castle_564454",
    "title": "Castle_564454",
    "link_img": "https://live.staticflickr.com/65535/49711372417_b528e97c18_o.jpg",
    "id_image": "Castle_564454",
    "count_view": 0
  },
  {
    "link_thumb": "https://live.staticflickr.com/65535/49711164451_980fd95a42_n.jpg",
    "id_album": "-437872736",
    "description": "Creature_240086",
    "title": "Creature_240086",
    "link_img": "https://live.staticflickr.com/65535/49711164451_400d6dc498_o.jpg",
    "id_image": "Creature_240086",
    "count_view": 0
  },
  {
    "link_thumb": "https://live.staticflickr.com/65535/49710912836_322dc8d80f_n.jpg",
    "id_album": "-1913845949",
    "description": "Animal_636312",
    "title": "Animal_636312",
    "link_img": "https://live.staticflickr.com/65535/49710912836_3e4c8536d4_o.jpg",
    "id_image": "Animal_636312",
    "count_view": 0
  },
  {
    "link_thumb": "https://live.staticflickr.com/65535/49711351471_5b9c75fb84_n.jpg",
    "id_album": "850176884",
    "description": "DRAGON26101916502456",
    "title": "DRAGON26101916502456",
    "link_img": "https://live.staticflickr.com/65535/49711351471_7ea9cff823_o.jpg",
    "id_image": "DRAGON26101916502456",
    "count_view": 0
  },
  {
    "link_thumb": "https://live.staticflickr.com/65535/49711099298_d55ddaa59a_n.jpg",
    "id_album": "134100487",
    "description": "Elf_777997",
    "title": "Elf_777997",
    "link_img": "https://live.staticflickr.com/65535/49711099298_3dfde72fe9_o.jpg",
    "id_image": "Elf_777997",
    "count_view": 0
  },
  {
    "link_thumb": "https://live.staticflickr.com/65535/49712418432_9553d8a422_n.jpg",
    "id_album": "1223576123",
    "description": "Ruin_681177",
    "title": "Ruin_681177",
    "link_img": "https://live.staticflickr.com/65535/49712418432_e45c2183e1_o.jpg",
    "id_image": "Ruin_681177",
    "count_view": 0
  },
  {
    "link_thumb": "https://live.staticflickr.com/65535/49712204617_e95daf20fe_n.jpg",
    "id_album": "1402713104",
    "description": "Landscape_991409",
    "title": "Landscape_991409",
    "link_img": "https://live.staticflickr.com/65535/49712204617_aa57e62e3d_o.jpg",
    "id_image": "Landscape_991409",
    "count_view": 0
  },
  {
    "link_thumb": "https://live.staticflickr.com/65535/49711990667_c28105dda8_n.jpg",
    "id_album": "-1972042284",
    "description": "Fairy_486480",
    "title": "Fairy_486480",
    "link_img": "https://live.staticflickr.com/65535/49711990667_f6904a5c09_o.jpg",
    "id_image": "Fairy_486480",
    "count_view": 0
  },
  {
    "link_thumb": "https://live.staticflickr.com/65535/49712010671_4f365c24dc_n.jpg",
    "id_album": "-447542718",
    "description": "Medusa_512391",
    "title": "Medusa_512391",
    "link_img": "https://live.staticflickr.com/65535/49712010671_963a3161f2_o.jpg",
    "id_image": "Medusa_512391",
    "count_view": 0
  },
  {
    "link_thumb": "https://live.staticflickr.com/65535/49712560222_b95cbd3560_n.jpg",
    "id_album": "-1261420436",
    "description": "Warrior_928641",
    "title": "Warrior_928641",
    "link_img": "https://live.staticflickr.com/65535/49712560222_d582cb8094_o.jpg",
    "id_image": "Warrior_928641",
    "count_view": 0
  },
  {
    "link_thumb": "https://live.staticflickr.com/65535/49712111367_ac2d9b26b0_n.jpg",
    "id_album": "469960528",
    "description": "Knight_910940",
    "title": "Knight_910940",
    "link_img": "https://live.staticflickr.com/65535/49712111367_995e48caa4_o.jpg",
    "id_image": "Knight_910940",
    "count_view": 0
  },
  {
    "link_thumb": "https://live.staticflickr.com/65535/49712314542_d830d0d5e6_n.jpg",
    "id_album": "1006968559",
    "description": "LordoftheRings_928456",
    "title": "LordoftheRings_928456",
    "link_img": "https://live.staticflickr.com/65535/49712314542_9f7c98511a_o.jpg",
    "id_image": "LordoftheRings_928456",
    "count_view": 0
  },
  {
    "link_thumb": "https://live.staticflickr.com/65535/49711389832_f9db73a51b_n.jpg",
    "id_album": "-1541846310",
    "description": "Castle_892773",
    "title": "Castle_892773",
    "link_img": "https://live.staticflickr.com/65535/49711389832_1b46707fca_o.jpg",
    "id_image": "Castle_892773",
    "count_view": 0
  },
  {
    "link_thumb": "https://live.staticflickr.com/65535/49712436481_1b1620405e_n.jpg",
    "id_album": "1861288871",
    "description": "Women_233091",
    "title": "Women_233091",
    "link_img": "https://live.staticflickr.com/65535/49712436481_b17f029104_o.jpg",
    "id_image": "Women_233091",
    "count_view": 0
  },
  {
    "link_thumb": "https://live.staticflickr.com/65535/49711832107_89f3db80df_n.jpg",
    "id_album": "850176884",
    "description": "Dragon_709122",
    "title": "Dragon_709122",
    "link_img": "https://live.staticflickr.com/65535/49711832107_ea732bbfc2_o.jpg",
    "id_image": "Dragon_709122",
    "count_view": 0
  },
  {
    "link_thumb": "https://live.staticflickr.com/65535/49711677332_9987f2e337_n.jpg",
    "id_album": "850176884",
    "description": "DRAGON26101916503874",
    "title": "DRAGON26101916503874",
    "link_img": "https://live.staticflickr.com/65535/49711677332_07e83a8379_o.jpg",
    "id_image": "DRAGON26101916503874",
    "count_view": 0
  },
  {
    "link_thumb": "https://live.staticflickr.com/65535/49711968223_932f77ceba_n.jpg",
    "id_album": "-867594484",
    "description": "Women_548256",
    "title": "Women_548256",
    "link_img": "https://live.staticflickr.com/65535/49711968223_84bfc97f39_o.jpg",
    "id_image": "Women_548256",
    "count_view": 0
  },
  {
    "link_thumb": "https://live.staticflickr.com/65535/49711020843_b716dc53c8_n.jpg",
    "id_album": "850176884",
    "description": "Dragon_901645",
    "title": "Dragon_901645",
    "link_img": "https://live.staticflickr.com/65535/49711020843_3010572499_o.jpg",
    "id_image": "Dragon_901645",
    "count_view": 0
  },
  {
    "link_thumb": "https://live.staticflickr.com/65535/49711338992_6a0c4c322c_n.jpg",
    "id_album": "-1846011410",
    "description": "Bird_202834",
    "title": "Bird_202834",
    "link_img": "https://live.staticflickr.com/65535/49711338992_ce91d0063e_o.jpg",
    "id_image": "Bird_202834",
    "count_view": 0
  },
  {
    "link_thumb": "https://live.staticflickr.com/65535/49712120917_14ba342442_n.jpg",
    "id_album": "1402713104",
    "description": "Landscape_676324",
    "title": "Landscape_676324",
    "link_img": "https://live.staticflickr.com/65535/49712120917_53e8fcd2ea_o.jpg",
    "id_image": "Landscape_676324",
    "count_view": 0
  },
  {
    "link_thumb": "https://live.staticflickr.com/65535/49711680908_949d9a5242_n.jpg",
    "id_album": "-1261420436",
    "description": "Warrior_615960",
    "title": "Warrior_615960",
    "link_img": "https://live.staticflickr.com/65535/49711680908_b1089de16f_o.jpg",
    "id_image": "Warrior_615960",
    "count_view": 0
  },
  {
    "link_thumb": "https://live.staticflickr.com/65535/49710557348_7151f55545_n.jpg",
    "id_album": "-1964113117",
    "description": "City_231216",
    "title": "City_231216",
    "link_img": "https://live.staticflickr.com/65535/49710557348_735d0bc1c8_o.jpg",
    "id_image": "City_231216",
    "count_view": 0
  },
  {
    "link_thumb": "https://live.staticflickr.com/65535/49711581971_da63100167_n.jpg",
    "id_album": "850176884",
    "description": "Dragon_968596",
    "title": "Dragon_968596",
    "link_img": "https://live.staticflickr.com/65535/49711581971_739b2628df_o.jpg",
    "id_image": "Dragon_968596",
    "count_view": 0
  },
  {
    "link_thumb": "https://live.staticflickr.com/65535/49712498326_d4afba02cc_n.jpg",
    "id_album": "-867594484",
    "description": "Women_528446",
    "title": "Women_528446",
    "link_img": "https://live.staticflickr.com/65535/49712498326_228e9cc284_o.jpg",
    "id_image": "Women_528446",
    "count_view": 0
  },
  {
    "link_thumb": "https://live.staticflickr.com/65535/49711572627_bb430989c1_n.jpg",
    "id_album": "-437872736",
    "description": "Creature_559726",
    "title": "Creature_559726",
    "link_img": "https://live.staticflickr.com/65535/49711572627_d29576bd65_o.jpg",
    "id_image": "Creature_559726",
    "count_view": 0
  },
  {
    "link_thumb": "https://live.staticflickr.com/65535/49710381758_3e3995c6ff_n.jpg",
    "id_album": "-1913845949",
    "description": "Animal_732308",
    "title": "Animal_732308",
    "link_img": "https://live.staticflickr.com/65535/49710381758_8dbed3872f_o.jpg",
    "id_image": "Animal_732308",
    "count_view": 0
  },
  {
    "link_thumb": "https://live.staticflickr.com/65535/49710719993_761de9b38f_n.jpg",
    "id_album": "-437872736",
    "description": "Creature_655692",
    "title": "Creature_655692",
    "link_img": "https://live.staticflickr.com/65535/49710719993_5f74370551_o.jpg",
    "id_image": "Creature_655692",
    "count_view": 0
  },
  {
    "link_thumb": "https://live.staticflickr.com/65535/49712349977_be5f958bba_n.jpg",
    "id_album": "1721880108",
    "description": "Mermaid_498692",
    "title": "Mermaid_498692",
    "link_img": "https://live.staticflickr.com/65535/49712349977_a8ea8bfb41_o.jpg",
    "id_image": "Mermaid_498692",
    "count_view": 0
  },
  {
    "link_thumb": "https://live.staticflickr.com/65535/49712290046_e5c2c80863_n.jpg",
    "id_album": "-709711865",
    "description": "Wolf_811432",
    "title": "Wolf_811432",
    "link_img": "https://live.staticflickr.com/65535/49712290046_260d3c38f6_o.jpg",
    "id_image": "Wolf_811432",
    "count_view": 0
  },
  {
    "link_thumb": "https://live.staticflickr.com/65535/49711187056_32ce04b65a_n.jpg",
    "id_album": "-437872736",
    "description": "Creature_310645",
    "title": "Creature_310645",
    "link_img": "https://live.staticflickr.com/65535/49711187056_d864246742_o.jpg",
    "id_image": "Creature_310645",
    "count_view": 0
  },
  {
    "link_thumb": "https://live.staticflickr.com/65535/49710503148_2130cc9e49_n.jpg",
    "id_album": "-1541846310",
    "description": "Castle_205587",
    "title": "Castle_205587",
    "link_img": "https://live.staticflickr.com/65535/49710503148_53a82e947f_o.jpg",
    "id_image": "Castle_205587",
    "count_view": 0
  },
  {
    "link_thumb": "https://live.staticflickr.com/65535/49712179536_7bb783f6c6_n.jpg",
    "id_album": "431597977",
    "description": "Unicorn_448922",
    "title": "Unicorn_448922",
    "link_img": "https://live.staticflickr.com/65535/49712179536_808070d6c1_o.jpg",
    "id_image": "Unicorn_448922",
    "count_view": 0
  },
  {
    "link_thumb": "https://live.staticflickr.com/65535/49711646266_ff97b8e74d_n.jpg",
    "id_album": "-1972042284",
    "description": "Fairy_145936",
    "title": "Fairy_145936",
    "link_img": "https://live.staticflickr.com/65535/49711646266_e010c7ef0d_o.jpg",
    "id_image": "Fairy_145936",
    "count_view": 0
  },
  {
    "link_thumb": "https://live.staticflickr.com/65535/49711971012_a827c53c4a_n.jpg",
    "id_album": "-1972042284",
    "description": "Fairy_160408",
    "title": "Fairy_160408",
    "link_img": "https://live.staticflickr.com/65535/49711971012_c433a566ce_o.jpg",
    "id_image": "Fairy_160408",
    "count_view": 0
  },
  {
    "link_thumb": "https://live.staticflickr.com/65535/49711879066_8d554c8a3b_n.jpg",
    "id_album": "1402713104",
    "description": "Landscape_979168",
    "title": "Landscape_979168",
    "link_img": "https://live.staticflickr.com/65535/49711879066_4ff53438fd_o.jpg",
    "id_image": "Landscape_979168",
    "count_view": 0
  },
  {
    "link_thumb": "https://live.staticflickr.com/65535/49711459072_0e3c4dae9c_n.jpg",
    "id_album": "-1964113117",
    "description": "City_961975",
    "title": "City_961975",
    "link_img": "https://live.staticflickr.com/65535/49711459072_6633ed251a_o.jpg",
    "id_image": "City_961975",
    "count_view": 0
  },
  {
    "link_thumb": "https://live.staticflickr.com/65535/49711744551_38eba4f22c_n.jpg",
    "id_album": "1131236559",
    "description": "Gods_39908",
    "title": "Gods_39908",
    "link_img": "https://live.staticflickr.com/65535/49711744551_a5cc35f2bc_o.jpg",
    "id_image": "Gods_39908",
    "count_view": 0
  },
  {
    "link_thumb": "https://live.staticflickr.com/65535/49711340166_792d196fee_n.jpg",
    "id_album": "7198985",
    "description": "Demon_697651",
    "title": "Demon_697651",
    "link_img": "https://live.staticflickr.com/65535/49711340166_ef2983863f_o.jpg",
    "id_image": "Demon_697651",
    "count_view": 0
  },
  {
    "link_thumb": "https://live.staticflickr.com/65535/49711502737_8250b7777b_n.jpg",
    "id_album": "-437872736",
    "description": "Creature_287931",
    "title": "Creature_287931",
    "link_img": "https://live.staticflickr.com/65535/49711502737_e5190e84bf_o.jpg",
    "id_image": "Creature_287931",
    "count_view": 0
  },
  {
    "link_thumb": "https://live.staticflickr.com/65535/49711604961_0ab538fd79_n.jpg",
    "id_album": "134100487",
    "description": "Elf_238433",
    "title": "Elf_238433",
    "link_img": "https://live.staticflickr.com/65535/49711604961_1facb63a4b_o.jpg",
    "id_image": "Elf_238433",
    "count_view": 0
  },
  {
    "link_thumb": "https://live.staticflickr.com/65535/49710987736_e914ef11f2_n.jpg",
    "id_album": "1187037014",
    "description": "Battle_242341",
    "title": "Battle_242341",
    "link_img": "https://live.staticflickr.com/65535/49710987736_dd910307b6_o.jpg",
    "id_image": "Battle_242341",
    "count_view": 0
  },
  {
    "link_thumb": "https://live.staticflickr.com/65535/49710730303_d6bc445545_n.jpg",
    "id_album": "-437872736",
    "description": "Creature_76447",
    "title": "Creature_76447",
    "link_img": "https://live.staticflickr.com/65535/49710730303_29e5057bb4_o.jpg",
    "id_image": "Creature_76447",
    "count_view": 0
  },
  {
    "link_thumb": "https://live.staticflickr.com/65535/49711260562_4ca0de247d_n.jpg",
    "id_album": "523598895",
    "description": "Artistic_112421",
    "title": "Artistic_112421",
    "link_img": "https://live.staticflickr.com/65535/49711260562_f9a8a5f7ab_o.jpg",
    "id_image": "Artistic_112421",
    "count_view": 0
  },
  {
    "link_thumb": "https://live.staticflickr.com/65535/49711394126_915bc66955_n.jpg",
    "id_album": "850176884",
    "description": "Dragon_238430",
    "title": "Dragon_238430",
    "link_img": "https://live.staticflickr.com/65535/49711394126_74667163d4_o.jpg",
    "id_image": "Dragon_238430",
    "count_view": 0
  },
  {
    "link_thumb": "https://live.staticflickr.com/65535/49710741243_ec331e5035_n.jpg",
    "id_album": "-437872736",
    "description": "Creature_958637",
    "title": "Creature_958637",
    "link_img": "https://live.staticflickr.com/65535/49710741243_067f02f20a_o.jpg",
    "id_image": "Creature_958637",
    "count_view": 0
  },
  {
    "link_thumb": "https://live.staticflickr.com/65535/49710465418_3c0793bc0f_n.jpg",
    "id_album": "1187037014",
    "description": "Battle_399158",
    "title": "Battle_399158",
    "link_img": "https://live.staticflickr.com/65535/49710465418_40eccb124b_o.jpg",
    "id_image": "Battle_399158",
    "count_view": 0
  },
  {
    "link_thumb": "https://live.staticflickr.com/65535/49711870632_76398273f2_n.jpg",
    "id_album": "850176884",
    "description": "Dragon_878431",
    "title": "Dragon_878431",
    "link_img": "https://live.staticflickr.com/65535/49711870632_eca14e87af_o.jpg",
    "id_image": "Dragon_878431",
    "count_view": 0
  },
  {
    "link_thumb": "https://live.staticflickr.com/65535/49710983296_5b6f982d1f_n.jpg",
    "id_album": "1187037014",
    "description": "Battle_154423",
    "title": "Battle_154423",
    "link_img": "https://live.staticflickr.com/65535/49710983296_a4ea73d228_o.jpg",
    "id_image": "Battle_154423",
    "count_view": 0
  },
  {
    "link_thumb": "https://live.staticflickr.com/65535/49710963671_661ff20a4f_n.jpg",
    "id_album": "523598895",
    "description": "Artistic_370579",
    "title": "Artistic_370579",
    "link_img": "https://live.staticflickr.com/65535/49710963671_42b06744ff_o.jpg",
    "id_image": "Artistic_370579",
    "count_view": 0
  },
  {
    "link_thumb": "https://live.staticflickr.com/65535/49711563398_63a7b2bbb1_n.jpg",
    "id_album": "1223576123",
    "description": "Ruin_878909",
    "title": "Ruin_878909",
    "link_img": "https://live.staticflickr.com/65535/49711563398_7fe40c7709_o.jpg",
    "id_image": "Ruin_878909",
    "count_view": 0
  },
  {
    "link_thumb": "https://live.staticflickr.com/65535/49712407687_970e829d47_n.jpg",
    "id_album": "1587588550",
    "description": "Place_255374",
    "title": "Place_255374",
    "link_img": "https://live.staticflickr.com/65535/49712407687_ab2d14cafd_o.jpg",
    "id_image": "Place_255374",
    "count_view": 0
  },
  {
    "link_thumb": "https://live.staticflickr.com/65535/49712961002_66c23b0faa_n.jpg",
    "id_album": "-1675918237",
    "description": "WomenWarrior_554349",
    "title": "WomenWarrior_554349",
    "link_img": "https://live.staticflickr.com/65535/49712961002_18bf9ae1d5_o.jpg",
    "id_image": "WomenWarrior_554349",
    "count_view": 0
  },
  {
    "link_thumb": "https://live.staticflickr.com/65535/49710859983_15b0da53ee_n.jpg",
    "id_album": "850176884",
    "description": "Dragon_243243",
    "title": "Dragon_243243",
    "link_img": "https://live.staticflickr.com/65535/49710859983_db94eb2ec7_o.jpg",
    "id_image": "Dragon_243243",
    "count_view": 0
  },
  {
    "link_thumb": "https://live.staticflickr.com/65535/49710413263_2a72dcd8f3_n.jpg",
    "id_album": "523598895",
    "description": "Artistic_163477",
    "title": "Artistic_163477",
    "link_img": "https://live.staticflickr.com/65535/49710413263_dbeed72395_o.jpg",
    "id_image": "Artistic_163477",
    "count_view": 0
  },
  {
    "link_thumb": "https://live.staticflickr.com/65535/49711227943_fecf7b7a64_n.jpg",
    "id_album": "-1933715543",
    "description": "Horse_922683",
    "title": "Horse_922683",
    "link_img": "https://live.staticflickr.com/65535/49711227943_313dba83db_o.jpg",
    "id_image": "Horse_922683",
    "count_view": 0
  },
  {
    "link_thumb": "https://live.staticflickr.com/65535/49711028011_5189baab4a_n.jpg",
    "id_album": "406431601",
    "description": "Building_895390",
    "title": "Building_895390",
    "link_img": "https://live.staticflickr.com/65535/49711028011_21bd6478d2_o.jpg",
    "id_image": "Building_895390",
    "count_view": 0
  },
  {
    "link_thumb": "https://live.staticflickr.com/65535/49711747068_9097cab68e_n.jpg",
    "id_album": "-709711865",
    "description": "Wolf_642624",
    "title": "Wolf_642624",
    "link_img": "https://live.staticflickr.com/65535/49711747068_bb9dc430a6_o.jpg",
    "id_image": "Wolf_642624",
    "count_view": 0
  },
  {
    "link_thumb": "https://live.staticflickr.com/65535/49712392257_71ddd39638_n.jpg",
    "id_album": "-1326601535",
    "description": "Phoenix_191606",
    "title": "Phoenix_191606",
    "link_img": "https://live.staticflickr.com/65535/49712392257_599baf549f_o.jpg",
    "id_image": "Phoenix_191606",
    "count_view": 0
  },
  {
    "link_thumb": "https://live.staticflickr.com/65535/49711268617_e47639aebc_n.jpg",
    "id_album": "523598895",
    "description": "Artistic_151981",
    "title": "Artistic_151981",
    "link_img": "https://live.staticflickr.com/65535/49711268617_6db1665a07_o.jpg",
    "id_image": "Artistic_151981",
    "count_view": 0
  },
  {
    "link_thumb": "https://live.staticflickr.com/65535/49710538518_76f7803894_n.jpg",
    "id_album": "-1741487325",
    "description": "Cat_905070",
    "title": "Cat_905070",
    "link_img": "https://live.staticflickr.com/65535/49710538518_ef365a17aa_o.jpg",
    "id_image": "Cat_905070",
    "count_view": 0
  },
  {
    "link_thumb": "https://live.staticflickr.com/65535/49710668328_55324da6f4_n.jpg",
    "id_album": "-437872736",
    "description": "Creature_336780",
    "title": "Creature_336780",
    "link_img": "https://live.staticflickr.com/65535/49710668328_e7d8bcc752_o.jpg",
    "id_image": "Creature_336780",
    "count_view": 0
  },
  {
    "link_thumb": "https://live.staticflickr.com/65535/49711231456_e53fd4c8d4_n.jpg",
    "id_album": "-437872736",
    "description": "Creature_455771",
    "title": "Creature_455771",
    "link_img": "https://live.staticflickr.com/65535/49711231456_baa6717816_o.jpg",
    "id_image": "Creature_455771",
    "count_view": 0
  },
  {
    "link_thumb": "https://live.staticflickr.com/65535/49711540057_6d5d15567e_n.jpg",
    "id_album": "-437872736",
    "description": "Creature_365526",
    "title": "Creature_365526",
    "link_img": "https://live.staticflickr.com/65535/49711540057_ffee013373_o.jpg",
    "id_image": "Creature_365526",
    "count_view": 0
  },
  {
    "link_thumb": "https://live.staticflickr.com/65535/49710692198_4b2140c694_n.jpg",
    "id_album": "-437872736",
    "description": "Creature_401796",
    "title": "Creature_401796",
    "link_img": "https://live.staticflickr.com/65535/49710692198_28ba7a24ee_o.jpg",
    "id_image": "Creature_401796",
    "count_view": 0
  },
  {
    "link_thumb": "https://live.staticflickr.com/65535/49711353593_4d8922e1aa_n.jpg",
    "id_album": "-833110404",
    "description": "Landscape_146484",
    "title": "Landscape_146484",
    "link_img": "https://live.staticflickr.com/65535/49711353593_96fcc01953_o.jpg",
    "id_image": "Landscape_146484",
    "count_view": 0
  },
  {
    "link_thumb": "https://live.staticflickr.com/65535/49710325628_8f926bdf72_n.jpg",
    "id_album": "-2109465612",
    "description": "Adventure_229255",
    "title": "Adventure_229255",
    "link_img": "https://live.staticflickr.com/65535/49710325628_ce69ae5e5a_o.jpg",
    "id_image": "Adventure_229255",
    "count_view": 0
  },
  {
    "link_thumb": "https://live.staticflickr.com/65535/49710841973_ec4f9fbb76_n.jpg",
    "id_album": "850176884",
    "description": "Dragon_188227",
    "title": "Dragon_188227",
    "link_img": "https://live.staticflickr.com/65535/49710841973_f1f7befc43_o.jpg",
    "id_image": "Dragon_188227",
    "count_view": 0
  },
  {
    "link_thumb": "https://live.staticflickr.com/65535/49710910736_e46e5e094a_n.jpg",
    "id_album": "-1913845949",
    "description": "Animal_636075",
    "title": "Animal_636075",
    "link_img": "https://live.staticflickr.com/65535/49710910736_68c4471eb9_o.jpg",
    "id_image": "Animal_636075",
    "count_view": 0
  },
  {
    "link_thumb": "https://live.staticflickr.com/65535/49711144331_ca886e5a57_n.jpg",
    "id_album": "-437872736",
    "description": "Creature_150768",
    "title": "Creature_150768",
    "link_img": "https://live.staticflickr.com/65535/49711144331_1e5eec2e72_o.jpg",
    "id_image": "Creature_150768",
    "count_view": 0
  },
  {
    "link_thumb": "https://live.staticflickr.com/65535/49711608742_ba0b9a512f_n.jpg",
    "id_album": "-437872736",
    "description": "Creature_958694",
    "title": "Creature_958694",
    "link_img": "https://live.staticflickr.com/65535/49711608742_8bcc13dd99_o.jpg",
    "id_image": "Creature_958694",
    "count_view": 0
  },
  {
    "link_thumb": "https://live.staticflickr.com/65535/49712468831_7137cdefd4_n.jpg",
    "id_album": "1861288871",
    "description": "Women_785147",
    "title": "Women_785147",
    "link_img": "https://live.staticflickr.com/65535/49712468831_1fc4cf2799_o.jpg",
    "id_image": "Women_785147",
    "count_view": 0
  },
  {
    "link_thumb": "https://live.staticflickr.com/65535/49711125916_b26a6dcda3_n.jpg",
    "id_album": "-1964113117",
    "description": "City_877865",
    "title": "City_877865",
    "link_img": "https://live.staticflickr.com/65535/49711125916_377bb580d4_o.jpg",
    "id_image": "City_877865",
    "count_view": 0
  },
  {
    "link_thumb": "https://live.staticflickr.com/65535/49710481888_27c6ca7e0d_n.jpg",
    "id_album": "-1846011410",
    "description": "Bird_394694",
    "title": "Bird_394694",
    "link_img": "https://live.staticflickr.com/65535/49710481888_21a57aa03c_o.jpg",
    "id_image": "Bird_394694",
    "count_view": 0
  },
  {
    "link_thumb": "https://live.staticflickr.com/65535/49711866786_96aab5c043_n.jpg",
    "id_album": "1402713104",
    "description": "Landscape_947443",
    "title": "Landscape_947443",
    "link_img": "https://live.staticflickr.com/65535/49711866786_4447b6664c_o.jpg",
    "id_image": "Landscape_947443",
    "count_view": 0
  },
  {
    "link_thumb": "https://live.staticflickr.com/65535/49711708216_8e9b24e7f8_n.jpg",
    "id_album": "-1083189875",
    "description": "Forest_716312",
    "title": "Forest_716312",
    "link_img": "https://live.staticflickr.com/65535/49711708216_47c4cfbd2f_o.jpg",
    "id_image": "Forest_716312",
    "count_view": 0
  },
  {
    "link_thumb": "https://live.staticflickr.com/65535/49711333636_49a0537b0a_n.jpg",
    "id_album": "7198985",
    "description": "Demon_227455",
    "title": "Demon_227455",
    "link_img": "https://live.staticflickr.com/65535/49711333636_9e40d3972e_o.jpg",
    "id_image": "Demon_227455",
    "count_view": 0
  },
  {
    "link_thumb": "https://live.staticflickr.com/65535/49711475176_ba5ce43060_n.jpg",
    "id_album": "850176884",
    "description": "Dragon_533695",
    "title": "Dragon_533695",
    "link_img": "https://live.staticflickr.com/65535/49711475176_59d9d85caf_o.jpg",
    "id_image": "Dragon_533695",
    "count_view": 0
  },
  {
    "link_thumb": "https://live.staticflickr.com/65535/49710952858_d3068bfc35_n.jpg",
    "id_album": "850176884",
    "description": "Dragon_590976",
    "title": "Dragon_590976",
    "link_img": "https://live.staticflickr.com/65535/49710952858_5ce7a4a6a7_o.jpg",
    "id_image": "Dragon_590976",
    "count_view": 0
  },
  {
    "link_thumb": "https://live.staticflickr.com/65535/49711239961_082b480fa0_n.jpg",
    "id_album": "-437872736",
    "description": "Creature_511604",
    "title": "Creature_511604",
    "link_img": "https://live.staticflickr.com/65535/49711239961_c74494d070_o.jpg",
    "id_image": "Creature_511604",
    "count_view": 0
  },
  {
    "link_thumb": "https://live.staticflickr.com/65535/49711351261_64d5692b12_n.jpg",
    "id_album": "850176884",
    "description": "DRAGON26101916502259",
    "title": "DRAGON26101916502259",
    "link_img": "https://live.staticflickr.com/65535/49711351261_ba99108289_o.jpg",
    "id_image": "DRAGON26101916502259",
    "count_view": 0
  },
  {
    "link_thumb": "https://live.staticflickr.com/65535/49712251826_8410d798a7_n.jpg",
    "id_album": "786934945",
    "description": "Whale_787352",
    "title": "Whale_787352",
    "link_img": "https://live.staticflickr.com/65535/49712251826_1ba2917f7c_o.jpg",
    "id_image": "Whale_787352",
    "count_view": 0
  },
  {
    "link_thumb": "https://live.staticflickr.com/65535/49712005206_266d310049_n.jpg",
    "id_album": "-1613076477",
    "description": "Magic_692328",
    "title": "Magic_692328",
    "link_img": "https://live.staticflickr.com/65535/49712005206_54b68d97a7_o.jpg",
    "id_image": "Magic_692328",
    "count_view": 0
  },
  {
    "link_thumb": "https://live.staticflickr.com/65535/49711286333_61f96d1e60_n.jpg",
    "id_album": "1402713104",
    "description": "Landscape_815012",
    "title": "Landscape_815012",
    "link_img": "https://live.staticflickr.com/65535/49711286333_f2c976a974_o.jpg",
    "id_image": "Landscape_815012",
    "count_view": 0
  },
  {
    "link_thumb": "https://live.staticflickr.com/65535/49711499741_de36df6006_n.jpg",
    "id_album": "850176884",
    "description": "Dragon_63766",
    "title": "Dragon_63766",
    "link_img": "https://live.staticflickr.com/65535/49711499741_78a47849b0_o.jpg",
    "id_image": "Dragon_63766",
    "count_view": 0
  },
  {
    "link_thumb": "https://live.staticflickr.com/65535/49711878263_f56720078d_n.jpg",
    "id_album": "295204930",
    "description": "Women_710089",
    "title": "Women_710089",
    "link_img": "https://live.staticflickr.com/65535/49711878263_083ef8a3f2_o.jpg",
    "id_image": "Women_710089",
    "count_view": 0
  },
  {
    "link_thumb": "https://live.staticflickr.com/65535/49711801091_d849edc012_n.jpg",
    "id_album": "1402713104",
    "description": "Landscape_679263",
    "title": "Landscape_679263",
    "link_img": "https://live.staticflickr.com/65535/49711801091_0e315b4136_o.jpg",
    "id_image": "Landscape_679263",
    "count_view": 0
  },
  {
    "link_thumb": "https://live.staticflickr.com/65535/49712022287_279471593c_n.jpg",
    "id_album": "-1083189875",
    "description": "Forest_526737",
    "title": "Forest_526737",
    "link_img": "https://live.staticflickr.com/65535/49712022287_d71b433631_o.jpg",
    "id_image": "Forest_526737",
    "count_view": 0
  },
  {
    "link_thumb": "https://live.staticflickr.com/65535/49711543901_bf6bd75a93_n.jpg",
    "id_album": "850176884",
    "description": "Dragon_871711",
    "title": "Dragon_871711",
    "link_img": "https://live.staticflickr.com/65535/49711543901_00f512a8b1_o.jpg",
    "id_image": "Dragon_871711",
    "count_view": 0
  },
  {
    "link_thumb": "https://live.staticflickr.com/65535/49711517443_4968710cc4_n.jpg",
    "id_album": "1892085513",
    "description": "Oriental_981688",
    "title": "Oriental_981688",
    "link_img": "https://live.staticflickr.com/65535/49711517443_5e9ac946dd_o.jpg",
    "id_image": "Oriental_981688",
    "count_view": 0
  },
  {
    "link_thumb": "https://live.staticflickr.com/65535/49712065851_92db8edaf3_n.jpg",
    "id_album": "-639976841",
    "description": "Pegasus_750341",
    "title": "Pegasus_750341",
    "link_img": "https://live.staticflickr.com/65535/49712065851_f8b1bec53f_o.jpg",
    "id_image": "Pegasus_750341",
    "count_view": 0
  },
  {
    "link_thumb": "https://live.staticflickr.com/65535/49711753372_af26ee5dc2_n.jpg",
    "id_album": "850176884",
    "description": "Dragon_357603",
    "title": "Dragon_357603",
    "link_img": "https://live.staticflickr.com/65535/49711753372_06150b9c98_o.jpg",
    "id_image": "Dragon_357603",
    "count_view": 0
  },
  {
    "link_thumb": "https://live.staticflickr.com/65535/49712985467_0c43a194cc_n.jpg",
    "id_album": "-1675918237",
    "description": "WomenWarrior_725589",
    "title": "WomenWarrior_725589",
    "link_img": "https://live.staticflickr.com/65535/49712985467_ef2a2398d8_o.jpg",
    "id_image": "WomenWarrior_725589",
    "count_view": 0
  },
  {
    "link_thumb": "https://live.staticflickr.com/65535/49711454782_8d81a3fbf3_n.jpg",
    "id_album": "-1964113117",
    "description": "City_922839",
    "title": "City_922839",
    "link_img": "https://live.staticflickr.com/65535/49711454782_e47a771d61_o.jpg",
    "id_image": "City_922839",
    "count_view": 0
  },
  {
    "link_thumb": "https://live.staticflickr.com/65535/49711623177_8b842f54b1_n.jpg",
    "id_album": "-437872736",
    "description": "Creature_958938",
    "title": "Creature_958938",
    "link_img": "https://live.staticflickr.com/65535/49711623177_cff851ccf7_o.jpg",
    "id_image": "Creature_958938",
    "count_view": 0
  },
  {
    "link_thumb": "https://live.staticflickr.com/65535/49711798877_dc79d0c4ea_n.jpg",
    "id_album": "850176884",
    "description": "Dragon_546035",
    "title": "Dragon_546035",
    "link_img": "https://live.staticflickr.com/65535/49711798877_d7c215bf4d_o.jpg",
    "id_image": "Dragon_546035",
    "count_view": 0
  },
  {
    "link_thumb": "https://live.staticflickr.com/65535/49710949948_febfb07125_n.jpg",
    "id_album": "850176884",
    "description": "Dragon_577299",
    "title": "Dragon_577299",
    "link_img": "https://live.staticflickr.com/65535/49710949948_0a0dd74551_o.jpg",
    "id_image": "Dragon_577299",
    "count_view": 0
  },
  {
    "link_thumb": "https://live.staticflickr.com/65535/49711698693_3fd2d4631b_n.jpg",
    "id_album": "-1261420436",
    "description": "Warrior_911882",
    "title": "Warrior_911882",
    "link_img": "https://live.staticflickr.com/65535/49711698693_4d671805e4_o.jpg",
    "id_image": "Warrior_911882",
    "count_view": 0
  },
  {
    "link_thumb": "https://live.staticflickr.com/65535/49712009787_86ba281c61_n.jpg",
    "id_album": "-1972042284",
    "description": "Fairy_913949",
    "title": "Fairy_913949",
    "link_img": "https://live.staticflickr.com/65535/49712009787_dfe6ed3bf6_o.jpg",
    "id_image": "Fairy_913949",
    "count_view": 0
  },
  {
    "link_thumb": "https://live.staticflickr.com/65535/49712232911_a922a88973_n.jpg",
    "id_album": "-1261420436",
    "description": "Warrior_903476",
    "title": "Warrior_903476",
    "link_img": "https://live.staticflickr.com/65535/49712232911_b00e26ca0a_o.jpg",
    "id_image": "Warrior_903476",
    "count_view": 0
  },
  {
    "link_thumb": "https://live.staticflickr.com/65535/49712215012_039851aa1c_n.jpg",
    "id_album": "-833110404",
    "description": "Landscape_201532",
    "title": "Landscape_201532",
    "link_img": "https://live.staticflickr.com/65535/49712215012_0de92b912e_o.jpg",
    "id_image": "Landscape_201532",
    "count_view": 0
  },
  {
    "link_thumb": "https://live.staticflickr.com/65535/49711580571_852bbc17ff_n.jpg",
    "id_album": "850176884",
    "description": "Dragon_964219",
    "title": "Dragon_964219",
    "link_img": "https://live.staticflickr.com/65535/49711580571_ca21c7457d_o.jpg",
    "id_image": "Dragon_964219",
    "count_view": 0
  },
  {
    "link_thumb": "https://live.staticflickr.com/65535/49711778857_b73608c96c_n.jpg",
    "id_album": "850176884",
    "description": "Dragon_47699",
    "title": "Dragon_47699",
    "link_img": "https://live.staticflickr.com/65535/49711778857_488b905cc5_o.jpg",
    "id_image": "Dragon_47699",
    "count_view": 0
  },
  {
    "link_thumb": "https://live.staticflickr.com/65535/49711476327_1a37c39329_n.jpg",
    "id_album": "-437872736",
    "description": "Creature_170886",
    "title": "Creature_170886",
    "link_img": "https://live.staticflickr.com/65535/49711476327_c2965b2e63_o.jpg",
    "id_image": "Creature_170886",
    "count_view": 0
  },
  {
    "link_thumb": "https://live.staticflickr.com/65535/49711205642_dc4385b204_n.jpg",
    "id_album": "-1000175186",
    "description": "AngelWarrior_502399",
    "title": "AngelWarrior_502399",
    "link_img": "https://live.staticflickr.com/65535/49711205642_faeaaaf3db_o.jpg",
    "id_image": "AngelWarrior_502399",
    "count_view": 0
  },
  {
    "link_thumb": "https://live.staticflickr.com/65535/49711584736_fffd96288c_n.jpg",
    "id_album": "850176884",
    "description": "Dragon_974467",
    "title": "Dragon_974467",
    "link_img": "https://live.staticflickr.com/65535/49711584736_5f08eaf940_o.jpg",
    "id_image": "Dragon_974467",
    "count_view": 0
  },
  {
    "link_thumb": "https://live.staticflickr.com/65535/49711784687_dd672619df_n.jpg",
    "id_album": "850176884",
    "description": "Dragon_497457",
    "title": "Dragon_497457",
    "link_img": "https://live.staticflickr.com/65535/49711784687_aba43d9a67_o.jpg",
    "id_image": "Dragon_497457",
    "count_view": 0
  },
  {
    "link_thumb": "https://live.staticflickr.com/65535/49712053771_02e24724c8_n.jpg",
    "id_album": "-1862561193",
    "description": "Other_103992",
    "title": "Other_103992",
    "link_img": "https://live.staticflickr.com/65535/49712053771_53f1246b11_o.jpg",
    "id_image": "Other_103992",
    "count_view": 0
  },
  {
    "link_thumb": "https://live.staticflickr.com/65535/49711327278_6aa8950edf_n.jpg",
    "id_album": "1402713104",
    "description": "Landscape_940527",
    "title": "Landscape_940527",
    "link_img": "https://live.staticflickr.com/65535/49711327278_fecb232444_o.jpg",
    "id_image": "Landscape_940527",
    "count_view": 0
  },
  {
    "link_thumb": "https://live.staticflickr.com/65535/49712618052_721fd1f139_n.jpg",
    "id_album": "-709711865",
    "description": "Wolf_884537",
    "title": "Wolf_884537",
    "link_img": "https://live.staticflickr.com/65535/49712618052_e9a771048a_o.jpg",
    "id_image": "Wolf_884537",
    "count_view": 0
  },
  {
    "link_thumb": "https://live.staticflickr.com/65535/49711609813_3762f8ae62_n.jpg",
    "id_album": "1240974613",
    "description": "Sorceress_867733",
    "title": "Sorceress_867733",
    "link_img": "https://live.staticflickr.com/65535/49711609813_9fa4db75a8_o.jpg",
    "id_image": "Sorceress_867733",
    "count_view": 0
  },
  {
    "link_thumb": "https://live.staticflickr.com/65535/49710704983_8f67b75701_n.jpg",
    "id_album": "-437872736",
    "description": "Creature_511829",
    "title": "Creature_511829",
    "link_img": "https://live.staticflickr.com/65535/49710704983_f4dcdb832d_o.jpg",
    "id_image": "Creature_511829",
    "count_view": 0
  },
  {
    "link_thumb": "https://live.staticflickr.com/65535/49711446586_b3e1b11b22_n.jpg",
    "id_album": "850176884",
    "description": "Dragon_441575",
    "title": "Dragon_441575",
    "link_img": "https://live.staticflickr.com/65535/49711446586_3635bb0a06_o.jpg",
    "id_image": "Dragon_441575",
    "count_view": 0
  },
  {
    "link_thumb": "https://live.staticflickr.com/65535/49711791286_eeabf152c4_n.jpg",
    "id_album": "469960528",
    "description": "Knight_980038",
    "title": "Knight_980038",
    "link_img": "https://live.staticflickr.com/65535/49711791286_30895329e4_o.jpg",
    "id_image": "Knight_980038",
    "count_view": 0
  },
  {
    "link_thumb": "https://live.staticflickr.com/65535/49711996507_c67559164a_n.jpg",
    "id_album": "-1972042284",
    "description": "Fairy_681994",
    "title": "Fairy_681994",
    "link_img": "https://live.staticflickr.com/65535/49711996507_b19e7f7815_o.jpg",
    "id_image": "Fairy_681994",
    "count_view": 0
  },
  {
    "link_thumb": "https://live.staticflickr.com/65535/49711387171_83b2494b18_n.jpg",
    "id_album": "850176884",
    "description": "Dragon_214286",
    "title": "Dragon_214286",
    "link_img": "https://live.staticflickr.com/65535/49711387171_d0400866d9_o.jpg",
    "id_image": "Dragon_214286",
    "count_view": 0
  },
  {
    "link_thumb": "https://live.staticflickr.com/65535/49711211752_d9daea80e5_n.jpg",
    "id_album": "-1000175186",
    "description": "AngelWarrior_830999",
    "title": "AngelWarrior_830999",
    "link_img": "https://live.staticflickr.com/65535/49711211752_8f8f6688bf_o.jpg",
    "id_image": "AngelWarrior_830999",
    "count_view": 0
  },
  {
    "link_thumb": "https://live.staticflickr.com/65535/49711276391_45bb35a6a9_n.jpg",
    "id_album": "-437872736",
    "description": "Creature_952014",
    "title": "Creature_952014",
    "link_img": "https://live.staticflickr.com/65535/49711276391_9132187841_o.jpg",
    "id_image": "Creature_952014",
    "count_view": 0
  },
  {
    "link_thumb": "https://live.staticflickr.com/65535/49711489111_ea918cc460_n.jpg",
    "id_album": "850176884",
    "description": "Dragon_590973",
    "title": "Dragon_590973",
    "link_img": "https://live.staticflickr.com/65535/49711489111_fa5be55188_o.jpg",
    "id_image": "Dragon_590973",
    "count_view": 0
  },
  {
    "link_thumb": "https://live.staticflickr.com/65535/49711310408_7f2fce01b1_n.jpg",
    "id_album": "1402713104",
    "description": "Landscape_870078",
    "title": "Landscape_870078",
    "link_img": "https://live.staticflickr.com/65535/49711310408_05dda394ac_o.jpg",
    "id_image": "Landscape_870078",
    "count_view": 0
  },
  {
    "link_thumb": "https://live.staticflickr.com/65535/49712740992_f1f4278fb6_n.jpg",
    "id_album": "295204930",
    "description": "Women_731129",
    "title": "Women_731129",
    "link_img": "https://live.staticflickr.com/65535/49712740992_2341eca52d_o.jpg",
    "id_image": "Women_731129",
    "count_view": 0
  },
  {
    "link_thumb": "https://live.staticflickr.com/65535/49711781862_023c8449dc_n.jpg",
    "id_album": "850176884",
    "description": "Dragon_491239",
    "title": "Dragon_491239",
    "link_img": "https://live.staticflickr.com/65535/49711781862_faa98f1d0b_o.jpg",
    "id_image": "Dragon_491239",
    "count_view": 0
  },
  {
    "link_thumb": "https://live.staticflickr.com/65535/49712045987_de8a23dfc1_n.jpg",
    "id_album": "-128218148",
    "description": "Fox_327043",
    "title": "Fox_327043",
    "link_img": "https://live.staticflickr.com/65535/49712045987_a549aeb062_o.jpg",
    "id_image": "Fox_327043",
    "count_view": 0
  },
  {
    "link_thumb": "https://live.staticflickr.com/65535/49710919011_14f9544523_n.jpg",
    "id_album": "-1913845949",
    "description": "Animal_871982",
    "title": "Animal_871982",
    "link_img": "https://live.staticflickr.com/65535/49710919011_6936846fca_o.jpg",
    "id_image": "Animal_871982",
    "count_view": 0
  },
  {
    "link_thumb": "https://live.staticflickr.com/65535/49711411527_1b3d2791d0_n.jpg",
    "id_album": "-1964113117",
    "description": "City_112289",
    "title": "City_112289",
    "link_img": "https://live.staticflickr.com/65535/49711411527_7b1da2a4ba_o.jpg",
    "id_image": "City_112289",
    "count_view": 0
  },
  {
    "link_thumb": "https://live.staticflickr.com/65535/49711943668_471221d61f_n.jpg",
    "id_album": "1861288871",
    "description": "Women_820624",
    "title": "Women_820624",
    "link_img": "https://live.staticflickr.com/65535/49711943668_d3011617d6_o.jpg",
    "id_image": "Women_820624",
    "count_view": 0
  },
  {
    "link_thumb": "https://live.staticflickr.com/65535/49711663932_455c4197c4_n.jpg",
    "id_album": "7198985",
    "description": "Demon_695388",
    "title": "Demon_695388",
    "link_img": "https://live.staticflickr.com/65535/49711663932_978dcd1487_o.jpg",
    "id_image": "Demon_695388",
    "count_view": 0
  },
  {
    "link_thumb": "https://live.staticflickr.com/65535/49711931032_a27fde8935_n.jpg",
    "id_album": "134100487",
    "description": "Elf_301145",
    "title": "Elf_301145",
    "link_img": "https://live.staticflickr.com/65535/49711931032_f4d9a6e342_o.jpg",
    "id_image": "Elf_301145",
    "count_view": 0
  },
  {
    "link_thumb": "https://live.staticflickr.com/65535/49710943631_a98ac732de_n.jpg",
    "id_album": "523598895",
    "description": "Artistic_151301",
    "title": "Artistic_151301",
    "link_img": "https://live.staticflickr.com/65535/49710943631_56c3e3b015_o.jpg",
    "id_image": "Artistic_151301",
    "count_view": 0
  },
  {
    "link_thumb": "https://live.staticflickr.com/65535/49712311517_cd68bfd974_n.jpg",
    "id_album": "1006968559",
    "description": "LordoftheRings_332954",
    "title": "LordoftheRings_332954",
    "link_img": "https://live.staticflickr.com/65535/49712311517_5d871a2dde_o.jpg",
    "id_image": "LordoftheRings_332954",
    "count_view": 0
  },
  {
    "link_thumb": "https://live.staticflickr.com/65535/49712335352_da4928efd5_n.jpg",
    "id_album": "-222719689",
    "description": "Men_105664",
    "title": "Men_105664",
    "link_img": "https://live.staticflickr.com/65535/49712335352_d61dc4c722_o.jpg",
    "id_image": "Men_105664",
    "count_view": 0
  },
  {
    "link_thumb": "https://live.staticflickr.com/65535/49712057072_57d59d65c3_n.jpg",
    "id_album": "402434752",
    "description": "Giant_665580",
    "title": "Giant_665580",
    "link_img": "https://live.staticflickr.com/65535/49712057072_f534a67eb5_o.jpg",
    "id_image": "Giant_665580",
    "count_view": 0
  },
  {
    "link_thumb": "https://live.staticflickr.com/65535/49711238436_95092b6fab_n.jpg",
    "id_album": "-437872736",
    "description": "Creature_510288",
    "title": "Creature_510288",
    "link_img": "https://live.staticflickr.com/65535/49711238436_b9e16cf748_o.jpg",
    "id_image": "Creature_510288",
    "count_view": 0
  },
  {
    "link_thumb": "https://live.staticflickr.com/65535/49710988691_ab4f693cef_n.jpg",
    "id_album": "1187037014",
    "description": "Battle_249942",
    "title": "Battle_249942",
    "link_img": "https://live.staticflickr.com/65535/49710988691_e48f066a05_o.jpg",
    "id_image": "Battle_249942",
    "count_view": 0
  },
  {
    "link_thumb": "https://live.staticflickr.com/65535/49710648768_a3709f6feb_n.jpg",
    "id_album": "-437872736",
    "description": "Creature_304282",
    "title": "Creature_304282",
    "link_img": "https://live.staticflickr.com/65535/49710648768_96a9917a11_o.jpg",
    "id_image": "Creature_304282",
    "count_view": 0
  },
  {
    "link_thumb": "https://live.staticflickr.com/65535/49711348017_9af9a96225_n.jpg",
    "id_album": "406431601",
    "description": "Building_373921",
    "title": "Building_373921",
    "link_img": "https://live.staticflickr.com/65535/49711348017_6a21126b5d_o.jpg",
    "id_image": "Building_373921",
    "count_view": 0
  },
  {
    "link_thumb": "https://live.staticflickr.com/65535/49711111143_146260f602_n.jpg",
    "id_album": "-1972042284",
    "description": "Fairy_143309",
    "title": "Fairy_143309",
    "link_img": "https://live.staticflickr.com/65535/49711111143_a9466f325c_o.jpg",
    "id_image": "Fairy_143309",
    "count_view": 0
  },
  {
    "link_thumb": "https://live.staticflickr.com/65535/49712004972_15570b8c8a_n.jpg",
    "id_album": "-1972042284",
    "description": "Fairy_766937",
    "title": "Fairy_766937",
    "link_img": "https://live.staticflickr.com/65535/49712004972_149d465a31_o.jpg",
    "id_image": "Fairy_766937",
    "count_view": 0
  },
  {
    "link_thumb": "https://live.staticflickr.com/65535/49711222488_00b81c5413_n.jpg",
    "id_album": "-1933715543",
    "description": "Horse_205793",
    "title": "Horse_205793",
    "link_img": "https://live.staticflickr.com/65535/49711222488_ef4157bd4a_o.jpg",
    "id_image": "Horse_205793",
    "count_view": 0
  },
  {
    "link_thumb": "https://live.staticflickr.com/65535/49710912788_d871fac749_n.jpg",
    "id_album": "850176884",
    "description": "Dragon_445872",
    "title": "Dragon_445872",
    "link_img": "https://live.staticflickr.com/65535/49710912788_fba376e526_o.jpg",
    "id_image": "Dragon_445872",
    "count_view": 0
  },
  {
    "link_thumb": "https://live.staticflickr.com/65535/49710892703_164f8bac80_n.jpg",
    "id_album": "850176884",
    "description": "Dragon_341846",
    "title": "Dragon_341846",
    "link_img": "https://live.staticflickr.com/65535/49710892703_1fd492d117_o.jpg",
    "id_image": "Dragon_341846",
    "count_view": 0
  },
  {
    "link_thumb": "https://live.staticflickr.com/65535/49711038878_b4e7bed77b_n.jpg",
    "id_album": "850176884",
    "description": "Dragon_942088",
    "title": "Dragon_942088",
    "link_img": "https://live.staticflickr.com/65535/49711038878_6684d1b794_o.jpg",
    "id_image": "Dragon_942088",
    "count_view": 0
  },
  {
    "link_thumb": "https://live.staticflickr.com/65535/49711850476_fe9d16b0bb_n.jpg",
    "id_album": "1402713104",
    "description": "Landscape_880121",
    "title": "Landscape_880121",
    "link_img": "https://live.staticflickr.com/65535/49711850476_2d74db2c72_o.jpg",
    "id_image": "Landscape_880121",
    "count_view": 0
  },
  {
    "link_thumb": "https://live.staticflickr.com/65535/49711270661_f8774964b1_n.jpg",
    "id_album": "-437872736",
    "description": "Creature_87657",
    "title": "Creature_87657",
    "link_img": "https://live.staticflickr.com/65535/49711270661_a12655e4f4_o.jpg",
    "id_image": "Creature_87657",
    "count_view": 0
  },
  {
    "link_thumb": "https://live.staticflickr.com/65535/49711114498_79a9b74a00_n.jpg",
    "id_album": "-1972042284",
    "description": "Fairy_208330",
    "title": "Fairy_208330",
    "link_img": "https://live.staticflickr.com/65535/49711114498_ec381a1c33_o.jpg",
    "id_image": "Fairy_208330",
    "count_view": 0
  },
  {
    "link_thumb": "https://live.staticflickr.com/65535/49711485772_c6eea30f03_n.jpg",
    "id_album": "-437872736",
    "description": "Creature_224414",
    "title": "Creature_224414",
    "link_img": "https://live.staticflickr.com/65535/49711485772_b950601eab_o.jpg",
    "id_image": "Creature_224414",
    "count_view": 0
  },
  {
    "link_thumb": "https://live.staticflickr.com/65535/49710391978_b00a91a03e_n.jpg",
    "id_album": "-1913845949",
    "description": "Animal_973225",
    "title": "Animal_973225",
    "link_img": "https://live.staticflickr.com/65535/49710391978_c400584302_o.jpg",
    "id_image": "Animal_973225",
    "count_view": 0
  },
  {
    "link_thumb": "https://live.staticflickr.com/65535/49711259633_d66baa4766_n.jpg",
    "id_album": "1402713104",
    "description": "Landscape_646636",
    "title": "Landscape_646636",
    "link_img": "https://live.staticflickr.com/65535/49711259633_1ac19ab2e7_o.jpg",
    "id_image": "Landscape_646636",
    "count_view": 0
  },
  {
    "link_thumb": "https://live.staticflickr.com/65535/49711110061_b83d0965a0_n.jpg",
    "id_album": "-1964113117",
    "description": "City_648413",
    "title": "City_648413",
    "link_img": "https://live.staticflickr.com/65535/49711110061_4ddd9640f1_o.jpg",
    "id_image": "City_648413",
    "count_view": 0
  },
  {
    "link_thumb": "https://live.staticflickr.com/65535/49711221137_92c8eb3508_n.jpg",
    "id_album": "-1913845949",
    "description": "Animal_234905",
    "title": "Animal_234905",
    "link_img": "https://live.staticflickr.com/65535/49711221137_3f02492b81_o.jpg",
    "id_image": "Animal_234905",
    "count_view": 0
  },
  {
    "link_thumb": "https://live.staticflickr.com/65535/49710778418_17c4953e01_n.jpg",
    "id_album": "2021464556",
    "description": "Dark_186020",
    "title": "Dark_186020",
    "link_img": "https://live.staticflickr.com/65535/49710778418_a7b34781bb_o.jpg",
    "id_image": "Dark_186020",
    "count_view": 0
  },
  {
    "link_thumb": "https://live.staticflickr.com/65535/49712540812_dfbed32344_n.jpg",
    "id_album": "-1261420436",
    "description": "Warrior_685306",
    "title": "Warrior_685306",
    "link_img": "https://live.staticflickr.com/65535/49712540812_780826f494_o.jpg",
    "id_image": "Warrior_685306",
    "count_view": 0
  },
  {
    "link_thumb": "https://live.staticflickr.com/65535/49711514853_58aed78f60_n.jpg",
    "id_album": "1892085513",
    "description": "Oriental_958049",
    "title": "Oriental_958049",
    "link_img": "https://live.staticflickr.com/65535/49711514853_253bd5d49a_o.jpg",
    "id_image": "Oriental_958049",
    "count_view": 0
  },
  {
    "link_thumb": "https://live.staticflickr.com/65535/49712279192_bf8240e2ae_n.jpg",
    "id_album": "-833110404",
    "description": "Landscape_511079",
    "title": "Landscape_511079",
    "link_img": "https://live.staticflickr.com/65535/49712279192_3bec812f1a_o.jpg",
    "id_image": "Landscape_511079",
    "count_view": 0
  },
  {
    "link_thumb": "https://live.staticflickr.com/65535/49710561853_46c747a685_n.jpg",
    "id_album": "-1964113117",
    "description": "City_324916",
    "title": "City_324916",
    "link_img": "https://live.staticflickr.com/65535/49710561853_733b64251b_o.jpg",
    "id_image": "City_324916",
    "count_view": 0
  },
  {
    "link_thumb": "https://live.staticflickr.com/65535/49711817231_aaa3c59b6e_n.jpg",
    "id_album": "1402713104",
    "description": "Landscape_760603",
    "title": "Landscape_760603",
    "link_img": "https://live.staticflickr.com/65535/49711817231_ac0353ba54_o.jpg",
    "id_image": "Landscape_760603",
    "count_view": 0
  },
  {
    "link_thumb": "https://live.staticflickr.com/65535/49711908997_d4cf05c592_n.jpg",
    "id_album": "850176884",
    "description": "Dragon_976944",
    "title": "Dragon_976944",
    "link_img": "https://live.staticflickr.com/65535/49711908997_8d036fce67_o.jpg",
    "id_image": "Dragon_976944",
    "count_view": 0
  },
  {
    "link_thumb": "https://live.staticflickr.com/65535/49711049631_10d75dc8ac_n.jpg",
    "id_album": "-1541846310",
    "description": "Castle_600288",
    "title": "Castle_600288",
    "link_img": "https://live.staticflickr.com/65535/49711049631_3a7acf111c_o.jpg",
    "id_image": "Castle_600288",
    "count_view": 0
  },
  {
    "link_thumb": "https://live.staticflickr.com/65535/49710842193_dcc27c343a_n.jpg",
    "id_album": "850176884",
    "description": "Dragon_188233",
    "title": "Dragon_188233",
    "link_img": "https://live.staticflickr.com/65535/49710842193_c9a04d5091_o.jpg",
    "id_image": "Dragon_188233",
    "count_view": 0
  },
  {
    "link_thumb": "https://live.staticflickr.com/65535/49711078136_043fced20c_n.jpg",
    "id_album": "430704260",
    "description": "Child_701420",
    "title": "Child_701420",
    "link_img": "https://live.staticflickr.com/65535/49711078136_93d9bc872c_o.jpg",
    "id_image": "Child_701420",
    "count_view": 0
  },
  {
    "link_thumb": "https://live.staticflickr.com/65535/49711608896_94b6e4b302_n.jpg",
    "id_album": "134100487",
    "description": "Elf_339817",
    "title": "Elf_339817",
    "link_img": "https://live.staticflickr.com/65535/49711608896_979d42e9f5_o.jpg",
    "id_image": "Elf_339817",
    "count_view": 0
  },
  {
    "link_thumb": "https://live.staticflickr.com/65535/49711134446_853bab81a7_n.jpg",
    "id_album": "-1964113117",
    "description": "City_958368",
    "title": "City_958368",
    "link_img": "https://live.staticflickr.com/65535/49711134446_9505b8835c_o.jpg",
    "id_image": "City_958368",
    "count_view": 0
  },
  {
    "link_thumb": "https://live.staticflickr.com/65535/49710675158_19946a324d_n.jpg",
    "id_album": "-437872736",
    "description": "Creature_343199",
    "title": "Creature_343199",
    "link_img": "https://live.staticflickr.com/65535/49710675158_bebf03296b_o.jpg",
    "id_image": "Creature_343199",
    "count_view": 0
  },
  {
    "link_thumb": "https://live.staticflickr.com/65535/49712186891_b1453704bc_n.jpg",
    "id_album": "431597977",
    "description": "Unicorn_984678",
    "title": "Unicorn_984678",
    "link_img": "https://live.staticflickr.com/65535/49712186891_1d2ff91788_o.jpg",
    "id_image": "Unicorn_984678",
    "count_view": 0
  },
  {
    "link_thumb": "https://live.staticflickr.com/65535/49712671447_583a8c7a49_n.jpg",
    "id_album": "-1126835654",
    "description": "Women_983729",
    "title": "Women_983729",
    "link_img": "https://live.staticflickr.com/65535/49712671447_3d96145f14_o.jpg",
    "id_image": "Women_983729",
    "count_view": 0
  },
  {
    "link_thumb": "https://live.staticflickr.com/65535/49711015363_616966df88_n.jpg",
    "id_album": "850176884",
    "description": "Dragon_883168",
    "title": "Dragon_883168",
    "link_img": "https://live.staticflickr.com/65535/49711015363_9daede0921_o.jpg",
    "id_image": "Dragon_883168",
    "count_view": 0
  },
  {
    "link_thumb": "https://live.staticflickr.com/65535/49712261161_a9397cf6cf_n.jpg",
    "id_album": "478331085",
    "description": "Witch_695604",
    "title": "Witch_695604",
    "link_img": "https://live.staticflickr.com/65535/49712261161_43bc4c5166_o.jpg",
    "id_image": "Witch_695604",
    "count_view": 0
  }
]