[
  {
    "link_thumb": "https://live.staticflickr.com/65535/49711576048_f50ca70e69_n.jpg",
    "id_album": "-1611961467",
    "description": "Samurai_82036",
    "title": "Samurai_82036",
    "link_img": "https://live.staticflickr.com/65535/49711576048_45b7e66a70_o.jpg",
    "id_image": "Samurai_82036",
    "count_view": 0
  },
  {
    "link_thumb": "https://live.staticflickr.com/65535/49711194708_36ef1921ac_n.jpg",
    "id_album": "402434752",
    "description": "Giant_15689",
    "title": "Giant_15689",
    "link_img": "https://live.staticflickr.com/65535/49711194708_f76dcd85a5_o.jpg",
    "id_image": "Giant_15689",
    "count_view": 0
  },
  {
    "link_thumb": "https://live.staticflickr.com/65535/49711031266_ced1aed5a9_n.jpg",
    "id_album": "-1541846310",
    "description": "Castle_121897",
    "title": "Castle_121897",
    "link_img": "https://live.staticflickr.com/65535/49711031266_5a433460a9_o.jpg",
    "id_image": "Castle_121897",
    "count_view": 0
  },
  {
    "link_thumb": "https://live.staticflickr.com/65535/49712469192_cc34a1d8da_n.jpg",
    "id_album": "1240974613",
    "description": "Sorceress_932377",
    "title": "Sorceress_932377",
    "link_img": "https://live.staticflickr.com/65535/49712469192_bb8fa01955_o.jpg",
    "id_image": "Sorceress_932377",
    "count_view": 0
  },
  {
    "link_thumb": "https://live.staticflickr.com/65535/49711718747_237c3d416f_n.jpg",
    "id_album": "850176884",
    "description": "Dragon_243426",
    "title": "Dragon_243426",
    "link_img": "https://live.staticflickr.com/65535/49711718747_5077133ac2_o.jpg",
    "id_image": "Dragon_243426",
    "count_view": 0
  },
  {
    "link_thumb": "https://live.staticflickr.com/65535/49710927378_427fac627c_n.jpg",
    "id_album": "850176884",
    "description": "Dragon_497452",
    "title": "Dragon_497452",
    "link_img": "https://live.staticflickr.com/65535/49710927378_41cdc5dde2_o.jpg",
    "id_image": "Dragon_497452",
    "count_view": 0
  },
  {
    "link_thumb": "https://live.staticflickr.com/65535/49711490781_e2755730f6_n.jpg",
    "id_album": "850176884",
    "description": "Dragon_595233",
    "title": "Dragon_595233",
    "link_img": "https://live.staticflickr.com/65535/49711490781_f0606d4863_o.jpg",
    "id_image": "Dragon_595233",
    "count_view": 0
  },
  {
    "link_thumb": "https://live.staticflickr.com/65535/49712409216_cafcc58106_n.jpg",
    "id_album": "295204930",
    "description": "Women_704863",
    "title": "Women_704863",
    "link_img": "https://live.staticflickr.com/65535/49712409216_29fdb51b37_o.jpg",
    "id_image": "Women_704863",
    "count_view": 0
  },
  {
    "link_thumb": "https://live.staticflickr.com/65535/49711315252_b2bf4974d1_n.jpg",
    "id_album": "1187037014",
    "description": "Battle_306031",
    "title": "Battle_306031",
    "link_img": "https://live.staticflickr.com/65535/49711315252_74ef938e21_o.jpg",
    "id_image": "Battle_306031",
    "count_view": 0
  },
  {
    "link_thumb": "https://live.staticflickr.com/65535/49711424036_c77e37d794_n.jpg",
    "id_album": "850176884",
    "description": "Dragon_328306",
    "title": "Dragon_328306",
    "link_img": "https://live.staticflickr.com/65535/49711424036_2ea5c0071f_o.jpg",
    "id_image": "Dragon_328306",
    "count_view": 0
  },
  {
    "link_thumb": "https://live.staticflickr.com/65535/49710461763_a32acf0190_n.jpg",
    "id_album": "1187037014",
    "description": "Battle_368563",
    "title": "Battle_368563",
    "link_img": "https://live.staticflickr.com/65535/49710461763_bc798ffc22_o.jpg",
    "id_image": "Battle_368563",
    "count_view": 0
  },
  {
    "link_thumb": "https://live.staticflickr.com/65535/49710857641_64a091cd01_n.jpg",
    "id_album": "-218097820",
    "description": "ASongOfIceAndFire_601329",
    "title": "ASongOfIceAndFire_601329",
    "link_img": "https://live.staticflickr.com/65535/49710857641_4f3a22acf9_o.jpg",
    "id_image": "ASongOfIceAndFire_601329",
    "count_view": 0
  },
  {
    "link_thumb": "https://live.staticflickr.com/65535/49710880321_a64726fc5b_n.jpg",
    "id_album": "-1000175186",
    "description": "AngelWarrior_486417",
    "title": "AngelWarrior_486417",
    "link_img": "https://live.staticflickr.com/65535/49710880321_57df9dc89b_o.jpg",
    "id_image": "AngelWarrior_486417",
    "count_view": 0
  },
  {
    "link_thumb": "https://live.staticflickr.com/65535/49712311517_cd68bfd974_n.jpg",
    "id_album": "1006968559",
    "description": "LordoftheRings_332954",
    "title": "LordoftheRings_332954",
    "link_img": "https://live.staticflickr.com/65535/49712311517_5d871a2dde_o.jpg",
    "id_image": "LordoftheRings_332954",
    "count_view": 0
  },
  {
    "link_thumb": "https://live.staticflickr.com/65535/49710563893_e7ba563f34_n.jpg",
    "id_album": "-1964113117",
    "description": "City_388239",
    "title": "City_388239",
    "link_img": "https://live.staticflickr.com/65535/49710563893_71e4bd7ef0_o.jpg",
    "id_image": "City_388239",
    "count_view": 0
  },
  {
    "link_thumb": "https://live.staticflickr.com/65535/49712251717_ca3f1da1e1_n.jpg",
    "id_album": "-833110404",
    "description": "Landscape_313957",
    "title": "Landscape_313957",
    "link_img": "https://live.staticflickr.com/65535/49712251717_cf4cfd0654_o.jpg",
    "id_image": "Landscape_313957",
    "count_view": 0
  },
  {
    "link_thumb": "https://live.staticflickr.com/65535/49711723032_4ae4178a7d_n.jpg",
    "id_album": "850176884",
    "description": "Dragon_249747",
    "title": "Dragon_249747",
    "link_img": "https://live.staticflickr.com/65535/49711723032_43b3f9eed7_o.jpg",
    "id_image": "Dragon_249747",
    "count_view": 0
  },
  {
    "link_thumb": "https://live.staticflickr.com/65535/49710430533_3da4158f96_n.jpg",
    "id_album": "523598895",
    "description": "Artistic_371283",
    "title": "Artistic_371283",
    "link_img": "https://live.staticflickr.com/65535/49710430533_f543875f80_o.jpg",
    "id_image": "Artistic_371283",
    "count_view": 0
  },
  {
    "link_thumb": "https://live.staticflickr.com/65535/49710985943_0930daa533_n.jpg",
    "id_album": "850176884",
    "description": "Dragon_76450",
    "title": "Dragon_76450",
    "link_img": "https://live.staticflickr.com/65535/49710985943_42b38e4924_o.jpg",
    "id_image": "Dragon_76450",
    "count_view": 0
  },
  {
    "link_thumb": "https://live.staticflickr.com/65535/49711322277_01e77121a7_n.jpg",
    "id_album": "1187037014",
    "description": "Battle_395527",
    "title": "Battle_395527",
    "link_img": "https://live.staticflickr.com/65535/49711322277_6f58f6e676_o.jpg",
    "id_image": "Battle_395527",
    "count_view": 0
  },
  {
    "link_thumb": "https://live.staticflickr.com/65535/49711790376_423f5a66ea_n.jpg",
    "id_album": "469960528",
    "description": "Knight_945823",
    "title": "Knight_945823",
    "link_img": "https://live.staticflickr.com/65535/49711790376_692fd5ca72_o.jpg",
    "id_image": "Knight_945823",
    "count_view": 0
  },
  {
    "link_thumb": "https://live.staticflickr.com/65535/49710718443_aa49575d1b_n.jpg",
    "id_album": "-437872736",
    "description": "Creature_6305",
    "title": "Creature_6305",
    "link_img": "https://live.staticflickr.com/65535/49710718443_61ab9f1046_o.jpg",
    "id_image": "Creature_6305",
    "count_view": 0
  },
  {
    "link_thumb": "https://live.staticflickr.com/65535/49710461418_c688d6c51a_n.jpg",
    "id_album": "1187037014",
    "description": "Battle_357418",
    "title": "Battle_357418",
    "link_img": "https://live.staticflickr.com/65535/49710461418_baf48af175_o.jpg",
    "id_image": "Battle_357418",
    "count_view": 0
  },
  {
    "link_thumb": "https://live.staticflickr.com/65535/49712198556_8caa9a800c_n.jpg",
    "id_album": "-1261420436",
    "description": "Warrior_152659",
    "title": "Warrior_152659",
    "link_img": "https://live.staticflickr.com/65535/49712198556_34f485f5e7_o.jpg",
    "id_image": "Warrior_152659",
    "count_view": 0
  },
  {
    "link_thumb": "https://live.staticflickr.com/65535/49711156003_0c90392c08_n.jpg",
    "id_album": "-1083189875",
    "description": "Forest_205047",
    "title": "Forest_205047",
    "link_img": "https://live.staticflickr.com/65535/49711156003_2ea806cff3_o.jpg",
    "id_image": "Forest_205047",
    "count_view": 0
  },
  {
    "link_thumb": "https://live.staticflickr.com/65535/49712095677_d34cfc8267_n.jpg",
    "id_album": "1957967226",
    "description": "House_960708",
    "title": "House_960708",
    "link_img": "https://live.staticflickr.com/65535/49712095677_f164e4dbc7_o.jpg",
    "id_image": "House_960708",
    "count_view": 0
  },
  {
    "link_thumb": "https://live.staticflickr.com/65535/49711773163_fcdd78d1cc_n.jpg",
    "id_album": "-1126835654",
    "description": "Women_843069",
    "title": "Women_843069",
    "link_img": "https://live.staticflickr.com/65535/49711773163_35bb32f721_o.jpg",
    "id_image": "Women_843069",
    "count_view": 0
  },
  {
    "link_thumb": "https://live.staticflickr.com/65535/49712163093_1cfaf2ae08_n.jpg",
    "id_album": "-1675918237",
    "description": "WomenWarrior_900658",
    "title": "WomenWarrior_900658",
    "link_img": "https://live.staticflickr.com/65535/49712163093_837df87618_o.jpg",
    "id_image": "WomenWarrior_900658",
    "count_view": 0
  },
  {
    "link_thumb": "https://live.staticflickr.com/65535/49710401548_682932ffa9_n.jpg",
    "id_album": "-1560111795",
    "description": "Archer_845408",
    "title": "Archer_845408",
    "link_img": "https://live.staticflickr.com/65535/49710401548_7a5bd3735c_o.jpg",
    "id_image": "Archer_845408",
    "count_view": 0
  },
  {
    "link_thumb": "https://live.staticflickr.com/65535/49711400153_e8397c92fa_n.jpg",
    "id_album": "-833110404",
    "description": "Landscape_400685",
    "title": "Landscape_400685",
    "link_img": "https://live.staticflickr.com/65535/49711400153_6925e6d82b_o.jpg",
    "id_image": "Landscape_400685",
    "count_view": 0
  },
  {
    "link_thumb": "https://live.staticflickr.com/65535/49712290611_0810b5451a_n.jpg",
    "id_album": "-709711865",
    "description": "Wolf_835181",
    "title": "Wolf_835181",
    "link_img": "https://live.staticflickr.com/65535/49712290611_66397369da_o.jpg",
    "id_image": "Wolf_835181",
    "count_view": 0
  },
  {
    "link_thumb": "https://live.staticflickr.com/65535/49712714317_3c59f6554f_n.jpg",
    "id_album": "295204930",
    "description": "Women_397211",
    "title": "Women_397211",
    "link_img": "https://live.staticflickr.com/65535/49712714317_01ba53322d_o.jpg",
    "id_image": "Women_397211",
    "count_view": 0
  },
  {
    "link_thumb": "https://live.staticflickr.com/65535/49711762531_b873b6ab37_n.jpg",
    "id_album": "-1933715543",
    "description": "Horse_820386",
    "title": "Horse_820386",
    "link_img": "https://live.staticflickr.com/65535/49711762531_d7fb6e561c_o.jpg",
    "id_image": "Horse_820386",
    "count_view": 0
  },
  {
    "link_thumb": "https://live.staticflickr.com/65535/49710701488_16eece0bba_n.jpg",
    "id_album": "-437872736",
    "description": "Creature_497446",
    "title": "Creature_497446",
    "link_img": "https://live.staticflickr.com/65535/49710701488_9bdfb24fc1_o.jpg",
    "id_image": "Creature_497446",
    "count_view": 0
  },
  {
    "link_thumb": "https://live.staticflickr.com/65535/49711167306_b279d94131_n.jpg",
    "id_album": "-437872736",
    "description": "Creature_253511",
    "title": "Creature_253511",
    "link_img": "https://live.staticflickr.com/65535/49711167306_db98a46ec5_o.jpg",
    "id_image": "Creature_253511",
    "count_view": 0
  },
  {
    "link_thumb": "https://live.staticflickr.com/65535/49712484352_000dfca9d2_n.jpg",
    "id_album": "405170427",
    "description": "Tiger_702324",
    "title": "Tiger_702324",
    "link_img": "https://live.staticflickr.com/65535/49712484352_088c5c597d_o.jpg",
    "id_image": "Tiger_702324",
    "count_view": 0
  },
  {
    "link_thumb": "https://live.staticflickr.com/65535/49712034502_fd03497eb4_n.jpg",
    "id_album": "-1083189875",
    "description": "Forest_772066",
    "title": "Forest_772066",
    "link_img": "https://live.staticflickr.com/65535/49712034502_177bd78b95_o.jpg",
    "id_image": "Forest_772066",
    "count_view": 0
  },
  {
    "link_thumb": "https://live.staticflickr.com/65535/49711452658_1385795792_n.jpg",
    "id_album": "1006968559",
    "description": "LordoftheRings_236060",
    "title": "LordoftheRings_236060",
    "link_img": "https://live.staticflickr.com/65535/49711452658_cda6886a10_o.jpg",
    "id_image": "LordoftheRings_236060",
    "count_view": 0
  },
  {
    "link_thumb": "https://live.staticflickr.com/65535/49711034808_f26e596cb1_n.jpg",
    "id_album": "850176884",
    "description": "Dragon_928635",
    "title": "Dragon_928635",
    "link_img": "https://live.staticflickr.com/65535/49711034808_f40dd83126_o.jpg",
    "id_image": "Dragon_928635",
    "count_view": 0
  },
  {
    "link_thumb": "https://live.staticflickr.com/65535/49712496776_b943a45937_n.jpg",
    "id_album": "-867594484",
    "description": "Women_525434",
    "title": "Women_525434",
    "link_img": "https://live.staticflickr.com/65535/49712496776_d0d71b2a20_o.jpg",
    "id_image": "Women_525434",
    "count_view": 0
  },
  {
    "link_thumb": "https://live.staticflickr.com/65535/49711197133_019e04b916_n.jpg",
    "id_album": "402434752",
    "description": "Giant_307871",
    "title": "Giant_307871",
    "link_img": "https://live.staticflickr.com/65535/49711197133_89ee447b84_o.jpg",
    "id_image": "Giant_307871",
    "count_view": 0
  },
  {
    "link_thumb": "https://live.staticflickr.com/65535/49712618052_721fd1f139_n.jpg",
    "id_album": "-709711865",
    "description": "Wolf_884537",
    "title": "Wolf_884537",
    "link_img": "https://live.staticflickr.com/65535/49712618052_e9a771048a_o.jpg",
    "id_image": "Wolf_884537",
    "count_view": 0
  },
  {
    "link_thumb": "https://live.staticflickr.com/65535/49712491566_a3c1fba23d_n.jpg",
    "id_album": "-867594484",
    "description": "Women_516895",
    "title": "Women_516895",
    "link_img": "https://live.staticflickr.com/65535/49712491566_9997cf7279_o.jpg",
    "id_image": "Women_516895",
    "count_view": 0
  },
  {
    "link_thumb": "https://live.staticflickr.com/65535/49711311497_bbe66fb5ea_n.jpg",
    "id_album": "1187037014",
    "description": "Battle_242336",
    "title": "Battle_242336",
    "link_img": "https://live.staticflickr.com/65535/49711311497_b5d70a6ac4_o.jpg",
    "id_image": "Battle_242336",
    "count_view": 0
  },
  {
    "link_thumb": "https://live.staticflickr.com/65535/49710562753_bdecf6bca7_n.jpg",
    "id_album": "-1964113117",
    "description": "City_337645",
    "title": "City_337645",
    "link_img": "https://live.staticflickr.com/65535/49710562753_dea4f329c9_o.jpg",
    "id_image": "City_337645",
    "count_view": 0
  },
  {
    "link_thumb": "https://live.staticflickr.com/65535/49710544418_f0607aa77e_n.jpg",
    "id_album": "430704260",
    "description": "Child_715986",
    "title": "Child_715986",
    "link_img": "https://live.staticflickr.com/65535/49710544418_7186b61745_o.jpg",
    "id_image": "Child_715986",
    "count_view": 0
  },
  {
    "link_thumb": "https://live.staticflickr.com/65535/49711456357_1f0bb53275_n.jpg",
    "id_album": "-1964113117",
    "description": "City_937797",
    "title": "City_937797",
    "link_img": "https://live.staticflickr.com/65535/49711456357_a2a3f90137_o.jpg",
    "id_image": "City_937797",
    "count_view": 0
  },
  {
    "link_thumb": "https://live.staticflickr.com/65535/49712544306_a51f7f982a_n.jpg",
    "id_album": "-1675918237",
    "description": "WomenWarrior_189842",
    "title": "WomenWarrior_189842",
    "link_img": "https://live.staticflickr.com/65535/49712544306_f3d6c95abe_o.jpg",
    "id_image": "WomenWarrior_189842",
    "count_view": 0
  },
  {
    "link_thumb": "https://live.staticflickr.com/65535/49711981231_53643c48f2_n.jpg",
    "id_album": "416744915",
    "description": "Lion_642270",
    "title": "Lion_642270",
    "link_img": "https://live.staticflickr.com/65535/49711981231_6e8f7bc300_o.jpg",
    "id_image": "Lion_642270",
    "count_view": 0
  },
  {
    "link_thumb": "https://live.staticflickr.com/65535/49711816423_8413643645_n.jpg",
    "id_album": "-1126835654",
    "description": "Women_993986",
    "title": "Women_993986",
    "link_img": "https://live.staticflickr.com/65535/49711816423_047931b476_o.jpg",
    "id_image": "Women_993986",
    "count_view": 0
  },
  {
    "link_thumb": "https://live.staticflickr.com/65535/49711683926_05bc247ef8_n.jpg",
    "id_album": "-1972042284",
    "description": "Fairy_877722",
    "title": "Fairy_877722",
    "link_img": "https://live.staticflickr.com/65535/49711683926_e69cb37f39_o.jpg",
    "id_image": "Fairy_877722",
    "count_view": 0
  },
  {
    "link_thumb": "https://live.staticflickr.com/65535/49710720543_9f8d617db6_n.jpg",
    "id_album": "-437872736",
    "description": "Creature_670629",
    "title": "Creature_670629",
    "link_img": "https://live.staticflickr.com/65535/49710720543_c54bbb0308_o.jpg",
    "id_image": "Creature_670629",
    "count_view": 0
  },
  {
    "link_thumb": "https://live.staticflickr.com/65535/49711726157_78c5be16cb_n.jpg",
    "id_album": "850176884",
    "description": "Dragon_265079",
    "title": "Dragon_265079",
    "link_img": "https://live.staticflickr.com/65535/49711726157_4cc3fae264_o.jpg",
    "id_image": "Dragon_265079",
    "count_view": 0
  },
  {
    "link_thumb": "https://live.staticflickr.com/65535/49711110061_b83d0965a0_n.jpg",
    "id_album": "-1964113117",
    "description": "City_648413",
    "title": "City_648413",
    "link_img": "https://live.staticflickr.com/65535/49711110061_4ddd9640f1_o.jpg",
    "id_image": "City_648413",
    "count_view": 0
  },
  {
    "link_thumb": "https://live.staticflickr.com/65535/49711780927_17bde68f13_n.jpg",
    "id_album": "850176884",
    "description": "Dragon_486476",
    "title": "Dragon_486476",
    "link_img": "https://live.staticflickr.com/65535/49711780927_2d7e395f9a_o.jpg",
    "id_image": "Dragon_486476",
    "count_view": 0
  },
  {
    "link_thumb": "https://live.staticflickr.com/65535/49710792098_da2e7c061c_n.jpg",
    "id_album": "1903411565",
    "description": "Deer_829168",
    "title": "Deer_829168",
    "link_img": "https://live.staticflickr.com/65535/49710792098_998b0f6704_o.jpg",
    "id_image": "Deer_829168",
    "count_view": 0
  },
  {
    "link_thumb": "https://live.staticflickr.com/65535/49711194972_4b59018419_n.jpg",
    "id_album": "-956471126",
    "description": "AliceInWonderland_205781",
    "title": "AliceInWonderland_205781",
    "link_img": "https://live.staticflickr.com/65535/49711194972_268029d7ec_o.jpg",
    "id_image": "AliceInWonderland_205781",
    "count_view": 0
  },
  {
    "link_thumb": "https://live.staticflickr.com/65535/49711943088_eaacc014e9_n.jpg",
    "id_album": "1861288871",
    "description": "Women_816934",
    "title": "Women_816934",
    "link_img": "https://live.staticflickr.com/65535/49711943088_044c820b35_o.jpg",
    "id_image": "Women_816934",
    "count_view": 0
  },
  {
    "link_thumb": "https://live.staticflickr.com/65535/49711344901_639283c0ba_n.jpg",
    "id_album": "7198985",
    "description": "Demon_998449",
    "title": "Demon_998449",
    "link_img": "https://live.staticflickr.com/65535/49711344901_c64612cae3_o.jpg",
    "id_image": "Demon_998449",
    "count_view": 0
  },
  {
    "link_thumb": "https://live.staticflickr.com/65535/49711990401_a20d99d077_n.jpg",
    "id_album": "1006968559",
    "description": "LordoftheRings_494436",
    "title": "LordoftheRings_494436",
    "link_img": "https://live.staticflickr.com/65535/49711990401_4fdd6e0b61_o.jpg",
    "id_image": "LordoftheRings_494436",
    "count_view": 0
  },
  {
    "link_thumb": "https://live.staticflickr.com/65535/49711421147_a5d532e493_n.jpg",
    "id_album": "-1964113117",
    "description": "City_324089",
    "title": "City_324089",
    "link_img": "https://live.staticflickr.com/65535/49711421147_eee739dd24_o.jpg",
    "id_image": "City_324089",
    "count_view": 0
  },
  {
    "link_thumb": "https://live.staticflickr.com/65535/49710973276_0022b528b8_n.jpg",
    "id_album": "523598895",
    "description": "Artistic_559749",
    "title": "Artistic_559749",
    "link_img": "https://live.staticflickr.com/65535/49710973276_0bb49d0577_o.jpg",
    "id_image": "Artistic_559749",
    "count_view": 0
  },
  {
    "link_thumb": "https://live.staticflickr.com/65535/49712377777_d642ccc40f_n.jpg",
    "id_album": "-1862561193",
    "description": "Other_160937",
    "title": "Other_160937",
    "link_img": "https://live.staticflickr.com/65535/49712377777_fc602ab2db_o.jpg",
    "id_image": "Other_160937",
    "count_view": 0
  },
  {
    "link_thumb": "https://live.staticflickr.com/65535/49712602302_7d27cc05ac_n.jpg",
    "id_album": "-709711865",
    "description": "Wolf_635012",
    "title": "Wolf_635012",
    "link_img": "https://live.staticflickr.com/65535/49712602302_640d4114a9_o.jpg",
    "id_image": "Wolf_635012",
    "count_view": 0
  },
  {
    "link_thumb": "https://live.staticflickr.com/65535/49711489831_33c57c8179_n.jpg",
    "id_album": "850176884",
    "description": "Dragon_592170",
    "title": "Dragon_592170",
    "link_img": "https://live.staticflickr.com/65535/49711489831_a0b07ab6cb_o.jpg",
    "id_image": "Dragon_592170",
    "count_view": 0
  },
  {
    "link_thumb": "https://live.staticflickr.com/65535/49711719268_0bca92ec55_n.jpg",
    "id_album": "786934945",
    "description": "Whale_930686",
    "title": "Whale_930686",
    "link_img": "https://live.staticflickr.com/65535/49711719268_35451c2b8f_o.jpg",
    "id_image": "Whale_930686",
    "count_view": 0
  },
  {
    "link_thumb": "https://live.staticflickr.com/65535/49711475872_87282a11c3_n.jpg",
    "id_album": "-437872736",
    "description": "Creature_168975",
    "title": "Creature_168975",
    "link_img": "https://live.staticflickr.com/65535/49711475872_6dd81aa134_o.jpg",
    "id_image": "Creature_168975",
    "count_view": 0
  },
  {
    "link_thumb": "https://live.staticflickr.com/65535/49710875991_c0699fca34_n.jpg",
    "id_album": "-1000175186",
    "description": "AngelWarrior_184194",
    "title": "AngelWarrior_184194",
    "link_img": "https://live.staticflickr.com/65535/49710875991_23467dbdec_o.jpg",
    "id_image": "AngelWarrior_184194",
    "count_view": 0
  },
  {
    "link_thumb": "https://live.staticflickr.com/65535/49712282537_c754e81521_n.jpg",
    "id_album": "-833110404",
    "description": "Landscape_518874",
    "title": "Landscape_518874",
    "link_img": "https://live.staticflickr.com/65535/49712282537_bdb6073b7c_o.jpg",
    "id_image": "Landscape_518874",
    "count_view": 0
  },
  {
    "link_thumb": "https://live.staticflickr.com/65535/49711036983_b9dbeb533c_n.jpg",
    "id_album": "850176884",
    "description": "Dragon_934607",
    "title": "Dragon_934607",
    "link_img": "https://live.staticflickr.com/65535/49711036983_07726ef765_o.jpg",
    "id_image": "Dragon_934607",
    "count_view": 0
  },
  {
    "link_thumb": "https://live.staticflickr.com/65535/49711554396_f325849f5e_n.jpg",
    "id_album": "850176884",
    "description": "Dragon_900252",
    "title": "Dragon_900252",
    "link_img": "https://live.staticflickr.com/65535/49711554396_403bccaa8b_o.jpg",
    "id_image": "Dragon_900252",
    "count_view": 0
  },
  {
    "link_thumb": "https://live.staticflickr.com/65535/49712656927_b88c82dccf_n.jpg",
    "id_album": "-1126835654",
    "description": "Women_904406",
    "title": "Women_904406",
    "link_img": "https://live.staticflickr.com/65535/49712656927_281472cfa5_o.jpg",
    "id_image": "Women_904406",
    "count_view": 0
  },
  {
    "link_thumb": "https://live.staticflickr.com/65535/49711251908_c4d796c520_n.jpg",
    "id_album": "469960528",
    "description": "Knight_82557",
    "title": "Knight_82557",
    "link_img": "https://live.staticflickr.com/65535/49711251908_a34f35be8b_o.jpg",
    "id_image": "Knight_82557",
    "count_view": 0
  },
  {
    "link_thumb": "https://live.staticflickr.com/65535/49711225207_ded46c3a52_n.jpg",
    "id_album": "-1913845949",
    "description": "Animal_400776",
    "title": "Animal_400776",
    "link_img": "https://live.staticflickr.com/65535/49711225207_86b179d17f_o.jpg",
    "id_image": "Animal_400776",
    "count_view": 0
  },
  {
    "link_thumb": "https://live.staticflickr.com/65535/49710684273_0e7847b669_n.jpg",
    "id_album": "-437872736",
    "description": "Creature_376363",
    "title": "Creature_376363",
    "link_img": "https://live.staticflickr.com/65535/49710684273_2b049e467f_o.jpg",
    "id_image": "Creature_376363",
    "count_view": 0
  },
  {
    "link_thumb": "https://live.staticflickr.com/65535/49710749353_c5b49e637d_n.jpg",
    "id_album": "-437872736",
    "description": "Creature_958699",
    "title": "Creature_958699",
    "link_img": "https://live.staticflickr.com/65535/49710749353_d6a7186568_o.jpg",
    "id_image": "Creature_958699",
    "count_view": 0
  },
  {
    "link_thumb": "https://live.staticflickr.com/65535/49711373682_d9ee32be8e_n.jpg",
    "id_album": "-1541846310",
    "description": "Castle_617683",
    "title": "Castle_617683",
    "link_img": "https://live.staticflickr.com/65535/49711373682_833503bfa2_o.jpg",
    "id_image": "Castle_617683",
    "count_view": 0
  },
  {
    "link_thumb": "https://live.staticflickr.com/65535/49712194576_a2e9701406_n.jpg",
    "id_album": "19263973",
    "description": "Viking_948052",
    "title": "Viking_948052",
    "link_img": "https://live.staticflickr.com/65535/49712194576_340b57cd82_o.jpg",
    "id_image": "Viking_948052",
    "count_view": 0
  },
  {
    "link_thumb": "https://live.staticflickr.com/65535/49710877571_485649efef_n.jpg",
    "id_album": "-1000175186",
    "description": "AngelWarrior_269635",
    "title": "AngelWarrior_269635",
    "link_img": "https://live.staticflickr.com/65535/49710877571_42685e77d9_o.jpg",
    "id_image": "AngelWarrior_269635",
    "count_view": 0
  },
  {
    "link_thumb": "https://live.staticflickr.com/65535/49710630673_1e6dde0fe5_n.jpg",
    "id_album": "-437872736",
    "description": "Creature_242917",
    "title": "Creature_242917",
    "link_img": "https://live.staticflickr.com/65535/49710630673_4eac6a7982_o.jpg",
    "id_image": "Creature_242917",
    "count_view": 0
  },
  {
    "link_thumb": "https://live.staticflickr.com/65535/49711796893_d80c946f62_n.jpg",
    "id_album": "-1126835654",
    "description": "Women_896020",
    "title": "Women_896020",
    "link_img": "https://live.staticflickr.com/65535/49711796893_f1f5fca58d_o.jpg",
    "id_image": "Women_896020",
    "count_view": 0
  },
  {
    "link_thumb": "https://live.staticflickr.com/65535/49711594908_33df6c98cb_n.jpg",
    "id_album": "-395228614",
    "description": "Ship_203680",
    "title": "Ship_203680",
    "link_img": "https://live.staticflickr.com/65535/49711594908_fa3896f8d5_o.jpg",
    "id_image": "Ship_203680",
    "count_view": 0
  },
  {
    "link_thumb": "https://live.staticflickr.com/65535/49711350326_a5003d6eff_n.jpg",
    "id_album": "850176884",
    "description": "DRAGON26101916501552",
    "title": "DRAGON26101916501552",
    "link_img": "https://live.staticflickr.com/65535/49711350326_1a692aa9cc_o.jpg",
    "id_image": "DRAGON26101916501552",
    "count_view": 0
  },
  {
    "link_thumb": "https://live.staticflickr.com/65535/49712058213_e4c4ff8951_n.jpg",
    "id_album": "-1675918237",
    "description": "WomenWarrior_372984",
    "title": "WomenWarrior_372984",
    "link_img": "https://live.staticflickr.com/65535/49712058213_7da9cc0ee4_o.jpg",
    "id_image": "WomenWarrior_372984",
    "count_view": 0
  },
  {
    "link_thumb": "https://live.staticflickr.com/65535/49711720752_41f2ccd05c_n.jpg",
    "id_album": "850176884",
    "description": "Dragon_247121",
    "title": "Dragon_247121",
    "link_img": "https://live.staticflickr.com/65535/49711720752_5baf2772bf_o.jpg",
    "id_image": "Dragon_247121",
    "count_view": 0
  },
  {
    "link_thumb": "https://live.staticflickr.com/65535/49712601657_99b212296d_n.jpg",
    "id_album": "-709711865",
    "description": "Wolf_635009",
    "title": "Wolf_635009",
    "link_img": "https://live.staticflickr.com/65535/49712601657_331bcb3877_o.jpg",
    "id_image": "Wolf_635009",
    "count_view": 0
  },
  {
    "link_thumb": "https://live.staticflickr.com/65535/49711752688_90e6947be1_n.jpg",
    "id_album": "-709711865",
    "description": "Wolf_719124",
    "title": "Wolf_719124",
    "link_img": "https://live.staticflickr.com/65535/49711752688_96d7cbd340_o.jpg",
    "id_image": "Wolf_719124",
    "count_view": 0
  },
  {
    "link_thumb": "https://live.staticflickr.com/65535/49711385616_59ba8bce3c_n.jpg",
    "id_album": "850176884",
    "description": "Dragon_208699",
    "title": "Dragon_208699",
    "link_img": "https://live.staticflickr.com/65535/49711385616_257fa7178e_o.jpg",
    "id_image": "Dragon_208699",
    "count_view": 0
  },
  {
    "link_thumb": "https://live.staticflickr.com/65535/49710774623_62165772e9_n.jpg",
    "id_album": "2021464556",
    "description": "Dark_123547",
    "title": "Dark_123547",
    "link_img": "https://live.staticflickr.com/65535/49710774623_720949c947_o.jpg",
    "id_image": "Dark_123547",
    "count_view": 0
  },
  {
    "link_thumb": "https://live.staticflickr.com/65535/49711400062_cd00c7603b_n.jpg",
    "id_album": "-1741487325",
    "description": "Cat_995231",
    "title": "Cat_995231",
    "link_img": "https://live.staticflickr.com/65535/49711400062_32aaba9808_o.jpg",
    "id_image": "Cat_995231",
    "count_view": 0
  },
  {
    "link_thumb": "https://live.staticflickr.com/65535/49712862577_64d361d76a_n.jpg",
    "id_album": "-867594484",
    "description": "Women_692685",
    "title": "Women_692685",
    "link_img": "https://live.staticflickr.com/65535/49712862577_f87b579abd_o.jpg",
    "id_image": "Women_692685",
    "count_view": 0
  },
  {
    "link_thumb": "https://live.staticflickr.com/65535/49711542797_85d18daf59_n.jpg",
    "id_album": "-437872736",
    "description": "Creature_370366",
    "title": "Creature_370366",
    "link_img": "https://live.staticflickr.com/65535/49711542797_5766db28d2_o.jpg",
    "id_image": "Creature_370366",
    "count_view": 0
  },
  {
    "link_thumb": "https://live.staticflickr.com/65535/49712235946_1a3878b367_n.jpg",
    "id_album": "-1261420436",
    "description": "Warrior_919137",
    "title": "Warrior_919137",
    "link_img": "https://live.staticflickr.com/65535/49712235946_1a22637f4b_o.jpg",
    "id_image": "Warrior_919137",
    "count_view": 0
  },
  {
    "link_thumb": "https://live.staticflickr.com/65535/49710492533_90060b5421_n.jpg",
    "id_album": "406431601",
    "description": "Building_874034",
    "title": "Building_874034",
    "link_img": "https://live.staticflickr.com/65535/49710492533_900938f002_o.jpg",
    "id_image": "Building_874034",
    "count_view": 0
  },
  {
    "link_thumb": "https://live.staticflickr.com/65535/49711083341_79b608f5f0_n.jpg",
    "id_album": "430704260",
    "description": "Child_874508",
    "title": "Child_874508",
    "link_img": "https://live.staticflickr.com/65535/49711083341_1b58ec1c3f_o.jpg",
    "id_image": "Child_874508",
    "count_view": 0
  },
  {
    "link_thumb": "https://live.staticflickr.com/65535/49710815738_8915a4628f_n.jpg",
    "id_album": "850176884",
    "description": "DRAGON26101916501649",
    "title": "DRAGON26101916501649",
    "link_img": "https://live.staticflickr.com/65535/49710815738_352c35ab16_o.jpg",
    "id_image": "DRAGON26101916501649",
    "count_view": 0
  },
  {
    "link_thumb": "https://live.staticflickr.com/65535/49727412036_ffb34f4cf4_n.jpg",
    "id_album": "850176884",
    "description": "Dragon_732268",
    "title": "Dragon_732268",
    "link_img": "https://live.staticflickr.com/65535/49727412036_ae95b6a168_o.jpg",
    "id_image": "Dragon_732268",
    "count_view": 0
  },
  {
    "link_thumb": "https://live.staticflickr.com/65535/49711693382_7690a1936a_n.jpg",
    "id_album": "850176884",
    "description": "Dragon_142045",
    "title": "Dragon_142045",
    "link_img": "https://live.staticflickr.com/65535/49711693382_0f0453c79e_o.jpg",
    "id_image": "Dragon_142045",
    "count_view": 0
  },
  {
    "link_thumb": "https://live.staticflickr.com/65535/49712336427_01d1c6f774_n.jpg",
    "id_album": "-222719689",
    "description": "Men_165530",
    "title": "Men_165530",
    "link_img": "https://live.staticflickr.com/65535/49712336427_85511f563c_o.jpg",
    "id_image": "Men_165530",
    "count_view": 0
  },
  {
    "link_thumb": "https://live.staticflickr.com/65535/49711716906_1525fe8d6e_n.jpg",
    "id_album": "-1083189875",
    "description": "Forest_881723",
    "title": "Forest_881723",
    "link_img": "https://live.staticflickr.com/65535/49711716906_21f218e2e9_o.jpg",
    "id_image": "Forest_881723",
    "count_view": 0
  },
  {
    "link_thumb": "https://live.staticflickr.com/65535/49712291597_14faf924c1_n.jpg",
    "id_album": "-833110404",
    "description": "Landscape_552373",
    "title": "Landscape_552373",
    "link_img": "https://live.staticflickr.com/65535/49712291597_4feea2408e_o.jpg",
    "id_image": "Landscape_552373",
    "count_view": 0
  },
  {
    "link_thumb": "https://live.staticflickr.com/65535/49712068867_6cda9cd94e_n.jpg",
    "id_album": "1131236559",
    "description": "Gods_56082",
    "title": "Gods_56082",
    "link_img": "https://live.staticflickr.com/65535/49712068867_78b14dae6e_o.jpg",
    "id_image": "Gods_56082",
    "count_view": 0
  },
  {
    "link_thumb": "https://live.staticflickr.com/65535/49710528563_e7e98f4949_n.jpg",
    "id_album": "-1541846310",
    "description": "Castle_880350",
    "title": "Castle_880350",
    "link_img": "https://live.staticflickr.com/65535/49710528563_b4a9b00fc1_o.jpg",
    "id_image": "Castle_880350",
    "count_view": 0
  },
  {
    "link_thumb": "https://live.staticflickr.com/65535/49711405697_3f908271e3_n.jpg",
    "id_album": "430704260",
    "description": "Child_747963",
    "title": "Child_747963",
    "link_img": "https://live.staticflickr.com/65535/49711405697_0aba42e763_o.jpg",
    "id_image": "Child_747963",
    "count_view": 0
  },
  {
    "link_thumb": "https://live.staticflickr.com/65535/49710955291_0ac8d96b64_n.jpg",
    "id_album": "523598895",
    "description": "Artistic_227452",
    "title": "Artistic_227452",
    "link_img": "https://live.staticflickr.com/65535/49710955291_4dfed717bb_o.jpg",
    "id_image": "Artistic_227452",
    "count_view": 0
  },
  {
    "link_thumb": "https://live.staticflickr.com/65535/49711189256_d1eda0371b_n.jpg",
    "id_album": "-437872736",
    "description": "Creature_313371",
    "title": "Creature_313371",
    "link_img": "https://live.staticflickr.com/65535/49711189256_57a3a02b01_o.jpg",
    "id_image": "Creature_313371",
    "count_view": 0
  },
  {
    "link_thumb": "https://live.staticflickr.com/65535/49711437041_b3ac16d356_n.jpg",
    "id_album": "850176884",
    "description": "Dragon_377825",
    "title": "Dragon_377825",
    "link_img": "https://live.staticflickr.com/65535/49711437041_5ab9df6928_o.jpg",
    "id_image": "Dragon_377825",
    "count_view": 0
  },
  {
    "link_thumb": "https://live.staticflickr.com/65535/49712291317_15fa7a41fc_n.jpg",
    "id_album": "-833110404",
    "description": "Landscape_552110",
    "title": "Landscape_552110",
    "link_img": "https://live.staticflickr.com/65535/49712291317_afcf784637_o.jpg",
    "id_image": "Landscape_552110",
    "count_view": 0
  },
  {
    "link_thumb": "https://live.staticflickr.com/65535/49712702301_a83e369eba_n.jpg",
    "id_album": "-1675918237",
    "description": "WomenWarrior_969932",
    "title": "WomenWarrior_969932",
    "link_img": "https://live.staticflickr.com/65535/49712702301_1010b25e37_o.jpg",
    "id_image": "WomenWarrior_969932",
    "count_view": 0
  },
  {
    "link_thumb": "https://live.staticflickr.com/65535/49711515546_74e8bb8ce1_n.jpg",
    "id_album": "850176884",
    "description": "Dragon_732255",
    "title": "Dragon_732255",
    "link_img": "https://live.staticflickr.com/65535/49711515546_1c362301f7_o.jpg",
    "id_image": "Dragon_732255",
    "count_view": 0
  },
  {
    "link_thumb": "https://live.staticflickr.com/65535/49711428523_db2041f198_n.jpg",
    "id_album": "-833110404",
    "description": "Landscape_528583",
    "title": "Landscape_528583",
    "link_img": "https://live.staticflickr.com/65535/49711428523_36ff3cbced_o.jpg",
    "id_image": "Landscape_528583",
    "count_view": 0
  },
  {
    "link_thumb": "https://live.staticflickr.com/65535/49711753181_f299bd928e_n.jpg",
    "id_album": "857581314",
    "description": "Griffin_600280",
    "title": "Griffin_600280",
    "link_img": "https://live.staticflickr.com/65535/49711753181_8a9f50b445_o.jpg",
    "id_image": "Griffin_600280",
    "count_view": 0
  },
  {
    "link_thumb": "https://live.staticflickr.com/65535/49711271177_fa59cffb21_n.jpg",
    "id_album": "523598895",
    "description": "Artistic_166745",
    "title": "Artistic_166745",
    "link_img": "https://live.staticflickr.com/65535/49711271177_d35312d024_o.jpg",
    "id_image": "Artistic_166745",
    "count_view": 0
  },
  {
    "link_thumb": "https://live.staticflickr.com/65535/49711141153_bdc80d4103_n.jpg",
    "id_album": "-1972042284",
    "description": "Fairy_698010",
    "title": "Fairy_698010",
    "link_img": "https://live.staticflickr.com/65535/49711141153_db506b5065_o.jpg",
    "id_image": "Fairy_698010",
    "count_view": 0
  },
  {
    "link_thumb": "https://live.staticflickr.com/65535/49711453381_815388d1eb_n.jpg",
    "id_album": "850176884",
    "description": "Dragon_456113",
    "title": "Dragon_456113",
    "link_img": "https://live.staticflickr.com/65535/49711453381_33a470b2fc_o.jpg",
    "id_image": "Dragon_456113",
    "count_view": 0
  },
  {
    "link_thumb": "https://live.staticflickr.com/65535/49710899051_730e2885dc_n.jpg",
    "id_album": "-1913845949",
    "description": "Animal_329595",
    "title": "Animal_329595",
    "link_img": "https://live.staticflickr.com/65535/49710899051_3711b4d5c3_o.jpg",
    "id_image": "Animal_329595",
    "count_view": 0
  },
  {
    "link_thumb": "https://live.staticflickr.com/65535/49711973756_7bf7bf4b2c_n.jpg",
    "id_album": "-833110404",
    "description": "Landscape_625852",
    "title": "Landscape_625852",
    "link_img": "https://live.staticflickr.com/65535/49711973756_257e62781c_o.jpg",
    "id_image": "Landscape_625852",
    "count_view": 0
  },
  {
    "link_thumb": "https://live.staticflickr.com/65535/49711489111_ea918cc460_n.jpg",
    "id_album": "850176884",
    "description": "Dragon_590973",
    "title": "Dragon_590973",
    "link_img": "https://live.staticflickr.com/65535/49711489111_fa5be55188_o.jpg",
    "id_image": "Dragon_590973",
    "count_view": 0
  },
  {
    "link_thumb": "https://live.staticflickr.com/65535/49711366262_eb14981e6d_n.jpg",
    "id_album": "-1541846310",
    "description": "Castle_324963",
    "title": "Castle_324963",
    "link_img": "https://live.staticflickr.com/65535/49711366262_4f15b17bd1_o.jpg",
    "id_image": "Castle_324963",
    "count_view": 0
  },
  {
    "link_thumb": "https://live.staticflickr.com/65535/49711782722_f9a26cde69_n.jpg",
    "id_album": "850176884",
    "description": "Dragon_493111",
    "title": "Dragon_493111",
    "link_img": "https://live.staticflickr.com/65535/49711782722_8b1532633f_o.jpg",
    "id_image": "Dragon_493111",
    "count_view": 0
  },
  {
    "link_thumb": "https://live.staticflickr.com/65535/49711813262_35ef7dd4dc_n.jpg",
    "id_album": "850176884",
    "description": "Dragon_599861",
    "title": "Dragon_599861",
    "link_img": "https://live.staticflickr.com/65535/49711813262_68566b8d77_o.jpg",
    "id_image": "Dragon_599861",
    "count_view": 0
  },
  {
    "link_thumb": "https://live.staticflickr.com/65535/49711178423_4f5a089594_n.jpg",
    "id_album": "-1083189875",
    "description": "Forest_827404",
    "title": "Forest_827404",
    "link_img": "https://live.staticflickr.com/65535/49711178423_9e00c37e40_o.jpg",
    "id_image": "Forest_827404",
    "count_view": 0
  },
  {
    "link_thumb": "https://live.staticflickr.com/65535/49711466692_0ba160a115_n.jpg",
    "id_album": "-437872736",
    "description": "Creature_141984",
    "title": "Creature_141984",
    "link_img": "https://live.staticflickr.com/65535/49711466692_e9215456a7_o.jpg",
    "id_image": "Creature_141984",
    "count_view": 0
  },
  {
    "link_thumb": "https://live.staticflickr.com/65535/49711652982_5514038fdb_n.jpg",
    "id_album": "1903411565",
    "description": "Deer_874403",
    "title": "Deer_874403",
    "link_img": "https://live.staticflickr.com/65535/49711652982_846cc38c15_o.jpg",
    "id_image": "Deer_874403",
    "count_view": 0
  },
  {
    "link_thumb": "https://live.staticflickr.com/65535/49711447502_ea06884819_n.jpg",
    "id_album": "-1964113117",
    "description": "City_863849",
    "title": "City_863849",
    "link_img": "https://live.staticflickr.com/65535/49711447502_a3a44fb5f2_o.jpg",
    "id_image": "City_863849",
    "count_view": 0
  },
  {
    "link_thumb": "https://live.staticflickr.com/65535/49711290377_6561d73256_n.jpg",
    "id_album": "523598895",
    "description": "Artistic_400018",
    "title": "Artistic_400018",
    "link_img": "https://live.staticflickr.com/65535/49711290377_a227f9ff48_o.jpg",
    "id_image": "Artistic_400018",
    "count_view": 0
  },
  {
    "link_thumb": "https://live.staticflickr.com/65535/49711407666_3d312e9254_n.jpg",
    "id_album": "850176884",
    "description": "Dragon_272513",
    "title": "Dragon_272513",
    "link_img": "https://live.staticflickr.com/65535/49711407666_8364c942a1_o.jpg",
    "id_image": "Dragon_272513",
    "count_view": 0
  },
  {
    "link_thumb": "https://live.staticflickr.com/65535/49711010636_3ef78ac0fa_n.jpg",
    "id_album": "1187037014",
    "description": "Battle_855089",
    "title": "Battle_855089",
    "link_img": "https://live.staticflickr.com/65535/49711010636_21332c2645_o.jpg",
    "id_image": "Battle_855089",
    "count_view": 0
  },
  {
    "link_thumb": "https://live.staticflickr.com/65535/49710712703_e269652d0a_n.jpg",
    "id_album": "-437872736",
    "description": "Creature_562707",
    "title": "Creature_562707",
    "link_img": "https://live.staticflickr.com/65535/49710712703_745cacd517_o.jpg",
    "id_image": "Creature_562707",
    "count_view": 0
  },
  {
    "link_thumb": "https://live.staticflickr.com/65535/49711369342_1618eb6d56_n.jpg",
    "id_album": "-1541846310",
    "description": "Castle_472818",
    "title": "Castle_472818",
    "link_img": "https://live.staticflickr.com/65535/49711369342_a944532e93_o.jpg",
    "id_image": "Castle_472818",
    "count_view": 0
  },
  {
    "link_thumb": "https://live.staticflickr.com/65535/49710839568_9a70497bd2_n.jpg",
    "id_album": "850176884",
    "description": "Dragon_168268",
    "title": "Dragon_168268",
    "link_img": "https://live.staticflickr.com/65535/49710839568_5e2c43a965_o.jpg",
    "id_image": "Dragon_168268",
    "count_view": 0
  },
  {
    "link_thumb": "https://live.staticflickr.com/65535/49712397956_572b05f645_n.jpg",
    "id_album": "295204930",
    "description": "Women_422549",
    "title": "Women_422549",
    "link_img": "https://live.staticflickr.com/65535/49712397956_589de53c85_o.jpg",
    "id_image": "Women_422549",
    "count_view": 0
  },
  {
    "link_thumb": "https://live.staticflickr.com/65535/49711305906_fd2b3f79e5_n.jpg",
    "id_album": "-437872736",
    "description": "Creature_958985",
    "title": "Creature_958985",
    "link_img": "https://live.staticflickr.com/65535/49711305906_9a9eb6d1c0_o.jpg",
    "id_image": "Creature_958985",
    "count_view": 0
  },
  {
    "link_thumb": "https://live.staticflickr.com/65535/49710856581_8fdb5cae02_n.jpg",
    "id_album": "-218097820",
    "description": "ASongOfIceAndFire_245443",
    "title": "ASongOfIceAndFire_245443",
    "link_img": "https://live.staticflickr.com/65535/49710856581_9abe5212f3_o.jpg",
    "id_image": "ASongOfIceAndFire_245443",
    "count_view": 0
  },
  {
    "link_thumb": "https://live.staticflickr.com/65535/49710609383_e32758bff5_n.jpg",
    "id_album": "-437872736",
    "description": "Creature_152212",
    "title": "Creature_152212",
    "link_img": "https://live.staticflickr.com/65535/49710609383_12ee0621aa_o.jpg",
    "id_image": "Creature_152212",
    "count_view": 0
  },
  {
    "link_thumb": "https://live.staticflickr.com/65535/49711599617_196d3c2426_n.jpg",
    "id_album": "-437872736",
    "description": "Creature_924323",
    "title": "Creature_924323",
    "link_img": "https://live.staticflickr.com/65535/49711599617_32c9b30972_o.jpg",
    "id_image": "Creature_924323",
    "count_view": 0
  },
  {
    "link_thumb": "https://live.staticflickr.com/65535/49711278247_b284d71284_n.jpg",
    "id_album": "523598895",
    "description": "Artistic_220630",
    "title": "Artistic_220630",
    "link_img": "https://live.staticflickr.com/65535/49711278247_b5b2a86a32_o.jpg",
    "id_image": "Artistic_220630",
    "count_view": 0
  },
  {
    "link_thumb": "https://live.staticflickr.com/65535/49711156836_8b7fd98c16_n.jpg",
    "id_album": "-437872736",
    "description": "Creature_208717",
    "title": "Creature_208717",
    "link_img": "https://live.staticflickr.com/65535/49711156836_b0864631d3_o.jpg",
    "id_image": "Creature_208717",
    "count_view": 0
  },
  {
    "link_thumb": "https://live.staticflickr.com/65535/49711165676_c60c07396e_n.jpg",
    "id_album": "-437872736",
    "description": "Creature_242806",
    "title": "Creature_242806",
    "link_img": "https://live.staticflickr.com/65535/49711165676_ee98432d64_o.jpg",
    "id_image": "Creature_242806",
    "count_view": 0
  },
  {
    "link_thumb": "https://live.staticflickr.com/65535/49711688228_b6266f9fe8_n.jpg",
    "id_album": "-1261420436",
    "description": "Warrior_759348",
    "title": "Warrior_759348",
    "link_img": "https://live.staticflickr.com/65535/49711688228_c261d1e53b_o.jpg",
    "id_image": "Warrior_759348",
    "count_view": 0
  },
  {
    "link_thumb": "https://live.staticflickr.com/65535/49711127091_be5e2ac0d9_n.jpg",
    "id_album": "-1964113117",
    "description": "City_888578",
    "title": "City_888578",
    "link_img": "https://live.staticflickr.com/65535/49711127091_0fbe9c1490_o.jpg",
    "id_image": "City_888578",
    "count_view": 0
  },
  {
    "link_thumb": "https://live.staticflickr.com/65535/49712798402_8ac3169b6c_n.jpg",
    "id_album": "1861288871",
    "description": "Women_808151",
    "title": "Women_808151",
    "link_img": "https://live.staticflickr.com/65535/49712798402_e2aba6b53f_o.jpg",
    "id_image": "Women_808151",
    "count_view": 0
  },
  {
    "link_thumb": "https://live.staticflickr.com/65535/49712210517_b4e42de7e9_n.jpg",
    "id_album": "-833110404",
    "description": "Landscape_112449",
    "title": "Landscape_112449",
    "link_img": "https://live.staticflickr.com/65535/49712210517_1a588d4a38_o.jpg",
    "id_image": "Landscape_112449",
    "count_view": 0
  },
  {
    "link_thumb": "https://live.staticflickr.com/65535/49711185652_95c44bda7c_n.jpg",
    "id_album": "-2109465612",
    "description": "Adventure_239590",
    "title": "Adventure_239590",
    "link_img": "https://live.staticflickr.com/65535/49711185652_287af22460_o.jpg",
    "id_image": "Adventure_239590",
    "count_view": 0
  },
  {
    "link_thumb": "https://live.staticflickr.com/65535/49712491342_df08e58f1d_n.jpg",
    "id_album": "405170427",
    "description": "Tiger_982828",
    "title": "Tiger_982828",
    "link_img": "https://live.staticflickr.com/65535/49712491342_d8d1a51c7b_o.jpg",
    "id_image": "Tiger_982828",
    "count_view": 0
  },
  {
    "link_thumb": "https://live.staticflickr.com/65535/49712081386_5a2fb9f7db_n.jpg",
    "id_album": "-300361534",
    "description": "Pirate_281423",
    "title": "Pirate_281423",
    "link_img": "https://live.staticflickr.com/65535/49712081386_c73d6cb8f7_o.jpg",
    "id_image": "Pirate_281423",
    "count_view": 0
  },
  {
    "link_thumb": "https://live.staticflickr.com/65535/49711654313_fcf64394d7_n.jpg",
    "id_album": "43335239",
    "description": "Vampire_702019",
    "title": "Vampire_702019",
    "link_img": "https://live.staticflickr.com/65535/49711654313_d4b2b4f469_o.jpg",
    "id_image": "Vampire_702019",
    "count_view": 0
  },
  {
    "link_thumb": "https://live.staticflickr.com/65535/49711699688_e9e9ac00d1_n.jpg",
    "id_album": "-1261420436",
    "description": "Warrior_916118",
    "title": "Warrior_916118",
    "link_img": "https://live.staticflickr.com/65535/49711699688_5e1a6be1ec_o.jpg",
    "id_image": "Warrior_916118",
    "count_view": 0
  },
  {
    "link_thumb": "https://live.staticflickr.com/65535/49712260471_0be998ba9e_n.jpg",
    "id_album": "478331085",
    "description": "Witch_587568",
    "title": "Witch_587568",
    "link_img": "https://live.staticflickr.com/65535/49712260471_07fcbc47ae_o.jpg",
    "id_image": "Witch_587568",
    "count_view": 0
  },
  {
    "link_thumb": "https://live.staticflickr.com/65535/49711189447_5e453c8000_n.jpg",
    "id_album": "-2109465612",
    "description": "Adventure_272499",
    "title": "Adventure_272499",
    "link_img": "https://live.staticflickr.com/65535/49711189447_554ba07250_o.jpg",
    "id_image": "Adventure_272499",
    "count_view": 0
  },
  {
    "link_thumb": "https://live.staticflickr.com/65535/49710975301_f242d0fcdd_n.jpg",
    "id_album": "523598895",
    "description": "Artistic_593296",
    "title": "Artistic_593296",
    "link_img": "https://live.staticflickr.com/65535/49710975301_6537e16c8b_o.jpg",
    "id_image": "Artistic_593296",
    "count_view": 0
  },
  {
    "link_thumb": "https://live.staticflickr.com/65535/49712850997_d6ece65421_n.jpg",
    "id_album": "-867594484",
    "description": "Women_655674",
    "title": "Women_655674",
    "link_img": "https://live.staticflickr.com/65535/49712850997_86a4f35e7c_o.jpg",
    "id_image": "Women_655674",
    "count_view": 0
  },
  {
    "link_thumb": "https://live.staticflickr.com/65535/49711621516_9b9a9dc046_n.jpg",
    "id_album": "134100487",
    "description": "Elf_585254",
    "title": "Elf_585254",
    "link_img": "https://live.staticflickr.com/65535/49711621516_b5306e20e3_o.jpg",
    "id_image": "Elf_585254",
    "count_view": 0
  },
  {
    "link_thumb": "https://live.staticflickr.com/65535/49712961002_66c23b0faa_n.jpg",
    "id_album": "-1675918237",
    "description": "WomenWarrior_554349",
    "title": "WomenWarrior_554349",
    "link_img": "https://live.staticflickr.com/65535/49712961002_18bf9ae1d5_o.jpg",
    "id_image": "WomenWarrior_554349",
    "count_view": 0
  },
  {
    "link_thumb": "https://live.staticflickr.com/65535/49712284131_c902e74819_n.jpg",
    "id_album": "-709711865",
    "description": "Wolf_655551",
    "title": "Wolf_655551",
    "link_img": "https://live.staticflickr.com/65535/49712284131_4ed6807bcf_o.jpg",
    "id_image": "Wolf_655551",
    "count_view": 0
  },
  {
    "link_thumb": "https://live.staticflickr.com/65535/49711936631_96f186eaf0_n.jpg",
    "id_album": "-833110404",
    "description": "Landscape_402887",
    "title": "Landscape_402887",
    "link_img": "https://live.staticflickr.com/65535/49711936631_42349d50e0_o.jpg",
    "id_image": "Landscape_402887",
    "count_view": 0
  },
  {
    "link_thumb": "https://live.staticflickr.com/65535/49711100743_9428f11c63_n.jpg",
    "id_album": "134100487",
    "description": "Elf_796466",
    "title": "Elf_796466",
    "link_img": "https://live.staticflickr.com/65535/49711100743_8d93c27e05_o.jpg",
    "id_image": "Elf_796466",
    "count_view": 0
  },
  {
    "link_thumb": "https://live.staticflickr.com/65535/49710431928_94f20370d7_n.jpg",
    "id_album": "523598895",
    "description": "Artistic_389892",
    "title": "Artistic_389892",
    "link_img": "https://live.staticflickr.com/65535/49710431928_6164b9a84d_o.jpg",
    "id_image": "Artistic_389892",
    "count_view": 0
  },
  {
    "link_thumb": "https://live.staticflickr.com/65535/49711864837_2afa64da52_n.jpg",
    "id_album": "850176884",
    "description": "Dragon_868753",
    "title": "Dragon_868753",
    "link_img": "https://live.staticflickr.com/65535/49711864837_45189960d6_o.jpg",
    "id_image": "Dragon_868753",
    "count_view": 0
  },
  {
    "link_thumb": "https://live.staticflickr.com/65535/49711291206_247715887c_n.jpg",
    "id_album": "-437872736",
    "description": "Creature_958872",
    "title": "Creature_958872",
    "link_img": "https://live.staticflickr.com/65535/49711291206_4debc7dd6b_o.jpg",
    "id_image": "Creature_958872",
    "count_view": 0
  },
  {
    "link_thumb": "https://live.staticflickr.com/65535/49711469187_7a3340510a_n.jpg",
    "id_album": "-437872736",
    "description": "Creature_152082",
    "title": "Creature_152082",
    "link_img": "https://live.staticflickr.com/65535/49711469187_0998c803c6_o.jpg",
    "id_image": "Creature_152082",
    "count_view": 0
  },
  {
    "link_thumb": "https://live.staticflickr.com/65535/49711163826_d1572896f6_n.jpg",
    "id_album": "-437872736",
    "description": "Creature_237829",
    "title": "Creature_237829",
    "link_img": "https://live.staticflickr.com/65535/49711163826_5d62c683bf_o.jpg",
    "id_image": "Creature_237829",
    "count_view": 0
  },
  {
    "link_thumb": "https://live.staticflickr.com/65535/49711198956_9315f6af3c_n.jpg",
    "id_album": "-437872736",
    "description": "Creature_328300",
    "title": "Creature_328300",
    "link_img": "https://live.staticflickr.com/65535/49711198956_89f5b3d3e0_o.jpg",
    "id_image": "Creature_328300",
    "count_view": 0
  },
  {
    "link_thumb": "https://live.staticflickr.com/65535/49711792371_a3e9d4c3bc_n.jpg",
    "id_album": "469960528",
    "description": "Knight_984043",
    "title": "Knight_984043",
    "link_img": "https://live.staticflickr.com/65535/49711792371_a9fa9e6304_o.jpg",
    "id_image": "Knight_984043",
    "count_view": 0
  },
  {
    "link_thumb": "https://live.staticflickr.com/65535/49711586603_1456e5a73c_n.jpg",
    "id_album": "407101116",
    "description": "SeaMonster_379188",
    "title": "SeaMonster_379188",
    "link_img": "https://live.staticflickr.com/65535/49711586603_c71ea4869b_o.jpg",
    "id_image": "SeaMonster_379188",
    "count_view": 0
  },
  {
    "link_thumb": "https://live.staticflickr.com/65535/49710570073_17a3d64864_n.jpg",
    "id_album": "-1964113117",
    "description": "City_527923",
    "title": "City_527923",
    "link_img": "https://live.staticflickr.com/65535/49710570073_02189f1ba5_o.jpg",
    "id_image": "City_527923",
    "count_view": 0
  },
  {
    "link_thumb": "https://live.staticflickr.com/65535/49712478196_58289c7812_n.jpg",
    "id_album": "1861288871",
    "description": "Women_821869",
    "title": "Women_821869",
    "link_img": "https://live.staticflickr.com/65535/49712478196_c196d83e2c_o.jpg",
    "id_image": "Women_821869",
    "count_view": 0
  },
  {
    "link_thumb": "https://live.staticflickr.com/65535/49711719861_910ae638da_n.jpg",
    "id_album": "-1083189875",
    "description": "Forest_914481",
    "title": "Forest_914481",
    "link_img": "https://live.staticflickr.com/65535/49711719861_896cb77633_o.jpg",
    "id_image": "Forest_914481",
    "count_view": 0
  },
  {
    "link_thumb": "https://live.staticflickr.com/65535/49712395732_678d499abc_n.jpg",
    "id_album": "-1326601535",
    "description": "Phoenix_472378",
    "title": "Phoenix_472378",
    "link_img": "https://live.staticflickr.com/65535/49712395732_6fa40f6f03_o.jpg",
    "id_image": "Phoenix_472378",
    "count_view": 0
  },
  {
    "link_thumb": "https://live.staticflickr.com/65535/49726864408_f291e326a0_n.jpg",
    "id_album": "850176884",
    "description": "Dragon_599131",
    "title": "Dragon_599131",
    "link_img": "https://live.staticflickr.com/65535/49726864408_6aeac83828_o.jpg",
    "id_image": "Dragon_599131",
    "count_view": 0
  },
  {
    "link_thumb": "https://live.staticflickr.com/65535/49710937201_1e5c0f61d9_n.jpg",
    "id_album": "523598895",
    "description": "Artistic_114879",
    "title": "Artistic_114879",
    "link_img": "https://live.staticflickr.com/65535/49710937201_df4ea90237_o.jpg",
    "id_image": "Artistic_114879",
    "count_view": 0
  },
  {
    "link_thumb": "https://live.staticflickr.com/65535/49710366943_c9bffabb5b_n.jpg",
    "id_album": "-1913845949",
    "description": "Animal_376612",
    "title": "Animal_376612",
    "link_img": "https://live.staticflickr.com/65535/49710366943_f876cb4cf6_o.jpg",
    "id_image": "Animal_376612",
    "count_view": 0
  },
  {
    "link_thumb": "https://live.staticflickr.com/65535/49711693501_43aca658a8_n.jpg",
    "id_album": "-1083189875",
    "description": "Forest_331653",
    "title": "Forest_331653",
    "link_img": "https://live.staticflickr.com/65535/49711693501_0a5d416c70_o.jpg",
    "id_image": "Forest_331653",
    "count_view": 0
  },
  {
    "link_thumb": "https://live.staticflickr.com/65535/49711356126_d823e52df0_n.jpg",
    "id_album": "850176884",
    "description": "Dragon_115202",
    "title": "Dragon_115202",
    "link_img": "https://live.staticflickr.com/65535/49711356126_ecbfe85474_o.jpg",
    "id_image": "Dragon_115202",
    "count_view": 0
  },
  {
    "link_thumb": "https://live.staticflickr.com/65535/49712689546_f29307d346_n.jpg",
    "id_album": "-1675918237",
    "description": "WomenWarrior_875283",
    "title": "WomenWarrior_875283",
    "link_img": "https://live.staticflickr.com/65535/49712689546_b52cbcb210_o.jpg",
    "id_image": "WomenWarrior_875283",
    "count_view": 0
  },
  {
    "link_thumb": "https://live.staticflickr.com/65535/49711049253_d7be6a6ff8_n.jpg",
    "id_album": "850176884",
    "description": "Dragon_972157",
    "title": "Dragon_972157",
    "link_img": "https://live.staticflickr.com/65535/49711049253_68cef3df88_o.jpg",
    "id_image": "Dragon_972157",
    "count_view": 0
  },
  {
    "link_thumb": "https://live.staticflickr.com/65535/49711622982_75f31bdbe3_n.jpg",
    "id_album": "-437872736",
    "description": "Creature_958937",
    "title": "Creature_958937",
    "link_img": "https://live.staticflickr.com/65535/49711622982_0b83e62e51_o.jpg",
    "id_image": "Creature_958937",
    "count_view": 0
  },
  {
    "link_thumb": "https://live.staticflickr.com/65535/49712346697_6206f83aa5_n.jpg",
    "id_album": "1721880108",
    "description": "Mermaid_132632",
    "title": "Mermaid_132632",
    "link_img": "https://live.staticflickr.com/65535/49712346697_9b04bae532_o.jpg",
    "id_image": "Mermaid_132632",
    "count_view": 0
  },
  {
    "link_thumb": "https://live.staticflickr.com/65535/49711209238_28833327b7_n.jpg",
    "id_album": "1131236559",
    "description": "Gods_256652",
    "title": "Gods_256652",
    "link_img": "https://live.staticflickr.com/65535/49711209238_49d934b3e2_o.jpg",
    "id_image": "Gods_256652",
    "count_view": 0
  },
  {
    "link_thumb": "https://live.staticflickr.com/65535/49711261103_95db3559b8_n.jpg",
    "id_album": "1402713104",
    "description": "Landscape_659052",
    "title": "Landscape_659052",
    "link_img": "https://live.staticflickr.com/65535/49711261103_b0b99b274c_o.jpg",
    "id_image": "Landscape_659052",
    "count_view": 0
  },
  {
    "link_thumb": "https://live.staticflickr.com/65535/49712293381_a44561674e_n.jpg",
    "id_album": "-709711865",
    "description": "Wolf_881752",
    "title": "Wolf_881752",
    "link_img": "https://live.staticflickr.com/65535/49712293381_42db3de84c_o.jpg",
    "id_image": "Wolf_881752",
    "count_view": 0
  },
  {
    "link_thumb": "https://live.staticflickr.com/65535/49711543172_0e9508952a_n.jpg",
    "id_album": "-437872736",
    "description": "Creature_371884",
    "title": "Creature_371884",
    "link_img": "https://live.staticflickr.com/65535/49711543172_2a3269c584_o.jpg",
    "id_image": "Creature_371884",
    "count_view": 0
  },
  {
    "link_thumb": "https://live.staticflickr.com/65535/49712556912_af7b249a7f_n.jpg",
    "id_album": "-1261420436",
    "description": "Warrior_916113",
    "title": "Warrior_916113",
    "link_img": "https://live.staticflickr.com/65535/49712556912_c9217d2fe0_o.jpg",
    "id_image": "Warrior_916113",
    "count_view": 0
  },
  {
    "link_thumb": "https://live.staticflickr.com/65535/49712551127_db6c2394a9_n.jpg",
    "id_album": "-1261420436",
    "description": "Warrior_894426",
    "title": "Warrior_894426",
    "link_img": "https://live.staticflickr.com/65535/49712551127_f8649dc418_o.jpg",
    "id_image": "Warrior_894426",
    "count_view": 0
  },
  {
    "link_thumb": "https://live.staticflickr.com/65535/49712255102_294e542890_n.jpg",
    "id_album": "-833110404",
    "description": "Landscape_393476",
    "title": "Landscape_393476",
    "link_img": "https://live.staticflickr.com/65535/49712255102_a52ab85e27_o.jpg",
    "id_image": "Landscape_393476",
    "count_view": 0
  },
  {
    "link_thumb": "https://live.staticflickr.com/65535/49712062736_8689d44be5_n.jpg",
    "id_album": "-639976841",
    "description": "Pegasus_314710",
    "title": "Pegasus_314710",
    "link_img": "https://live.staticflickr.com/65535/49712062736_5ec7dbb37a_o.jpg",
    "id_image": "Pegasus_314710",
    "count_view": 0
  },
  {
    "link_thumb": "https://live.staticflickr.com/65535/49711610741_936ab01bb3_n.jpg",
    "id_album": "134100487",
    "description": "Elf_415036",
    "title": "Elf_415036",
    "link_img": "https://live.staticflickr.com/65535/49711610741_f816f4e1c7_o.jpg",
    "id_image": "Elf_415036",
    "count_view": 0
  },
  {
    "link_thumb": "https://live.staticflickr.com/65535/49711268982_d4576844fb_n.jpg",
    "id_album": "523598895",
    "description": "Artistic_152438",
    "title": "Artistic_152438",
    "link_img": "https://live.staticflickr.com/65535/49711268982_dac977a3b7_o.jpg",
    "id_image": "Artistic_152438",
    "count_view": 0
  },
  {
    "link_thumb": "https://live.staticflickr.com/65535/49711177741_641b7be58a_n.jpg",
    "id_album": "-437872736",
    "description": "Creature_291940",
    "title": "Creature_291940",
    "link_img": "https://live.staticflickr.com/65535/49711177741_529c40e9e7_o.jpg",
    "id_image": "Creature_291940",
    "count_view": 0
  },
  {
    "link_thumb": "https://live.staticflickr.com/65535/49711357358_1a870e3c45_n.jpg",
    "id_album": "-833110404",
    "description": "Landscape_204570",
    "title": "Landscape_204570",
    "link_img": "https://live.staticflickr.com/65535/49711357358_f6bc566866_o.jpg",
    "id_image": "Landscape_204570",
    "count_view": 0
  },
  {
    "link_thumb": "https://live.staticflickr.com/65535/49711818862_fa1c53da6b_n.jpg",
    "id_album": "850176884",
    "description": "Dragon_617317",
    "title": "Dragon_617317",
    "link_img": "https://live.staticflickr.com/65535/49711818862_b48a06eecb_o.jpg",
    "id_image": "Dragon_617317",
    "count_view": 0
  },
  {
    "link_thumb": "https://live.staticflickr.com/65535/49711244296_221c6785d8_n.jpg",
    "id_album": "-437872736",
    "description": "Creature_521898",
    "title": "Creature_521898",
    "link_img": "https://live.staticflickr.com/65535/49711244296_c64affb744_o.jpg",
    "id_image": "Creature_521898",
    "count_view": 0
  },
  {
    "link_thumb": "https://live.staticflickr.com/65535/49712461437_57b030bfde_n.jpg",
    "id_album": "-395228614",
    "description": "Ship_95129",
    "title": "Ship_95129",
    "link_img": "https://live.staticflickr.com/65535/49712461437_13835dcbfb_o.jpg",
    "id_image": "Ship_95129",
    "count_view": 0
  },
  {
    "link_thumb": "https://live.staticflickr.com/65535/49712237231_6867182da7_n.jpg",
    "id_album": "-1261420436",
    "description": "Warrior_926842",
    "title": "Warrior_926842",
    "link_img": "https://live.staticflickr.com/65535/49712237231_3ea3cf2efd_o.jpg",
    "id_image": "Warrior_926842",
    "count_view": 0
  },
  {
    "link_thumb": "https://live.staticflickr.com/65535/49710811833_64d894f4e3_n.jpg",
    "id_album": "850176884",
    "description": "DRAGON26101916494318",
    "title": "DRAGON26101916494318",
    "link_img": "https://live.staticflickr.com/65535/49710811833_efb13e5a36_o.jpg",
    "id_image": "DRAGON26101916494318",
    "count_view": 0
  },
  {
    "link_thumb": "https://live.staticflickr.com/65535/49711159863_a3580c12ab_n.jpg",
    "id_album": "-1083189875",
    "description": "Forest_353013",
    "title": "Forest_353013",
    "link_img": "https://live.staticflickr.com/65535/49711159863_54b5c1a693_o.jpg",
    "id_image": "Forest_353013",
    "count_view": 0
  },
  {
    "link_thumb": "https://live.staticflickr.com/65535/49712188471_9564f1033c_n.jpg",
    "id_album": "43335239",
    "description": "Vampire_177231",
    "title": "Vampire_177231",
    "link_img": "https://live.staticflickr.com/65535/49712188471_c11f9a90b7_o.jpg",
    "id_image": "Vampire_177231",
    "count_view": 0
  },
  {
    "link_thumb": "https://live.staticflickr.com/65535/49710615163_6341829a84_n.jpg",
    "id_album": "-437872736",
    "description": "Creature_169042",
    "title": "Creature_169042",
    "link_img": "https://live.staticflickr.com/65535/49710615163_21826446ea_o.jpg",
    "id_image": "Creature_169042",
    "count_view": 0
  },
  {
    "link_thumb": "https://live.staticflickr.com/65535/49711639652_1d5ff212bd_n.jpg",
    "id_album": "2021464556",
    "description": "Dark_218658",
    "title": "Dark_218658",
    "link_img": "https://live.staticflickr.com/65535/49711639652_6d29de7811_o.jpg",
    "id_image": "Dark_218658",
    "count_view": 0
  },
  {
    "link_thumb": "https://live.staticflickr.com/65535/49710863726_504f3d161a_n.jpg",
    "id_album": "-2109465612",
    "description": "Adventure_244608",
    "title": "Adventure_244608",
    "link_img": "https://live.staticflickr.com/65535/49710863726_cbfa6063e9_o.jpg",
    "id_image": "Adventure_244608",
    "count_view": 0
  },
  {
    "link_thumb": "https://live.staticflickr.com/65535/49712709557_f9c0695f1a_n.jpg",
    "id_album": "295204930",
    "description": "Women_383115",
    "title": "Women_383115",
    "link_img": "https://live.staticflickr.com/65535/49712709557_3b20e56668_o.jpg",
    "id_image": "Women_383115",
    "count_view": 0
  },
  {
    "link_thumb": "https://live.staticflickr.com/65535/49711593963_84d8e3437c_n.jpg",
    "id_album": "-395228614",
    "description": "Ship_172769",
    "title": "Ship_172769",
    "link_img": "https://live.staticflickr.com/65535/49711593963_1783b6755f_o.jpg",
    "id_image": "Ship_172769",
    "count_view": 0
  },
  {
    "link_thumb": "https://live.staticflickr.com/65535/49711055831_89d410c4c8_n.jpg",
    "id_album": "-1541846310",
    "description": "Castle_718094",
    "title": "Castle_718094",
    "link_img": "https://live.staticflickr.com/65535/49711055831_b77359f7c1_o.jpg",
    "id_image": "Castle_718094",
    "count_view": 0
  },
  {
    "link_thumb": "https://live.staticflickr.com/65535/49711329457_c79cc0e938_n.jpg",
    "id_album": "1187037014",
    "description": "Battle_616399",
    "title": "Battle_616399",
    "link_img": "https://live.staticflickr.com/65535/49711329457_a4f0f898eb_o.jpg",
    "id_image": "Battle_616399",
    "count_view": 0
  },
  {
    "link_thumb": "https://live.staticflickr.com/65535/49711376341_6df17362fb_n.jpg",
    "id_album": "850176884",
    "description": "Dragon_173316",
    "title": "Dragon_173316",
    "link_img": "https://live.staticflickr.com/65535/49711376341_67caa78e7c_o.jpg",
    "id_image": "Dragon_173316",
    "count_view": 0
  },
  {
    "link_thumb": "https://live.staticflickr.com/65535/49712219466_425a7a7f25_n.jpg",
    "id_album": "-1261420436",
    "description": "Warrior_695501",
    "title": "Warrior_695501",
    "link_img": "https://live.staticflickr.com/65535/49712219466_a50fe1592c_o.jpg",
    "id_image": "Warrior_695501",
    "count_view": 0
  },
  {
    "link_thumb": "https://live.staticflickr.com/65535/49710990811_285f5e9620_n.jpg",
    "id_album": "1187037014",
    "description": "Battle_294007",
    "title": "Battle_294007",
    "link_img": "https://live.staticflickr.com/65535/49710990811_c608a7488e_o.jpg",
    "id_image": "Battle_294007",
    "count_view": 0
  },
  {
    "link_thumb": "https://live.staticflickr.com/65535/49711178731_45ccd250b9_n.jpg",
    "id_album": "-437872736",
    "description": "Creature_294390",
    "title": "Creature_294390",
    "link_img": "https://live.staticflickr.com/65535/49711178731_445fa5db94_o.jpg",
    "id_image": "Creature_294390",
    "count_view": 0
  },
  {
    "link_thumb": "https://live.staticflickr.com/65535/49711338192_ab42f65507_n.jpg",
    "id_album": "-1846011410",
    "description": "Bird_101172",
    "title": "Bird_101172",
    "link_img": "https://live.staticflickr.com/65535/49711338192_7f0365e270_o.jpg",
    "id_image": "Bird_101172",
    "count_view": 0
  },
  {
    "link_thumb": "https://live.staticflickr.com/65535/49711063736_55ca38f91a_n.jpg",
    "id_album": "-1541846310",
    "description": "Castle_878221",
    "title": "Castle_878221",
    "link_img": "https://live.staticflickr.com/65535/49711063736_2490326a65_o.jpg",
    "id_image": "Castle_878221",
    "count_view": 0
  },
  {
    "link_thumb": "https://live.staticflickr.com/65535/49711057648_49e956bf35_n.jpg",
    "id_album": "850176884",
    "description": "Dragon_991383",
    "title": "Dragon_991383",
    "link_img": "https://live.staticflickr.com/65535/49711057648_2f9e2e26c1_o.jpg",
    "id_image": "Dragon_991383",
    "count_view": 0
  },
  {
    "link_thumb": "https://live.staticflickr.com/65535/49711995057_4319d82bc1_n.jpg",
    "id_album": "-1972042284",
    "description": "Fairy_617932",
    "title": "Fairy_617932",
    "link_img": "https://live.staticflickr.com/65535/49711995057_c2d6d0c5ac_o.jpg",
    "id_image": "Fairy_617932",
    "count_view": 0
  },
  {
    "link_thumb": "https://live.staticflickr.com/65535/49710538123_0307ff033c_n.jpg",
    "id_album": "-1741487325",
    "description": "Cat_883154",
    "title": "Cat_883154",
    "link_img": "https://live.staticflickr.com/65535/49710538123_e9786e6ca5_o.jpg",
    "id_image": "Cat_883154",
    "count_view": 0
  },
  {
    "link_thumb": "https://live.staticflickr.com/65535/49712786097_e9a69bf631_n.jpg",
    "id_album": "1861288871",
    "description": "Women_772333",
    "title": "Women_772333",
    "link_img": "https://live.staticflickr.com/65535/49712786097_f3cd65278a_o.jpg",
    "id_image": "Women_772333",
    "count_view": 0
  },
  {
    "link_thumb": "https://live.staticflickr.com/65535/49711558371_5759618168_n.jpg",
    "id_album": "850176884",
    "description": "Dragon_909558",
    "title": "Dragon_909558",
    "link_img": "https://live.staticflickr.com/65535/49711558371_3bca7caca1_o.jpg",
    "id_image": "Dragon_909558",
    "count_view": 0
  },
  {
    "link_thumb": "https://live.staticflickr.com/65535/49711662337_6f9cb016bf_n.jpg",
    "id_album": "7198985",
    "description": "Demon_588969",
    "title": "Demon_588969",
    "link_img": "https://live.staticflickr.com/65535/49711662337_47bdaba03d_o.jpg",
    "id_image": "Demon_588969",
    "count_view": 0
  },
  {
    "link_thumb": "https://live.staticflickr.com/65535/49711447667_eb11b9cbb6_n.jpg",
    "id_album": "-1964113117",
    "description": "City_864507",
    "title": "City_864507",
    "link_img": "https://live.staticflickr.com/65535/49711447667_80c6ca0878_o.jpg",
    "id_image": "City_864507",
    "count_view": 0
  },
  {
    "link_thumb": "https://live.staticflickr.com/65535/49712315462_7af8a7f552_n.jpg",
    "id_album": "-1859457952",
    "description": "Love_174014",
    "title": "Love_174014",
    "link_img": "https://live.staticflickr.com/65535/49712315462_0935910ef1_o.jpg",
    "id_image": "Love_174014",
    "count_view": 0
  },
  {
    "link_thumb": "https://live.staticflickr.com/65535/49710437898_dcaa505fe1_n.jpg",
    "id_album": "523598895",
    "description": "Artistic_546325",
    "title": "Artistic_546325",
    "link_img": "https://live.staticflickr.com/65535/49710437898_ef7a348d98_o.jpg",
    "id_image": "Artistic_546325",
    "count_view": 0
  },
  {
    "link_thumb": "https://live.staticflickr.com/65535/49712300751_7f5794d9dd_n.jpg",
    "id_album": "-709711865",
    "description": "Wolf_994597",
    "title": "Wolf_994597",
    "link_img": "https://live.staticflickr.com/65535/49712300751_c1e3c3b221_o.jpg",
    "id_image": "Wolf_994597",
    "count_view": 0
  },
  {
    "link_thumb": "https://live.staticflickr.com/65535/49711835327_e04ed25673_n.jpg",
    "id_album": "850176884",
    "description": "Dragon_720118",
    "title": "Dragon_720118",
    "link_img": "https://live.staticflickr.com/65535/49711835327_7ebcfccc64_o.jpg",
    "id_image": "Dragon_720118",
    "count_view": 0
  },
  {
    "link_thumb": "https://live.staticflickr.com/65535/49711773637_a51c0b5eae_n.jpg",
    "id_album": "850176884",
    "description": "Dragon_453773",
    "title": "Dragon_453773",
    "link_img": "https://live.staticflickr.com/65535/49711773637_9b3a11f63f_o.jpg",
    "id_image": "Dragon_453773",
    "count_view": 0
  },
  {
    "link_thumb": "https://live.staticflickr.com/65535/49711203783_f68156e62c_n.jpg",
    "id_album": "402434752",
    "description": "Giant_909968",
    "title": "Giant_909968",
    "link_img": "https://live.staticflickr.com/65535/49711203783_eda06583bd_o.jpg",
    "id_image": "Giant_909968",
    "count_view": 0
  },
  {
    "link_thumb": "https://live.staticflickr.com/65535/49710584538_8e34e15bd2_n.jpg",
    "id_album": "-1964113117",
    "description": "City_829620",
    "title": "City_829620",
    "link_img": "https://live.staticflickr.com/65535/49710584538_2aba0cedc5_o.jpg",
    "id_image": "City_829620",
    "count_view": 0
  },
  {
    "link_thumb": "https://live.staticflickr.com/65535/49711401946_05d182fcea_n.jpg",
    "id_album": "850176884",
    "description": "Dragon_252914",
    "title": "Dragon_252914",
    "link_img": "https://live.staticflickr.com/65535/49711401946_f67d1c0cee_o.jpg",
    "id_image": "Dragon_252914",
    "count_view": 0
  },
  {
    "link_thumb": "https://live.staticflickr.com/65535/49712810512_02edc9ce37_n.jpg",
    "id_album": "-867594484",
    "description": "Women_505504",
    "title": "Women_505504",
    "link_img": "https://live.staticflickr.com/65535/49712810512_eca45ae843_o.jpg",
    "id_image": "Women_505504",
    "count_view": 0
  },
  {
    "link_thumb": "https://live.staticflickr.com/65535/49710960771_646e06195b_n.jpg",
    "id_album": "523598895",
    "description": "Artistic_322140",
    "title": "Artistic_322140",
    "link_img": "https://live.staticflickr.com/65535/49710960771_450da2bb4a_o.jpg",
    "id_image": "Artistic_322140",
    "count_view": 0
  },
  {
    "link_thumb": "https://live.staticflickr.com/65535/49711522383_d804bf1485_n.jpg",
    "id_album": "-1862561193",
    "description": "Other_304651",
    "title": "Other_304651",
    "link_img": "https://live.staticflickr.com/65535/49711522383_311538dd6b_o.jpg",
    "id_image": "Other_304651",
    "count_view": 0
  },
  {
    "link_thumb": "https://live.staticflickr.com/65535/49711758336_d5f8cdd141_n.jpg",
    "id_album": "-1933715543",
    "description": "Horse_507354",
    "title": "Horse_507354",
    "link_img": "https://live.staticflickr.com/65535/49711758336_f7c5f11e6e_o.jpg",
    "id_image": "Horse_507354",
    "count_view": 0
  },
  {
    "link_thumb": "https://live.staticflickr.com/65535/49711559673_304fa52669_n.jpg",
    "id_album": "1223576123",
    "description": "Ruin_557317",
    "title": "Ruin_557317",
    "link_img": "https://live.staticflickr.com/65535/49711559673_24d13fc7b2_o.jpg",
    "id_image": "Ruin_557317",
    "count_view": 0
  },
  {
    "link_thumb": "https://live.staticflickr.com/65535/49711314651_a020a6abc4_n.jpg",
    "id_album": "2021464556",
    "description": "Dark_177855",
    "title": "Dark_177855",
    "link_img": "https://live.staticflickr.com/65535/49711314651_8a6639bf44_o.jpg",
    "id_image": "Dark_177855",
    "count_view": 0
  },
  {
    "link_thumb": "https://live.staticflickr.com/65535/49711632992_3545134524_n.jpg",
    "id_album": "-437872736",
    "description": "Creature_981690",
    "title": "Creature_981690",
    "link_img": "https://live.staticflickr.com/65535/49711632992_a4252bf653_o.jpg",
    "id_image": "Creature_981690",
    "count_view": 0
  },
  {
    "link_thumb": "https://live.staticflickr.com/65535/49711136068_a89dcfe5f7_n.jpg",
    "id_album": "-1972042284",
    "description": "Fairy_550172",
    "title": "Fairy_550172",
    "link_img": "https://live.staticflickr.com/65535/49711136068_5581571dab_o.jpg",
    "id_image": "Fairy_550172",
    "count_view": 0
  },
  {
    "link_thumb": "https://live.staticflickr.com/65535/49711356353_a0f94416f9_n.jpg",
    "id_album": "-833110404",
    "description": "Landscape_194302",
    "title": "Landscape_194302",
    "link_img": "https://live.staticflickr.com/65535/49711356353_c0712e591b_o.jpg",
    "id_image": "Landscape_194302",
    "count_view": 0
  },
  {
    "link_thumb": "https://live.staticflickr.com/65535/49711476327_1a37c39329_n.jpg",
    "id_album": "-437872736",
    "description": "Creature_170886",
    "title": "Creature_170886",
    "link_img": "https://live.staticflickr.com/65535/49711476327_c2965b2e63_o.jpg",
    "id_image": "Creature_170886",
    "count_view": 0
  },
  {
    "link_thumb": "https://live.staticflickr.com/65535/49711769336_f393d8c807_n.jpg",
    "id_album": "1957967226",
    "description": "House_695810",
    "title": "House_695810",
    "link_img": "https://live.staticflickr.com/65535/49711769336_0b4925b631_o.jpg",
    "id_image": "House_695810",
    "count_view": 0
  },
  {
    "link_thumb": "https://live.staticflickr.com/65535/49711269397_e02b3075bc_n.jpg",
    "id_album": "523598895",
    "description": "Artistic_153530",
    "title": "Artistic_153530",
    "link_img": "https://live.staticflickr.com/65535/49711269397_4cb04d2f28_o.jpg",
    "id_image": "Artistic_153530",
    "count_view": 0
  },
  {
    "link_thumb": "https://live.staticflickr.com/65535/49711823132_c0b90644a4_n.jpg",
    "id_album": "850176884",
    "description": "Dragon_651328",
    "title": "Dragon_651328",
    "link_img": "https://live.staticflickr.com/65535/49711823132_a5638e07d0_o.jpg",
    "id_image": "Dragon_651328",
    "count_view": 0
  },
  {
    "link_thumb": "https://live.staticflickr.com/65535/49711094746_4fb506827e_n.jpg",
    "id_album": "-1964113117",
    "description": "City_294405",
    "title": "City_294405",
    "link_img": "https://live.staticflickr.com/65535/49711094746_9a698973b9_o.jpg",
    "id_image": "City_294405",
    "count_view": 0
  },
  {
    "link_thumb": "https://live.staticflickr.com/65535/49711747492_5b5009e336_n.jpg",
    "id_album": "850176884",
    "description": "Dragon_331874",
    "title": "Dragon_331874",
    "link_img": "https://live.staticflickr.com/65535/49711747492_981f9e10a6_o.jpg",
    "id_image": "Dragon_331874",
    "count_view": 0
  },
  {
    "link_thumb": "https://live.staticflickr.com/65535/49711564848_1345c572d3_n.jpg",
    "id_album": "1223576123",
    "description": "Ruin_967459",
    "title": "Ruin_967459",
    "link_img": "https://live.staticflickr.com/65535/49711564848_251be94c1d_o.jpg",
    "id_image": "Ruin_967459",
    "count_view": 0
  },
  {
    "link_thumb": "https://live.staticflickr.com/65535/49711866016_7ca5abc419_n.jpg",
    "id_album": "1402713104",
    "description": "Landscape_945961",
    "title": "Landscape_945961",
    "link_img": "https://live.staticflickr.com/65535/49711866016_b7ff8f98b9_o.jpg",
    "id_image": "Landscape_945961",
    "count_view": 0
  },
  {
    "link_thumb": "https://live.staticflickr.com/65535/49711507508_192c2d4d78_n.jpg",
    "id_album": "1892085513",
    "description": "Oriental_312967",
    "title": "Oriental_312967",
    "link_img": "https://live.staticflickr.com/65535/49711507508_45ca28739b_o.jpg",
    "id_image": "Oriental_312967",
    "count_view": 0
  },
  {
    "link_thumb": "https://live.staticflickr.com/65535/49711430852_dfd71fc63b_n.jpg",
    "id_album": "-1964113117",
    "description": "City_552098",
    "title": "City_552098",
    "link_img": "https://live.staticflickr.com/65535/49711430852_9917316762_o.jpg",
    "id_image": "City_552098",
    "count_view": 0
  },
  {
    "link_thumb": "https://live.staticflickr.com/65535/49711542716_2c718b5b69_n.jpg",
    "id_album": "850176884",
    "description": "Dragon_870391",
    "title": "Dragon_870391",
    "link_img": "https://live.staticflickr.com/65535/49711542716_b3556ab64d_o.jpg",
    "id_image": "Dragon_870391",
    "count_view": 0
  },
  {
    "link_thumb": "https://live.staticflickr.com/65535/49711874497_f061c1c2c0_n.jpg",
    "id_album": "850176884",
    "description": "Dragon_889641",
    "title": "Dragon_889641",
    "link_img": "https://live.staticflickr.com/65535/49711874497_fe402dfc0c_o.jpg",
    "id_image": "Dragon_889641",
    "count_view": 0
  },
  {
    "link_thumb": "https://live.staticflickr.com/65535/49710798148_77949ab12b_n.jpg",
    "id_album": "7198985",
    "description": "Demon_214363",
    "title": "Demon_214363",
    "link_img": "https://live.staticflickr.com/65535/49710798148_5e7543b73b_o.jpg",
    "id_image": "Demon_214363",
    "count_view": 0
  },
  {
    "link_thumb": "https://live.staticflickr.com/65535/49711065118_7380517582_n.jpg",
    "id_album": "-1594184835",
    "description": "Dwarf_874772",
    "title": "Dwarf_874772",
    "link_img": "https://live.staticflickr.com/65535/49711065118_7d00faaffe_o.jpg",
    "id_image": "Dwarf_874772",
    "count_view": 0
  },
  {
    "link_thumb": "https://live.staticflickr.com/65535/49711621306_139223f09c_n.jpg",
    "id_album": "134100487",
    "description": "Elf_582408",
    "title": "Elf_582408",
    "link_img": "https://live.staticflickr.com/65535/49711621306_7f492ab123_o.jpg",
    "id_image": "Elf_582408",
    "count_view": 0
  },
  {
    "link_thumb": "https://live.staticflickr.com/65535/49710479388_4854a9880c_n.jpg",
    "id_album": "1187037014",
    "description": "Battle_935026",
    "title": "Battle_935026",
    "link_img": "https://live.staticflickr.com/65535/49710479388_979815711a_o.jpg",
    "id_image": "Battle_935026",
    "count_view": 0
  }
]