[
  {
    "link_thumb": "https://live.staticflickr.com/65535/49710806263_7ffa3b183d_n.jpg",
    "id_album": "7198985",
    "description": "Demon_786481",
    "title": "Demon_786481",
    "link_img": "https://live.staticflickr.com/65535/49710806263_611cf1dbc3_o.jpg",
    "id_image": "Demon_786481",
    "count_view": 0
  },
  {
    "link_thumb": "https://live.staticflickr.com/65535/49710590563_93c9217c1e_n.jpg",
    "id_album": "-1964113117",
    "description": "City_872153",
    "title": "City_872153",
    "link_img": "https://live.staticflickr.com/65535/49710590563_ecbceb97bc_o.jpg",
    "id_image": "City_872153",
    "count_view": 0
  },
  {
    "link_thumb": "https://live.staticflickr.com/65535/49712512846_b928852383_n.jpg",
    "id_album": "-867594484",
    "description": "Women_577586",
    "title": "Women_577586",
    "link_img": "https://live.staticflickr.com/65535/49712512846_ff8824354d_o.jpg",
    "id_image": "Women_577586",
    "count_view": 0
  },
  {
    "link_thumb": "https://live.staticflickr.com/65535/49711327116_c2e3d22eba_n.jpg",
    "id_album": "1903411565",
    "description": "Deer_642274",
    "title": "Deer_642274",
    "link_img": "https://live.staticflickr.com/65535/49711327116_7a6d53c007_o.jpg",
    "id_image": "Deer_642274",
    "count_view": 0
  },
  {
    "link_thumb": "https://live.staticflickr.com/65535/49712295007_d4d5cb9c8e_n.jpg",
    "id_album": "-833110404",
    "description": "Landscape_587511",
    "title": "Landscape_587511",
    "link_img": "https://live.staticflickr.com/65535/49712295007_f423589cca_o.jpg",
    "id_image": "Landscape_587511",
    "count_view": 0
  },
  {
    "link_thumb": "https://live.staticflickr.com/65535/49711186723_c40f13c024_n.jpg",
    "id_album": "-1083189875",
    "description": "Forest_931796",
    "title": "Forest_931796",
    "link_img": "https://live.staticflickr.com/65535/49711186723_aef58ddf50_o.jpg",
    "id_image": "Forest_931796",
    "count_view": 0
  },
  {
    "link_thumb": "https://live.staticflickr.com/65535/49711952953_d46233b50b_n.jpg",
    "id_album": "-867594484",
    "description": "Women_507428",
    "title": "Women_507428",
    "link_img": "https://live.staticflickr.com/65535/49711952953_c1cf648ab6_o.jpg",
    "id_image": "Women_507428",
    "count_view": 0
  },
  {
    "link_thumb": "https://live.staticflickr.com/65535/49711259757_65a7d4b999_n.jpg",
    "id_album": "-1560111795",
    "description": "Archer_991009",
    "title": "Archer_991009",
    "link_img": "https://live.staticflickr.com/65535/49711259757_a3817d740e_o.jpg",
    "id_image": "Archer_991009",
    "count_view": 0
  },
  {
    "link_thumb": "https://live.staticflickr.com/65535/49710549858_2dd54b3be8_n.jpg",
    "id_album": "430704260",
    "description": "Child_932938",
    "title": "Child_932938",
    "link_img": "https://live.staticflickr.com/65535/49710549858_366d13eff9_o.jpg",
    "id_image": "Child_932938",
    "count_view": 0
  },
  {
    "link_thumb": "https://live.staticflickr.com/65535/49712677117_a3a432e6dd_n.jpg",
    "id_album": "-1126835654",
    "description": "Women_999252",
    "title": "Women_999252",
    "link_img": "https://live.staticflickr.com/65535/49712677117_4ea2fb5f6c_o.jpg",
    "id_image": "Women_999252",
    "count_view": 0
  },
  {
    "link_thumb": "https://live.staticflickr.com/65535/49711889837_622622369d_n.jpg",
    "id_album": "850176884",
    "description": "Dragon_921807",
    "title": "Dragon_921807",
    "link_img": "https://live.staticflickr.com/65535/49711889837_80e4e1df8a_o.jpg",
    "id_image": "Dragon_921807",
    "count_view": 0
  },
  {
    "link_thumb": "https://live.staticflickr.com/65535/49710908853_37330b1e2a_n.jpg",
    "id_album": "850176884",
    "description": "Dragon_429554",
    "title": "Dragon_429554",
    "link_img": "https://live.staticflickr.com/65535/49710908853_1d28c76507_o.jpg",
    "id_image": "Dragon_429554",
    "count_view": 0
  },
  {
    "link_thumb": "https://live.staticflickr.com/65535/49712222752_758cfc2141_n.jpg",
    "id_album": "-833110404",
    "description": "Landscape_249853",
    "title": "Landscape_249853",
    "link_img": "https://live.staticflickr.com/65535/49712222752_7cacac4209_o.jpg",
    "id_image": "Landscape_249853",
    "count_view": 0
  },
  {
    "link_thumb": "https://live.staticflickr.com/65535/49711829162_ce4844af99_n.jpg",
    "id_album": "850176884",
    "description": "Dragon_693915",
    "title": "Dragon_693915",
    "link_img": "https://live.staticflickr.com/65535/49711829162_e96080b5b1_o.jpg",
    "id_image": "Dragon_693915",
    "count_view": 0
  },
  {
    "link_thumb": "https://live.staticflickr.com/65535/49711394997_df6a748de9_n.jpg",
    "id_album": "-1741487325",
    "description": "Cat_702638",
    "title": "Cat_702638",
    "link_img": "https://live.staticflickr.com/65535/49711394997_2a42c2d4ec_o.jpg",
    "id_image": "Cat_702638",
    "count_view": 0
  },
  {
    "link_thumb": "https://live.staticflickr.com/65535/49710960023_61abe799da_n.jpg",
    "id_album": "850176884",
    "description": "Dragon_606122",
    "title": "Dragon_606122",
    "link_img": "https://live.staticflickr.com/65535/49710960023_9ced8f8cfb_o.jpg",
    "id_image": "Dragon_606122",
    "count_view": 0
  },
  {
    "link_thumb": "https://live.staticflickr.com/65535/49712208172_1831f9f02f_n.jpg",
    "id_album": "1402713104",
    "description": "Landscape_994322",
    "title": "Landscape_994322",
    "link_img": "https://live.staticflickr.com/65535/49712208172_52e90bebed_o.jpg",
    "id_image": "Landscape_994322",
    "count_view": 0
  },
  {
    "link_thumb": "https://live.staticflickr.com/65535/49710821628_571b525c35_n.jpg",
    "id_album": "850176884",
    "description": "Dragon_118396",
    "title": "Dragon_118396",
    "link_img": "https://live.staticflickr.com/65535/49710821628_19f65cd5ce_o.jpg",
    "id_image": "Dragon_118396",
    "count_view": 0
  },
  {
    "link_thumb": "https://live.staticflickr.com/65535/49711156368_488d22f639_n.jpg",
    "id_album": "-1083189875",
    "description": "Forest_220971",
    "title": "Forest_220971",
    "link_img": "https://live.staticflickr.com/65535/49711156368_18867997f8_o.jpg",
    "id_image": "Forest_220971",
    "count_view": 0
  },
  {
    "link_thumb": "https://live.staticflickr.com/65535/49711470507_082562b527_n.jpg",
    "id_album": "-437872736",
    "description": "Creature_154731",
    "title": "Creature_154731",
    "link_img": "https://live.staticflickr.com/65535/49711470507_d201347d2a_o.jpg",
    "id_image": "Creature_154731",
    "count_view": 0
  },
  {
    "link_thumb": "https://live.staticflickr.com/65535/49711553141_09bcb31bb1_n.jpg",
    "id_album": "850176884",
    "description": "Dragon_898517",
    "title": "Dragon_898517",
    "link_img": "https://live.staticflickr.com/65535/49711553141_11a24d8b1b_o.jpg",
    "id_image": "Dragon_898517",
    "count_view": 0
  },
  {
    "link_thumb": "https://live.staticflickr.com/65535/49711580992_b9273f0bc5_n.jpg",
    "id_album": "-437872736",
    "description": "Creature_655681",
    "title": "Creature_655681",
    "link_img": "https://live.staticflickr.com/65535/49711580992_992695ebd1_o.jpg",
    "id_image": "Creature_655681",
    "count_view": 0
  },
  {
    "link_thumb": "https://live.staticflickr.com/65535/49712524726_4143963db1_n.jpg",
    "id_album": "-867594484",
    "description": "Women_647623",
    "title": "Women_647623",
    "link_img": "https://live.staticflickr.com/65535/49712524726_a542df6e1a_o.jpg",
    "id_image": "Women_647623",
    "count_view": 0
  },
  {
    "link_thumb": "https://live.staticflickr.com/65535/49711540057_6d5d15567e_n.jpg",
    "id_album": "-437872736",
    "description": "Creature_365526",
    "title": "Creature_365526",
    "link_img": "https://live.staticflickr.com/65535/49711540057_ffee013373_o.jpg",
    "id_image": "Creature_365526",
    "count_view": 0
  },
  {
    "link_thumb": "https://live.staticflickr.com/65535/49712179806_da7b2820cd_n.jpg",
    "id_album": "431597977",
    "description": "Unicorn_451038",
    "title": "Unicorn_451038",
    "link_img": "https://live.staticflickr.com/65535/49712179806_75af6647fb_o.jpg",
    "id_image": "Unicorn_451038",
    "count_view": 0
  },
  {
    "link_thumb": "https://live.staticflickr.com/65535/49711611653_f2e06161d1_n.jpg",
    "id_album": "1240974613",
    "description": "Sorceress_934985",
    "title": "Sorceress_934985",
    "link_img": "https://live.staticflickr.com/65535/49711611653_19590465e2_o.jpg",
    "id_image": "Sorceress_934985",
    "count_view": 0
  },
  {
    "link_thumb": "https://live.staticflickr.com/65535/49711112303_009f0b912f_n.jpg",
    "id_album": "-1972042284",
    "description": "Fairy_157969",
    "title": "Fairy_157969",
    "link_img": "https://live.staticflickr.com/65535/49711112303_8a550be146_o.jpg",
    "id_image": "Fairy_157969",
    "count_view": 0
  },
  {
    "link_thumb": "https://live.staticflickr.com/65535/49711402416_26380d2c46_n.jpg",
    "id_album": "850176884",
    "description": "Dragon_256654",
    "title": "Dragon_256654",
    "link_img": "https://live.staticflickr.com/65535/49711402416_d725f88fba_o.jpg",
    "id_image": "Dragon_256654",
    "count_view": 0
  },
  {
    "link_thumb": "https://live.staticflickr.com/65535/49711747962_eb585d68f9_n.jpg",
    "id_album": "850176884",
    "description": "Dragon_332922",
    "title": "Dragon_332922",
    "link_img": "https://live.staticflickr.com/65535/49711747962_1055650648_o.jpg",
    "id_image": "Dragon_332922",
    "count_view": 0
  },
  {
    "link_thumb": "https://live.staticflickr.com/65535/49711267331_07395d575e_n.jpg",
    "id_album": "-437872736",
    "description": "Creature_78114",
    "title": "Creature_78114",
    "link_img": "https://live.staticflickr.com/65535/49711267331_bd1d632cbc_o.jpg",
    "id_image": "Creature_78114",
    "count_view": 0
  },
  {
    "link_thumb": "https://live.staticflickr.com/65535/49711686562_d22d576dfb_n.jpg",
    "id_album": "850176884",
    "description": "Dragon_122323",
    "title": "Dragon_122323",
    "link_img": "https://live.staticflickr.com/65535/49711686562_a4d363ee72_o.jpg",
    "id_image": "Dragon_122323",
    "count_view": 0
  },
  {
    "link_thumb": "https://live.staticflickr.com/65535/49710857136_2a3b3f82a6_n.jpg",
    "id_album": "-218097820",
    "description": "ASongOfIceAndFire_512816",
    "title": "ASongOfIceAndFire_512816",
    "link_img": "https://live.staticflickr.com/65535/49710857136_4acab1fb75_o.jpg",
    "id_image": "ASongOfIceAndFire_512816",
    "count_view": 0
  },
  {
    "link_thumb": "https://live.staticflickr.com/65535/49712287531_93b3001d90_n.jpg",
    "id_album": "-709711865",
    "description": "Wolf_724686",
    "title": "Wolf_724686",
    "link_img": "https://live.staticflickr.com/65535/49712287531_0743df704e_o.jpg",
    "id_image": "Wolf_724686",
    "count_view": 0
  },
  {
    "link_thumb": "https://live.staticflickr.com/65535/49711319126_6ac45b64fb_n.jpg",
    "id_album": "2021464556",
    "description": "Dark_444606",
    "title": "Dark_444606",
    "link_img": "https://live.staticflickr.com/65535/49711319126_7a88f10e13_o.jpg",
    "id_image": "Dark_444606",
    "count_view": 0
  },
  {
    "link_thumb": "https://live.staticflickr.com/65535/49710554598_b627969bff_n.jpg",
    "id_album": "-1964113117",
    "description": "City_197251",
    "title": "City_197251",
    "link_img": "https://live.staticflickr.com/65535/49710554598_eeff60a1ff_o.jpg",
    "id_image": "City_197251",
    "count_view": 0
  },
  {
    "link_thumb": "https://live.staticflickr.com/65535/49711217787_986df146a4_n.jpg",
    "id_album": "-1913845949",
    "description": "Animal_157959",
    "title": "Animal_157959",
    "link_img": "https://live.staticflickr.com/65535/49711217787_2d760a4b18_o.jpg",
    "id_image": "Animal_157959",
    "count_view": 0
  },
  {
    "link_thumb": "https://live.staticflickr.com/65535/49712409262_c4c2d93518_n.jpg",
    "id_album": "1587588550",
    "description": "Place_332015",
    "title": "Place_332015",
    "link_img": "https://live.staticflickr.com/65535/49712409262_e0ee5f1a41_o.jpg",
    "id_image": "Place_332015",
    "count_view": 0
  },
  {
    "link_thumb": "https://live.staticflickr.com/65535/49711467121_0ce5a95b23_n.jpg",
    "id_album": "850176884",
    "description": "Dragon_511607",
    "title": "Dragon_511607",
    "link_img": "https://live.staticflickr.com/65535/49711467121_0e313acfcd_o.jpg",
    "id_image": "Dragon_511607",
    "count_view": 0
  },
  {
    "link_thumb": "https://live.staticflickr.com/65535/49711297281_35e27946b2_n.jpg",
    "id_album": "-437872736",
    "description": "Creature_958921",
    "title": "Creature_958921",
    "link_img": "https://live.staticflickr.com/65535/49711297281_6d1a7a0bf8_o.jpg",
    "id_image": "Creature_958921",
    "count_view": 0
  },
  {
    "link_thumb": "https://live.staticflickr.com/65535/49712289661_2de48e4d70_n.jpg",
    "id_album": "-709711865",
    "description": "Wolf_788119",
    "title": "Wolf_788119",
    "link_img": "https://live.staticflickr.com/65535/49712289661_79ff156198_o.jpg",
    "id_image": "Wolf_788119",
    "count_view": 0
  },
  {
    "link_thumb": "https://live.staticflickr.com/65535/49711353593_4d8922e1aa_n.jpg",
    "id_album": "-833110404",
    "description": "Landscape_146484",
    "title": "Landscape_146484",
    "link_img": "https://live.staticflickr.com/65535/49711353593_96fcc01953_o.jpg",
    "id_image": "Landscape_146484",
    "count_view": 0
  },
  {
    "link_thumb": "https://live.staticflickr.com/65535/49710577668_73c3cebb2d_n.jpg",
    "id_album": "-1964113117",
    "description": "City_682961",
    "title": "City_682961",
    "link_img": "https://live.staticflickr.com/65535/49710577668_f11128b921_o.jpg",
    "id_image": "City_682961",
    "count_view": 0
  },
  {
    "link_thumb": "https://live.staticflickr.com/65535/49711084156_c63c3e085d_n.jpg",
    "id_album": "430704260",
    "description": "Child_910933",
    "title": "Child_910933",
    "link_img": "https://live.staticflickr.com/65535/49711084156_0eb77983ca_o.jpg",
    "id_image": "Child_910933",
    "count_view": 0
  },
  {
    "link_thumb": "https://live.staticflickr.com/65535/49711185652_95c44bda7c_n.jpg",
    "id_album": "-2109465612",
    "description": "Adventure_239590",
    "title": "Adventure_239590",
    "link_img": "https://live.staticflickr.com/65535/49711185652_287af22460_o.jpg",
    "id_image": "Adventure_239590",
    "count_view": 0
  },
  {
    "link_thumb": "https://live.staticflickr.com/65535/49711237313_be99927b3b_n.jpg",
    "id_album": "1957967226",
    "description": "House_932214",
    "title": "House_932214",
    "link_img": "https://live.staticflickr.com/65535/49711237313_1e4b250b16_o.jpg",
    "id_image": "House_932214",
    "count_view": 0
  },
  {
    "link_thumb": "https://live.staticflickr.com/65535/49711079881_fb35a12fe3_n.jpg",
    "id_album": "430704260",
    "description": "Child_724557",
    "title": "Child_724557",
    "link_img": "https://live.staticflickr.com/65535/49711079881_d35bdcc852_o.jpg",
    "id_image": "Child_724557",
    "count_view": 0
  },
  {
    "link_thumb": "https://live.staticflickr.com/65535/49710463988_1ea1bb553b_n.jpg",
    "id_album": "1187037014",
    "description": "Battle_390596",
    "title": "Battle_390596",
    "link_img": "https://live.staticflickr.com/65535/49710463988_81232a2346_o.jpg",
    "id_image": "Battle_390596",
    "count_view": 0
  },
  {
    "link_thumb": "https://live.staticflickr.com/65535/49711623177_8b842f54b1_n.jpg",
    "id_album": "-437872736",
    "description": "Creature_958938",
    "title": "Creature_958938",
    "link_img": "https://live.staticflickr.com/65535/49711623177_cff851ccf7_o.jpg",
    "id_image": "Creature_958938",
    "count_view": 0
  },
  {
    "link_thumb": "https://live.staticflickr.com/65535/49711900723_5881165135_n.jpg",
    "id_album": "1861288871",
    "description": "Women_226294",
    "title": "Women_226294",
    "link_img": "https://live.staticflickr.com/65535/49711900723_ebeee2cd4f_o.jpg",
    "id_image": "Women_226294",
    "count_view": 0
  },
  {
    "link_thumb": "https://live.staticflickr.com/65535/49712276041_c32abf5cdc_n.jpg",
    "id_album": "-709711865",
    "description": "Wolf_552975",
    "title": "Wolf_552975",
    "link_img": "https://live.staticflickr.com/65535/49712276041_86ab1909cc_o.jpg",
    "id_image": "Wolf_552975",
    "count_view": 0
  },
  {
    "link_thumb": "https://live.staticflickr.com/65535/49711090586_2a0bcae456_n.jpg",
    "id_album": "-1964113117",
    "description": "City_201530",
    "title": "City_201530",
    "link_img": "https://live.staticflickr.com/65535/49711090586_b203e7e7db_o.jpg",
    "id_image": "City_201530",
    "count_view": 0
  },
  {
    "link_thumb": "https://live.staticflickr.com/65535/49711634707_27ce090d8a_n.jpg",
    "id_album": "-437872736",
    "description": "Creature_998189",
    "title": "Creature_998189",
    "link_img": "https://live.staticflickr.com/65535/49711634707_5be8dec517_o.jpg",
    "id_image": "Creature_998189",
    "count_view": 0
  },
  {
    "link_thumb": "https://live.staticflickr.com/65535/49711620397_369e8baa20_n.jpg",
    "id_album": "-437872736",
    "description": "Creature_958914",
    "title": "Creature_958914",
    "link_img": "https://live.staticflickr.com/65535/49711620397_5b724db551_o.jpg",
    "id_image": "Creature_958914",
    "count_view": 0
  },
  {
    "link_thumb": "https://live.staticflickr.com/65535/49710983441_3958dbc671_n.jpg",
    "id_album": "1187037014",
    "description": "Battle_154754",
    "title": "Battle_154754",
    "link_img": "https://live.staticflickr.com/65535/49710983441_8fabcfc827_o.jpg",
    "id_image": "Battle_154754",
    "count_view": 0
  },
  {
    "link_thumb": "https://live.staticflickr.com/65535/49711454402_2250527d63_n.jpg",
    "id_album": "-1964113117",
    "description": "City_921862",
    "title": "City_921862",
    "link_img": "https://live.staticflickr.com/65535/49711454402_5c6e223295_o.jpg",
    "id_image": "City_921862",
    "count_view": 0
  },
  {
    "link_thumb": "https://live.staticflickr.com/65535/49712607002_7e55532236_n.jpg",
    "id_album": "-709711865",
    "description": "Wolf_655554",
    "title": "Wolf_655554",
    "link_img": "https://live.staticflickr.com/65535/49712607002_70c3495f9f_o.jpg",
    "id_image": "Wolf_655554",
    "count_view": 0
  },
  {
    "link_thumb": "https://live.staticflickr.com/65535/49711748326_99f767f6b4_n.jpg",
    "id_album": "1131236559",
    "description": "Gods_948485",
    "title": "Gods_948485",
    "link_img": "https://live.staticflickr.com/65535/49711748326_cef1d7dac0_o.jpg",
    "id_image": "Gods_948485",
    "count_view": 0
  },
  {
    "link_thumb": "https://live.staticflickr.com/65535/49712195432_0d5a8be1fb_n.jpg",
    "id_album": "1402713104",
    "description": "Landscape_957064",
    "title": "Landscape_957064",
    "link_img": "https://live.staticflickr.com/65535/49712195432_eb0ca08db4_o.jpg",
    "id_image": "Landscape_957064",
    "count_view": 0
  },
  {
    "link_thumb": "https://live.staticflickr.com/65535/49711870793_f7b3f6d209_n.jpg",
    "id_album": "295204930",
    "description": "Women_702751",
    "title": "Women_702751",
    "link_img": "https://live.staticflickr.com/65535/49711870793_6e548ed14d_o.jpg",
    "id_image": "Women_702751",
    "count_view": 0
  },
  {
    "link_thumb": "https://live.staticflickr.com/65535/49712260607_c51798542a_n.jpg",
    "id_album": "-833110404",
    "description": "Landscape_405765",
    "title": "Landscape_405765",
    "link_img": "https://live.staticflickr.com/65535/49712260607_51870f7ea7_o.jpg",
    "id_image": "Landscape_405765",
    "count_view": 0
  },
  {
    "link_thumb": "https://live.staticflickr.com/65535/49710434798_5fc15dd390_n.jpg",
    "id_album": "523598895",
    "description": "Artistic_455561",
    "title": "Artistic_455561",
    "link_img": "https://live.staticflickr.com/65535/49710434798_b32b5d5fa2_o.jpg",
    "id_image": "Artistic_455561",
    "count_view": 0
  },
  {
    "link_thumb": "https://live.staticflickr.com/65535/49710913316_353e59bdca_n.jpg",
    "id_album": "-1913845949",
    "description": "Animal_642269",
    "title": "Animal_642269",
    "link_img": "https://live.staticflickr.com/65535/49710913316_cdc65c5494_o.jpg",
    "id_image": "Animal_642269",
    "count_view": 0
  },
  {
    "link_thumb": "https://live.staticflickr.com/65535/49710551868_0480b6bea7_n.jpg",
    "id_album": "-1964113117",
    "description": "City_118394",
    "title": "City_118394",
    "link_img": "https://live.staticflickr.com/65535/49710551868_3bd2bf9767_o.jpg",
    "id_image": "City_118394",
    "count_view": 0
  },
  {
    "link_thumb": "https://live.staticflickr.com/65535/49710435478_3d4a372cb2_n.jpg",
    "id_album": "523598895",
    "description": "Artistic_463761",
    "title": "Artistic_463761",
    "link_img": "https://live.staticflickr.com/65535/49710435478_f7ef938fb1_o.jpg",
    "id_image": "Artistic_463761",
    "count_view": 0
  },
  {
    "link_thumb": "https://live.staticflickr.com/65535/49711176611_3b8d33dfe5_n.jpg",
    "id_album": "-437872736",
    "description": "Creature_287699",
    "title": "Creature_287699",
    "link_img": "https://live.staticflickr.com/65535/49711176611_a5e594f677_o.jpg",
    "id_image": "Creature_287699",
    "count_view": 0
  },
  {
    "link_thumb": "https://live.staticflickr.com/65535/49711588287_91773c549b_n.jpg",
    "id_album": "-437872736",
    "description": "Creature_711422",
    "title": "Creature_711422",
    "link_img": "https://live.staticflickr.com/65535/49711588287_e74a929473_o.jpg",
    "id_image": "Creature_711422",
    "count_view": 0
  },
  {
    "link_thumb": "https://live.staticflickr.com/65535/49710380668_54da5b37f0_n.jpg",
    "id_album": "-1913845949",
    "description": "Animal_684516",
    "title": "Animal_684516",
    "link_img": "https://live.staticflickr.com/65535/49710380668_e202cca119_o.jpg",
    "id_image": "Animal_684516",
    "count_view": 0
  },
  {
    "link_thumb": "https://live.staticflickr.com/65535/49711073191_ef34663a2b_n.jpg",
    "id_album": "-1741487325",
    "description": "Cat_874345",
    "title": "Cat_874345",
    "link_img": "https://live.staticflickr.com/65535/49711073191_36597f647f_o.jpg",
    "id_image": "Cat_874345",
    "count_view": 0
  },
  {
    "link_thumb": "https://live.staticflickr.com/65535/49711610477_2446df61e6_n.jpg",
    "id_album": "-437872736",
    "description": "Creature_958705",
    "title": "Creature_958705",
    "link_img": "https://live.staticflickr.com/65535/49711610477_3473db1633_o.jpg",
    "id_image": "Creature_958705",
    "count_view": 0
  },
  {
    "link_thumb": "https://live.staticflickr.com/65535/49710965306_1cfc5bd221_n.jpg",
    "id_album": "523598895",
    "description": "Artistic_388052",
    "title": "Artistic_388052",
    "link_img": "https://live.staticflickr.com/65535/49710965306_c0360c1c3a_o.jpg",
    "id_image": "Artistic_388052",
    "count_view": 0
  },
  {
    "link_thumb": "https://live.staticflickr.com/65535/49711730402_90a6c0769f_n.jpg",
    "id_album": "850176884",
    "description": "Dragon_273939",
    "title": "Dragon_273939",
    "link_img": "https://live.staticflickr.com/65535/49711730402_5c0803e750_o.jpg",
    "id_image": "Dragon_273939",
    "count_view": 0
  },
  {
    "link_thumb": "https://live.staticflickr.com/65535/49711474386_cd0142605b_n.jpg",
    "id_album": "850176884",
    "description": "Dragon_529545",
    "title": "Dragon_529545",
    "link_img": "https://live.staticflickr.com/65535/49711474386_6033b23ab3_o.jpg",
    "id_image": "Dragon_529545",
    "count_view": 0
  },
  {
    "link_thumb": "https://live.staticflickr.com/65535/49711899247_0efda6b666_n.jpg",
    "id_album": "850176884",
    "description": "Dragon_954035",
    "title": "Dragon_954035",
    "link_img": "https://live.staticflickr.com/65535/49711899247_8726b1bf20_o.jpg",
    "id_image": "Dragon_954035",
    "count_view": 0
  },
  {
    "link_thumb": "https://live.staticflickr.com/65535/49711145451_b8777170d5_n.jpg",
    "id_album": "-437872736",
    "description": "Creature_152648",
    "title": "Creature_152648",
    "link_img": "https://live.staticflickr.com/65535/49711145451_b8e3b4ff0f_o.jpg",
    "id_image": "Creature_152648",
    "count_view": 0
  },
  {
    "link_thumb": "https://live.staticflickr.com/65535/49711760096_21273c0e28_n.jpg",
    "id_album": "-1933715543",
    "description": "Horse_669198",
    "title": "Horse_669198",
    "link_img": "https://live.staticflickr.com/65535/49711760096_2212d0d939_o.jpg",
    "id_image": "Horse_669198",
    "count_view": 0
  },
  {
    "link_thumb": "https://live.staticflickr.com/65535/49710927843_2a8e6db4d8_n.jpg",
    "id_album": "850176884",
    "description": "Dragon_497458",
    "title": "Dragon_497458",
    "link_img": "https://live.staticflickr.com/65535/49710927843_e4907a714e_o.jpg",
    "id_image": "Dragon_497458",
    "count_view": 0
  },
  {
    "link_thumb": "https://live.staticflickr.com/65535/49710782398_0cc497a690_n.jpg",
    "id_album": "2021464556",
    "description": "Dark_323780",
    "title": "Dark_323780",
    "link_img": "https://live.staticflickr.com/65535/49710782398_5374e3822c_o.jpg",
    "id_image": "Dark_323780",
    "count_view": 0
  },
  {
    "link_thumb": "https://live.staticflickr.com/65535/49711872776_a64c4ebb49_n.jpg",
    "id_album": "1402713104",
    "description": "Landscape_957073",
    "title": "Landscape_957073",
    "link_img": "https://live.staticflickr.com/65535/49711872776_df9d48d076_o.jpg",
    "id_image": "Landscape_957073",
    "count_view": 0
  },
  {
    "link_thumb": "https://live.staticflickr.com/65535/49710975191_88cd0cc8e5_n.jpg",
    "id_album": "523598895",
    "description": "Artistic_593172",
    "title": "Artistic_593172",
    "link_img": "https://live.staticflickr.com/65535/49710975191_b45c15c08b_o.jpg",
    "id_image": "Artistic_593172",
    "count_view": 0
  },
  {
    "link_thumb": "https://live.staticflickr.com/65535/49712162481_bd2afd2287_n.jpg",
    "id_album": "405170427",
    "description": "Tiger_692780",
    "title": "Tiger_692780",
    "link_img": "https://live.staticflickr.com/65535/49712162481_7ef692f6f7_o.jpg",
    "id_image": "Tiger_692780",
    "count_view": 0
  },
  {
    "link_thumb": "https://live.staticflickr.com/65535/49711851087_721d2f17c2_n.jpg",
    "id_album": "850176884",
    "description": "Dragon_803330",
    "title": "Dragon_803330",
    "link_img": "https://live.staticflickr.com/65535/49711851087_e64cff5770_o.jpg",
    "id_image": "Dragon_803330",
    "count_view": 0
  },
  {
    "link_thumb": "https://live.staticflickr.com/65535/49711692858_c7a78b1361_n.jpg",
    "id_album": "-1261420436",
    "description": "Warrior_876304",
    "title": "Warrior_876304",
    "link_img": "https://live.staticflickr.com/65535/49711692858_8a88e692dd_o.jpg",
    "id_image": "Warrior_876304",
    "count_view": 0
  },
  {
    "link_thumb": "https://live.staticflickr.com/65535/49710604873_35eb1cc85c_n.jpg",
    "id_album": "-437872736",
    "description": "Creature_121808",
    "title": "Creature_121808",
    "link_img": "https://live.staticflickr.com/65535/49710604873_4a870acbf4_o.jpg",
    "id_image": "Creature_121808",
    "count_view": 0
  },
  {
    "link_thumb": "https://live.staticflickr.com/65535/49710405763_bd8761c82c_n.jpg",
    "id_album": "523598895",
    "description": "Artistic_118666",
    "title": "Artistic_118666",
    "link_img": "https://live.staticflickr.com/65535/49710405763_dde1679421_o.jpg",
    "id_image": "Artistic_118666",
    "count_view": 0
  },
  {
    "link_thumb": "https://live.staticflickr.com/65535/49711450217_2485107a0a_n.jpg",
    "id_album": "-1964113117",
    "description": "City_876298",
    "title": "City_876298",
    "link_img": "https://live.staticflickr.com/65535/49711450217_f47004593f_o.jpg",
    "id_image": "City_876298",
    "count_view": 0
  },
  {
    "link_thumb": "https://live.staticflickr.com/65535/49712264986_f70065e694_n.jpg",
    "id_album": "478331085",
    "description": "Witch_925002",
    "title": "Witch_925002",
    "link_img": "https://live.staticflickr.com/65535/49712264986_2bc6e560c9_o.jpg",
    "id_image": "Witch_925002",
    "count_view": 0
  },
  {
    "link_thumb": "https://live.staticflickr.com/65535/49711758551_e10a27cde6_n.jpg",
    "id_album": "-1933715543",
    "description": "Horse_592598",
    "title": "Horse_592598",
    "link_img": "https://live.staticflickr.com/65535/49711758551_d80dd54b46_o.jpg",
    "id_image": "Horse_592598",
    "count_view": 0
  },
  {
    "link_thumb": "https://live.staticflickr.com/65535/49711678346_83d08b57f8_n.jpg",
    "id_album": "-1972042284",
    "description": "Fairy_704985",
    "title": "Fairy_704985",
    "link_img": "https://live.staticflickr.com/65535/49711678346_37891743ba_o.jpg",
    "id_image": "Fairy_704985",
    "count_view": 0
  },
  {
    "link_thumb": "https://live.staticflickr.com/65535/49711779792_8bbaa8e664_n.jpg",
    "id_album": "850176884",
    "description": "Dragon_480320",
    "title": "Dragon_480320",
    "link_img": "https://live.staticflickr.com/65535/49711779792_8048827b6e_o.jpg",
    "id_image": "Dragon_480320",
    "count_view": 0
  },
  {
    "link_thumb": "https://live.staticflickr.com/65535/49711034821_55a2fd34cd_n.jpg",
    "id_album": "-1541846310",
    "description": "Castle_174899",
    "title": "Castle_174899",
    "link_img": "https://live.staticflickr.com/65535/49711034821_e509cbe1d7_o.jpg",
    "id_image": "Castle_174899",
    "count_view": 0
  },
  {
    "link_thumb": "https://live.staticflickr.com/65535/49710924418_f1d4922fb1_n.jpg",
    "id_album": "850176884",
    "description": "Dragon_489933",
    "title": "Dragon_489933",
    "link_img": "https://live.staticflickr.com/65535/49710924418_bbe2268211_o.jpg",
    "id_image": "Dragon_489933",
    "count_view": 0
  },
  {
    "link_thumb": "https://live.staticflickr.com/65535/49911831303_9e3b3545f3_n.jpg",
    "id_album": "-1703946758",
    "description": "ANIME_PIC_5b056a660f8f555b6a8db7d6f7d7da2a",
    "title": "ANIME_PIC_5b056a660f8f555b6a8db7d6f7d7da2a",
    "link_img": "https://live.staticflickr.com/65535/49911831303_5f0981316c_o.jpg",
    "id_image": "ANIME_PIC_5b056a660f8f555b6a8db7d6f7d7da2a",
    "count_view": 0
  },
  {
    "link_thumb": "https://live.staticflickr.com/65535/49711286757_f0e8a9934b_n.jpg",
    "id_album": "523598895",
    "description": "Artistic_352794",
    "title": "Artistic_352794",
    "link_img": "https://live.staticflickr.com/65535/49711286757_6415160a8f_o.jpg",
    "id_image": "Artistic_352794",
    "count_view": 0
  },
  {
    "link_thumb": "https://live.staticflickr.com/65535/49711197431_47fa6508f1_n.jpg",
    "id_album": "-437872736",
    "description": "Creature_326302",
    "title": "Creature_326302",
    "link_img": "https://live.staticflickr.com/65535/49711197431_60da6f8736_o.jpg",
    "id_image": "Creature_326302",
    "count_view": 0
  },
  {
    "link_thumb": "https://live.staticflickr.com/65535/49712315842_60f2d89892_n.jpg",
    "id_album": "-1859457952",
    "description": "Love_234524",
    "title": "Love_234524",
    "link_img": "https://live.staticflickr.com/65535/49712315842_341e494185_o.jpg",
    "id_image": "Love_234524",
    "count_view": 0
  },
  {
    "link_thumb": "https://live.staticflickr.com/65535/49711361952_4211d97fa9_n.jpg",
    "id_album": "-1541846310",
    "description": "Castle_220868",
    "title": "Castle_220868",
    "link_img": "https://live.staticflickr.com/65535/49711361952_346f69f69f_o.jpg",
    "id_image": "Castle_220868",
    "count_view": 0
  },
  {
    "link_thumb": "https://live.staticflickr.com/65535/49711310408_7f2fce01b1_n.jpg",
    "id_album": "1402713104",
    "description": "Landscape_870078",
    "title": "Landscape_870078",
    "link_img": "https://live.staticflickr.com/65535/49711310408_05dda394ac_o.jpg",
    "id_image": "Landscape_870078",
    "count_view": 0
  },
  {
    "link_thumb": "https://live.staticflickr.com/65535/49711437342_422469950b_n.jpg",
    "id_album": "-1964113117",
    "description": "City_697949",
    "title": "City_697949",
    "link_img": "https://live.staticflickr.com/65535/49711437342_28dba9cfb0_o.jpg",
    "id_image": "City_697949",
    "count_view": 0
  },
  {
    "link_thumb": "https://live.staticflickr.com/65535/49798838201_74ee8e99e3_n.jpg",
    "id_album": "-1703946758",
    "description": "ANIME_PIC_c30033028447324305573219239e392f",
    "title": "ANIME_PIC_c30033028447324305573219239e392f",
    "link_img": "https://live.staticflickr.com/65535/49798838201_1ff34f3b05_o.jpg",
    "id_image": "ANIME_PIC_c30033028447324305573219239e392f",
    "count_view": 0
  },
  {
    "link_thumb": "https://live.staticflickr.com/65535/49712009297_c680a93c01_n.jpg",
    "id_album": "-1972042284",
    "description": "Fairy_910502",
    "title": "Fairy_910502",
    "link_img": "https://live.staticflickr.com/65535/49712009297_a6d7d7819f_o.jpg",
    "id_image": "Fairy_910502",
    "count_view": 0
  },
  {
    "link_thumb": "https://live.staticflickr.com/65535/49712843577_b505978017_n.jpg",
    "id_album": "-867594484",
    "description": "Women_599899",
    "title": "Women_599899",
    "link_img": "https://live.staticflickr.com/65535/49712843577_e29336bf0d_o.jpg",
    "id_image": "Women_599899",
    "count_view": 0
  },
  {
    "link_thumb": "https://live.staticflickr.com/65535/49711623452_c7e26506f9_n.jpg",
    "id_album": "-437872736",
    "description": "Creature_958941",
    "title": "Creature_958941",
    "link_img": "https://live.staticflickr.com/65535/49711623452_f2898fa486_o.jpg",
    "id_image": "Creature_958941",
    "count_view": 0
  },
  {
    "link_thumb": "https://live.staticflickr.com/65535/49712402657_07136ba730_n.jpg",
    "id_album": "-300361534",
    "description": "Pirate_252940",
    "title": "Pirate_252940",
    "link_img": "https://live.staticflickr.com/65535/49712402657_f80bfcdeba_o.jpg",
    "id_image": "Pirate_252940",
    "count_view": 0
  },
  {
    "link_thumb": "https://live.staticflickr.com/65535/49711560717_b724999146_n.jpg",
    "id_album": "-437872736",
    "description": "Creature_488495",
    "title": "Creature_488495",
    "link_img": "https://live.staticflickr.com/65535/49711560717_a5c31e210d_o.jpg",
    "id_image": "Creature_488495",
    "count_view": 0
  },
  {
    "link_thumb": "https://live.staticflickr.com/65535/49711249837_aba284b1c4_n.jpg",
    "id_album": "-1913845949",
    "description": "Animal_981250",
    "title": "Animal_981250",
    "link_img": "https://live.staticflickr.com/65535/49711249837_2c65b1e6e4_o.jpg",
    "id_image": "Animal_981250",
    "count_view": 0
  },
  {
    "link_thumb": "https://live.staticflickr.com/65535/49711492263_93dc5d018d_n.jpg",
    "id_album": "1721880108",
    "description": "Mermaid_597552",
    "title": "Mermaid_597552",
    "link_img": "https://live.staticflickr.com/65535/49711492263_1559a2c4eb_o.jpg",
    "id_image": "Mermaid_597552",
    "count_view": 0
  },
  {
    "link_thumb": "https://live.staticflickr.com/65535/49711311037_386c79979c_n.jpg",
    "id_album": "1187037014",
    "description": "Battle_240680",
    "title": "Battle_240680",
    "link_img": "https://live.staticflickr.com/65535/49711311037_ab737618f8_o.jpg",
    "id_image": "Battle_240680",
    "count_view": 0
  },
  {
    "link_thumb": "https://live.staticflickr.com/65535/49712329407_7ed2772109_n.jpg",
    "id_album": "-1613076477",
    "description": "Magic_943161",
    "title": "Magic_943161",
    "link_img": "https://live.staticflickr.com/65535/49712329407_97570d8c21_o.jpg",
    "id_image": "Magic_943161",
    "count_view": 0
  },
  {
    "link_thumb": "https://live.staticflickr.com/65535/49710396248_e25258037e_n.jpg",
    "id_album": "-1560111795",
    "description": "Archer_280789",
    "title": "Archer_280789",
    "link_img": "https://live.staticflickr.com/65535/49710396248_f37b44603f_o.jpg",
    "id_image": "Archer_280789",
    "count_view": 0
  },
  {
    "link_thumb": "https://live.staticflickr.com/65535/49711219881_9aaf01156c_n.jpg",
    "id_album": "-437872736",
    "description": "Creature_376592",
    "title": "Creature_376592",
    "link_img": "https://live.staticflickr.com/65535/49711219881_e4fac0795a_o.jpg",
    "id_image": "Creature_376592",
    "count_view": 0
  },
  {
    "link_thumb": "https://live.staticflickr.com/65535/49711706021_0d59eaec62_n.jpg",
    "id_album": "-1083189875",
    "description": "Forest_707129",
    "title": "Forest_707129",
    "link_img": "https://live.staticflickr.com/65535/49711706021_acea1d3758_o.jpg",
    "id_image": "Forest_707129",
    "count_view": 0
  },
  {
    "link_thumb": "https://live.staticflickr.com/65535/49711693912_fa9387d5be_n.jpg",
    "id_album": "850176884",
    "description": "Dragon_145084",
    "title": "Dragon_145084",
    "link_img": "https://live.staticflickr.com/65535/49711693912_19365ff5bb_o.jpg",
    "id_image": "Dragon_145084",
    "count_view": 0
  },
  {
    "link_thumb": "https://live.staticflickr.com/65535/49710458778_d5c616053b_n.jpg",
    "id_album": "1187037014",
    "description": "Battle_319703",
    "title": "Battle_319703",
    "link_img": "https://live.staticflickr.com/65535/49710458778_60d87abf41_o.jpg",
    "id_image": "Battle_319703",
    "count_view": 0
  },
  {
    "link_thumb": "https://live.staticflickr.com/65535/49711542797_85d18daf59_n.jpg",
    "id_album": "-437872736",
    "description": "Creature_370366",
    "title": "Creature_370366",
    "link_img": "https://live.staticflickr.com/65535/49711542797_5766db28d2_o.jpg",
    "id_image": "Creature_370366",
    "count_view": 0
  },
  {
    "link_thumb": "https://live.staticflickr.com/65535/49711152656_a814ff47ff_n.jpg",
    "id_album": "-437872736",
    "description": "Creature_179433",
    "title": "Creature_179433",
    "link_img": "https://live.staticflickr.com/65535/49711152656_c1b440a1ff_o.jpg",
    "id_image": "Creature_179433",
    "count_view": 0
  },
  {
    "link_thumb": "https://live.staticflickr.com/65535/49710775623_11f27cae82_n.jpg",
    "id_album": "2021464556",
    "description": "Dark_154279",
    "title": "Dark_154279",
    "link_img": "https://live.staticflickr.com/65535/49710775623_6d6ee0cb2d_o.jpg",
    "id_image": "Dark_154279",
    "count_view": 0
  },
  {
    "link_thumb": "https://live.staticflickr.com/65535/49710778418_17c4953e01_n.jpg",
    "id_album": "2021464556",
    "description": "Dark_186020",
    "title": "Dark_186020",
    "link_img": "https://live.staticflickr.com/65535/49710778418_a7b34781bb_o.jpg",
    "id_image": "Dark_186020",
    "count_view": 0
  },
  {
    "link_thumb": "https://live.staticflickr.com/65535/49711238227_1de8f8c1b3_n.jpg",
    "id_album": "-1913845949",
    "description": "Animal_652771",
    "title": "Animal_652771",
    "link_img": "https://live.staticflickr.com/65535/49711238227_ef498feabd_o.jpg",
    "id_image": "Animal_652771",
    "count_view": 0
  },
  {
    "link_thumb": "https://live.staticflickr.com/65535/49711893178_8d95349b2e_n.jpg",
    "id_album": "1861288871",
    "description": "Women_152042",
    "title": "Women_152042",
    "link_img": "https://live.staticflickr.com/65535/49711893178_8862926c04_o.jpg",
    "id_image": "Women_152042",
    "count_view": 0
  },
  {
    "link_thumb": "https://live.staticflickr.com/65535/49711295586_d13ce5e5e0_n.jpg",
    "id_album": "-437872736",
    "description": "Creature_958905",
    "title": "Creature_958905",
    "link_img": "https://live.staticflickr.com/65535/49711295586_9f16c7a0d4_o.jpg",
    "id_image": "Creature_958905",
    "count_view": 0
  },
  {
    "link_thumb": "https://live.staticflickr.com/65535/49711514853_58aed78f60_n.jpg",
    "id_album": "1892085513",
    "description": "Oriental_958049",
    "title": "Oriental_958049",
    "link_img": "https://live.staticflickr.com/65535/49711514853_253bd5d49a_o.jpg",
    "id_image": "Oriental_958049",
    "count_view": 0
  },
  {
    "link_thumb": "https://live.staticflickr.com/65535/49712166192_6d6d642a8d_n.jpg",
    "id_album": "1402713104",
    "description": "Landscape_869186",
    "title": "Landscape_869186",
    "link_img": "https://live.staticflickr.com/65535/49712166192_c25a88afd4_o.jpg",
    "id_image": "Landscape_869186",
    "count_view": 0
  },
  {
    "link_thumb": "https://live.staticflickr.com/65535/49711661556_386cb7556e_n.jpg",
    "id_album": "-1972042284",
    "description": "Fairy_359465",
    "title": "Fairy_359465",
    "link_img": "https://live.staticflickr.com/65535/49711661556_28e0a246a6_o.jpg",
    "id_image": "Fairy_359465",
    "count_view": 0
  },
  {
    "link_thumb": "https://live.staticflickr.com/65535/49711445782_1e10c3e3c8_n.jpg",
    "id_album": "-1964113117",
    "description": "City_861568",
    "title": "City_861568",
    "link_img": "https://live.staticflickr.com/65535/49711445782_40fc30a0c3_o.jpg",
    "id_image": "City_861568",
    "count_view": 0
  },
  {
    "link_thumb": "https://live.staticflickr.com/65535/49711815531_c78ec2c893_n.jpg",
    "id_album": "1402713104",
    "description": "Landscape_732343",
    "title": "Landscape_732343",
    "link_img": "https://live.staticflickr.com/65535/49711815531_857ba1ed52_o.jpg",
    "id_image": "Landscape_732343",
    "count_view": 0
  },
  {
    "link_thumb": "https://live.staticflickr.com/65535/49711266943_b52de2df30_n.jpg",
    "id_album": "1402713104",
    "description": "Landscape_685284",
    "title": "Landscape_685284",
    "link_img": "https://live.staticflickr.com/65535/49711266943_bfc58475d3_o.jpg",
    "id_image": "Landscape_685284",
    "count_view": 0
  },
  {
    "link_thumb": "https://live.staticflickr.com/65535/49710650583_9e31c18b34_n.jpg",
    "id_album": "-437872736",
    "description": "Creature_308643",
    "title": "Creature_308643",
    "link_img": "https://live.staticflickr.com/65535/49710650583_9a8622833c_o.jpg",
    "id_image": "Creature_308643",
    "count_view": 0
  },
  {
    "link_thumb": "https://live.staticflickr.com/65535/49711248462_4f72b90af1_n.jpg",
    "id_album": "-1913845949",
    "description": "Animal_954025",
    "title": "Animal_954025",
    "link_img": "https://live.staticflickr.com/65535/49711248462_dd41ca299f_o.jpg",
    "id_image": "Animal_954025",
    "count_view": 0
  },
  {
    "link_thumb": "https://live.staticflickr.com/65535/49712275036_f1272044fd_n.jpg",
    "id_album": "-709711865",
    "description": "Wolf_493414",
    "title": "Wolf_493414",
    "link_img": "https://live.staticflickr.com/65535/49712275036_23ac201fda_o.jpg",
    "id_image": "Wolf_493414",
    "count_view": 0
  },
  {
    "link_thumb": "https://live.staticflickr.com/65535/49712034937_fa5201277b_n.jpg",
    "id_album": "-1083189875",
    "description": "Forest_78425",
    "title": "Forest_78425",
    "link_img": "https://live.staticflickr.com/65535/49712034937_1246963721_o.jpg",
    "id_image": "Forest_78425",
    "count_view": 0
  },
  {
    "link_thumb": "https://live.staticflickr.com/65535/49711735773_38fb4027f5_n.jpg",
    "id_album": "-709711865",
    "description": "Wolf_145168",
    "title": "Wolf_145168",
    "link_img": "https://live.staticflickr.com/65535/49711735773_99f8045560_o.jpg",
    "id_image": "Wolf_145168",
    "count_view": 0
  },
  {
    "link_thumb": "https://live.staticflickr.com/65535/49711625588_f67fd0811a_n.jpg",
    "id_album": "405170427",
    "description": "Tiger_642282",
    "title": "Tiger_642282",
    "link_img": "https://live.staticflickr.com/65535/49711625588_74373890b7_o.jpg",
    "id_image": "Tiger_642282",
    "count_view": 0
  },
  {
    "link_thumb": "https://live.staticflickr.com/65535/49712716372_819bb8941f_n.jpg",
    "id_album": "295204930",
    "description": "Women_401835",
    "title": "Women_401835",
    "link_img": "https://live.staticflickr.com/65535/49712716372_4ea0358a0c_o.jpg",
    "id_image": "Women_401835",
    "count_view": 0
  },
  {
    "link_thumb": "https://live.staticflickr.com/65535/49712058922_48569c3fdf_n.jpg",
    "id_album": "402434752",
    "description": "Giant_711454",
    "title": "Giant_711454",
    "link_img": "https://live.staticflickr.com/65535/49712058922_f2557cc973_o.jpg",
    "id_image": "Giant_711454",
    "count_view": 0
  },
  {
    "link_thumb": "https://live.staticflickr.com/65535/49711680026_293422336f_n.jpg",
    "id_album": "-1972042284",
    "description": "Fairy_740793",
    "title": "Fairy_740793",
    "link_img": "https://live.staticflickr.com/65535/49711680026_9339e2f67d_o.jpg",
    "id_image": "Fairy_740793",
    "count_view": 0
  },
  {
    "link_thumb": "https://live.staticflickr.com/65535/49712038422_113324a5a1_n.jpg",
    "id_album": "-1083189875",
    "description": "Forest_864941",
    "title": "Forest_864941",
    "link_img": "https://live.staticflickr.com/65535/49712038422_4c3af919dd_o.jpg",
    "id_image": "Forest_864941",
    "count_view": 0
  },
  {
    "link_thumb": "https://live.staticflickr.com/65535/49712155873_609e37a191_n.jpg",
    "id_album": "-1675918237",
    "description": "WomenWarrior_876332",
    "title": "WomenWarrior_876332",
    "link_img": "https://live.staticflickr.com/65535/49712155873_57c18eb598_o.jpg",
    "id_image": "WomenWarrior_876332",
    "count_view": 0
  },
  {
    "link_thumb": "https://live.staticflickr.com/65535/49711571922_3774b0b0f2_n.jpg",
    "id_album": "-437872736",
    "description": "Creature_553800",
    "title": "Creature_553800",
    "link_img": "https://live.staticflickr.com/65535/49711571922_b422611d39_o.jpg",
    "id_image": "Creature_553800",
    "count_view": 0
  },
  {
    "link_thumb": "https://live.staticflickr.com/65535/49711607921_ff498b642f_n.jpg",
    "id_album": "134100487",
    "description": "Elf_302666",
    "title": "Elf_302666",
    "link_img": "https://live.staticflickr.com/65535/49711607921_ded5e013f4_o.jpg",
    "id_image": "Elf_302666",
    "count_view": 0
  },
  {
    "link_thumb": "https://live.staticflickr.com/65535/49711443001_050e804320_n.jpg",
    "id_album": "850176884",
    "description": "Dragon_413855",
    "title": "Dragon_413855",
    "link_img": "https://live.staticflickr.com/65535/49711443001_a2905211d7_o.jpg",
    "id_image": "Dragon_413855",
    "count_view": 0
  },
  {
    "link_thumb": "https://live.staticflickr.com/65535/49712699706_913e272d29_n.jpg",
    "id_album": "-1675918237",
    "description": "WomenWarrior_925005",
    "title": "WomenWarrior_925005",
    "link_img": "https://live.staticflickr.com/65535/49712699706_99c4cdbb74_o.jpg",
    "id_image": "WomenWarrior_925005",
    "count_view": 0
  },
  {
    "link_thumb": "https://live.staticflickr.com/65535/49711672686_283ed82650_n.jpg",
    "id_album": "-1972042284",
    "description": "Fairy_680471",
    "title": "Fairy_680471",
    "link_img": "https://live.staticflickr.com/65535/49711672686_cb3548454a_o.jpg",
    "id_image": "Fairy_680471",
    "count_view": 0
  },
  {
    "link_thumb": "https://live.staticflickr.com/65535/49711557582_2617415b40_n.jpg",
    "id_album": "-437872736",
    "description": "Creature_456103",
    "title": "Creature_456103",
    "link_img": "https://live.staticflickr.com/65535/49711557582_6fb1187f83_o.jpg",
    "id_image": "Creature_456103",
    "count_view": 0
  },
  {
    "link_thumb": "https://live.staticflickr.com/65535/49711076131_8bd835da0d_n.jpg",
    "id_album": "430704260",
    "description": "Child_158922",
    "title": "Child_158922",
    "link_img": "https://live.staticflickr.com/65535/49711076131_b3ab095343_o.jpg",
    "id_image": "Child_158922",
    "count_view": 0
  },
  {
    "link_thumb": "https://live.staticflickr.com/65535/49711389246_aedd4b6111_n.jpg",
    "id_album": "850176884",
    "description": "Dragon_225880",
    "title": "Dragon_225880",
    "link_img": "https://live.staticflickr.com/65535/49711389246_e33b9d1725_o.jpg",
    "id_image": "Dragon_225880",
    "count_view": 0
  },
  {
    "link_thumb": "https://live.staticflickr.com/65535/49710883271_6e0b0a1313_n.jpg",
    "id_album": "-1000175186",
    "description": "AngelWarrior_563714",
    "title": "AngelWarrior_563714",
    "link_img": "https://live.staticflickr.com/65535/49710883271_569167dce0_o.jpg",
    "id_image": "AngelWarrior_563714",
    "count_view": 0
  },
  {
    "link_thumb": "https://live.staticflickr.com/65535/49712006041_ef3b560a60_n.jpg",
    "id_album": "-1613076477",
    "description": "Magic_800726",
    "title": "Magic_800726",
    "link_img": "https://live.staticflickr.com/65535/49712006041_609af04aec_o.jpg",
    "id_image": "Magic_800726",
    "count_view": 0
  },
  {
    "link_thumb": "https://live.staticflickr.com/65535/49712380961_93d8a666d1_n.jpg",
    "id_album": "295204930",
    "description": "Women_341480",
    "title": "Women_341480",
    "link_img": "https://live.staticflickr.com/65535/49712380961_43f684b524_o.jpg",
    "id_image": "Women_341480",
    "count_view": 0
  },
  {
    "link_thumb": "https://live.staticflickr.com/65535/49711176361_c4fe5a8bf1_n.jpg",
    "id_album": "-437872736",
    "description": "Creature_285179",
    "title": "Creature_285179",
    "link_img": "https://live.staticflickr.com/65535/49711176361_eedd1f5089_o.jpg",
    "id_image": "Creature_285179",
    "count_view": 0
  },
  {
    "link_thumb": "https://live.staticflickr.com/65535/49711883992_721c00fcd4_n.jpg",
    "id_album": "850176884",
    "description": "Dragon_911885",
    "title": "Dragon_911885",
    "link_img": "https://live.staticflickr.com/65535/49711883992_a20539501d_o.jpg",
    "id_image": "Dragon_911885",
    "count_view": 0
  },
  {
    "link_thumb": "https://live.staticflickr.com/65535/49711747387_ab00006866_n.jpg",
    "id_album": "850176884",
    "description": "Dragon_331510",
    "title": "Dragon_331510",
    "link_img": "https://live.staticflickr.com/65535/49711747387_df215d5e74_o.jpg",
    "id_image": "Dragon_331510",
    "count_view": 0
  },
  {
    "link_thumb": "https://live.staticflickr.com/65535/49712538406_ba5f95cd6d_n.jpg",
    "id_album": "-867594484",
    "description": "Women_692590",
    "title": "Women_692590",
    "link_img": "https://live.staticflickr.com/65535/49712538406_d81d262b88_o.jpg",
    "id_image": "Women_692590",
    "count_view": 0
  },
  {
    "link_thumb": "https://live.staticflickr.com/65535/49710567638_6ff0d75d9a_n.jpg",
    "id_album": "-1964113117",
    "description": "City_477582",
    "title": "City_477582",
    "link_img": "https://live.staticflickr.com/65535/49710567638_439675f943_o.jpg",
    "id_image": "City_477582",
    "count_view": 0
  },
  {
    "link_thumb": "https://live.staticflickr.com/65535/49712177282_dbd4108977_n.jpg",
    "id_album": "1402713104",
    "description": "Landscape_906148",
    "title": "Landscape_906148",
    "link_img": "https://live.staticflickr.com/65535/49712177282_b582d8fbcb_o.jpg",
    "id_image": "Landscape_906148",
    "count_view": 0
  },
  {
    "link_thumb": "https://live.staticflickr.com/65535/49712793837_e4e2184df0_n.jpg",
    "id_album": "1861288871",
    "description": "Women_789296",
    "title": "Women_789296",
    "link_img": "https://live.staticflickr.com/65535/49712793837_a34f8b276d_o.jpg",
    "id_image": "Women_789296",
    "count_view": 0
  },
  {
    "link_thumb": "https://live.staticflickr.com/65535/49711047596_ccaeb7484d_n.jpg",
    "id_album": "-1541846310",
    "description": "Castle_527927",
    "title": "Castle_527927",
    "link_img": "https://live.staticflickr.com/65535/49711047596_6af9730c8b_o.jpg",
    "id_image": "Castle_527927",
    "count_view": 0
  },
  {
    "link_thumb": "https://live.staticflickr.com/65535/49711654657_50044ba97b_n.jpg",
    "id_album": "1903411565",
    "description": "Deer_931795",
    "title": "Deer_931795",
    "link_img": "https://live.staticflickr.com/65535/49711654657_2a593b2db5_o.jpg",
    "id_image": "Deer_931795",
    "count_view": 0
  },
  {
    "link_thumb": "https://live.staticflickr.com/65535/49710614283_5412482285_n.jpg",
    "id_album": "-437872736",
    "description": "Creature_164196",
    "title": "Creature_164196",
    "link_img": "https://live.staticflickr.com/65535/49710614283_0bc0df787d_o.jpg",
    "id_image": "Creature_164196",
    "count_view": 0
  },
  {
    "link_thumb": "https://live.staticflickr.com/65535/49712152898_414f0aba93_n.jpg",
    "id_album": "-1675918237",
    "description": "WomenWarrior_864649",
    "title": "WomenWarrior_864649",
    "link_img": "https://live.staticflickr.com/65535/49712152898_be9a4c1667_o.jpg",
    "id_image": "WomenWarrior_864649",
    "count_view": 0
  },
  {
    "link_thumb": "https://live.staticflickr.com/65535/49710458638_ef68eba4fd_n.jpg",
    "id_album": "1187037014",
    "description": "Battle_318710",
    "title": "Battle_318710",
    "link_img": "https://live.staticflickr.com/65535/49710458638_0d60cd4554_o.jpg",
    "id_image": "Battle_318710",
    "count_view": 0
  },
  {
    "link_thumb": "https://live.staticflickr.com/65535/49711566861_4925a2beb3_n.jpg",
    "id_album": "850176884",
    "description": "Dragon_921706",
    "title": "Dragon_921706",
    "link_img": "https://live.staticflickr.com/65535/49711566861_f01d9c6192_o.jpg",
    "id_image": "Dragon_921706",
    "count_view": 0
  },
  {
    "link_thumb": "https://live.staticflickr.com/65535/49710527763_f5861265bd_n.jpg",
    "id_album": "-1541846310",
    "description": "Castle_869602",
    "title": "Castle_869602",
    "link_img": "https://live.staticflickr.com/65535/49710527763_077a087ce2_o.jpg",
    "id_image": "Castle_869602",
    "count_view": 0
  },
  {
    "link_thumb": "https://live.staticflickr.com/65535/49710470663_43fbf9d97e_n.jpg",
    "id_album": "1187037014",
    "description": "Battle_593866",
    "title": "Battle_593866",
    "link_img": "https://live.staticflickr.com/65535/49710470663_297729271d_o.jpg",
    "id_image": "Battle_593866",
    "count_view": 0
  },
  {
    "link_thumb": "https://live.staticflickr.com/65535/49711931933_21fb8f7918_n.jpg",
    "id_album": "1861288871",
    "description": "Women_783682",
    "title": "Women_783682",
    "link_img": "https://live.staticflickr.com/65535/49711931933_a4ed9e20d1_o.jpg",
    "id_image": "Women_783682",
    "count_view": 0
  },
  {
    "link_thumb": "https://live.staticflickr.com/65535/49710410408_98f497fe22_n.jpg",
    "id_album": "523598895",
    "description": "Artistic_151071",
    "title": "Artistic_151071",
    "link_img": "https://live.staticflickr.com/65535/49710410408_b315df9fc2_o.jpg",
    "id_image": "Artistic_151071",
    "count_view": 0
  },
  {
    "link_thumb": "https://live.staticflickr.com/65535/49710649778_79d7858d37_n.jpg",
    "id_album": "-437872736",
    "description": "Creature_307402",
    "title": "Creature_307402",
    "link_img": "https://live.staticflickr.com/65535/49710649778_174684a110_o.jpg",
    "id_image": "Creature_307402",
    "count_view": 0
  },
  {
    "link_thumb": "https://live.staticflickr.com/65535/49711946738_d214482783_n.jpg",
    "id_album": "1861288871",
    "description": "Women_833868",
    "title": "Women_833868",
    "link_img": "https://live.staticflickr.com/65535/49711946738_f96cd830ee_o.jpg",
    "id_image": "Women_833868",
    "count_view": 0
  },
  {
    "link_thumb": "https://live.staticflickr.com/65535/49712576837_f3b2ee4461_n.jpg",
    "id_album": "786934945",
    "description": "Whale_985588",
    "title": "Whale_985588",
    "link_img": "https://live.staticflickr.com/65535/49712576837_d2ba16bb54_o.jpg",
    "id_image": "Whale_985588",
    "count_view": 0
  },
  {
    "link_thumb": "https://live.staticflickr.com/65535/49711375901_74136041c3_n.jpg",
    "id_album": "850176884",
    "description": "Dragon_169175",
    "title": "Dragon_169175",
    "link_img": "https://live.staticflickr.com/65535/49711375901_51b985cc4d_o.jpg",
    "id_image": "Dragon_169175",
    "count_view": 0
  },
  {
    "link_thumb": "https://live.staticflickr.com/65535/49712056911_cf530a1b4d_n.jpg",
    "id_album": "-1862561193",
    "description": "Other_239749",
    "title": "Other_239749",
    "link_img": "https://live.staticflickr.com/65535/49712056911_e6a7053467_o.jpg",
    "id_image": "Other_239749",
    "count_view": 0
  },
  {
    "link_thumb": "https://live.staticflickr.com/65535/49712276557_547db9c302_n.jpg",
    "id_album": "-833110404",
    "description": "Landscape_496080",
    "title": "Landscape_496080",
    "link_img": "https://live.staticflickr.com/65535/49712276557_7b38b723c7_o.jpg",
    "id_image": "Landscape_496080",
    "count_view": 0
  },
  {
    "link_thumb": "https://live.staticflickr.com/65535/49712962142_fbb2dc24cf_n.jpg",
    "id_album": "-1675918237",
    "description": "WomenWarrior_557535",
    "title": "WomenWarrior_557535",
    "link_img": "https://live.staticflickr.com/65535/49712962142_ee311330de_o.jpg",
    "id_image": "WomenWarrior_557535",
    "count_view": 0
  },
  {
    "link_thumb": "https://live.staticflickr.com/65535/49711032961_af1c1e2b79_n.jpg",
    "id_album": "-1541846310",
    "description": "Castle_146685",
    "title": "Castle_146685",
    "link_img": "https://live.staticflickr.com/65535/49711032961_63bd805d19_o.jpg",
    "id_image": "Castle_146685",
    "count_view": 0
  },
  {
    "link_thumb": "https://live.staticflickr.com/65535/49711216561_0defd01b7d_n.jpg",
    "id_album": "-437872736",
    "description": "Creature_368201",
    "title": "Creature_368201",
    "link_img": "https://live.staticflickr.com/65535/49711216561_64f3a07f64_o.jpg",
    "id_image": "Creature_368201",
    "count_view": 0
  },
  {
    "link_thumb": "https://live.staticflickr.com/65535/49711607707_f56a0f473d_n.jpg",
    "id_album": "-437872736",
    "description": "Creature_958687",
    "title": "Creature_958687",
    "link_img": "https://live.staticflickr.com/65535/49711607707_e62e305ed7_o.jpg",
    "id_image": "Creature_958687",
    "count_view": 0
  },
  {
    "link_thumb": "https://live.staticflickr.com/65535/49712064526_aeb8f12494_n.jpg",
    "id_album": "-639976841",
    "description": "Pegasus_547046",
    "title": "Pegasus_547046",
    "link_img": "https://live.staticflickr.com/65535/49712064526_59b8c1e3bf_o.jpg",
    "id_image": "Pegasus_547046",
    "count_view": 0
  },
  {
    "link_thumb": "https://live.staticflickr.com/65535/49711048346_898567e9bb_n.jpg",
    "id_album": "-1541846310",
    "description": "Castle_557533",
    "title": "Castle_557533",
    "link_img": "https://live.staticflickr.com/65535/49711048346_5c3a5c278e_o.jpg",
    "id_image": "Castle_557533",
    "count_view": 0
  },
  {
    "link_thumb": "https://live.staticflickr.com/65535/49712755242_45401cb734_n.jpg",
    "id_album": "1861288871",
    "description": "Women_204850",
    "title": "Women_204850",
    "link_img": "https://live.staticflickr.com/65535/49712755242_9f4731b336_o.jpg",
    "id_image": "Women_204850",
    "count_view": 0
  },
  {
    "link_thumb": "https://live.staticflickr.com/65535/49710389138_3860756cea_n.jpg",
    "id_album": "-1913845949",
    "description": "Animal_928820",
    "title": "Animal_928820",
    "link_img": "https://live.staticflickr.com/65535/49710389138_ab43305909_o.jpg",
    "id_image": "Animal_928820",
    "count_view": 0
  },
  {
    "link_thumb": "https://live.staticflickr.com/65535/49711014973_22c6524587_n.jpg",
    "id_album": "850176884",
    "description": "Dragon_881762",
    "title": "Dragon_881762",
    "link_img": "https://live.staticflickr.com/65535/49711014973_f366148fc1_o.jpg",
    "id_image": "Dragon_881762",
    "count_view": 0
  },
  {
    "link_thumb": "https://live.staticflickr.com/65535/49711405413_15a8455b7d_n.jpg",
    "id_album": "-833110404",
    "description": "Landscape_417362",
    "title": "Landscape_417362",
    "link_img": "https://live.staticflickr.com/65535/49711405413_b04068b73a_o.jpg",
    "id_image": "Landscape_417362",
    "count_view": 0
  },
  {
    "link_thumb": "https://live.staticflickr.com/65535/49710325883_e212620ed0_n.jpg",
    "id_album": "-2109465612",
    "description": "Adventure_235399",
    "title": "Adventure_235399",
    "link_img": "https://live.staticflickr.com/65535/49710325883_1f6f2a3518_o.jpg",
    "id_image": "Adventure_235399",
    "count_view": 0
  },
  {
    "link_thumb": "https://live.staticflickr.com/65535/49711702362_1353f51fe1_n.jpg",
    "id_album": "850176884",
    "description": "Dragon_188285",
    "title": "Dragon_188285",
    "link_img": "https://live.staticflickr.com/65535/49711702362_f7dc2da054_o.jpg",
    "id_image": "Dragon_188285",
    "count_view": 0
  },
  {
    "link_thumb": "https://live.staticflickr.com/65535/49710564498_6691d336cf_n.jpg",
    "id_album": "-1964113117",
    "description": "City_388653",
    "title": "City_388653",
    "link_img": "https://live.staticflickr.com/65535/49710564498_f864e7f1b4_o.jpg",
    "id_image": "City_388653",
    "count_view": 0
  },
  {
    "link_thumb": "https://live.staticflickr.com/65535/49711584736_fffd96288c_n.jpg",
    "id_album": "850176884",
    "description": "Dragon_974467",
    "title": "Dragon_974467",
    "link_img": "https://live.staticflickr.com/65535/49711584736_5f08eaf940_o.jpg",
    "id_image": "Dragon_974467",
    "count_view": 0
  },
  {
    "link_thumb": "https://live.staticflickr.com/65535/49711975066_57cfc13552_n.jpg",
    "id_album": "-1284959130",
    "description": "LegendOfTheFiveRings_152763",
    "title": "LegendOfTheFiveRings_152763",
    "link_img": "https://live.staticflickr.com/65535/49711975066_e86565325f_o.jpg",
    "id_image": "LegendOfTheFiveRings_152763",
    "count_view": 0
  },
  {
    "link_thumb": "https://live.staticflickr.com/65535/49711771101_093985a6d0_n.jpg",
    "id_album": "1957967226",
    "description": "House_753655",
    "title": "House_753655",
    "link_img": "https://live.staticflickr.com/65535/49711771101_7ec3445235_o.jpg",
    "id_image": "House_753655",
    "count_view": 0
  },
  {
    "link_thumb": "https://live.staticflickr.com/65535/49711882993_ba1af8eedf_n.jpg",
    "id_album": "295204930",
    "description": "Women_732171",
    "title": "Women_732171",
    "link_img": "https://live.staticflickr.com/65535/49711882993_eb4e7d51d8_o.jpg",
    "id_image": "Women_732171",
    "count_view": 0
  },
  {
    "link_thumb": "https://live.staticflickr.com/65535/49710673328_054f27b92b_n.jpg",
    "id_album": "-437872736",
    "description": "Creature_341823",
    "title": "Creature_341823",
    "link_img": "https://live.staticflickr.com/65535/49710673328_e637b2737a_o.jpg",
    "id_image": "Creature_341823",
    "count_view": 0
  },
  {
    "link_thumb": "https://live.staticflickr.com/65535/49711545941_d894afdab0_n.jpg",
    "id_album": "850176884",
    "description": "Dragon_873795",
    "title": "Dragon_873795",
    "link_img": "https://live.staticflickr.com/65535/49711545941_3fc0d7f0fc_o.jpg",
    "id_image": "Dragon_873795",
    "count_view": 0
  },
  {
    "link_thumb": "https://live.staticflickr.com/65535/49711191226_447f6d43be_n.jpg",
    "id_album": "-437872736",
    "description": "Creature_316472",
    "title": "Creature_316472",
    "link_img": "https://live.staticflickr.com/65535/49711191226_71188116b0_o.jpg",
    "id_image": "Creature_316472",
    "count_view": 0
  },
  {
    "link_thumb": "https://live.staticflickr.com/65535/49712998207_74371fe649_n.jpg",
    "id_album": "-1675918237",
    "description": "WomenWarrior_798874",
    "title": "WomenWarrior_798874",
    "link_img": "https://live.staticflickr.com/65535/49712998207_0bc23f91b6_o.jpg",
    "id_image": "WomenWarrior_798874",
    "count_view": 0
  },
  {
    "link_thumb": "https://live.staticflickr.com/65535/49711743171_78e6e46df4_n.jpg",
    "id_album": "1131236559",
    "description": "Gods_239343",
    "title": "Gods_239343",
    "link_img": "https://live.staticflickr.com/65535/49711743171_90b846eddc_o.jpg",
    "id_image": "Gods_239343",
    "count_view": 0
  },
  {
    "link_thumb": "https://live.staticflickr.com/65535/49710646968_d01ece4c78_n.jpg",
    "id_album": "-437872736",
    "description": "Creature_302447",
    "title": "Creature_302447",
    "link_img": "https://live.staticflickr.com/65535/49710646968_1db726b5da_o.jpg",
    "id_image": "Creature_302447",
    "count_view": 0
  },
  {
    "link_thumb": "https://live.staticflickr.com/65535/49711505721_d24eb693c1_n.jpg",
    "id_album": "850176884",
    "description": "Dragon_685083",
    "title": "Dragon_685083",
    "link_img": "https://live.staticflickr.com/65535/49711505721_0e3369a2af_o.jpg",
    "id_image": "Dragon_685083",
    "count_view": 0
  },
  {
    "link_thumb": "https://live.staticflickr.com/65535/49712418432_9553d8a422_n.jpg",
    "id_album": "1223576123",
    "description": "Ruin_681177",
    "title": "Ruin_681177",
    "link_img": "https://live.staticflickr.com/65535/49712418432_e45c2183e1_o.jpg",
    "id_image": "Ruin_681177",
    "count_view": 0
  },
  {
    "link_thumb": "https://live.staticflickr.com/65535/49710866088_f7ce5506fc_n.jpg",
    "id_album": "850176884",
    "description": "Dragon_255080",
    "title": "Dragon_255080",
    "link_img": "https://live.staticflickr.com/65535/49710866088_a93706fa84_o.jpg",
    "id_image": "Dragon_255080",
    "count_view": 0
  },
  {
    "link_thumb": "https://live.staticflickr.com/65535/49711256336_32542d886d_n.jpg",
    "id_album": "-437872736",
    "description": "Creature_655693",
    "title": "Creature_655693",
    "link_img": "https://live.staticflickr.com/65535/49711256336_7ec53d3032_o.jpg",
    "id_image": "Creature_655693",
    "count_view": 0
  },
  {
    "link_thumb": "https://live.staticflickr.com/65535/49710719773_a5130c4d70_n.jpg",
    "id_album": "-437872736",
    "description": "Creature_655555",
    "title": "Creature_655555",
    "link_img": "https://live.staticflickr.com/65535/49710719773_b3cba6f9da_o.jpg",
    "id_image": "Creature_655555",
    "count_view": 0
  },
  {
    "link_thumb": "https://live.staticflickr.com/65535/49712850997_d6ece65421_n.jpg",
    "id_album": "-867594484",
    "description": "Women_655674",
    "title": "Women_655674",
    "link_img": "https://live.staticflickr.com/65535/49712850997_86a4f35e7c_o.jpg",
    "id_image": "Women_655674",
    "count_view": 0
  },
  {
    "link_thumb": "https://live.staticflickr.com/65535/49710870276_3108bb1e12_n.jpg",
    "id_album": "-956471126",
    "description": "AliceInWonderland_167439",
    "title": "AliceInWonderland_167439",
    "link_img": "https://live.staticflickr.com/65535/49710870276_a88a1719ed_o.jpg",
    "id_image": "AliceInWonderland_167439",
    "count_view": 0
  },
  {
    "link_thumb": "https://live.staticflickr.com/65535/49711235092_3253768f55_n.jpg",
    "id_album": "-1913845949",
    "description": "Animal_636078",
    "title": "Animal_636078",
    "link_img": "https://live.staticflickr.com/65535/49711235092_1cb693ce41_o.jpg",
    "id_image": "Animal_636078",
    "count_view": 0
  },
  {
    "link_thumb": "https://live.staticflickr.com/65535/49711326767_3c68e303cd_n.jpg",
    "id_album": "1187037014",
    "description": "Battle_528452",
    "title": "Battle_528452",
    "link_img": "https://live.staticflickr.com/65535/49711326767_11b4d56c83_o.jpg",
    "id_image": "Battle_528452",
    "count_view": 0
  },
  {
    "link_thumb": "https://live.staticflickr.com/65535/49711291776_31fb920b0c_n.jpg",
    "id_album": "-437872736",
    "description": "Creature_958875",
    "title": "Creature_958875",
    "link_img": "https://live.staticflickr.com/65535/49711291776_d59ee63289_o.jpg",
    "id_image": "Creature_958875",
    "count_view": 0
  },
  {
    "link_thumb": "https://live.staticflickr.com/65535/49711646367_affa02f7d5_n.jpg",
    "id_album": "2021464556",
    "description": "Dark_686253",
    "title": "Dark_686253",
    "link_img": "https://live.staticflickr.com/65535/49711646367_bc79729e28_o.jpg",
    "id_image": "Dark_686253",
    "count_view": 0
  },
  {
    "link_thumb": "https://live.staticflickr.com/65535/49711374111_3d9b550dc8_n.jpg",
    "id_album": "850176884",
    "description": "Dragon_151973",
    "title": "Dragon_151973",
    "link_img": "https://live.staticflickr.com/65535/49711374111_64146c29ed_o.jpg",
    "id_image": "Dragon_151973",
    "count_view": 0
  },
  {
    "link_thumb": "https://live.staticflickr.com/65535/49711459788_5e4be76b5e_n.jpg",
    "id_album": "-1859457952",
    "description": "Love_351518",
    "title": "Love_351518",
    "link_img": "https://live.staticflickr.com/65535/49711459788_ae69a0d1e7_o.jpg",
    "id_image": "Love_351518",
    "count_view": 0
  },
  {
    "link_thumb": "https://live.staticflickr.com/65535/49711826496_fcb36f735b_n.jpg",
    "id_album": "1402713104",
    "description": "Landscape_855934",
    "title": "Landscape_855934",
    "link_img": "https://live.staticflickr.com/65535/49711826496_43f3aa4521_o.jpg",
    "id_image": "Landscape_855934",
    "count_view": 0
  },
  {
    "link_thumb": "https://live.staticflickr.com/65535/49711409747_ca0d8c1b17_n.jpg",
    "id_album": "430704260",
    "description": "Child_938170",
    "title": "Child_938170",
    "link_img": "https://live.staticflickr.com/65535/49711409747_f4def5d852_o.jpg",
    "id_image": "Child_938170",
    "count_view": 0
  },
  {
    "link_thumb": "https://live.staticflickr.com/65535/49711877861_3cdde2b540_n.jpg",
    "id_album": "1402713104",
    "description": "Landscape_969682",
    "title": "Landscape_969682",
    "link_img": "https://live.staticflickr.com/65535/49711877861_ff0ce80e7d_o.jpg",
    "id_image": "Landscape_969682",
    "count_view": 0
  },
  {
    "link_thumb": "https://live.staticflickr.com/65535/49711542426_9ae9a6c918_n.jpg",
    "id_album": "850176884",
    "description": "Dragon_869185",
    "title": "Dragon_869185",
    "link_img": "https://live.staticflickr.com/65535/49711542426_7352864e46_o.jpg",
    "id_image": "Dragon_869185",
    "count_view": 0
  },
  {
    "link_thumb": "https://live.staticflickr.com/65535/49711304642_fbb9d9b4a6_n.jpg",
    "id_album": "523598895",
    "description": "Artistic_869736",
    "title": "Artistic_869736",
    "link_img": "https://live.staticflickr.com/65535/49711304642_6bb67ff998_o.jpg",
    "id_image": "Artistic_869736",
    "count_view": 0
  },
  {
    "link_thumb": "https://live.staticflickr.com/65535/49710995153_78cbe08f71_n.jpg",
    "id_album": "850176884",
    "description": "Dragon_82362",
    "title": "Dragon_82362",
    "link_img": "https://live.staticflickr.com/65535/49710995153_57c1a0f5d7_o.jpg",
    "id_image": "Dragon_82362",
    "count_view": 0
  },
  {
    "link_thumb": "https://live.staticflickr.com/65535/49711934008_2c21165656_n.jpg",
    "id_album": "1861288871",
    "description": "Women_785121",
    "title": "Women_785121",
    "link_img": "https://live.staticflickr.com/65535/49711934008_61bbb31edd_o.jpg",
    "id_image": "Women_785121",
    "count_view": 0
  },
  {
    "link_thumb": "https://live.staticflickr.com/65535/49798291773_921c7367a2_n.jpg",
    "id_album": "-1703946758",
    "description": "ANIME_PIC_e273ee3336eedebdafde18fb5b400f29",
    "title": "ANIME_PIC_e273ee3336eedebdafde18fb5b400f29",
    "link_img": "https://live.staticflickr.com/65535/49798291773_f30bd0bd5b_o.jpg",
    "id_image": "ANIME_PIC_e273ee3336eedebdafde18fb5b400f29",
    "count_view": 0
  },
  {
    "link_thumb": "https://live.staticflickr.com/65535/49712315056_84d2863071_n.jpg",
    "id_album": "-1126835654",
    "description": "Women_870259",
    "title": "Women_870259",
    "link_img": "https://live.staticflickr.com/65535/49712315056_9af80c36c4_o.jpg",
    "id_image": "Women_870259",
    "count_view": 0
  },
  {
    "link_thumb": "https://live.staticflickr.com/65535/49711383427_440843815b_n.jpg",
    "id_album": "-1541846310",
    "description": "Castle_857468",
    "title": "Castle_857468",
    "link_img": "https://live.staticflickr.com/65535/49711383427_42b6108d1d_o.jpg",
    "id_image": "Castle_857468",
    "count_view": 0
  },
  {
    "link_thumb": "https://live.staticflickr.com/65535/49711973756_7bf7bf4b2c_n.jpg",
    "id_album": "-833110404",
    "description": "Landscape_625852",
    "title": "Landscape_625852",
    "link_img": "https://live.staticflickr.com/65535/49711973756_257e62781c_o.jpg",
    "id_image": "Landscape_625852",
    "count_view": 0
  },
  {
    "link_thumb": "https://live.staticflickr.com/65535/49712217607_7536f44de4_n.jpg",
    "id_album": "-833110404",
    "description": "Landscape_235395",
    "title": "Landscape_235395",
    "link_img": "https://live.staticflickr.com/65535/49712217607_5d922fa4ab_o.jpg",
    "id_image": "Landscape_235395",
    "count_view": 0
  },
  {
    "link_thumb": "https://live.staticflickr.com/65535/49712500197_61026ed11e_n.jpg",
    "id_album": "431597977",
    "description": "Unicorn_239599",
    "title": "Unicorn_239599",
    "link_img": "https://live.staticflickr.com/65535/49712500197_6a24c43af6_o.jpg",
    "id_image": "Unicorn_239599",
    "count_view": 0
  },
  {
    "link_thumb": "https://live.staticflickr.com/65535/49711586938_073d2d6b5c_n.jpg",
    "id_album": "407101116",
    "description": "SeaMonster_425828",
    "title": "SeaMonster_425828",
    "link_img": "https://live.staticflickr.com/65535/49711586938_e31fcf140e_o.jpg",
    "id_image": "SeaMonster_425828",
    "count_view": 0
  },
  {
    "link_thumb": "https://live.staticflickr.com/65535/49711706578_0734bb6023_n.jpg",
    "id_album": "1173975892",
    "description": "Werewolf_177101",
    "title": "Werewolf_177101",
    "link_img": "https://live.staticflickr.com/65535/49711706578_f7e91e710b_o.jpg",
    "id_image": "Werewolf_177101",
    "count_view": 0
  },
  {
    "link_thumb": "https://live.staticflickr.com/65535/49711452901_1cf7389a9f_n.jpg",
    "id_album": "850176884",
    "description": "Dragon_455774",
    "title": "Dragon_455774",
    "link_img": "https://live.staticflickr.com/65535/49711452901_b7518edd68_o.jpg",
    "id_image": "Dragon_455774",
    "count_view": 0
  },
  {
    "link_thumb": "https://live.staticflickr.com/65535/49712831492_2173234c4d_n.jpg",
    "id_album": "-867594484",
    "description": "Women_564483",
    "title": "Women_564483",
    "link_img": "https://live.staticflickr.com/65535/49712831492_1d6801f019_o.jpg",
    "id_image": "Women_564483",
    "count_view": 0
  },
  {
    "link_thumb": "https://live.staticflickr.com/65535/49711192426_033a360bec_n.jpg",
    "id_album": "-437872736",
    "description": "Creature_320026",
    "title": "Creature_320026",
    "link_img": "https://live.staticflickr.com/65535/49711192426_6e5a6cb50c_o.jpg",
    "id_image": "Creature_320026",
    "count_view": 0
  },
  {
    "link_thumb": "https://live.staticflickr.com/65535/49712093276_ebaa834332_n.jpg",
    "id_album": "606798642",
    "description": "RedRidingHood_991069",
    "title": "RedRidingHood_991069",
    "link_img": "https://live.staticflickr.com/65535/49712093276_1b06c6eb00_o.jpg",
    "id_image": "RedRidingHood_991069",
    "count_view": 0
  },
  {
    "link_thumb": "https://live.staticflickr.com/65535/49711189661_d79b52497d_n.jpg",
    "id_album": "-437872736",
    "description": "Creature_313989",
    "title": "Creature_313989",
    "link_img": "https://live.staticflickr.com/65535/49711189661_6b5369daf1_o.jpg",
    "id_image": "Creature_313989",
    "count_view": 0
  },
  {
    "link_thumb": "https://live.staticflickr.com/65535/49712535596_153afc19d1_n.jpg",
    "id_album": "-867594484",
    "description": "Women_687098",
    "title": "Women_687098",
    "link_img": "https://live.staticflickr.com/65535/49712535596_e74c8527cd_o.jpg",
    "id_image": "Women_687098",
    "count_view": 0
  },
  {
    "link_thumb": "https://live.staticflickr.com/65535/49711799016_ba9b2349d3_n.jpg",
    "id_album": "1402713104",
    "description": "Landscape_676418",
    "title": "Landscape_676418",
    "link_img": "https://live.staticflickr.com/65535/49711799016_e8d461d424_o.jpg",
    "id_image": "Landscape_676418",
    "count_view": 0
  },
  {
    "link_thumb": "https://live.staticflickr.com/65535/49711754058_58c70c8e5f_n.jpg",
    "id_album": "-709711865",
    "description": "Wolf_739404",
    "title": "Wolf_739404",
    "link_img": "https://live.staticflickr.com/65535/49711754058_b85a24e222_o.jpg",
    "id_image": "Wolf_739404",
    "count_view": 0
  },
  {
    "link_thumb": "https://live.staticflickr.com/65535/49711617073_c1d12e92b2_n.jpg",
    "id_album": "1186644325",
    "description": "Tattoo_170706",
    "title": "Tattoo_170706",
    "link_img": "https://live.staticflickr.com/65535/49711617073_73f30d99fe_o.jpg",
    "id_image": "Tattoo_170706",
    "count_view": 0
  },
  {
    "link_thumb": "https://live.staticflickr.com/65535/49711829322_f0370d37a2_n.jpg",
    "id_album": "850176884",
    "description": "Dragon_693917",
    "title": "Dragon_693917",
    "link_img": "https://live.staticflickr.com/65535/49711829322_3f974e328c_o.jpg",
    "id_image": "Dragon_693917",
    "count_view": 0
  },
  {
    "link_thumb": "https://live.staticflickr.com/65535/49711503008_1c8b1b1b0b_n.jpg",
    "id_album": "1892085513",
    "description": "Oriental_268804",
    "title": "Oriental_268804",
    "link_img": "https://live.staticflickr.com/65535/49711503008_d820bd6313_o.jpg",
    "id_image": "Oriental_268804",
    "count_view": 0
  },
  {
    "link_thumb": "https://live.staticflickr.com/65535/49710489788_e3518b183e_n.jpg",
    "id_album": "406431601",
    "description": "Building_697281",
    "title": "Building_697281",
    "link_img": "https://live.staticflickr.com/65535/49710489788_a3c80e1972_o.jpg",
    "id_image": "Building_697281",
    "count_view": 0
  },
  {
    "link_thumb": "https://live.staticflickr.com/65535/49710928393_0aa73fefb8_n.jpg",
    "id_album": "850176884",
    "description": "Dragon_497606",
    "title": "Dragon_497606",
    "link_img": "https://live.staticflickr.com/65535/49710928393_895d87745f_o.jpg",
    "id_image": "Dragon_497606",
    "count_view": 0
  },
  {
    "link_thumb": "https://live.staticflickr.com/65535/49711660407_7c10af9876_n.jpg",
    "id_album": "7198985",
    "description": "Demon_499631",
    "title": "Demon_499631",
    "link_img": "https://live.staticflickr.com/65535/49711660407_4e1a06ffc0_o.jpg",
    "id_image": "Demon_499631",
    "count_view": 0
  },
  {
    "link_thumb": "https://live.staticflickr.com/65535/49712636582_dcd97d9888_n.jpg",
    "id_album": "-1126835654",
    "description": "Women_866843",
    "title": "Women_866843",
    "link_img": "https://live.staticflickr.com/65535/49712636582_4ff0c1cc28_o.jpg",
    "id_image": "Women_866843",
    "count_view": 0
  },
  {
    "link_thumb": "https://live.staticflickr.com/65535/49712226842_4bce02d327_n.jpg",
    "id_album": "-833110404",
    "description": "Landscape_269793",
    "title": "Landscape_269793",
    "link_img": "https://live.staticflickr.com/65535/49712226842_ff1422ea7d_o.jpg",
    "id_image": "Landscape_269793",
    "count_view": 0
  },
  {
    "link_thumb": "https://live.staticflickr.com/65535/49711209238_28833327b7_n.jpg",
    "id_album": "1131236559",
    "description": "Gods_256652",
    "title": "Gods_256652",
    "link_img": "https://live.staticflickr.com/65535/49711209238_49d934b3e2_o.jpg",
    "id_image": "Gods_256652",
    "count_view": 0
  },
  {
    "link_thumb": "https://live.staticflickr.com/65535/49711158346_c2c7d53ef8_n.jpg",
    "id_album": "-437872736",
    "description": "Creature_216408",
    "title": "Creature_216408",
    "link_img": "https://live.staticflickr.com/65535/49711158346_d1cd6b15a9_o.jpg",
    "id_image": "Creature_216408",
    "count_view": 0
  },
  {
    "link_thumb": "https://live.staticflickr.com/65535/49712553037_7cf56ef1bf_n.jpg",
    "id_album": "-1261420436",
    "description": "Warrior_901329",
    "title": "Warrior_901329",
    "link_img": "https://live.staticflickr.com/65535/49712553037_0ce8b699cc_o.jpg",
    "id_image": "Warrior_901329",
    "count_view": 0
  },
  {
    "link_thumb": "https://live.staticflickr.com/65535/49711273051_66da0792ea_n.jpg",
    "id_album": "-437872736",
    "description": "Creature_91827",
    "title": "Creature_91827",
    "link_img": "https://live.staticflickr.com/65535/49711273051_b9c0d76a40_o.jpg",
    "id_image": "Creature_91827",
    "count_view": 0
  },
  {
    "link_thumb": "https://live.staticflickr.com/65535/49710944813_503ac63f70_n.jpg",
    "id_album": "850176884",
    "description": "Dragon_557556",
    "title": "Dragon_557556",
    "link_img": "https://live.staticflickr.com/65535/49710944813_b2def05631_o.jpg",
    "id_image": "Dragon_557556",
    "count_view": 0
  },
  {
    "link_thumb": "https://live.staticflickr.com/65535/49711183237_7b3f252962_n.jpg",
    "id_album": "-2109465612",
    "description": "Adventure_225834",
    "title": "Adventure_225834",
    "link_img": "https://live.staticflickr.com/65535/49711183237_bcaa8388a3_o.jpg",
    "id_image": "Adventure_225834",
    "count_view": 0
  },
  {
    "link_thumb": "https://live.staticflickr.com/65535/49711230013_78e5738d44_n.jpg",
    "id_album": "1957967226",
    "description": "House_357503",
    "title": "House_357503",
    "link_img": "https://live.staticflickr.com/65535/49711230013_70d6251ce7_o.jpg",
    "id_image": "House_357503",
    "count_view": 0
  },
  {
    "link_thumb": "https://live.staticflickr.com/65535/49711197302_c6131cd81a_n.jpg",
    "id_album": "-1000175186",
    "description": "AngelWarrior_112733",
    "title": "AngelWarrior_112733",
    "link_img": "https://live.staticflickr.com/65535/49711197302_9db9090609_o.jpg",
    "id_image": "AngelWarrior_112733",
    "count_view": 0
  },
  {
    "link_thumb": "https://live.staticflickr.com/65535/49711770232_1b6d35211f_n.jpg",
    "id_album": "850176884",
    "description": "Dragon_445876",
    "title": "Dragon_445876",
    "link_img": "https://live.staticflickr.com/65535/49711770232_c5a6eb2492_o.jpg",
    "id_image": "Dragon_445876",
    "count_view": 0
  },
  {
    "link_thumb": "https://live.staticflickr.com/65535/49711767226_bb4d49f575_n.jpg",
    "id_album": "1957967226",
    "description": "House_599388",
    "title": "House_599388",
    "link_img": "https://live.staticflickr.com/65535/49711767226_5923ef7fe5_o.jpg",
    "id_image": "House_599388",
    "count_view": 0
  },
  {
    "link_thumb": "https://live.staticflickr.com/65535/49711071636_a958250e71_n.jpg",
    "id_album": "-1741487325",
    "description": "Cat_747521",
    "title": "Cat_747521",
    "link_img": "https://live.staticflickr.com/65535/49711071636_4ebb205108_o.jpg",
    "id_image": "Cat_747521",
    "count_view": 0
  },
  {
    "link_thumb": "https://live.staticflickr.com/65535/49712618917_7f4b75cc38_n.jpg",
    "id_album": "-709711865",
    "description": "Wolf_901620",
    "title": "Wolf_901620",
    "link_img": "https://live.staticflickr.com/65535/49712618917_e34341771c_o.jpg",
    "id_image": "Wolf_901620",
    "count_view": 0
  }
]