[
  {
    "total_img": 0,
    "number_page": 0,
    "title": "Werewolf",
    "tag": "Werewolf,",
    "description": "Werewolf",
    "link_thumb": "https://live.staticflickr.com/65535/49712241051_53d4211845_n.jpg",
    "id_album": "1173975892",
    "total_view": 30
  }
]