[
  {
    "link_thumb": "https://live.staticflickr.com/65535/49712472782_de88727b61_n.jpg",
    "id_album": "1186644325",
    "description": "Tattoo_102255",
    "title": "Tattoo_102255",
    "link_img": "https://live.staticflickr.com/65535/49712472782_3a8b7fb04a_o.jpg",
    "id_image": "Tattoo_102255",
    "count_view": 0
  },
  {
    "link_thumb": "https://live.staticflickr.com/65535/49712472912_6b1b4c2415_n.jpg",
    "id_album": "1186644325",
    "description": "Tattoo_103977",
    "title": "Tattoo_103977",
    "link_img": "https://live.staticflickr.com/65535/49712472912_428d50d654_o.jpg",
    "id_image": "Tattoo_103977",
    "count_view": 0
  },
  {
    "link_thumb": "https://live.staticflickr.com/65535/49711615713_5986dd462b_n.jpg",
    "id_album": "1186644325",
    "description": "Tattoo_118369",
    "title": "Tattoo_118369",
    "link_img": "https://live.staticflickr.com/65535/49711615713_d5189e0ac5_o.jpg",
    "id_image": "Tattoo_118369",
    "count_view": 0
  },
  {
    "link_thumb": "https://live.staticflickr.com/65535/49711615923_97cffab13d_n.jpg",
    "id_album": "1186644325",
    "description": "Tattoo_118697",
    "title": "Tattoo_118697",
    "link_img": "https://live.staticflickr.com/65535/49711615923_c1f5f1d888_o.jpg",
    "id_image": "Tattoo_118697",
    "count_view": 0
  },
  {
    "link_thumb": "https://live.staticflickr.com/65535/49712473952_ed7dd45a49_n.jpg",
    "id_album": "1186644325",
    "description": "Tattoo_134894",
    "title": "Tattoo_134894",
    "link_img": "https://live.staticflickr.com/65535/49712473952_8e56cc3641_o.jpg",
    "id_image": "Tattoo_134894",
    "count_view": 0
  },
  {
    "link_thumb": "https://live.staticflickr.com/65535/49711617073_c1d12e92b2_n.jpg",
    "id_album": "1186644325",
    "description": "Tattoo_170706",
    "title": "Tattoo_170706",
    "link_img": "https://live.staticflickr.com/65535/49711617073_73f30d99fe_o.jpg",
    "id_image": "Tattoo_170706",
    "count_view": 0
  },
  {
    "link_thumb": "https://live.staticflickr.com/65535/49711617218_46e1ba4a85_n.jpg",
    "id_album": "1186644325",
    "description": "Tattoo_201987",
    "title": "Tattoo_201987",
    "link_img": "https://live.staticflickr.com/65535/49711617218_d0001ddba4_o.jpg",
    "id_image": "Tattoo_201987",
    "count_view": 0
  },
  {
    "link_thumb": "https://live.staticflickr.com/65535/49712475077_ee4e4af771_n.jpg",
    "id_album": "1186644325",
    "description": "Tattoo_201988",
    "title": "Tattoo_201988",
    "link_img": "https://live.staticflickr.com/65535/49712475077_de381bc7a1_o.jpg",
    "id_image": "Tattoo_201988",
    "count_view": 0
  },
  {
    "link_thumb": "https://live.staticflickr.com/65535/49712154116_5e074e00bf_n.jpg",
    "id_album": "1186644325",
    "description": "Tattoo_201989",
    "title": "Tattoo_201989",
    "link_img": "https://live.staticflickr.com/65535/49712154116_44cd68075e_o.jpg",
    "id_image": "Tattoo_201989",
    "count_view": 0
  },
  {
    "link_thumb": "https://live.staticflickr.com/65535/49711617903_4a6b4d83f9_n.jpg",
    "id_album": "1186644325",
    "description": "Tattoo_211698",
    "title": "Tattoo_211698",
    "link_img": "https://live.staticflickr.com/65535/49711617903_cde524ce8f_o.jpg",
    "id_image": "Tattoo_211698",
    "count_view": 0
  },
  {
    "link_thumb": "https://live.staticflickr.com/65535/49711618253_8c233d275f_n.jpg",
    "id_album": "1186644325",
    "description": "Tattoo_219484",
    "title": "Tattoo_219484",
    "link_img": "https://live.staticflickr.com/65535/49711618253_50122462ef_o.jpg",
    "id_image": "Tattoo_219484",
    "count_view": 0
  },
  {
    "link_thumb": "https://live.staticflickr.com/65535/49712154936_c3619ba028_n.jpg",
    "id_album": "1186644325",
    "description": "Tattoo_322813",
    "title": "Tattoo_322813",
    "link_img": "https://live.staticflickr.com/65535/49712154936_a05a452a22_o.jpg",
    "id_image": "Tattoo_322813",
    "count_view": 0
  },
  {
    "link_thumb": "https://live.staticflickr.com/65535/49711618968_96f621e022_n.jpg",
    "id_album": "1186644325",
    "description": "Tattoo_338076",
    "title": "Tattoo_338076",
    "link_img": "https://live.staticflickr.com/65535/49711618968_80c7070bfc_o.jpg",
    "id_image": "Tattoo_338076",
    "count_view": 0
  },
  {
    "link_thumb": "https://live.staticflickr.com/65535/49712155371_c2f8b1ac72_n.jpg",
    "id_album": "1186644325",
    "description": "Tattoo_404315",
    "title": "Tattoo_404315",
    "link_img": "https://live.staticflickr.com/65535/49712155371_455b82fe1d_o.jpg",
    "id_image": "Tattoo_404315",
    "count_view": 0
  },
  {
    "link_thumb": "https://live.staticflickr.com/65535/49712477042_71f187306c_n.jpg",
    "id_album": "1186644325",
    "description": "Tattoo_489370",
    "title": "Tattoo_489370",
    "link_img": "https://live.staticflickr.com/65535/49712477042_fe0655ccdd_o.jpg",
    "id_image": "Tattoo_489370",
    "count_view": 0
  },
  {
    "link_thumb": "https://live.staticflickr.com/65535/49711619848_24b847dbd0_n.jpg",
    "id_album": "1186644325",
    "description": "Tattoo_568377",
    "title": "Tattoo_568377",
    "link_img": "https://live.staticflickr.com/65535/49711619848_b036ec2c58_o.jpg",
    "id_image": "Tattoo_568377",
    "count_view": 0
  },
  {
    "link_thumb": "https://live.staticflickr.com/65535/49711620008_00848fc72a_n.jpg",
    "id_album": "1186644325",
    "description": "Tattoo_686564",
    "title": "Tattoo_686564",
    "link_img": "https://live.staticflickr.com/65535/49711620008_4dbbc5be93_o.jpg",
    "id_image": "Tattoo_686564",
    "count_view": 0
  },
  {
    "link_thumb": "https://live.staticflickr.com/65535/49711620268_004125527d_n.jpg",
    "id_album": "1186644325",
    "description": "Tattoo_703546",
    "title": "Tattoo_703546",
    "link_img": "https://live.staticflickr.com/65535/49711620268_62c0de0548_o.jpg",
    "id_image": "Tattoo_703546",
    "count_view": 0
  },
  {
    "link_thumb": "https://live.staticflickr.com/65535/49711620548_0ae17fbf60_n.jpg",
    "id_album": "1186644325",
    "description": "Tattoo_703563",
    "title": "Tattoo_703563",
    "link_img": "https://live.staticflickr.com/65535/49711620548_a88d2e4035_o.jpg",
    "id_image": "Tattoo_703563",
    "count_view": 0
  },
  {
    "link_thumb": "https://live.staticflickr.com/65535/49712156856_b75800fb13_n.jpg",
    "id_album": "1186644325",
    "description": "Tattoo_713258",
    "title": "Tattoo_713258",
    "link_img": "https://live.staticflickr.com/65535/49712156856_c24a8902aa_o.jpg",
    "id_image": "Tattoo_713258",
    "count_view": 0
  }
]