[
  {
    "link_thumb": "https://live.staticflickr.com/65535/49710682513_7854f459e0_n.jpg",
    "id_album": "-437872736",
    "description": "Creature_373425",
    "title": "Creature_373425",
    "link_img": "https://live.staticflickr.com/65535/49710682513_5e407bc2b8_o.jpg",
    "id_image": "Creature_373425",
    "count_view": 0
  },
  {
    "link_thumb": "https://live.staticflickr.com/65535/49711620397_369e8baa20_n.jpg",
    "id_album": "-437872736",
    "description": "Creature_958914",
    "title": "Creature_958914",
    "link_img": "https://live.staticflickr.com/65535/49711620397_5b724db551_o.jpg",
    "id_image": "Creature_958914",
    "count_view": 0
  },
  {
    "link_thumb": "https://live.staticflickr.com/65535/49711664373_d263283ca7_n.jpg",
    "id_album": "-1261420436",
    "description": "Warrior_203126",
    "title": "Warrior_203126",
    "link_img": "https://live.staticflickr.com/65535/49711664373_35b26b7b5a_o.jpg",
    "id_image": "Warrior_203126",
    "count_view": 0
  },
  {
    "link_thumb": "https://live.staticflickr.com/65535/49711224853_ab10e51d20_n.jpg",
    "id_album": "-1933715543",
    "description": "Horse_642276",
    "title": "Horse_642276",
    "link_img": "https://live.staticflickr.com/65535/49711224853_b5cd457dc9_o.jpg",
    "id_image": "Horse_642276",
    "count_view": 0
  },
  {
    "link_thumb": "https://live.staticflickr.com/65535/49711549302_b198112027_n.jpg",
    "id_album": "-437872736",
    "description": "Creature_385472",
    "title": "Creature_385472",
    "link_img": "https://live.staticflickr.com/65535/49711549302_79a954255c_o.jpg",
    "id_image": "Creature_385472",
    "count_view": 0
  },
  {
    "link_thumb": "https://live.staticflickr.com/65535/49711517397_8aac41b490_n.jpg",
    "id_album": "-437872736",
    "description": "Creature_319612",
    "title": "Creature_319612",
    "link_img": "https://live.staticflickr.com/65535/49711517397_5abda2d7da_o.jpg",
    "id_image": "Creature_319612",
    "count_view": 0
  },
  {
    "link_thumb": "https://live.staticflickr.com/65535/49711037743_dd0f05664b_n.jpg",
    "id_album": "850176884",
    "description": "Dragon_937796",
    "title": "Dragon_937796",
    "link_img": "https://live.staticflickr.com/65535/49711037743_518affabb6_o.jpg",
    "id_image": "Dragon_937796",
    "count_view": 0
  },
  {
    "link_thumb": "https://live.staticflickr.com/65535/49711222606_6b7b00d6a0_n.jpg",
    "id_album": "-437872736",
    "description": "Creature_384084",
    "title": "Creature_384084",
    "link_img": "https://live.staticflickr.com/65535/49711222606_ac9bbbba89_o.jpg",
    "id_image": "Creature_384084",
    "count_view": 0
  },
  {
    "link_thumb": "https://live.staticflickr.com/65535/49711277146_9ed0662a7c_n.jpg",
    "id_album": "-437872736",
    "description": "Creature_956234",
    "title": "Creature_956234",
    "link_img": "https://live.staticflickr.com/65535/49711277146_1b041c2eb1_o.jpg",
    "id_image": "Creature_956234",
    "count_view": 0
  },
  {
    "link_thumb": "https://live.staticflickr.com/65535/49711921463_6e17171a1e_n.jpg",
    "id_album": "1861288871",
    "description": "Women_760826",
    "title": "Women_760826",
    "link_img": "https://live.staticflickr.com/65535/49711921463_a589487337_o.jpg",
    "id_image": "Women_760826",
    "count_view": 0
  },
  {
    "link_thumb": "https://live.staticflickr.com/65535/49711315657_874133d120_n.jpg",
    "id_album": "1187037014",
    "description": "Battle_315048",
    "title": "Battle_315048",
    "link_img": "https://live.staticflickr.com/65535/49711315657_e3c3e62447_o.jpg",
    "id_image": "Battle_315048",
    "count_view": 0
  },
  {
    "link_thumb": "https://live.staticflickr.com/65535/49711152951_0e21c7c2f4_n.jpg",
    "id_album": "-437872736",
    "description": "Creature_179863",
    "title": "Creature_179863",
    "link_img": "https://live.staticflickr.com/65535/49711152951_ed13afd74c_o.jpg",
    "id_image": "Creature_179863",
    "count_view": 0
  },
  {
    "link_thumb": "https://live.staticflickr.com/65535/49710355328_1bbc215a38_n.jpg",
    "id_album": "-1000175186",
    "description": "AngelWarrior_886701",
    "title": "AngelWarrior_886701",
    "link_img": "https://live.staticflickr.com/65535/49710355328_e49efe28c3_o.jpg",
    "id_image": "AngelWarrior_886701",
    "count_view": 0
  },
  {
    "link_thumb": "https://live.staticflickr.com/65535/49711747492_5b5009e336_n.jpg",
    "id_album": "850176884",
    "description": "Dragon_331874",
    "title": "Dragon_331874",
    "link_img": "https://live.staticflickr.com/65535/49711747492_981f9e10a6_o.jpg",
    "id_image": "Dragon_331874",
    "count_view": 0
  },
  {
    "link_thumb": "https://live.staticflickr.com/65535/49711137551_dcfacfa94f_n.jpg",
    "id_album": "-1964113117",
    "description": "City_989247",
    "title": "City_989247",
    "link_img": "https://live.staticflickr.com/65535/49711137551_ef8e72eb10_o.jpg",
    "id_image": "City_989247",
    "count_view": 0
  },
  {
    "link_thumb": "https://live.staticflickr.com/65535/49711514408_9f4afeb64e_n.jpg",
    "id_album": "1892085513",
    "description": "Oriental_941726",
    "title": "Oriental_941726",
    "link_img": "https://live.staticflickr.com/65535/49711514408_f56daaa87b_o.jpg",
    "id_image": "Oriental_941726",
    "count_view": 0
  },
  {
    "link_thumb": "https://live.staticflickr.com/65535/49711192632_67d31b2b97_n.jpg",
    "id_album": "-2109465612",
    "description": "Adventure_702073",
    "title": "Adventure_702073",
    "link_img": "https://live.staticflickr.com/65535/49711192632_d3ec8fe5bd_o.jpg",
    "id_image": "Adventure_702073",
    "count_view": 0
  },
  {
    "link_thumb": "https://live.staticflickr.com/65535/49711545736_f5597b98c9_n.jpg",
    "id_album": "850176884",
    "description": "Dragon_873497",
    "title": "Dragon_873497",
    "link_img": "https://live.staticflickr.com/65535/49711545736_5fb1ff538e_o.jpg",
    "id_image": "Dragon_873497",
    "count_view": 0
  },
  {
    "link_thumb": "https://live.staticflickr.com/65535/49711485306_9c5aa22b74_n.jpg",
    "id_album": "850176884",
    "description": "Dragon_568746",
    "title": "Dragon_568746",
    "link_img": "https://live.staticflickr.com/65535/49711485306_f27ae950f4_o.jpg",
    "id_image": "Dragon_568746",
    "count_view": 0
  },
  {
    "link_thumb": "https://live.staticflickr.com/65535/49711059211_3c1ce93e9d_n.jpg",
    "id_album": "-1541846310",
    "description": "Castle_856866",
    "title": "Castle_856866",
    "link_img": "https://live.staticflickr.com/65535/49711059211_35d686c3cb_o.jpg",
    "id_image": "Castle_856866",
    "count_view": 0
  },
  {
    "link_thumb": "https://live.staticflickr.com/65535/49711732677_11eb942417_n.jpg",
    "id_album": "850176884",
    "description": "Dragon_286248",
    "title": "Dragon_286248",
    "link_img": "https://live.staticflickr.com/65535/49711732677_c192670083_o.jpg",
    "id_image": "Dragon_286248",
    "count_view": 0
  },
  {
    "link_thumb": "https://live.staticflickr.com/65535/49878695303_64d5e613f8_n.jpg",
    "id_album": "-1703946758",
    "description": "ANIME_PIC_3adc5bb9c856861333cd780d662b3b21",
    "title": "ANIME_PIC_3adc5bb9c856861333cd780d662b3b21",
    "link_img": "https://live.staticflickr.com/65535/49878695303_6f04b6ff2f_o.jpg",
    "id_image": "ANIME_PIC_3adc5bb9c856861333cd780d662b3b21",
    "count_view": 0
  },
  {
    "link_thumb": "https://live.staticflickr.com/65535/49711865843_9f445093da_n.jpg",
    "id_album": "295204930",
    "description": "Women_452140",
    "title": "Women_452140",
    "link_img": "https://live.staticflickr.com/65535/49711865843_cc10ddf7be_o.jpg",
    "id_image": "Women_452140",
    "count_view": 0
  },
  {
    "link_thumb": "https://live.staticflickr.com/65535/49711901011_48aa851c64_n.jpg",
    "id_album": "-833110404",
    "description": "Landscape_263163",
    "title": "Landscape_263163",
    "link_img": "https://live.staticflickr.com/65535/49711901011_d15cfd2e35_o.jpg",
    "id_image": "Landscape_263163",
    "count_view": 0
  },
  {
    "link_thumb": "https://live.staticflickr.com/65535/49711839536_fd40f0871f_n.jpg",
    "id_album": "1402713104",
    "description": "Landscape_866905",
    "title": "Landscape_866905",
    "link_img": "https://live.staticflickr.com/65535/49711839536_2cd4768e33_o.jpg",
    "id_image": "Landscape_866905",
    "count_view": 0
  },
  {
    "link_thumb": "https://live.staticflickr.com/65535/49710534323_1175d4de2a_n.jpg",
    "id_album": "-1741487325",
    "description": "Cat_573427",
    "title": "Cat_573427",
    "link_img": "https://live.staticflickr.com/65535/49710534323_a2dbdf670f_o.jpg",
    "id_image": "Cat_573427",
    "count_view": 0
  },
  {
    "link_thumb": "https://live.staticflickr.com/65535/49711232796_2fdc99d76b_n.jpg",
    "id_album": "-437872736",
    "description": "Creature_461098",
    "title": "Creature_461098",
    "link_img": "https://live.staticflickr.com/65535/49711232796_cc0413a878_o.jpg",
    "id_image": "Creature_461098",
    "count_view": 0
  },
  {
    "link_thumb": "https://live.staticflickr.com/65535/49710807263_a6240c480d_n.jpg",
    "id_album": "7198985",
    "description": "Demon_842221",
    "title": "Demon_842221",
    "link_img": "https://live.staticflickr.com/65535/49710807263_deab377114_o.jpg",
    "id_image": "Demon_842221",
    "count_view": 0
  },
  {
    "link_thumb": "https://live.staticflickr.com/65535/49710905483_98fde0304f_n.jpg",
    "id_album": "850176884",
    "description": "Dragon_403623",
    "title": "Dragon_403623",
    "link_img": "https://live.staticflickr.com/65535/49710905483_b9d2ca4287_o.jpg",
    "id_image": "Dragon_403623",
    "count_view": 0
  },
  {
    "link_thumb": "https://live.staticflickr.com/65535/49711876156_4ae239e723_n.jpg",
    "id_album": "1402713104",
    "description": "Landscape_960721",
    "title": "Landscape_960721",
    "link_img": "https://live.staticflickr.com/65535/49711876156_cd3f4d56a4_o.jpg",
    "id_image": "Landscape_960721",
    "count_view": 0
  },
  {
    "link_thumb": "https://live.staticflickr.com/65535/49711827721_0ea1c7ece4_n.jpg",
    "id_album": "1402713104",
    "description": "Landscape_857314",
    "title": "Landscape_857314",
    "link_img": "https://live.staticflickr.com/65535/49711827721_20ef2e056e_o.jpg",
    "id_image": "Landscape_857314",
    "count_view": 0
  },
  {
    "link_thumb": "https://live.staticflickr.com/65535/49712337986_1f57022d7c_n.jpg",
    "id_album": "-1126835654",
    "description": "Women_925006",
    "title": "Women_925006",
    "link_img": "https://live.staticflickr.com/65535/49712337986_e703ece825_o.jpg",
    "id_image": "Women_925006",
    "count_view": 0
  },
  {
    "link_thumb": "https://live.staticflickr.com/65535/49710689688_8aab47fd59_n.jpg",
    "id_album": "-437872736",
    "description": "Creature_391118",
    "title": "Creature_391118",
    "link_img": "https://live.staticflickr.com/65535/49710689688_b5837800ce_o.jpg",
    "id_image": "Creature_391118",
    "count_view": 0
  },
  {
    "link_thumb": "https://live.staticflickr.com/65535/49711463857_480aea7341_n.jpg",
    "id_album": "-437872736",
    "description": "Creature_113145",
    "title": "Creature_113145",
    "link_img": "https://live.staticflickr.com/65535/49711463857_f7493ed009_o.jpg",
    "id_image": "Creature_113145",
    "count_view": 0
  },
  {
    "link_thumb": "https://live.staticflickr.com/65535/49711757888_54cda4abe3_n.jpg",
    "id_album": "-709711865",
    "description": "Wolf_871904",
    "title": "Wolf_871904",
    "link_img": "https://live.staticflickr.com/65535/49711757888_7a2c9b5c69_o.jpg",
    "id_image": "Wolf_871904",
    "count_view": 0
  },
  {
    "link_thumb": "https://live.staticflickr.com/65535/49712398461_dc88d16204_n.jpg",
    "id_album": "295204930",
    "description": "Women_430471",
    "title": "Women_430471",
    "link_img": "https://live.staticflickr.com/65535/49712398461_b022dd2353_o.jpg",
    "id_image": "Women_430471",
    "count_view": 0
  },
  {
    "link_thumb": "https://live.staticflickr.com/65535/49711545392_e4cc885e69_n.jpg",
    "id_album": "-437872736",
    "description": "Creature_375695",
    "title": "Creature_375695",
    "link_img": "https://live.staticflickr.com/65535/49711545392_d7cc730498_o.jpg",
    "id_image": "Creature_375695",
    "count_view": 0
  },
  {
    "link_thumb": "https://live.staticflickr.com/65535/49711714743_b73b9ffe57_n.jpg",
    "id_album": "786934945",
    "description": "Whale_382256",
    "title": "Whale_382256",
    "link_img": "https://live.staticflickr.com/65535/49711714743_54ee00a523_o.jpg",
    "id_image": "Whale_382256",
    "count_view": 0
  },
  {
    "link_thumb": "https://live.staticflickr.com/65535/49711168968_34ee0f8942_n.jpg",
    "id_album": "-1083189875",
    "description": "Forest_677435",
    "title": "Forest_677435",
    "link_img": "https://live.staticflickr.com/65535/49711168968_ebaf519d0b_o.jpg",
    "id_image": "Forest_677435",
    "count_view": 0
  },
  {
    "link_thumb": "https://live.staticflickr.com/65535/49711485651_549e35d247_n.jpg",
    "id_album": "850176884",
    "description": "Dragon_572712",
    "title": "Dragon_572712",
    "link_img": "https://live.staticflickr.com/65535/49711485651_7896244aa3_o.jpg",
    "id_image": "Dragon_572712",
    "count_view": 0
  },
  {
    "link_thumb": "https://live.staticflickr.com/65535/49711618968_96f621e022_n.jpg",
    "id_album": "1186644325",
    "description": "Tattoo_338076",
    "title": "Tattoo_338076",
    "link_img": "https://live.staticflickr.com/65535/49711618968_80c7070bfc_o.jpg",
    "id_image": "Tattoo_338076",
    "count_view": 0
  },
  {
    "link_thumb": "https://live.staticflickr.com/65535/49711389967_e159b1f8c6_n.jpg",
    "id_album": "-1541846310",
    "description": "Castle_894437",
    "title": "Castle_894437",
    "link_img": "https://live.staticflickr.com/65535/49711389967_8e5ba3a0f1_o.jpg",
    "id_image": "Castle_894437",
    "count_view": 0
  },
  {
    "link_thumb": "https://live.staticflickr.com/65535/49711383701_9a53c200b1_n.jpg",
    "id_album": "850176884",
    "description": "Dragon_199622",
    "title": "Dragon_199622",
    "link_img": "https://live.staticflickr.com/65535/49711383701_08baf44b20_o.jpg",
    "id_image": "Dragon_199622",
    "count_view": 0
  },
  {
    "link_thumb": "https://live.staticflickr.com/65535/49711503008_1c8b1b1b0b_n.jpg",
    "id_album": "1892085513",
    "description": "Oriental_268804",
    "title": "Oriental_268804",
    "link_img": "https://live.staticflickr.com/65535/49711503008_d820bd6313_o.jpg",
    "id_image": "Oriental_268804",
    "count_view": 0
  },
  {
    "link_thumb": "https://live.staticflickr.com/65535/49710648863_9031494e2b_n.jpg",
    "id_album": "-437872736",
    "description": "Creature_304283",
    "title": "Creature_304283",
    "link_img": "https://live.staticflickr.com/65535/49710648863_1f718943ca_o.jpg",
    "id_image": "Creature_304283",
    "count_view": 0
  },
  {
    "link_thumb": "https://live.staticflickr.com/65535/49711497273_fde18f9279_n.jpg",
    "id_album": "-14582214",
    "description": "Ocean_484832",
    "title": "Ocean_484832",
    "link_img": "https://live.staticflickr.com/65535/49711497273_fef53cda57_o.jpg",
    "id_image": "Ocean_484832",
    "count_view": 0
  },
  {
    "link_thumb": "https://live.staticflickr.com/65535/49711511426_8f8f10a0e5_n.jpg",
    "id_album": "850176884",
    "description": "Dragon_709123",
    "title": "Dragon_709123",
    "link_img": "https://live.staticflickr.com/65535/49711511426_2c34406dab_o.jpg",
    "id_image": "Dragon_709123",
    "count_view": 0
  },
  {
    "link_thumb": "https://live.staticflickr.com/65535/49711657707_b996c82d9c_n.jpg",
    "id_album": "7198985",
    "description": "Demon_220631",
    "title": "Demon_220631",
    "link_img": "https://live.staticflickr.com/65535/49711657707_41005c1ab5_o.jpg",
    "id_image": "Demon_220631",
    "count_view": 0
  },
  {
    "link_thumb": "https://live.staticflickr.com/65535/49711260846_31f420e871_n.jpg",
    "id_album": "-437872736",
    "description": "Creature_689517",
    "title": "Creature_689517",
    "link_img": "https://live.staticflickr.com/65535/49711260846_54a2d08402_o.jpg",
    "id_image": "Creature_689517",
    "count_view": 0
  },
  {
    "link_thumb": "https://live.staticflickr.com/65535/49711505368_788e440482_n.jpg",
    "id_album": "1892085513",
    "description": "Oriental_296284",
    "title": "Oriental_296284",
    "link_img": "https://live.staticflickr.com/65535/49711505368_bae4d53bf3_o.jpg",
    "id_image": "Oriental_296284",
    "count_view": 0
  },
  {
    "link_thumb": "https://live.staticflickr.com/65535/49712177282_dbd4108977_n.jpg",
    "id_album": "1402713104",
    "description": "Landscape_906148",
    "title": "Landscape_906148",
    "link_img": "https://live.staticflickr.com/65535/49712177282_b582d8fbcb_o.jpg",
    "id_image": "Landscape_906148",
    "count_view": 0
  },
  {
    "link_thumb": "https://live.staticflickr.com/65535/49711749087_4f84d06b95_n.jpg",
    "id_album": "850176884",
    "description": "Dragon_337416",
    "title": "Dragon_337416",
    "link_img": "https://live.staticflickr.com/65535/49711749087_dfe42fc992_o.jpg",
    "id_image": "Dragon_337416",
    "count_view": 0
  },
  {
    "link_thumb": "https://live.staticflickr.com/65535/49710805938_5d6bcff339_n.jpg",
    "id_album": "7198985",
    "description": "Demon_766470",
    "title": "Demon_766470",
    "link_img": "https://live.staticflickr.com/65535/49710805938_6d343a1ff6_o.jpg",
    "id_image": "Demon_766470",
    "count_view": 0
  },
  {
    "link_thumb": "https://live.staticflickr.com/65535/49711643112_9bcfdf4081_n.jpg",
    "id_album": "2021464556",
    "description": "Dark_467328",
    "title": "Dark_467328",
    "link_img": "https://live.staticflickr.com/65535/49711643112_527b64b46c_o.jpg",
    "id_image": "Dark_467328",
    "count_view": 0
  },
  {
    "link_thumb": "https://live.staticflickr.com/65535/49711509483_c7c76bd768_n.jpg",
    "id_album": "1892085513",
    "description": "Oriental_388267",
    "title": "Oriental_388267",
    "link_img": "https://live.staticflickr.com/65535/49711509483_cc0d6717dc_o.jpg",
    "id_image": "Oriental_388267",
    "count_view": 0
  },
  {
    "link_thumb": "https://live.staticflickr.com/65535/49711270746_e89f49edf7_n.jpg",
    "id_album": "-437872736",
    "description": "Creature_883150",
    "title": "Creature_883150",
    "link_img": "https://live.staticflickr.com/65535/49711270746_5113a7f3bf_o.jpg",
    "id_image": "Creature_883150",
    "count_view": 0
  },
  {
    "link_thumb": "https://live.staticflickr.com/65535/49712568187_7898043c50_n.jpg",
    "id_album": "1173975892",
    "description": "Werewolf_516633",
    "title": "Werewolf_516633",
    "link_img": "https://live.staticflickr.com/65535/49712568187_65dd3f7246_o.jpg",
    "id_image": "Werewolf_516633",
    "count_view": 0
  },
  {
    "link_thumb": "https://live.staticflickr.com/65535/49712544527_9ac7ba68ed_n.jpg",
    "id_album": "-1261420436",
    "description": "Warrior_711463",
    "title": "Warrior_711463",
    "link_img": "https://live.staticflickr.com/65535/49712544527_b316dd60c6_o.jpg",
    "id_image": "Warrior_711463",
    "count_view": 0
  },
  {
    "link_thumb": "https://live.staticflickr.com/65535/49710760503_862c07df84_n.jpg",
    "id_album": "-437872736",
    "description": "Creature_958917",
    "title": "Creature_958917",
    "link_img": "https://live.staticflickr.com/65535/49710760503_efb66e34bb_o.jpg",
    "id_image": "Creature_958917",
    "count_view": 0
  },
  {
    "link_thumb": "https://live.staticflickr.com/65535/49712556912_af7b249a7f_n.jpg",
    "id_album": "-1261420436",
    "description": "Warrior_916113",
    "title": "Warrior_916113",
    "link_img": "https://live.staticflickr.com/65535/49712556912_c9217d2fe0_o.jpg",
    "id_image": "Warrior_916113",
    "count_view": 0
  },
  {
    "link_thumb": "https://live.staticflickr.com/65535/49710875411_fbd4236d1e_n.jpg",
    "id_album": "-1000175186",
    "description": "AngelWarrior_159996",
    "title": "AngelWarrior_159996",
    "link_img": "https://live.staticflickr.com/65535/49710875411_cb2f60006f_o.jpg",
    "id_image": "AngelWarrior_159996",
    "count_view": 0
  },
  {
    "link_thumb": "https://live.staticflickr.com/65535/49711583488_4b26ec0de0_n.jpg",
    "id_album": "407101116",
    "description": "SeaMonster_206710",
    "title": "SeaMonster_206710",
    "link_img": "https://live.staticflickr.com/65535/49711583488_206e1f8025_o.jpg",
    "id_image": "SeaMonster_206710",
    "count_view": 0
  },
  {
    "link_thumb": "https://live.staticflickr.com/65535/49712824912_d79840fe2f_n.jpg",
    "id_album": "-867594484",
    "description": "Women_536017",
    "title": "Women_536017",
    "link_img": "https://live.staticflickr.com/65535/49712824912_4d42abeabf_o.jpg",
    "id_image": "Women_536017",
    "count_view": 0
  },
  {
    "link_thumb": "https://live.staticflickr.com/65535/49711266942_f878e17aec_n.jpg",
    "id_album": "523598895",
    "description": "Artistic_149866",
    "title": "Artistic_149866",
    "link_img": "https://live.staticflickr.com/65535/49711266942_2f6ff72065_o.jpg",
    "id_image": "Artistic_149866",
    "count_view": 0
  },
  {
    "link_thumb": "https://live.staticflickr.com/65535/49712661892_6ec65a0056_n.jpg",
    "id_album": "-1126835654",
    "description": "Women_931822",
    "title": "Women_931822",
    "link_img": "https://live.staticflickr.com/65535/49712661892_9770f36a60_o.jpg",
    "id_image": "Women_931822",
    "count_view": 0
  },
  {
    "link_thumb": "https://live.staticflickr.com/65535/49712663946_c4a164ba01_n.jpg",
    "id_album": "-1675918237",
    "description": "WomenWarrior_742056",
    "title": "WomenWarrior_742056",
    "link_img": "https://live.staticflickr.com/65535/49712663946_9e93105598_o.jpg",
    "id_image": "WomenWarrior_742056",
    "count_view": 0
  },
  {
    "link_thumb": "https://live.staticflickr.com/65535/49711266683_a27d1f3032_n.jpg",
    "id_album": "1402713104",
    "description": "Landscape_681176",
    "title": "Landscape_681176",
    "link_img": "https://live.staticflickr.com/65535/49711266683_167f16e4fb_o.jpg",
    "id_image": "Landscape_681176",
    "count_view": 0
  },
  {
    "link_thumb": "https://live.staticflickr.com/65535/49712672657_c9f85df979_n.jpg",
    "id_album": "-1126835654",
    "description": "Women_993002",
    "title": "Women_993002",
    "link_img": "https://live.staticflickr.com/65535/49712672657_16ff7b2ccd_o.jpg",
    "id_image": "Women_993002",
    "count_view": 0
  },
  {
    "link_thumb": "https://live.staticflickr.com/65535/49712800132_1e76259bbb_n.jpg",
    "id_album": "1861288871",
    "description": "Women_816096",
    "title": "Women_816096",
    "link_img": "https://live.staticflickr.com/65535/49712800132_bff368f998_o.jpg",
    "id_image": "Women_816096",
    "count_view": 0
  },
  {
    "link_thumb": "https://live.staticflickr.com/65535/49711782608_c37cded4bb_n.jpg",
    "id_album": "-1126835654",
    "description": "Women_875501",
    "title": "Women_875501",
    "link_img": "https://live.staticflickr.com/65535/49711782608_7782410d19_o.jpg",
    "id_image": "Women_875501",
    "count_view": 0
  },
  {
    "link_thumb": "https://live.staticflickr.com/65535/49712241022_7c587defdd_n.jpg",
    "id_album": "-833110404",
    "description": "Landscape_294934",
    "title": "Landscape_294934",
    "link_img": "https://live.staticflickr.com/65535/49712241022_86c90fd335_o.jpg",
    "id_image": "Landscape_294934",
    "count_view": 0
  },
  {
    "link_thumb": "https://live.staticflickr.com/65535/49710775888_1beb92bd6c_n.jpg",
    "id_album": "2021464556",
    "description": "Dark_155215",
    "title": "Dark_155215",
    "link_img": "https://live.staticflickr.com/65535/49710775888_8af7c5d8e8_o.jpg",
    "id_image": "Dark_155215",
    "count_view": 0
  },
  {
    "link_thumb": "https://live.staticflickr.com/65535/49711167943_7698230bb6_n.jpg",
    "id_album": "-1083189875",
    "description": "Forest_63115",
    "title": "Forest_63115",
    "link_img": "https://live.staticflickr.com/65535/49711167943_67a1ae626e_o.jpg",
    "id_image": "Forest_63115",
    "count_view": 0
  },
  {
    "link_thumb": "https://live.staticflickr.com/65535/49712661577_cfd441c99f_n.jpg",
    "id_album": "-1126835654",
    "description": "Women_931571",
    "title": "Women_931571",
    "link_img": "https://live.staticflickr.com/65535/49712661577_006156c0a6_o.jpg",
    "id_image": "Women_931571",
    "count_view": 0
  },
  {
    "link_thumb": "https://live.staticflickr.com/65535/49710975191_88cd0cc8e5_n.jpg",
    "id_album": "523598895",
    "description": "Artistic_593172",
    "title": "Artistic_593172",
    "link_img": "https://live.staticflickr.com/65535/49710975191_b45c15c08b_o.jpg",
    "id_image": "Artistic_593172",
    "count_view": 0
  },
  {
    "link_thumb": "https://live.staticflickr.com/65535/49712113112_5674986aa6_n.jpg",
    "id_album": "469960528",
    "description": "Knight_951671",
    "title": "Knight_951671",
    "link_img": "https://live.staticflickr.com/65535/49712113112_63d8290602_o.jpg",
    "id_image": "Knight_951671",
    "count_view": 0
  },
  {
    "link_thumb": "https://live.staticflickr.com/65535/49711638891_2d9efe1497_n.jpg",
    "id_album": "134100487",
    "description": "Elf_880529",
    "title": "Elf_880529",
    "link_img": "https://live.staticflickr.com/65535/49711638891_0e29474f7e_o.jpg",
    "id_image": "Elf_880529",
    "count_view": 0
  },
  {
    "link_thumb": "https://live.staticflickr.com/65535/49712690081_04ea0441c0_n.jpg",
    "id_album": "-1675918237",
    "description": "WomenWarrior_877058",
    "title": "WomenWarrior_877058",
    "link_img": "https://live.staticflickr.com/65535/49712690081_853e13097d_o.jpg",
    "id_image": "WomenWarrior_877058",
    "count_view": 0
  },
  {
    "link_thumb": "https://live.staticflickr.com/65535/49712329407_7ed2772109_n.jpg",
    "id_album": "-1613076477",
    "description": "Magic_943161",
    "title": "Magic_943161",
    "link_img": "https://live.staticflickr.com/65535/49712329407_97570d8c21_o.jpg",
    "id_image": "Magic_943161",
    "count_view": 0
  },
  {
    "link_thumb": "https://live.staticflickr.com/65535/49711744787_5e7cd0b4c3_n.jpg",
    "id_album": "850176884",
    "description": "Dragon_328233",
    "title": "Dragon_328233",
    "link_img": "https://live.staticflickr.com/65535/49711744787_9b1eb807c1_o.jpg",
    "id_image": "Dragon_328233",
    "count_view": 0
  },
  {
    "link_thumb": "https://live.staticflickr.com/65535/49712220007_50d33321d4_n.jpg",
    "id_album": "-833110404",
    "description": "Landscape_242061",
    "title": "Landscape_242061",
    "link_img": "https://live.staticflickr.com/65535/49712220007_b558010ba1_o.jpg",
    "id_image": "Landscape_242061",
    "count_view": 0
  },
  {
    "link_thumb": "https://live.staticflickr.com/65535/49712479771_93b1131653_n.jpg",
    "id_album": "1861288871",
    "description": "Women_831514",
    "title": "Women_831514",
    "link_img": "https://live.staticflickr.com/65535/49712479771_af6f191d78_o.jpg",
    "id_image": "Women_831514",
    "count_view": 0
  },
  {
    "link_thumb": "https://live.staticflickr.com/65535/49711000401_d2eb17e507_n.jpg",
    "id_album": "1187037014",
    "description": "Battle_451176",
    "title": "Battle_451176",
    "link_img": "https://live.staticflickr.com/65535/49711000401_7d9175d1c1_o.jpg",
    "id_image": "Battle_451176",
    "count_view": 0
  },
  {
    "link_thumb": "https://live.staticflickr.com/65535/49710969193_6ebe8ddc63_n.jpg",
    "id_album": "850176884",
    "description": "Dragon_6814",
    "title": "Dragon_6814",
    "link_img": "https://live.staticflickr.com/65535/49710969193_d74d8e7e6f_o.jpg",
    "id_image": "Dragon_6814",
    "count_view": 0
  },
  {
    "link_thumb": "https://live.staticflickr.com/65535/49711481467_d1875a9476_n.jpg",
    "id_album": "-437872736",
    "description": "Creature_205566",
    "title": "Creature_205566",
    "link_img": "https://live.staticflickr.com/65535/49711481467_dbbbc7a2f5_o.jpg",
    "id_image": "Creature_205566",
    "count_view": 0
  },
  {
    "link_thumb": "https://live.staticflickr.com/65535/49711924458_2f22c465fb_n.jpg",
    "id_album": "1861288871",
    "description": "Women_764840",
    "title": "Women_764840",
    "link_img": "https://live.staticflickr.com/65535/49711924458_d339c5462c_o.jpg",
    "id_image": "Women_764840",
    "count_view": 0
  },
  {
    "link_thumb": "https://live.staticflickr.com/65535/49711489111_ea918cc460_n.jpg",
    "id_album": "850176884",
    "description": "Dragon_590973",
    "title": "Dragon_590973",
    "link_img": "https://live.staticflickr.com/65535/49711489111_fa5be55188_o.jpg",
    "id_image": "Dragon_590973",
    "count_view": 0
  },
  {
    "link_thumb": "https://live.staticflickr.com/65535/49711144003_2667310b1c_n.jpg",
    "id_album": "-1972042284",
    "description": "Fairy_704889",
    "title": "Fairy_704889",
    "link_img": "https://live.staticflickr.com/65535/49711144003_df8bac925b_o.jpg",
    "id_image": "Fairy_704889",
    "count_view": 0
  },
  {
    "link_thumb": "https://live.staticflickr.com/65535/49711403637_bd030dfe62_n.jpg",
    "id_album": "430704260",
    "description": "Child_710405",
    "title": "Child_710405",
    "link_img": "https://live.staticflickr.com/65535/49711403637_e65640169e_o.jpg",
    "id_image": "Child_710405",
    "count_view": 0
  },
  {
    "link_thumb": "https://live.staticflickr.com/65535/49711403676_cedc29e17f_n.jpg",
    "id_album": "850176884",
    "description": "Dragon_262304",
    "title": "Dragon_262304",
    "link_img": "https://live.staticflickr.com/65535/49711403676_4275e9ec80_o.jpg",
    "id_image": "Dragon_262304",
    "count_view": 0
  },
  {
    "link_thumb": "https://live.staticflickr.com/65535/49711301063_6eb672ff3e_n.jpg",
    "id_album": "1402713104",
    "description": "Landscape_864726",
    "title": "Landscape_864726",
    "link_img": "https://live.staticflickr.com/65535/49711301063_fa24414b2c_o.jpg",
    "id_image": "Landscape_864726",
    "count_view": 0
  },
  {
    "link_thumb": "https://live.staticflickr.com/65535/49712524112_c21e5f2246_n.jpg",
    "id_album": "-1261420436",
    "description": "Warrior_237132",
    "title": "Warrior_237132",
    "link_img": "https://live.staticflickr.com/65535/49712524112_1a3f678a67_o.jpg",
    "id_image": "Warrior_237132",
    "count_view": 0
  },
  {
    "link_thumb": "https://live.staticflickr.com/65535/49711522051_d4e7e27b7f_n.jpg",
    "id_album": "850176884",
    "description": "Dragon_76707",
    "title": "Dragon_76707",
    "link_img": "https://live.staticflickr.com/65535/49711522051_4c49356414_o.jpg",
    "id_image": "Dragon_76707",
    "count_view": 0
  },
  {
    "link_thumb": "https://live.staticflickr.com/65535/49711450131_7633ec85c4_n.jpg",
    "id_album": "850176884",
    "description": "Dragon_448898",
    "title": "Dragon_448898",
    "link_img": "https://live.staticflickr.com/65535/49711450131_5bffc08c41_o.jpg",
    "id_image": "Dragon_448898",
    "count_view": 0
  },
  {
    "link_thumb": "https://live.staticflickr.com/65535/49711480973_bf7d526fd6_n.jpg",
    "id_album": "-222719689",
    "description": "Men_552111",
    "title": "Men_552111",
    "link_img": "https://live.staticflickr.com/65535/49711480973_a568f1eac9_o.jpg",
    "id_image": "Men_552111",
    "count_view": 0
  },
  {
    "link_thumb": "https://live.staticflickr.com/65535/49711355948_8eb3c334b0_n.jpg",
    "id_album": "-833110404",
    "description": "Landscape_188113",
    "title": "Landscape_188113",
    "link_img": "https://live.staticflickr.com/65535/49711355948_2115474978_o.jpg",
    "id_image": "Landscape_188113",
    "count_view": 0
  },
  {
    "link_thumb": "https://live.staticflickr.com/65535/49711298596_dfcab33629_n.jpg",
    "id_album": "-437872736",
    "description": "Creature_958932",
    "title": "Creature_958932",
    "link_img": "https://live.staticflickr.com/65535/49711298596_e7336b8df7_o.jpg",
    "id_image": "Creature_958932",
    "count_view": 0
  },
  {
    "link_thumb": "https://live.staticflickr.com/65535/49711427827_ee54e1f19d_n.jpg",
    "id_album": "-1964113117",
    "description": "City_506782",
    "title": "City_506782",
    "link_img": "https://live.staticflickr.com/65535/49711427827_0a70f7f251_o.jpg",
    "id_image": "City_506782",
    "count_view": 0
  },
  {
    "link_thumb": "https://live.staticflickr.com/65535/49710582983_29d360b1b8_n.jpg",
    "id_album": "-1964113117",
    "description": "City_790227",
    "title": "City_790227",
    "link_img": "https://live.staticflickr.com/65535/49710582983_e9395ee1ef_o.jpg",
    "id_image": "City_790227",
    "count_view": 0
  },
  {
    "link_thumb": "https://live.staticflickr.com/65535/49711191556_5292eb1cef_n.jpg",
    "id_album": "-437872736",
    "description": "Creature_316993",
    "title": "Creature_316993",
    "link_img": "https://live.staticflickr.com/65535/49711191556_97ac3eaf6e_o.jpg",
    "id_image": "Creature_316993",
    "count_view": 0
  },
  {
    "link_thumb": "https://live.staticflickr.com/65535/49711077196_364ae8d74d_n.jpg",
    "id_album": "430704260",
    "description": "Child_566148",
    "title": "Child_566148",
    "link_img": "https://live.staticflickr.com/65535/49711077196_c8a27696c4_o.jpg",
    "id_image": "Child_566148",
    "count_view": 0
  },
  {
    "link_thumb": "https://live.staticflickr.com/65535/49711734432_5b54ebb9e9_n.jpg",
    "id_album": "850176884",
    "description": "Dragon_295041",
    "title": "Dragon_295041",
    "link_img": "https://live.staticflickr.com/65535/49711734432_927c34829b_o.jpg",
    "id_image": "Dragon_295041",
    "count_view": 0
  },
  {
    "link_thumb": "https://live.staticflickr.com/65535/49711048346_898567e9bb_n.jpg",
    "id_album": "-1541846310",
    "description": "Castle_557533",
    "title": "Castle_557533",
    "link_img": "https://live.staticflickr.com/65535/49711048346_5c3a5c278e_o.jpg",
    "id_image": "Castle_557533",
    "count_view": 0
  },
  {
    "link_thumb": "https://live.staticflickr.com/65535/49710862738_59fa9e3689_n.jpg",
    "id_album": "850176884",
    "description": "Dragon_247372",
    "title": "Dragon_247372",
    "link_img": "https://live.staticflickr.com/65535/49710862738_abe285c5ae_o.jpg",
    "id_image": "Dragon_247372",
    "count_view": 0
  },
  {
    "link_thumb": "https://live.staticflickr.com/65535/49711988072_009ea1fb6f_n.jpg",
    "id_album": "-1972042284",
    "description": "Fairy_400384",
    "title": "Fairy_400384",
    "link_img": "https://live.staticflickr.com/65535/49711988072_a041eed75d_o.jpg",
    "id_image": "Fairy_400384",
    "count_view": 0
  },
  {
    "link_thumb": "https://live.staticflickr.com/65535/49710765543_2e0e56a686_n.jpg",
    "id_album": "-437872736",
    "description": "Creature_958957",
    "title": "Creature_958957",
    "link_img": "https://live.staticflickr.com/65535/49710765543_e9b45e20a1_o.jpg",
    "id_image": "Creature_958957",
    "count_view": 0
  },
  {
    "link_thumb": "https://live.staticflickr.com/65535/49711812368_915da84dff_n.jpg",
    "id_album": "-1126835654",
    "description": "Women_973361",
    "title": "Women_973361",
    "link_img": "https://live.staticflickr.com/65535/49711812368_d6d46d04b8_o.jpg",
    "id_image": "Women_973361",
    "count_view": 0
  },
  {
    "link_thumb": "https://live.staticflickr.com/65535/49711030793_f149d6283e_n.jpg",
    "id_album": "850176884",
    "description": "Dragon_919440",
    "title": "Dragon_919440",
    "link_img": "https://live.staticflickr.com/65535/49711030793_8d8032cd09_o.jpg",
    "id_image": "Dragon_919440",
    "count_view": 0
  },
  {
    "link_thumb": "https://live.staticflickr.com/65535/49711422183_8e79e9bcd7_n.jpg",
    "id_album": "-833110404",
    "description": "Landscape_516507",
    "title": "Landscape_516507",
    "link_img": "https://live.staticflickr.com/65535/49711422183_3f43e581ec_o.jpg",
    "id_image": "Landscape_516507",
    "count_view": 0
  },
  {
    "link_thumb": "https://live.staticflickr.com/65535/49710974363_d1d01b464a_n.jpg",
    "id_album": "850176884",
    "description": "Dragon_701065",
    "title": "Dragon_701065",
    "link_img": "https://live.staticflickr.com/65535/49710974363_0f5c3c780d_o.jpg",
    "id_image": "Dragon_701065",
    "count_view": 0
  },
  {
    "link_thumb": "https://live.staticflickr.com/65535/49711693382_7690a1936a_n.jpg",
    "id_album": "850176884",
    "description": "Dragon_142045",
    "title": "Dragon_142045",
    "link_img": "https://live.staticflickr.com/65535/49711693382_0f0453c79e_o.jpg",
    "id_image": "Dragon_142045",
    "count_view": 0
  },
  {
    "link_thumb": "https://live.staticflickr.com/65535/49711696702_a9f5870573_n.jpg",
    "id_album": "850176884",
    "description": "Dragon_151958",
    "title": "Dragon_151958",
    "link_img": "https://live.staticflickr.com/65535/49711696702_dd01ccf63d_o.jpg",
    "id_image": "Dragon_151958",
    "count_view": 0
  },
  {
    "link_thumb": "https://live.staticflickr.com/65535/49712095143_13b02c62b5_n.jpg",
    "id_album": "-1675918237",
    "description": "WomenWarrior_529692",
    "title": "WomenWarrior_529692",
    "link_img": "https://live.staticflickr.com/65535/49712095143_55c9953f5f_o.jpg",
    "id_image": "WomenWarrior_529692",
    "count_view": 0
  },
  {
    "link_thumb": "https://live.staticflickr.com/65535/49712561862_8eee320db8_n.jpg",
    "id_album": "-1261420436",
    "description": "Warrior_970329",
    "title": "Warrior_970329",
    "link_img": "https://live.staticflickr.com/65535/49712561862_c2a1b14420_o.jpg",
    "id_image": "Warrior_970329",
    "count_view": 0
  },
  {
    "link_thumb": "https://live.staticflickr.com/65535/49711509357_956534242d_n.jpg",
    "id_album": "-437872736",
    "description": "Creature_304648",
    "title": "Creature_304648",
    "link_img": "https://live.staticflickr.com/65535/49711509357_cff26399c1_o.jpg",
    "id_image": "Creature_304648",
    "count_view": 0
  },
  {
    "link_thumb": "https://live.staticflickr.com/65535/49710479388_4854a9880c_n.jpg",
    "id_album": "1187037014",
    "description": "Battle_935026",
    "title": "Battle_935026",
    "link_img": "https://live.staticflickr.com/65535/49710479388_979815711a_o.jpg",
    "id_image": "Battle_935026",
    "count_view": 0
  },
  {
    "link_thumb": "https://live.staticflickr.com/65535/49710381433_9c80f9622a_n.jpg",
    "id_album": "-1913845949",
    "description": "Animal_724329",
    "title": "Animal_724329",
    "link_img": "https://live.staticflickr.com/65535/49710381433_9136f97cdc_o.jpg",
    "id_image": "Animal_724329",
    "count_view": 0
  },
  {
    "link_thumb": "https://live.staticflickr.com/65535/49712652626_c75eb05030_n.jpg",
    "id_album": "-1675918237",
    "description": "WomenWarrior_687573",
    "title": "WomenWarrior_687573",
    "link_img": "https://live.staticflickr.com/65535/49712652626_a4d102fded_o.jpg",
    "id_image": "WomenWarrior_687573",
    "count_view": 0
  },
  {
    "link_thumb": "https://live.staticflickr.com/65535/49712027107_5de7d9fb18_n.jpg",
    "id_album": "-1083189875",
    "description": "Forest_677820",
    "title": "Forest_677820",
    "link_img": "https://live.staticflickr.com/65535/49712027107_4fd16f65f1_o.jpg",
    "id_image": "Forest_677820",
    "count_view": 0
  },
  {
    "link_thumb": "https://live.staticflickr.com/65535/49711357506_70877faa00_n.jpg",
    "id_album": "850176884",
    "description": "Dragon_118561",
    "title": "Dragon_118561",
    "link_img": "https://live.staticflickr.com/65535/49711357506_c4f7903849_o.jpg",
    "id_image": "Dragon_118561",
    "count_view": 0
  },
  {
    "link_thumb": "https://live.staticflickr.com/65535/49711634573_27489b4903_n.jpg",
    "id_album": "46520366",
    "description": "Turtle_146023",
    "title": "Turtle_146023",
    "link_img": "https://live.staticflickr.com/65535/49711634573_ce596e92bb_o.jpg",
    "id_image": "Turtle_146023",
    "count_view": 0
  },
  {
    "link_thumb": "https://live.staticflickr.com/65535/49710961196_e05301c65f_n.jpg",
    "id_album": "523598895",
    "description": "Artistic_324985",
    "title": "Artistic_324985",
    "link_img": "https://live.staticflickr.com/65535/49710961196_93761a170b_o.jpg",
    "id_image": "Artistic_324985",
    "count_view": 0
  },
  {
    "link_thumb": "https://live.staticflickr.com/65535/49711675777_d2ee883a23_n.jpg",
    "id_album": "850176884",
    "description": "DRAGON26101916503069",
    "title": "DRAGON26101916503069",
    "link_img": "https://live.staticflickr.com/65535/49711675777_15028cc17c_o.jpg",
    "id_image": "DRAGON26101916503069",
    "count_view": 0
  },
  {
    "link_thumb": "https://live.staticflickr.com/65535/49711433797_f9f68c6ebb_n.jpg",
    "id_album": "-1964113117",
    "description": "City_618176",
    "title": "City_618176",
    "link_img": "https://live.staticflickr.com/65535/49711433797_41beceea0d_o.jpg",
    "id_image": "City_618176",
    "count_view": 0
  },
  {
    "link_thumb": "https://live.staticflickr.com/65535/49711464088_49f98486a6_n.jpg",
    "id_album": "-1613076477",
    "description": "Magic_295197",
    "title": "Magic_295197",
    "link_img": "https://live.staticflickr.com/65535/49711464088_7da3ba6dfa_o.jpg",
    "id_image": "Magic_295197",
    "count_view": 0
  },
  {
    "link_thumb": "https://live.staticflickr.com/65535/49711211558_cf6709be4e_n.jpg",
    "id_album": "1131236559",
    "description": "Gods_681028",
    "title": "Gods_681028",
    "link_img": "https://live.staticflickr.com/65535/49711211558_cd1ea5627b_o.jpg",
    "id_image": "Gods_681028",
    "count_view": 0
  },
  {
    "link_thumb": "https://live.staticflickr.com/65535/49711311608_1e7d773989_n.jpg",
    "id_album": "1402713104",
    "description": "Landscape_872384",
    "title": "Landscape_872384",
    "link_img": "https://live.staticflickr.com/65535/49711311608_7a003a3149_o.jpg",
    "id_image": "Landscape_872384",
    "count_view": 0
  },
  {
    "link_thumb": "https://live.staticflickr.com/65535/49711772421_63f3ac12c5_n.jpg",
    "id_album": "1957967226",
    "description": "House_921692",
    "title": "House_921692",
    "link_img": "https://live.staticflickr.com/65535/49711772421_3fda39a0c0_o.jpg",
    "id_image": "House_921692",
    "count_view": 0
  },
  {
    "link_thumb": "https://live.staticflickr.com/65535/49710433958_fe68523a69_n.jpg",
    "id_album": "523598895",
    "description": "Artistic_430352",
    "title": "Artistic_430352",
    "link_img": "https://live.staticflickr.com/65535/49710433958_3e95d74340_o.jpg",
    "id_image": "Artistic_430352",
    "count_view": 0
  },
  {
    "link_thumb": "https://live.staticflickr.com/65535/49712691196_11df4a0216_n.jpg",
    "id_album": "-1675918237",
    "description": "WomenWarrior_880253",
    "title": "WomenWarrior_880253",
    "link_img": "https://live.staticflickr.com/65535/49712691196_da451fec46_o.jpg",
    "id_image": "WomenWarrior_880253",
    "count_view": 0
  },
  {
    "link_thumb": "https://live.staticflickr.com/65535/49710971408_da7873b138_n.jpg",
    "id_album": "850176884",
    "description": "Dragon_692558",
    "title": "Dragon_692558",
    "link_img": "https://live.staticflickr.com/65535/49710971408_419332c3d7_o.jpg",
    "id_image": "Dragon_692558",
    "count_view": 0
  },
  {
    "link_thumb": "https://live.staticflickr.com/65535/49711781168_097734ceed_n.jpg",
    "id_album": "-1126835654",
    "description": "Women_874999",
    "title": "Women_874999",
    "link_img": "https://live.staticflickr.com/65535/49711781168_c572b7615b_o.jpg",
    "id_image": "Women_874999",
    "count_view": 0
  },
  {
    "link_thumb": "https://live.staticflickr.com/65535/49712016232_eb9b408aec_n.jpg",
    "id_album": "-1083189875",
    "description": "Forest_298599",
    "title": "Forest_298599",
    "link_img": "https://live.staticflickr.com/65535/49712016232_dd5e825fcb_o.jpg",
    "id_image": "Forest_298599",
    "count_view": 0
  },
  {
    "link_thumb": "https://live.staticflickr.com/65535/49711400557_ec57cda0fc_n.jpg",
    "id_album": "430704260",
    "description": "Child_162752",
    "title": "Child_162752",
    "link_img": "https://live.staticflickr.com/65535/49711400557_81834bf7a8_o.jpg",
    "id_image": "Child_162752",
    "count_view": 0
  },
  {
    "link_thumb": "https://live.staticflickr.com/65535/49711305932_ca3b19ed60_n.jpg",
    "id_album": "1187037014",
    "description": "Battle_113122",
    "title": "Battle_113122",
    "link_img": "https://live.staticflickr.com/65535/49711305932_860daacc67_o.jpg",
    "id_image": "Battle_113122",
    "count_view": 0
  },
  {
    "link_thumb": "https://live.staticflickr.com/65535/49711472851_b4fd702ae5_n.jpg",
    "id_album": "850176884",
    "description": "Dragon_525080",
    "title": "Dragon_525080",
    "link_img": "https://live.staticflickr.com/65535/49711472851_10696878bc_o.jpg",
    "id_image": "Dragon_525080",
    "count_view": 0
  },
  {
    "link_thumb": "https://live.staticflickr.com/65535/49711712877_ed7eb431c6_n.jpg",
    "id_album": "850176884",
    "description": "Dragon_231364",
    "title": "Dragon_231364",
    "link_img": "https://live.staticflickr.com/65535/49711712877_bb7d4b53f1_o.jpg",
    "id_image": "Dragon_231364",
    "count_view": 0
  },
  {
    "link_thumb": "https://live.staticflickr.com/65535/49711882993_ba1af8eedf_n.jpg",
    "id_album": "295204930",
    "description": "Women_732171",
    "title": "Women_732171",
    "link_img": "https://live.staticflickr.com/65535/49711882993_eb4e7d51d8_o.jpg",
    "id_image": "Women_732171",
    "count_view": 0
  },
  {
    "link_thumb": "https://live.staticflickr.com/65535/49712327216_cba2a7f9ed_n.jpg",
    "id_album": "-1126835654",
    "description": "Women_884551",
    "title": "Women_884551",
    "link_img": "https://live.staticflickr.com/65535/49712327216_124f5b69f5_o.jpg",
    "id_image": "Women_884551",
    "count_view": 0
  },
  {
    "link_thumb": "https://live.staticflickr.com/65535/49726862833_9fd8f500d3_n.jpg",
    "id_album": "-1541846310",
    "description": "Castle_159445",
    "title": "Castle_159445",
    "link_img": "https://live.staticflickr.com/65535/49726862833_29bb7aec42_o.jpg",
    "id_image": "Castle_159445",
    "count_view": 0
  },
  {
    "link_thumb": "https://live.staticflickr.com/65535/49710853958_f62a244c2a_n.jpg",
    "id_album": "850176884",
    "description": "Dragon_231169",
    "title": "Dragon_231169",
    "link_img": "https://live.staticflickr.com/65535/49710853958_14bdb718e2_o.jpg",
    "id_image": "Dragon_231169",
    "count_view": 0
  },
  {
    "link_thumb": "https://live.staticflickr.com/65535/49710806398_4e9e7b36f0_n.jpg",
    "id_album": "7198985",
    "description": "Demon_788780",
    "title": "Demon_788780",
    "link_img": "https://live.staticflickr.com/65535/49710806398_7e5a58aa1d_o.jpg",
    "id_image": "Demon_788780",
    "count_view": 0
  },
  {
    "link_thumb": "https://live.staticflickr.com/65535/49711344901_639283c0ba_n.jpg",
    "id_album": "7198985",
    "description": "Demon_998449",
    "title": "Demon_998449",
    "link_img": "https://live.staticflickr.com/65535/49711344901_c64612cae3_o.jpg",
    "id_image": "Demon_998449",
    "count_view": 0
  },
  {
    "link_thumb": "https://live.staticflickr.com/65535/49711801091_d849edc012_n.jpg",
    "id_album": "1402713104",
    "description": "Landscape_679263",
    "title": "Landscape_679263",
    "link_img": "https://live.staticflickr.com/65535/49711801091_0e315b4136_o.jpg",
    "id_image": "Landscape_679263",
    "count_view": 0
  },
  {
    "link_thumb": "https://live.staticflickr.com/65535/49712599522_a2a04f6803_n.jpg",
    "id_album": "-709711865",
    "description": "Wolf_558909",
    "title": "Wolf_558909",
    "link_img": "https://live.staticflickr.com/65535/49712599522_6066638eef_o.jpg",
    "id_image": "Wolf_558909",
    "count_view": 0
  },
  {
    "link_thumb": "https://live.staticflickr.com/65535/49712624802_4a47634ac3_n.jpg",
    "id_album": "-362161606",
    "description": "WOMAN2610191652114",
    "title": "WOMAN2610191652114",
    "link_img": "https://live.staticflickr.com/65535/49712624802_8915aef2b3_o.jpg",
    "id_image": "WOMAN2610191652114",
    "count_view": 0
  },
  {
    "link_thumb": "https://live.staticflickr.com/65535/49711676713_b8de424720_n.jpg",
    "id_album": "-1261420436",
    "description": "Warrior_582405",
    "title": "Warrior_582405",
    "link_img": "https://live.staticflickr.com/65535/49711676713_e008bcaf7d_o.jpg",
    "id_image": "Warrior_582405",
    "count_view": 0
  },
  {
    "link_thumb": "https://live.staticflickr.com/65535/49711926428_877b0b1433_n.jpg",
    "id_album": "1861288871",
    "description": "Women_769653",
    "title": "Women_769653",
    "link_img": "https://live.staticflickr.com/65535/49711926428_02e29c9222_o.jpg",
    "id_image": "Women_769653",
    "count_view": 0
  },
  {
    "link_thumb": "https://live.staticflickr.com/65535/49710931168_e82e7e8b16_n.jpg",
    "id_album": "850176884",
    "description": "Dragon_512111",
    "title": "Dragon_512111",
    "link_img": "https://live.staticflickr.com/65535/49710931168_1e8fab47ce_o.jpg",
    "id_image": "Dragon_512111",
    "count_view": 0
  },
  {
    "link_thumb": "https://live.staticflickr.com/65535/49710559048_16ebf95caf_n.jpg",
    "id_album": "-1964113117",
    "description": "City_283723",
    "title": "City_283723",
    "link_img": "https://live.staticflickr.com/65535/49710559048_41bc6d2fdc_o.jpg",
    "id_image": "City_283723",
    "count_view": 0
  },
  {
    "link_thumb": "https://live.staticflickr.com/65535/49711194708_36ef1921ac_n.jpg",
    "id_album": "402434752",
    "description": "Giant_15689",
    "title": "Giant_15689",
    "link_img": "https://live.staticflickr.com/65535/49711194708_f76dcd85a5_o.jpg",
    "id_image": "Giant_15689",
    "count_view": 0
  },
  {
    "link_thumb": "https://live.staticflickr.com/65535/49711141153_bdc80d4103_n.jpg",
    "id_album": "-1972042284",
    "description": "Fairy_698010",
    "title": "Fairy_698010",
    "link_img": "https://live.staticflickr.com/65535/49711141153_db506b5065_o.jpg",
    "id_image": "Fairy_698010",
    "count_view": 0
  },
  {
    "link_thumb": "https://live.staticflickr.com/65535/49711861691_4bef81678b_n.jpg",
    "id_album": "1402713104",
    "description": "Landscape_940265",
    "title": "Landscape_940265",
    "link_img": "https://live.staticflickr.com/65535/49711861691_eea28305f6_o.jpg",
    "id_image": "Landscape_940265",
    "count_view": 0
  },
  {
    "link_thumb": "https://live.staticflickr.com/65535/49711163621_b8a84d265f_n.jpg",
    "id_album": "-437872736",
    "description": "Creature_236235",
    "title": "Creature_236235",
    "link_img": "https://live.staticflickr.com/65535/49711163621_e44767d27c_o.jpg",
    "id_image": "Creature_236235",
    "count_view": 0
  },
  {
    "link_thumb": "https://live.staticflickr.com/65535/49711234641_8a5f73cba8_n.jpg",
    "id_album": "-437872736",
    "description": "Creature_484819",
    "title": "Creature_484819",
    "link_img": "https://live.staticflickr.com/65535/49711234641_b1de7be845_o.jpg",
    "id_image": "Creature_484819",
    "count_view": 0
  },
  {
    "link_thumb": "https://live.staticflickr.com/65535/49710443043_4ed20899df_n.jpg",
    "id_album": "523598895",
    "description": "Artistic_679752",
    "title": "Artistic_679752",
    "link_img": "https://live.staticflickr.com/65535/49710443043_ae9c597ede_o.jpg",
    "id_image": "Artistic_679752",
    "count_view": 0
  },
  {
    "link_thumb": "https://live.staticflickr.com/65535/49710525878_5e9ea5aefe_n.jpg",
    "id_album": "-1541846310",
    "description": "Castle_864943",
    "title": "Castle_864943",
    "link_img": "https://live.staticflickr.com/65535/49710525878_c77b597975_o.jpg",
    "id_image": "Castle_864943",
    "count_view": 0
  },
  {
    "link_thumb": "https://live.staticflickr.com/65535/49713018482_60ece738ac_n.jpg",
    "id_album": "-1675918237",
    "description": "WomenWarrior_886633",
    "title": "WomenWarrior_886633",
    "link_img": "https://live.staticflickr.com/65535/49713018482_45ff9301e2_o.jpg",
    "id_image": "WomenWarrior_886633",
    "count_view": 0
  },
  {
    "link_thumb": "https://live.staticflickr.com/65535/49712314542_d830d0d5e6_n.jpg",
    "id_album": "1006968559",
    "description": "LordoftheRings_928456",
    "title": "LordoftheRings_928456",
    "link_img": "https://live.staticflickr.com/65535/49712314542_9f7c98511a_o.jpg",
    "id_image": "LordoftheRings_928456",
    "count_view": 0
  },
  {
    "link_thumb": "https://live.staticflickr.com/65535/49711480491_84670fed16_n.jpg",
    "id_album": "850176884",
    "description": "Dragon_554359",
    "title": "Dragon_554359",
    "link_img": "https://live.staticflickr.com/65535/49711480491_ee6de9ff17_o.jpg",
    "id_image": "Dragon_554359",
    "count_view": 0
  },
  {
    "link_thumb": "https://live.staticflickr.com/65535/49712677117_a3a432e6dd_n.jpg",
    "id_album": "-1126835654",
    "description": "Women_999252",
    "title": "Women_999252",
    "link_img": "https://live.staticflickr.com/65535/49712677117_4ea2fb5f6c_o.jpg",
    "id_image": "Women_999252",
    "count_view": 0
  },
  {
    "link_thumb": "https://live.staticflickr.com/65535/49711465457_d694fe9931_n.jpg",
    "id_album": "-437872736",
    "description": "Creature_130038",
    "title": "Creature_130038",
    "link_img": "https://live.staticflickr.com/65535/49711465457_485991e5c0_o.jpg",
    "id_image": "Creature_130038",
    "count_view": 0
  },
  {
    "link_thumb": "https://live.staticflickr.com/65535/49711539257_21b59f6874_n.jpg",
    "id_album": "-437872736",
    "description": "Creature_357252",
    "title": "Creature_357252",
    "link_img": "https://live.staticflickr.com/65535/49711539257_e48e1796a2_o.jpg",
    "id_image": "Creature_357252",
    "count_view": 0
  },
  {
    "link_thumb": "https://live.staticflickr.com/65535/49711195093_50ed97b7c5_n.jpg",
    "id_album": "402434752",
    "description": "Giant_223018",
    "title": "Giant_223018",
    "link_img": "https://live.staticflickr.com/65535/49711195093_a10b9db748_o.jpg",
    "id_image": "Giant_223018",
    "count_view": 0
  },
  {
    "link_thumb": "https://live.staticflickr.com/65535/49710395358_d360bdfb2b_n.jpg",
    "id_album": "-1560111795",
    "description": "Archer_266722",
    "title": "Archer_266722",
    "link_img": "https://live.staticflickr.com/65535/49710395358_75e0c5474e_o.jpg",
    "id_image": "Archer_266722",
    "count_view": 0
  },
  {
    "link_thumb": "https://live.staticflickr.com/65535/49712278432_8c76ac7620_n.jpg",
    "id_album": "-833110404",
    "description": "Landscape_504302",
    "title": "Landscape_504302",
    "link_img": "https://live.staticflickr.com/65535/49712278432_568407a7a4_o.jpg",
    "id_image": "Landscape_504302",
    "count_view": 0
  },
  {
    "link_thumb": "https://live.staticflickr.com/65535/49711185083_523c8746ac_n.jpg",
    "id_album": "-1083189875",
    "description": "Forest_896531",
    "title": "Forest_896531",
    "link_img": "https://live.staticflickr.com/65535/49711185083_aedfbe57c6_o.jpg",
    "id_image": "Forest_896531",
    "count_view": 0
  },
  {
    "link_thumb": "https://live.staticflickr.com/65535/49710929243_9149483988_n.jpg",
    "id_album": "850176884",
    "description": "Dragon_505250",
    "title": "Dragon_505250",
    "link_img": "https://live.staticflickr.com/65535/49710929243_343a9792ac_o.jpg",
    "id_image": "Dragon_505250",
    "count_view": 0
  },
  {
    "link_thumb": "https://live.staticflickr.com/65535/49711497802_a9d7271377_n.jpg",
    "id_album": "-437872736",
    "description": "Creature_270090",
    "title": "Creature_270090",
    "link_img": "https://live.staticflickr.com/65535/49711497802_0fcdce1385_o.jpg",
    "id_image": "Creature_270090",
    "count_view": 0
  },
  {
    "link_thumb": "https://live.staticflickr.com/65535/49711777661_b11e370172_n.jpg",
    "id_album": "-1967191405",
    "description": "Hydra_99707",
    "title": "Hydra_99707",
    "link_img": "https://live.staticflickr.com/65535/49711777661_78d6e910a1_o.jpg",
    "id_image": "Hydra_99707",
    "count_view": 0
  },
  {
    "link_thumb": "https://live.staticflickr.com/65535/49712145257_ff5e581c84_n.jpg",
    "id_album": "1402713104",
    "description": "Landscape_829888",
    "title": "Landscape_829888",
    "link_img": "https://live.staticflickr.com/65535/49712145257_5405944d8d_o.jpg",
    "id_image": "Landscape_829888",
    "count_view": 0
  },
  {
    "link_thumb": "https://live.staticflickr.com/65535/49711242387_0686262cce_n.jpg",
    "id_album": "-1913845949",
    "description": "Animal_858503",
    "title": "Animal_858503",
    "link_img": "https://live.staticflickr.com/65535/49711242387_54729ea7e3_o.jpg",
    "id_image": "Animal_858503",
    "count_view": 0
  },
  {
    "link_thumb": "https://live.staticflickr.com/65535/49710927021_6b0b7b29cb_n.jpg",
    "id_album": "-1560111795",
    "description": "Archer_126510",
    "title": "Archer_126510",
    "link_img": "https://live.staticflickr.com/65535/49710927021_3ec711f5d4_o.jpg",
    "id_image": "Archer_126510",
    "count_view": 0
  },
  {
    "link_thumb": "https://live.staticflickr.com/65535/49711039106_728f790846_n.jpg",
    "id_album": "-1541846310",
    "description": "Castle_236898",
    "title": "Castle_236898",
    "link_img": "https://live.staticflickr.com/65535/49711039106_8a45abc735_o.jpg",
    "id_image": "Castle_236898",
    "count_view": 0
  },
  {
    "link_thumb": "https://live.staticflickr.com/65535/49712158561_29e30ebd75_n.jpg",
    "id_album": "405170427",
    "description": "Tiger_421828",
    "title": "Tiger_421828",
    "link_img": "https://live.staticflickr.com/65535/49712158561_8d84c072b8_o.jpg",
    "id_image": "Tiger_421828",
    "count_view": 0
  },
  {
    "link_thumb": "https://live.staticflickr.com/65535/49711642063_cb3a94637b_n.jpg",
    "id_album": "431597977",
    "description": "Unicorn_239474",
    "title": "Unicorn_239474",
    "link_img": "https://live.staticflickr.com/65535/49711642063_7e16e15dca_o.jpg",
    "id_image": "Unicorn_239474",
    "count_view": 0
  },
  {
    "link_thumb": "https://live.staticflickr.com/65535/49711706947_e350c778e7_n.jpg",
    "id_album": "850176884",
    "description": "Dragon_203860",
    "title": "Dragon_203860",
    "link_img": "https://live.staticflickr.com/65535/49711706947_3a2c76e557_o.jpg",
    "id_image": "Dragon_203860",
    "count_view": 0
  },
  {
    "link_thumb": "https://live.staticflickr.com/65535/49711231331_2066463f74_n.jpg",
    "id_album": "-437872736",
    "description": "Creature_453771",
    "title": "Creature_453771",
    "link_img": "https://live.staticflickr.com/65535/49711231331_b6b586a74c_o.jpg",
    "id_image": "Creature_453771",
    "count_view": 0
  },
  {
    "link_thumb": "https://live.staticflickr.com/65535/49712564287_be7a404667_n.jpg",
    "id_album": "1173975892",
    "description": "Werewolf_178654",
    "title": "Werewolf_178654",
    "link_img": "https://live.staticflickr.com/65535/49712564287_dfb9dc62cb_o.jpg",
    "id_image": "Werewolf_178654",
    "count_view": 0
  },
  {
    "link_thumb": "https://live.staticflickr.com/65535/49711277758_c38ebe7ab6_n.jpg",
    "id_album": "1402713104",
    "description": "Landscape_726807",
    "title": "Landscape_726807",
    "link_img": "https://live.staticflickr.com/65535/49711277758_b1b9a85afe_o.jpg",
    "id_image": "Landscape_726807",
    "count_view": 0
  },
  {
    "link_thumb": "https://live.staticflickr.com/65535/49712174162_6e53bdbccd_n.jpg",
    "id_album": "1402713104",
    "description": "Landscape_887970",
    "title": "Landscape_887970",
    "link_img": "https://live.staticflickr.com/65535/49712174162_c70bc0c153_o.jpg",
    "id_image": "Landscape_887970",
    "count_view": 0
  },
  {
    "link_thumb": "https://live.staticflickr.com/65535/49711762371_6136b6404b_n.jpg",
    "id_album": "-1933715543",
    "description": "Horse_78740",
    "title": "Horse_78740",
    "link_img": "https://live.staticflickr.com/65535/49711762371_722da869b2_o.jpg",
    "id_image": "Horse_78740",
    "count_view": 0
  },
  {
    "link_thumb": "https://live.staticflickr.com/65535/49711187056_32ce04b65a_n.jpg",
    "id_album": "-437872736",
    "description": "Creature_310645",
    "title": "Creature_310645",
    "link_img": "https://live.staticflickr.com/65535/49711187056_d864246742_o.jpg",
    "id_image": "Creature_310645",
    "count_view": 0
  },
  {
    "link_thumb": "https://live.staticflickr.com/65535/49710494548_f9533b2174_n.jpg",
    "id_album": "406431601",
    "description": "Building_959220",
    "title": "Building_959220",
    "link_img": "https://live.staticflickr.com/65535/49710494548_82561e61ce_o.jpg",
    "id_image": "Building_959220",
    "count_view": 0
  },
  {
    "link_thumb": "https://live.staticflickr.com/65535/49710336178_bdc4504335_n.jpg",
    "id_album": "-956471126",
    "description": "AliceInWonderland_155515",
    "title": "AliceInWonderland_155515",
    "link_img": "https://live.staticflickr.com/65535/49710336178_12b887c867_o.jpg",
    "id_image": "AliceInWonderland_155515",
    "count_view": 0
  },
  {
    "link_thumb": "https://live.staticflickr.com/65535/49712131592_63346a4ce8_n.jpg",
    "id_album": "1402713104",
    "description": "Landscape_711119",
    "title": "Landscape_711119",
    "link_img": "https://live.staticflickr.com/65535/49712131592_e3d892c2a1_o.jpg",
    "id_image": "Landscape_711119",
    "count_view": 0
  },
  {
    "link_thumb": "https://live.staticflickr.com/65535/49711609172_188ccde2bc_n.jpg",
    "id_album": "-437872736",
    "description": "Creature_958697",
    "title": "Creature_958697",
    "link_img": "https://live.staticflickr.com/65535/49711609172_e7c7b5285c_o.jpg",
    "id_image": "Creature_958697",
    "count_view": 0
  },
  {
    "link_thumb": "https://live.staticflickr.com/65535/49711239961_082b480fa0_n.jpg",
    "id_album": "-437872736",
    "description": "Creature_511604",
    "title": "Creature_511604",
    "link_img": "https://live.staticflickr.com/65535/49711239961_c74494d070_o.jpg",
    "id_image": "Creature_511604",
    "count_view": 0
  },
  {
    "link_thumb": "https://live.staticflickr.com/65535/49712202566_72d4844809_n.jpg",
    "id_album": "-1261420436",
    "description": "Warrior_249222",
    "title": "Warrior_249222",
    "link_img": "https://live.staticflickr.com/65535/49712202566_975e8ba642_o.jpg",
    "id_image": "Warrior_249222",
    "count_view": 0
  },
  {
    "link_thumb": "https://live.staticflickr.com/65535/49711524076_b0cc154e49_n.jpg",
    "id_album": "850176884",
    "description": "Dragon_78318",
    "title": "Dragon_78318",
    "link_img": "https://live.staticflickr.com/65535/49711524076_f3c2351997_o.jpg",
    "id_image": "Dragon_78318",
    "count_view": 0
  },
  {
    "link_thumb": "https://live.staticflickr.com/65535/49712282201_a3943d6f5c_n.jpg",
    "id_album": "-709711865",
    "description": "Wolf_647562",
    "title": "Wolf_647562",
    "link_img": "https://live.staticflickr.com/65535/49712282201_72d5f51fc7_o.jpg",
    "id_image": "Wolf_647562",
    "count_view": 0
  },
  {
    "link_thumb": "https://live.staticflickr.com/65535/49710424303_557c6580dd_n.jpg",
    "id_album": "523598895",
    "description": "Artistic_252919",
    "title": "Artistic_252919",
    "link_img": "https://live.staticflickr.com/65535/49710424303_40c6daed60_o.jpg",
    "id_image": "Artistic_252919",
    "count_view": 0
  },
  {
    "link_thumb": "https://live.staticflickr.com/65535/49712027452_91d7da311a_n.jpg",
    "id_album": "-1083189875",
    "description": "Forest_681060",
    "title": "Forest_681060",
    "link_img": "https://live.staticflickr.com/65535/49712027452_ecbf86eb22_o.jpg",
    "id_image": "Forest_681060",
    "count_view": 0
  },
  {
    "link_thumb": "https://live.staticflickr.com/65535/49711281683_40d2cf5549_n.jpg",
    "id_album": "1402713104",
    "description": "Landscape_746410",
    "title": "Landscape_746410",
    "link_img": "https://live.staticflickr.com/65535/49711281683_6f82e795c1_o.jpg",
    "id_image": "Landscape_746410",
    "count_view": 0
  },
  {
    "link_thumb": "https://live.staticflickr.com/65535/49712055512_fcb360c273_n.jpg",
    "id_album": "402434752",
    "description": "Giant_332236",
    "title": "Giant_332236",
    "link_img": "https://live.staticflickr.com/65535/49712055512_d0ed66f1dd_o.jpg",
    "id_image": "Giant_332236",
    "count_view": 0
  },
  {
    "link_thumb": "https://live.staticflickr.com/65535/49711839787_da2f4bdb05_n.jpg",
    "id_album": "850176884",
    "description": "Dragon_735347",
    "title": "Dragon_735347",
    "link_img": "https://live.staticflickr.com/65535/49711839787_becae278fd_o.jpg",
    "id_image": "Dragon_735347",
    "count_view": 0
  },
  {
    "link_thumb": "https://live.staticflickr.com/65535/49712049211_297edce0c4_n.jpg",
    "id_album": "1892085513",
    "description": "Oriental_923417",
    "title": "Oriental_923417",
    "link_img": "https://live.staticflickr.com/65535/49712049211_49ac6ed14d_o.jpg",
    "id_image": "Oriental_923417",
    "count_view": 0
  },
  {
    "link_thumb": "https://live.staticflickr.com/65535/49711287828_30bff5c1e7_n.jpg",
    "id_album": "1402713104",
    "description": "Landscape_842651",
    "title": "Landscape_842651",
    "link_img": "https://live.staticflickr.com/65535/49711287828_2e366a01df_o.jpg",
    "id_image": "Landscape_842651",
    "count_view": 0
  },
  {
    "link_thumb": "https://live.staticflickr.com/65535/49711348871_3a53e95d34_n.jpg",
    "id_album": "850176884",
    "description": "DRAGON26101916500546",
    "title": "DRAGON26101916500546",
    "link_img": "https://live.staticflickr.com/65535/49711348871_61a3054e9d_o.jpg",
    "id_image": "DRAGON26101916500546",
    "count_view": 0
  },
  {
    "link_thumb": "https://live.staticflickr.com/65535/49712163303_9e284bc405_n.jpg",
    "id_album": "-1675918237",
    "description": "WomenWarrior_901721",
    "title": "WomenWarrior_901721",
    "link_img": "https://live.staticflickr.com/65535/49712163303_bedcbd2b5e_o.jpg",
    "id_image": "WomenWarrior_901721",
    "count_view": 0
  },
  {
    "link_thumb": "https://live.staticflickr.com/65535/49712401332_4a8a99571b_n.jpg",
    "id_album": "-1326601535",
    "description": "Phoenix_792336",
    "title": "Phoenix_792336",
    "link_img": "https://live.staticflickr.com/65535/49712401332_3a820b026b_o.jpg",
    "id_image": "Phoenix_792336",
    "count_view": 0
  },
  {
    "link_thumb": "https://live.staticflickr.com/65535/49711689262_cf97c23b24_n.jpg",
    "id_album": "850176884",
    "description": "Dragon_123826",
    "title": "Dragon_123826",
    "link_img": "https://live.staticflickr.com/65535/49711689262_f2883b8f50_o.jpg",
    "id_image": "Dragon_123826",
    "count_view": 0
  },
  {
    "link_thumb": "https://live.staticflickr.com/65535/49711556148_c36de690fb_n.jpg",
    "id_album": "606798642",
    "description": "RedRidingHood_854055",
    "title": "RedRidingHood_854055",
    "link_img": "https://live.staticflickr.com/65535/49711556148_1f8d70327e_o.jpg",
    "id_image": "RedRidingHood_854055",
    "count_view": 0
  },
  {
    "link_thumb": "https://live.staticflickr.com/65535/49711690597_2faced9b61_n.jpg",
    "id_album": "850176884",
    "description": "Dragon_125479",
    "title": "Dragon_125479",
    "link_img": "https://live.staticflickr.com/65535/49711690597_1aa7c2084a_o.jpg",
    "id_image": "Dragon_125479",
    "count_view": 0
  },
  {
    "link_thumb": "https://live.staticflickr.com/65535/49711794947_71bb2e8a34_n.jpg",
    "id_album": "850176884",
    "description": "Dragon_529452",
    "title": "Dragon_529452",
    "link_img": "https://live.staticflickr.com/65535/49711794947_4585eccab6_o.jpg",
    "id_image": "Dragon_529452",
    "count_view": 0
  },
  {
    "link_thumb": "https://live.staticflickr.com/65535/49711930522_21192ef49a_n.jpg",
    "id_album": "134100487",
    "description": "Elf_288212",
    "title": "Elf_288212",
    "link_img": "https://live.staticflickr.com/65535/49711930522_d3ba41a64e_o.jpg",
    "id_image": "Elf_288212",
    "count_view": 0
  },
  {
    "link_thumb": "https://live.staticflickr.com/65535/49711511592_479d69fe17_n.jpg",
    "id_album": "-437872736",
    "description": "Creature_310240",
    "title": "Creature_310240",
    "link_img": "https://live.staticflickr.com/65535/49711511592_c2b7de9c72_o.jpg",
    "id_image": "Creature_310240",
    "count_view": 0
  },
  {
    "link_thumb": "https://live.staticflickr.com/65535/49711990177_37a15f3721_n.jpg",
    "id_album": "-1972042284",
    "description": "Fairy_456075",
    "title": "Fairy_456075",
    "link_img": "https://live.staticflickr.com/65535/49711990177_e44d8ec694_o.jpg",
    "id_image": "Fairy_456075",
    "count_view": 0
  },
  {
    "link_thumb": "https://live.staticflickr.com/65535/49712443867_dd4edf5af9_n.jpg",
    "id_album": "407101116",
    "description": "SeaMonster_363656",
    "title": "SeaMonster_363656",
    "link_img": "https://live.staticflickr.com/65535/49712443867_8f092b81b9_o.jpg",
    "id_image": "SeaMonster_363656",
    "count_view": 0
  },
  {
    "link_thumb": "https://live.staticflickr.com/65535/49711470546_d8df1f6ef7_n.jpg",
    "id_album": "850176884",
    "description": "Dragon_518584",
    "title": "Dragon_518584",
    "link_img": "https://live.staticflickr.com/65535/49711470546_c58a4cbca8_o.jpg",
    "id_image": "Dragon_518584",
    "count_view": 0
  },
  {
    "link_thumb": "https://live.staticflickr.com/65535/49710990811_285f5e9620_n.jpg",
    "id_album": "1187037014",
    "description": "Battle_294007",
    "title": "Battle_294007",
    "link_img": "https://live.staticflickr.com/65535/49710990811_c608a7488e_o.jpg",
    "id_image": "Battle_294007",
    "count_view": 0
  },
  {
    "link_thumb": "https://live.staticflickr.com/65535/49711285098_c44d1cac02_n.jpg",
    "id_album": "1402713104",
    "description": "Landscape_787637",
    "title": "Landscape_787637",
    "link_img": "https://live.staticflickr.com/65535/49711285098_1fae38d0c2_o.jpg",
    "id_image": "Landscape_787637",
    "count_view": 0
  },
  {
    "link_thumb": "https://live.staticflickr.com/65535/49711017291_a9bea3d49c_n.jpg",
    "id_album": "-1846011410",
    "description": "Bird_615975",
    "title": "Bird_615975",
    "link_img": "https://live.staticflickr.com/65535/49711017291_6b3ef4b4db_o.jpg",
    "id_image": "Bird_615975",
    "count_view": 0
  },
  {
    "link_thumb": "https://live.staticflickr.com/65535/49711572588_d4056d9973_n.jpg",
    "id_album": "-1611961467",
    "description": "Samurai_585250",
    "title": "Samurai_585250",
    "link_img": "https://live.staticflickr.com/65535/49711572588_db74b5553c_o.jpg",
    "id_image": "Samurai_585250",
    "count_view": 0
  },
  {
    "link_thumb": "https://live.staticflickr.com/65535/49712041512_c6187b17cc_n.jpg",
    "id_album": "-1083189875",
    "description": "Forest_885065",
    "title": "Forest_885065",
    "link_img": "https://live.staticflickr.com/65535/49712041512_a8242810e5_o.jpg",
    "id_image": "Forest_885065",
    "count_view": 0
  },
  {
    "link_thumb": "https://live.staticflickr.com/65535/49711746082_3862dedc04_n.jpg",
    "id_album": "850176884",
    "description": "Dragon_329350",
    "title": "Dragon_329350",
    "link_img": "https://live.staticflickr.com/65535/49711746082_dbc3d0fe1d_o.jpg",
    "id_image": "Dragon_329350",
    "count_view": 0
  },
  {
    "link_thumb": "https://live.staticflickr.com/65535/49798833271_e60c0ea6b9_n.jpg",
    "id_album": "-1703946758",
    "description": "ANIME_PIC_a1c43f4ab835de00101654a4eec23ada",
    "title": "ANIME_PIC_a1c43f4ab835de00101654a4eec23ada",
    "link_img": "https://live.staticflickr.com/65535/49798833271_166704664d_o.jpg",
    "id_image": "ANIME_PIC_a1c43f4ab835de00101654a4eec23ada",
    "count_view": 0
  },
  {
    "link_thumb": "https://live.staticflickr.com/65535/49711228052_cc251312cf_n.jpg",
    "id_album": "-1913845949",
    "description": "Animal_595247",
    "title": "Animal_595247",
    "link_img": "https://live.staticflickr.com/65535/49711228052_0a93a9cbf4_o.jpg",
    "id_image": "Animal_595247",
    "count_view": 0
  },
  {
    "link_thumb": "https://live.staticflickr.com/65535/49711259633_d66baa4766_n.jpg",
    "id_album": "1402713104",
    "description": "Landscape_646636",
    "title": "Landscape_646636",
    "link_img": "https://live.staticflickr.com/65535/49711259633_1ac19ab2e7_o.jpg",
    "id_image": "Landscape_646636",
    "count_view": 0
  },
  {
    "link_thumb": "https://live.staticflickr.com/65535/49711014383_00735a4615_n.jpg",
    "id_album": "850176884",
    "description": "Dragon_881068",
    "title": "Dragon_881068",
    "link_img": "https://live.staticflickr.com/65535/49711014383_5907eabfe9_o.jpg",
    "id_image": "Dragon_881068",
    "count_view": 0
  },
  {
    "link_thumb": "https://live.staticflickr.com/65535/49712448851_4d14c6137f_n.jpg",
    "id_album": "1861288871",
    "description": "Women_496378",
    "title": "Women_496378",
    "link_img": "https://live.staticflickr.com/65535/49712448851_651f01194c_o.jpg",
    "id_image": "Women_496378",
    "count_view": 0
  },
  {
    "link_thumb": "https://live.staticflickr.com/65535/49710824098_e554dbb9c1_n.jpg",
    "id_album": "850176884",
    "description": "Dragon_121943",
    "title": "Dragon_121943",
    "link_img": "https://live.staticflickr.com/65535/49710824098_e7780a75f6_o.jpg",
    "id_image": "Dragon_121943",
    "count_view": 0
  },
  {
    "link_thumb": "https://live.staticflickr.com/65535/49711390886_defb82c0fe_n.jpg",
    "id_album": "850176884",
    "description": "Dragon_2313",
    "title": "Dragon_2313",
    "link_img": "https://live.staticflickr.com/65535/49711390886_e0508ae428_o.jpg",
    "id_image": "Dragon_2313",
    "count_view": 0
  },
  {
    "link_thumb": "https://live.staticflickr.com/65535/49710327348_52ebaab0fc_n.jpg",
    "id_album": "-2109465612",
    "description": "Adventure_239360",
    "title": "Adventure_239360",
    "link_img": "https://live.staticflickr.com/65535/49710327348_681ff4dd81_o.jpg",
    "id_image": "Adventure_239360",
    "count_view": 0
  },
  {
    "link_thumb": "https://live.staticflickr.com/65535/49710921031_7fb73f0721_n.jpg",
    "id_album": "-1913845949",
    "description": "Animal_910935",
    "title": "Animal_910935",
    "link_img": "https://live.staticflickr.com/65535/49710921031_2cf188fd6a_o.jpg",
    "id_image": "Animal_910935",
    "count_view": 0
  },
  {
    "link_thumb": "https://live.staticflickr.com/65535/49711519837_e96f0840e7_n.jpg",
    "id_album": "-437872736",
    "description": "Creature_322988",
    "title": "Creature_322988",
    "link_img": "https://live.staticflickr.com/65535/49711519837_4d279fbd90_o.jpg",
    "id_image": "Creature_322988",
    "count_view": 0
  },
  {
    "link_thumb": "https://live.staticflickr.com/65535/49711047086_c045d7e177_n.jpg",
    "id_album": "-1541846310",
    "description": "Castle_526718",
    "title": "Castle_526718",
    "link_img": "https://live.staticflickr.com/65535/49711047086_12105825fb_o.jpg",
    "id_image": "Castle_526718",
    "count_view": 0
  },
  {
    "link_thumb": "https://live.staticflickr.com/65535/49711677082_694c69ed19_n.jpg",
    "id_album": "850176884",
    "description": "DRAGON26101916503461",
    "title": "DRAGON26101916503461",
    "link_img": "https://live.staticflickr.com/65535/49711677082_5a69681d13_o.jpg",
    "id_image": "DRAGON26101916503461",
    "count_view": 0
  },
  {
    "link_thumb": "https://live.staticflickr.com/65535/49711851451_6f0c098c88_n.jpg",
    "id_album": "1402713104",
    "description": "Landscape_889005",
    "title": "Landscape_889005",
    "link_img": "https://live.staticflickr.com/65535/49711851451_56ffb29e45_o.jpg",
    "id_image": "Landscape_889005",
    "count_view": 0
  },
  {
    "link_thumb": "https://live.staticflickr.com/65535/49710426753_d81a18c377_n.jpg",
    "id_album": "523598895",
    "description": "Artistic_313923",
    "title": "Artistic_313923",
    "link_img": "https://live.staticflickr.com/65535/49710426753_a3ed8c7ccc_o.jpg",
    "id_image": "Artistic_313923",
    "count_view": 0
  },
  {
    "link_thumb": "https://live.staticflickr.com/65535/49712565297_d3c8e8f063_n.jpg",
    "id_album": "1173975892",
    "description": "Werewolf_262350",
    "title": "Werewolf_262350",
    "link_img": "https://live.staticflickr.com/65535/49712565297_4c2b5d0cf7_o.jpg",
    "id_image": "Werewolf_262350",
    "count_view": 0
  },
  {
    "link_thumb": "https://live.staticflickr.com/65535/49710877571_485649efef_n.jpg",
    "id_album": "-1000175186",
    "description": "AngelWarrior_269635",
    "title": "AngelWarrior_269635",
    "link_img": "https://live.staticflickr.com/65535/49710877571_42685e77d9_o.jpg",
    "id_image": "AngelWarrior_269635",
    "count_view": 0
  },
  {
    "link_thumb": "https://live.staticflickr.com/65535/49711553387_63b33ede5c_n.jpg",
    "id_album": "-437872736",
    "description": "Creature_401785",
    "title": "Creature_401785",
    "link_img": "https://live.staticflickr.com/65535/49711553387_3b7a961741_o.jpg",
    "id_image": "Creature_401785",
    "count_view": 0
  },
  {
    "link_thumb": "https://live.staticflickr.com/65535/49711329261_b831dea367_n.jpg",
    "id_album": "1903411565",
    "description": "Deer_908434",
    "title": "Deer_908434",
    "link_img": "https://live.staticflickr.com/65535/49711329261_72ec491cce_o.jpg",
    "id_image": "Deer_908434",
    "count_view": 0
  },
  {
    "link_thumb": "https://live.staticflickr.com/65535/49711654802_8701623c18_n.jpg",
    "id_album": "1903411565",
    "description": "Deer_931811",
    "title": "Deer_931811",
    "link_img": "https://live.staticflickr.com/65535/49711654802_021e13a070_o.jpg",
    "id_image": "Deer_931811",
    "count_view": 0
  },
  {
    "link_thumb": "https://live.staticflickr.com/65535/49712417476_754be3bbee_n.jpg",
    "id_album": "295204930",
    "description": "Women_731446",
    "title": "Women_731446",
    "link_img": "https://live.staticflickr.com/65535/49712417476_77368245f1_o.jpg",
    "id_image": "Women_731446",
    "count_view": 0
  },
  {
    "link_thumb": "https://live.staticflickr.com/65535/49711233681_533a7c69d4_n.jpg",
    "id_album": "-437872736",
    "description": "Creature_476369",
    "title": "Creature_476369",
    "link_img": "https://live.staticflickr.com/65535/49711233681_512a180ab9_o.jpg",
    "id_image": "Creature_476369",
    "count_view": 0
  },
  {
    "link_thumb": "https://live.staticflickr.com/65535/49711659931_ef389ec257_n.jpg",
    "id_album": "-1972042284",
    "description": "Fairy_357560",
    "title": "Fairy_357560",
    "link_img": "https://live.staticflickr.com/65535/49711659931_45889b1604_o.jpg",
    "id_image": "Fairy_357560",
    "count_view": 0
  },
  {
    "link_thumb": "https://live.staticflickr.com/65535/49712204617_e95daf20fe_n.jpg",
    "id_album": "1402713104",
    "description": "Landscape_991409",
    "title": "Landscape_991409",
    "link_img": "https://live.staticflickr.com/65535/49712204617_aa57e62e3d_o.jpg",
    "id_image": "Landscape_991409",
    "count_view": 0
  },
  {
    "link_thumb": "https://live.staticflickr.com/65535/49711160296_87601aeec7_n.jpg",
    "id_album": "-437872736",
    "description": "Creature_223258",
    "title": "Creature_223258",
    "link_img": "https://live.staticflickr.com/65535/49711160296_b86bcc1ae2_o.jpg",
    "id_image": "Creature_223258",
    "count_view": 0
  },
  {
    "link_thumb": "https://live.staticflickr.com/65535/49711256576_16068b1ed7_n.jpg",
    "id_album": "-437872736",
    "description": "Creature_665577",
    "title": "Creature_665577",
    "link_img": "https://live.staticflickr.com/65535/49711256576_eb352448fa_o.jpg",
    "id_image": "Creature_665577",
    "count_view": 0
  },
  {
    "link_thumb": "https://live.staticflickr.com/65535/49712082198_0ee2b84691_n.jpg",
    "id_album": "-1675918237",
    "description": "WomenWarrior_494086",
    "title": "WomenWarrior_494086",
    "link_img": "https://live.staticflickr.com/65535/49712082198_54289fda14_o.jpg",
    "id_image": "WomenWarrior_494086",
    "count_view": 0
  },
  {
    "link_thumb": "https://live.staticflickr.com/65535/49711220756_b3bb3aa045_n.jpg",
    "id_album": "-437872736",
    "description": "Creature_379187",
    "title": "Creature_379187",
    "link_img": "https://live.staticflickr.com/65535/49711220756_dbd5a9ed19_o.jpg",
    "id_image": "Creature_379187",
    "count_view": 0
  },
  {
    "link_thumb": "https://live.staticflickr.com/65535/49711499217_fde90dd4e9_n.jpg",
    "id_album": "-437872736",
    "description": "Creature_273462",
    "title": "Creature_273462",
    "link_img": "https://live.staticflickr.com/65535/49711499217_efc267b03f_o.jpg",
    "id_image": "Creature_273462",
    "count_view": 0
  },
  {
    "link_thumb": "https://live.staticflickr.com/65535/49712093466_8559233c48_n.jpg",
    "id_album": "1223576123",
    "description": "Ruin_151772",
    "title": "Ruin_151772",
    "link_img": "https://live.staticflickr.com/65535/49712093466_1db0eaa3ab_o.jpg",
    "id_image": "Ruin_151772",
    "count_view": 0
  },
  {
    "link_thumb": "https://live.staticflickr.com/65535/49710897818_7e92e18c85_n.jpg",
    "id_album": "850176884",
    "description": "Dragon_367534",
    "title": "Dragon_367534",
    "link_img": "https://live.staticflickr.com/65535/49710897818_74294206d6_o.jpg",
    "id_image": "Dragon_367534",
    "count_view": 0
  },
  {
    "link_thumb": "https://live.staticflickr.com/65535/49710901221_f67a2f40a7_n.jpg",
    "id_album": "-1913845949",
    "description": "Animal_464207",
    "title": "Animal_464207",
    "link_img": "https://live.staticflickr.com/65535/49710901221_61a2808259_o.jpg",
    "id_image": "Animal_464207",
    "count_view": 0
  },
  {
    "link_thumb": "https://live.staticflickr.com/65535/49710891396_c871ae92ac_n.jpg",
    "id_album": "-1000175186",
    "description": "AngelWarrior_992281",
    "title": "AngelWarrior_992281",
    "link_img": "https://live.staticflickr.com/65535/49710891396_5ac34c3b8e_o.jpg",
    "id_image": "AngelWarrior_992281",
    "count_view": 0
  },
  {
    "link_thumb": "https://live.staticflickr.com/65535/49711084721_36721f422f_n.jpg",
    "id_album": "430704260",
    "description": "Child_921600",
    "title": "Child_921600",
    "link_img": "https://live.staticflickr.com/65535/49711084721_82aa00e399_o.jpg",
    "id_image": "Child_921600",
    "count_view": 0
  },
  {
    "link_thumb": "https://live.staticflickr.com/65535/49711542006_d152af881f_n.jpg",
    "id_album": "850176884",
    "description": "Dragon_867423",
    "title": "Dragon_867423",
    "link_img": "https://live.staticflickr.com/65535/49711542006_3114965843_o.jpg",
    "id_image": "Dragon_867423",
    "count_view": 0
  }
]