[
  {
    "link_thumb": "https://live.staticflickr.com/65535/49711146338_f32eb3f941_n.jpg",
    "id_album": "-1972042284",
    "description": "Fairy_747972",
    "title": "Fairy_747972",
    "link_img": "https://live.staticflickr.com/65535/49711146338_613599d9f0_o.jpg",
    "id_image": "Fairy_747972",
    "count_view": 0
  },
  {
    "link_thumb": "https://live.staticflickr.com/65535/49711523263_f349c6a726_n.jpg",
    "id_album": "-1862561193",
    "description": "Other_465829",
    "title": "Other_465829",
    "link_img": "https://live.staticflickr.com/65535/49711523263_a949bae465_o.jpg",
    "id_image": "Other_465829",
    "count_view": 0
  },
  {
    "link_thumb": "https://live.staticflickr.com/65535/49711863486_35e3511d70_n.jpg",
    "id_album": "1402713104",
    "description": "Landscape_943134",
    "title": "Landscape_943134",
    "link_img": "https://live.staticflickr.com/65535/49711863486_ee35b89765_o.jpg",
    "id_image": "Landscape_943134",
    "count_view": 0
  },
  {
    "link_thumb": "https://live.staticflickr.com/65535/49711925142_3b1fecfa59_n.jpg",
    "id_album": "134100487",
    "description": "Elf_150254",
    "title": "Elf_150254",
    "link_img": "https://live.staticflickr.com/65535/49711925142_84bddd58d1_o.jpg",
    "id_image": "Elf_150254",
    "count_view": 0
  },
  {
    "link_thumb": "https://live.staticflickr.com/65535/49712416966_36afcdd895_n.jpg",
    "id_album": "295204930",
    "description": "Women_728488",
    "title": "Women_728488",
    "link_img": "https://live.staticflickr.com/65535/49712416966_c637d50f69_o.jpg",
    "id_image": "Women_728488",
    "count_view": 0
  },
  {
    "link_thumb": "https://live.staticflickr.com/65535/49712140131_fe7f4555cc_n.jpg",
    "id_album": "-395228614",
    "description": "Ship_977113",
    "title": "Ship_977113",
    "link_img": "https://live.staticflickr.com/65535/49712140131_1aea57da45_o.jpg",
    "id_image": "Ship_977113",
    "count_view": 0
  },
  {
    "link_thumb": "https://live.staticflickr.com/65535/49711995057_4319d82bc1_n.jpg",
    "id_album": "-1972042284",
    "description": "Fairy_617932",
    "title": "Fairy_617932",
    "link_img": "https://live.staticflickr.com/65535/49711995057_c2d6d0c5ac_o.jpg",
    "id_image": "Fairy_617932",
    "count_view": 0
  },
  {
    "link_thumb": "https://live.staticflickr.com/65535/49711218932_40f980d4ce_n.jpg",
    "id_album": "-1913845949",
    "description": "Animal_196503",
    "title": "Animal_196503",
    "link_img": "https://live.staticflickr.com/65535/49711218932_56545167ec_o.jpg",
    "id_image": "Animal_196503",
    "count_view": 0
  },
  {
    "link_thumb": "https://live.staticflickr.com/65535/49711901011_48aa851c64_n.jpg",
    "id_album": "-833110404",
    "description": "Landscape_263163",
    "title": "Landscape_263163",
    "link_img": "https://live.staticflickr.com/65535/49711901011_d15cfd2e35_o.jpg",
    "id_image": "Landscape_263163",
    "count_view": 0
  },
  {
    "link_thumb": "https://live.staticflickr.com/65535/49710348548_f5229c8b9d_n.jpg",
    "id_album": "-1000175186",
    "description": "AngelWarrior_534450",
    "title": "AngelWarrior_534450",
    "link_img": "https://live.staticflickr.com/65535/49710348548_a2b2c3a8c1_o.jpg",
    "id_image": "AngelWarrior_534450",
    "count_view": 0
  },
  {
    "link_thumb": "https://live.staticflickr.com/65535/49712663946_c4a164ba01_n.jpg",
    "id_album": "-1675918237",
    "description": "WomenWarrior_742056",
    "title": "WomenWarrior_742056",
    "link_img": "https://live.staticflickr.com/65535/49712663946_9e93105598_o.jpg",
    "id_image": "WomenWarrior_742056",
    "count_view": 0
  },
  {
    "link_thumb": "https://live.staticflickr.com/65535/49711579416_8a7a0c222d_n.jpg",
    "id_album": "850176884",
    "description": "Dragon_96214",
    "title": "Dragon_96214",
    "link_img": "https://live.staticflickr.com/65535/49711579416_43c461fca1_o.jpg",
    "id_image": "Dragon_96214",
    "count_view": 0
  },
  {
    "link_thumb": "https://live.staticflickr.com/65535/49711645748_d9b5dc0ba6_n.jpg",
    "id_album": "431597977",
    "description": "Unicorn_719779",
    "title": "Unicorn_719779",
    "link_img": "https://live.staticflickr.com/65535/49711645748_757f80f974_o.jpg",
    "id_image": "Unicorn_719779",
    "count_view": 0
  },
  {
    "link_thumb": "https://live.staticflickr.com/65535/49711674826_2f2672fdfe_n.jpg",
    "id_album": "-1972042284",
    "description": "Fairy_689865",
    "title": "Fairy_689865",
    "link_img": "https://live.staticflickr.com/65535/49711674826_7a161014aa_o.jpg",
    "id_image": "Fairy_689865",
    "count_view": 0
  },
  {
    "link_thumb": "https://live.staticflickr.com/65535/49711357241_9562406cd8_n.jpg",
    "id_album": "850176884",
    "description": "Dragon_118548",
    "title": "Dragon_118548",
    "link_img": "https://live.staticflickr.com/65535/49711357241_3e8d135bb1_o.jpg",
    "id_image": "Dragon_118548",
    "count_view": 0
  },
  {
    "link_thumb": "https://live.staticflickr.com/65535/49710494738_30cb2fcbc1_n.jpg",
    "id_album": "406431601",
    "description": "Building_961982",
    "title": "Building_961982",
    "link_img": "https://live.staticflickr.com/65535/49710494738_8bc2c8dd24_o.jpg",
    "id_image": "Building_961982",
    "count_view": 0
  },
  {
    "link_thumb": "https://live.staticflickr.com/65535/49710327973_66da171606_n.jpg",
    "id_album": "-2109465612",
    "description": "Adventure_240985",
    "title": "Adventure_240985",
    "link_img": "https://live.staticflickr.com/65535/49710327973_9a14367f37_o.jpg",
    "id_image": "Adventure_240985",
    "count_view": 0
  },
  {
    "link_thumb": "https://live.staticflickr.com/65535/49712038277_f370c0d7e1_n.jpg",
    "id_album": "-1083189875",
    "description": "Forest_864932",
    "title": "Forest_864932",
    "link_img": "https://live.staticflickr.com/65535/49712038277_d410c2bbd6_o.jpg",
    "id_image": "Forest_864932",
    "count_view": 0
  },
  {
    "link_thumb": "https://live.staticflickr.com/65535/49712201751_f76f9518f3_n.jpg",
    "id_album": "-1261420436",
    "description": "Warrior_225960",
    "title": "Warrior_225960",
    "link_img": "https://live.staticflickr.com/65535/49712201751_eeecf8bf3a_o.jpg",
    "id_image": "Warrior_225960",
    "count_view": 0
  },
  {
    "link_thumb": "https://live.staticflickr.com/65535/49710505323_a9207bf5f6_n.jpg",
    "id_album": "-1541846310",
    "description": "Castle_266617",
    "title": "Castle_266617",
    "link_img": "https://live.staticflickr.com/65535/49710505323_6127b10cfa_o.jpg",
    "id_image": "Castle_266617",
    "count_view": 0
  },
  {
    "link_thumb": "https://live.staticflickr.com/65535/49711318666_7d5e2cb53c_n.jpg",
    "id_album": "2021464556",
    "description": "Dark_313300",
    "title": "Dark_313300",
    "link_img": "https://live.staticflickr.com/65535/49711318666_a3656f7ef7_o.jpg",
    "id_image": "Dark_313300",
    "count_view": 0
  },
  {
    "link_thumb": "https://live.staticflickr.com/65535/49711267367_0242907cf0_n.jpg",
    "id_album": "523598895",
    "description": "Artistic_150194",
    "title": "Artistic_150194",
    "link_img": "https://live.staticflickr.com/65535/49711267367_e0891df8b2_o.jpg",
    "id_image": "Artistic_150194",
    "count_view": 0
  },
  {
    "link_thumb": "https://live.staticflickr.com/65535/49712436691_09c0b2a4ee_n.jpg",
    "id_album": "1861288871",
    "description": "Women_234903",
    "title": "Women_234903",
    "link_img": "https://live.staticflickr.com/65535/49712436691_002d360538_o.jpg",
    "id_image": "Women_234903",
    "count_view": 0
  },
  {
    "link_thumb": "https://live.staticflickr.com/65535/49711281478_29cf4ecbcc_n.jpg",
    "id_album": "1402713104",
    "description": "Landscape_740051",
    "title": "Landscape_740051",
    "link_img": "https://live.staticflickr.com/65535/49711281478_7f1e8421e8_o.jpg",
    "id_image": "Landscape_740051",
    "count_view": 0
  },
  {
    "link_thumb": "https://live.staticflickr.com/65535/49712628062_dc15061246_n.jpg",
    "id_album": "-1126835654",
    "description": "Women_114198",
    "title": "Women_114198",
    "link_img": "https://live.staticflickr.com/65535/49712628062_99e7aaf935_o.jpg",
    "id_image": "Women_114198",
    "count_view": 0
  },
  {
    "link_thumb": "https://live.staticflickr.com/65535/49712471747_5bd4f299cd_n.jpg",
    "id_album": "1209361954",
    "description": "Sylvan_197028",
    "title": "Sylvan_197028",
    "link_img": "https://live.staticflickr.com/65535/49712471747_51618af93c_o.jpg",
    "id_image": "Sylvan_197028",
    "count_view": 0
  },
  {
    "link_thumb": "https://live.staticflickr.com/65535/49711316386_1b59771387_n.jpg",
    "id_album": "2021464556",
    "description": "Dark_232674",
    "title": "Dark_232674",
    "link_img": "https://live.staticflickr.com/65535/49711316386_7467fd28e0_o.jpg",
    "id_image": "Dark_232674",
    "count_view": 0
  },
  {
    "link_thumb": "https://live.staticflickr.com/65535/49712702242_46c3fd4020_n.jpg",
    "id_album": "295204930",
    "description": "Women_337583",
    "title": "Women_337583",
    "link_img": "https://live.staticflickr.com/65535/49712702242_1fcbe1d617_o.jpg",
    "id_image": "Women_337583",
    "count_view": 0
  },
  {
    "link_thumb": "https://live.staticflickr.com/65535/49711416472_041c849c83_n.jpg",
    "id_album": "-1964113117",
    "description": "City_211069",
    "title": "City_211069",
    "link_img": "https://live.staticflickr.com/65535/49711416472_58816699b1_o.jpg",
    "id_image": "City_211069",
    "count_view": 0
  },
  {
    "link_thumb": "https://live.staticflickr.com/65535/49712408042_e96fa1a3d8_n.jpg",
    "id_album": "1587588550",
    "description": "Place_260515",
    "title": "Place_260515",
    "link_img": "https://live.staticflickr.com/65535/49712408042_b1ae943ce7_o.jpg",
    "id_image": "Place_260515",
    "count_view": 0
  },
  {
    "link_thumb": "https://live.staticflickr.com/65535/49711500167_a765606c7f_n.jpg",
    "id_album": "-437872736",
    "description": "Creature_278244",
    "title": "Creature_278244",
    "link_img": "https://live.staticflickr.com/65535/49711500167_22a83e696f_o.jpg",
    "id_image": "Creature_278244",
    "count_view": 0
  },
  {
    "link_thumb": "https://live.staticflickr.com/65535/49711300413_dd80dd6256_n.jpg",
    "id_album": "1402713104",
    "description": "Landscape_864512",
    "title": "Landscape_864512",
    "link_img": "https://live.staticflickr.com/65535/49711300413_3a0c721d71_o.jpg",
    "id_image": "Landscape_864512",
    "count_view": 0
  },
  {
    "link_thumb": "https://live.staticflickr.com/65535/49710907573_3ff6b83b01_n.jpg",
    "id_album": "850176884",
    "description": "Dragon_41519",
    "title": "Dragon_41519",
    "link_img": "https://live.staticflickr.com/65535/49710907573_89d08495a5_o.jpg",
    "id_image": "Dragon_41519",
    "count_view": 0
  },
  {
    "link_thumb": "https://live.staticflickr.com/65535/49710977393_f216fe9acd_n.jpg",
    "id_album": "850176884",
    "description": "Dragon_714831",
    "title": "Dragon_714831",
    "link_img": "https://live.staticflickr.com/65535/49710977393_b624df7fae_o.jpg",
    "id_image": "Dragon_714831",
    "count_view": 0
  },
  {
    "link_thumb": "https://live.staticflickr.com/65535/49711404241_e0f5fae6c5_n.jpg",
    "id_album": "850176884",
    "description": "Dragon_265084",
    "title": "Dragon_265084",
    "link_img": "https://live.staticflickr.com/65535/49711404241_d6cd5825c3_o.jpg",
    "id_image": "Dragon_265084",
    "count_view": 0
  },
  {
    "link_thumb": "https://live.staticflickr.com/65535/49711620397_369e8baa20_n.jpg",
    "id_album": "-437872736",
    "description": "Creature_958914",
    "title": "Creature_958914",
    "link_img": "https://live.staticflickr.com/65535/49711620397_5b724db551_o.jpg",
    "id_image": "Creature_958914",
    "count_view": 0
  },
  {
    "link_thumb": "https://live.staticflickr.com/65535/49711512603_9514f5cee6_n.jpg",
    "id_album": "1892085513",
    "description": "Oriental_922708",
    "title": "Oriental_922708",
    "link_img": "https://live.staticflickr.com/65535/49711512603_101664ee1b_o.jpg",
    "id_image": "Oriental_922708",
    "count_view": 0
  },
  {
    "link_thumb": "https://live.staticflickr.com/65535/49711014973_22c6524587_n.jpg",
    "id_album": "850176884",
    "description": "Dragon_881762",
    "title": "Dragon_881762",
    "link_img": "https://live.staticflickr.com/65535/49711014973_f366148fc1_o.jpg",
    "id_image": "Dragon_881762",
    "count_view": 0
  },
  {
    "link_thumb": "https://live.staticflickr.com/65535/49711304221_675b793703_n.jpg",
    "id_album": "-437872736",
    "description": "Creature_958975",
    "title": "Creature_958975",
    "link_img": "https://live.staticflickr.com/65535/49711304221_ce9a9f7095_o.jpg",
    "id_image": "Creature_958975",
    "count_view": 0
  },
  {
    "link_thumb": "https://live.staticflickr.com/65535/49710427198_a6b3668d7d_n.jpg",
    "id_album": "523598895",
    "description": "Artistic_319610",
    "title": "Artistic_319610",
    "link_img": "https://live.staticflickr.com/65535/49710427198_294b948748_o.jpg",
    "id_image": "Artistic_319610",
    "count_view": 0
  },
  {
    "link_thumb": "https://live.staticflickr.com/65535/49710918743_9d29178779_n.jpg",
    "id_album": "850176884",
    "description": "Dragon_463768",
    "title": "Dragon_463768",
    "link_img": "https://live.staticflickr.com/65535/49710918743_a757996862_o.jpg",
    "id_image": "Dragon_463768",
    "count_view": 0
  },
  {
    "link_thumb": "https://live.staticflickr.com/65535/49711468261_e967cb061a_n.jpg",
    "id_album": "850176884",
    "description": "Dragon_514763",
    "title": "Dragon_514763",
    "link_img": "https://live.staticflickr.com/65535/49711468261_384bfa8049_o.jpg",
    "id_image": "Dragon_514763",
    "count_view": 0
  },
  {
    "link_thumb": "https://live.staticflickr.com/65535/49712152898_414f0aba93_n.jpg",
    "id_album": "-1675918237",
    "description": "WomenWarrior_864649",
    "title": "WomenWarrior_864649",
    "link_img": "https://live.staticflickr.com/65535/49712152898_be9a4c1667_o.jpg",
    "id_image": "WomenWarrior_864649",
    "count_view": 0
  },
  {
    "link_thumb": "https://live.staticflickr.com/65535/49711262136_eef19e5fab_n.jpg",
    "id_album": "-437872736",
    "description": "Creature_701281",
    "title": "Creature_701281",
    "link_img": "https://live.staticflickr.com/65535/49711262136_d2e15c7264_o.jpg",
    "id_image": "Creature_701281",
    "count_view": 0
  },
  {
    "link_thumb": "https://live.staticflickr.com/65535/49711661747_5d06fce437_n.jpg",
    "id_album": "7198985",
    "description": "Demon_585251",
    "title": "Demon_585251",
    "link_img": "https://live.staticflickr.com/65535/49711661747_309cffd0c5_o.jpg",
    "id_image": "Demon_585251",
    "count_view": 0
  },
  {
    "link_thumb": "https://live.staticflickr.com/65535/49711278402_b44b6a191e_n.jpg",
    "id_album": "523598895",
    "description": "Artistic_220819",
    "title": "Artistic_220819",
    "link_img": "https://live.staticflickr.com/65535/49711278402_762f7be202_o.jpg",
    "id_image": "Artistic_220819",
    "count_view": 0
  },
  {
    "link_thumb": "https://live.staticflickr.com/65535/49710870276_3108bb1e12_n.jpg",
    "id_album": "-956471126",
    "description": "AliceInWonderland_167439",
    "title": "AliceInWonderland_167439",
    "link_img": "https://live.staticflickr.com/65535/49710870276_a88a1719ed_o.jpg",
    "id_image": "AliceInWonderland_167439",
    "count_view": 0
  },
  {
    "link_thumb": "https://live.staticflickr.com/65535/49711252766_e615a7ace1_n.jpg",
    "id_album": "-437872736",
    "description": "Creature_599903",
    "title": "Creature_599903",
    "link_img": "https://live.staticflickr.com/65535/49711252766_ee76d83225_o.jpg",
    "id_image": "Creature_599903",
    "count_view": 0
  },
  {
    "link_thumb": "https://live.staticflickr.com/65535/49711543172_0e9508952a_n.jpg",
    "id_album": "-437872736",
    "description": "Creature_371884",
    "title": "Creature_371884",
    "link_img": "https://live.staticflickr.com/65535/49711543172_2a3269c584_o.jpg",
    "id_image": "Creature_371884",
    "count_view": 0
  },
  {
    "link_thumb": "https://live.staticflickr.com/65535/49711259757_65a7d4b999_n.jpg",
    "id_album": "-1560111795",
    "description": "Archer_991009",
    "title": "Archer_991009",
    "link_img": "https://live.staticflickr.com/65535/49711259757_a3817d740e_o.jpg",
    "id_image": "Archer_991009",
    "count_view": 0
  },
  {
    "link_thumb": "https://live.staticflickr.com/65535/49710949653_a025211d07_n.jpg",
    "id_album": "850176884",
    "description": "Dragon_574778",
    "title": "Dragon_574778",
    "link_img": "https://live.staticflickr.com/65535/49710949653_c1d6f3ab8e_o.jpg",
    "id_image": "Dragon_574778",
    "count_view": 0
  },
  {
    "link_thumb": "https://live.staticflickr.com/65535/49711742941_d8c0cf4e1a_n.jpg",
    "id_album": "1131236559",
    "description": "Gods_238431",
    "title": "Gods_238431",
    "link_img": "https://live.staticflickr.com/65535/49711742941_1e11b39db0_o.jpg",
    "id_image": "Gods_238431",
    "count_view": 0
  },
  {
    "link_thumb": "https://live.staticflickr.com/65535/49711165021_7a2040ebc1_n.jpg",
    "id_album": "-437872736",
    "description": "Creature_240963",
    "title": "Creature_240963",
    "link_img": "https://live.staticflickr.com/65535/49711165021_66a8037670_o.jpg",
    "id_image": "Creature_240963",
    "count_view": 0
  },
  {
    "link_thumb": "https://live.staticflickr.com/65535/49712445407_a46aced1de_n.jpg",
    "id_album": "407101116",
    "description": "SeaMonster_669206",
    "title": "SeaMonster_669206",
    "link_img": "https://live.staticflickr.com/65535/49712445407_60e3ae6c0e_o.jpg",
    "id_image": "SeaMonster_669206",
    "count_view": 0
  },
  {
    "link_thumb": "https://live.staticflickr.com/65535/49711505922_cec231b11a_n.jpg",
    "id_album": "-437872736",
    "description": "Creature_298910",
    "title": "Creature_298910",
    "link_img": "https://live.staticflickr.com/65535/49711505922_5131776708_o.jpg",
    "id_image": "Creature_298910",
    "count_view": 0
  },
  {
    "link_thumb": "https://live.staticflickr.com/65535/49711867716_311f613d00_n.jpg",
    "id_album": "1402713104",
    "description": "Landscape_952437",
    "title": "Landscape_952437",
    "link_img": "https://live.staticflickr.com/65535/49711867716_4914b7cc26_o.jpg",
    "id_image": "Landscape_952437",
    "count_view": 0
  },
  {
    "link_thumb": "https://live.staticflickr.com/65535/49711309478_e23ba97d33_n.jpg",
    "id_album": "1402713104",
    "description": "Landscape_869613",
    "title": "Landscape_869613",
    "link_img": "https://live.staticflickr.com/65535/49711309478_cd1c7b3a08_o.jpg",
    "id_image": "Landscape_869613",
    "count_view": 0
  },
  {
    "link_thumb": "https://live.staticflickr.com/65535/49711273051_66da0792ea_n.jpg",
    "id_album": "-437872736",
    "description": "Creature_91827",
    "title": "Creature_91827",
    "link_img": "https://live.staticflickr.com/65535/49711273051_b9c0d76a40_o.jpg",
    "id_image": "Creature_91827",
    "count_view": 0
  },
  {
    "link_thumb": "https://live.staticflickr.com/65535/49710325628_8f926bdf72_n.jpg",
    "id_album": "-2109465612",
    "description": "Adventure_229255",
    "title": "Adventure_229255",
    "link_img": "https://live.staticflickr.com/65535/49710325628_ce69ae5e5a_o.jpg",
    "id_image": "Adventure_229255",
    "count_view": 0
  },
  {
    "link_thumb": "https://live.staticflickr.com/65535/49711388346_1f8eb68515_n.jpg",
    "id_album": "850176884",
    "description": "Dragon_220302",
    "title": "Dragon_220302",
    "link_img": "https://live.staticflickr.com/65535/49711388346_664afffde9_o.jpg",
    "id_image": "Dragon_220302",
    "count_view": 0
  },
  {
    "link_thumb": "https://live.staticflickr.com/65535/49712632852_3e9c0e0b54_n.jpg",
    "id_album": "-1126835654",
    "description": "Women_859499",
    "title": "Women_859499",
    "link_img": "https://live.staticflickr.com/65535/49712632852_20652f6343_o.jpg",
    "id_image": "Women_859499",
    "count_view": 0
  },
  {
    "link_thumb": "https://live.staticflickr.com/65535/49710329983_7cb1f9d32a_n.jpg",
    "id_album": "-2109465612",
    "description": "Adventure_249590",
    "title": "Adventure_249590",
    "link_img": "https://live.staticflickr.com/65535/49710329983_8e5aa3f610_o.jpg",
    "id_image": "Adventure_249590",
    "count_view": 0
  },
  {
    "link_thumb": "https://live.staticflickr.com/65535/49711696473_1a2d614860_n.jpg",
    "id_album": "-1261420436",
    "description": "Warrior_901639",
    "title": "Warrior_901639",
    "link_img": "https://live.staticflickr.com/65535/49711696473_129b78ff56_o.jpg",
    "id_image": "Warrior_901639",
    "count_view": 0
  },
  {
    "link_thumb": "https://live.staticflickr.com/65535/49711912046_5c586d5b95_n.jpg",
    "id_album": "-833110404",
    "description": "Landscape_288104",
    "title": "Landscape_288104",
    "link_img": "https://live.staticflickr.com/65535/49711912046_6a5a524a00_o.jpg",
    "id_image": "Landscape_288104",
    "count_view": 0
  },
  {
    "link_thumb": "https://live.staticflickr.com/65535/49712102841_9250ff2923_n.jpg",
    "id_album": "-1611961467",
    "description": "Samurai_152784",
    "title": "Samurai_152784",
    "link_img": "https://live.staticflickr.com/65535/49712102841_cc3759581c_o.jpg",
    "id_image": "Samurai_152784",
    "count_view": 0
  },
  {
    "link_thumb": "https://live.staticflickr.com/65535/49711408202_84d20c986c_n.jpg",
    "id_album": "430704260",
    "description": "Child_900343",
    "title": "Child_900343",
    "link_img": "https://live.staticflickr.com/65535/49711408202_f0a9c32c5d_o.jpg",
    "id_image": "Child_900343",
    "count_view": 0
  },
  {
    "link_thumb": "https://live.staticflickr.com/65535/49712057072_57d59d65c3_n.jpg",
    "id_album": "402434752",
    "description": "Giant_665580",
    "title": "Giant_665580",
    "link_img": "https://live.staticflickr.com/65535/49712057072_f534a67eb5_o.jpg",
    "id_image": "Giant_665580",
    "count_view": 0
  },
  {
    "link_thumb": "https://live.staticflickr.com/65535/49711741336_bd328fe496_n.jpg",
    "id_album": "1131236559",
    "description": "Gods_140606",
    "title": "Gods_140606",
    "link_img": "https://live.staticflickr.com/65535/49711741336_4340120507_o.jpg",
    "id_image": "Gods_140606",
    "count_view": 0
  },
  {
    "link_thumb": "https://live.staticflickr.com/65535/49712027107_5de7d9fb18_n.jpg",
    "id_album": "-1083189875",
    "description": "Forest_677820",
    "title": "Forest_677820",
    "link_img": "https://live.staticflickr.com/65535/49712027107_4fd16f65f1_o.jpg",
    "id_image": "Forest_677820",
    "count_view": 0
  },
  {
    "link_thumb": "https://live.staticflickr.com/65535/49711483852_bf0488222a_n.jpg",
    "id_album": "-437872736",
    "description": "Creature_217615",
    "title": "Creature_217615",
    "link_img": "https://live.staticflickr.com/65535/49711483852_84bf15db15_o.jpg",
    "id_image": "Creature_217615",
    "count_view": 0
  },
  {
    "link_thumb": "https://live.staticflickr.com/65535/49712409216_cafcc58106_n.jpg",
    "id_album": "295204930",
    "description": "Women_704863",
    "title": "Women_704863",
    "link_img": "https://live.staticflickr.com/65535/49712409216_29fdb51b37_o.jpg",
    "id_image": "Women_704863",
    "count_view": 0
  },
  {
    "link_thumb": "https://live.staticflickr.com/65535/49712289297_69bbd9e70d_n.jpg",
    "id_album": "-833110404",
    "description": "Landscape_547381",
    "title": "Landscape_547381",
    "link_img": "https://live.staticflickr.com/65535/49712289297_5dea821bd0_o.jpg",
    "id_image": "Landscape_547381",
    "count_view": 0
  },
  {
    "link_thumb": "https://live.staticflickr.com/65535/49710719163_d254452c64_n.jpg",
    "id_album": "-437872736",
    "description": "Creature_646769",
    "title": "Creature_646769",
    "link_img": "https://live.staticflickr.com/65535/49710719163_2b18bd0eee_o.jpg",
    "id_image": "Creature_646769",
    "count_view": 0
  },
  {
    "link_thumb": "https://live.staticflickr.com/65535/49712074136_f38f7e54f9_n.jpg",
    "id_album": "-1326601535",
    "description": "Phoenix_503705",
    "title": "Phoenix_503705",
    "link_img": "https://live.staticflickr.com/65535/49712074136_663f09cda2_o.jpg",
    "id_image": "Phoenix_503705",
    "count_view": 0
  },
  {
    "link_thumb": "https://live.staticflickr.com/65535/49711901757_97dd3a9496_n.jpg",
    "id_album": "850176884",
    "description": "Dragon_959234",
    "title": "Dragon_959234",
    "link_img": "https://live.staticflickr.com/65535/49711901757_fbf33ea195_o.jpg",
    "id_image": "Dragon_959234",
    "count_view": 0
  },
  {
    "link_thumb": "https://live.staticflickr.com/65535/49711754682_b5cfb0a17e_n.jpg",
    "id_album": "850176884",
    "description": "Dragon_370496",
    "title": "Dragon_370496",
    "link_img": "https://live.staticflickr.com/65535/49711754682_ef030c9b53_o.jpg",
    "id_image": "Dragon_370496",
    "count_view": 0
  },
  {
    "link_thumb": "https://live.staticflickr.com/65535/49711184641_fd1eca1d18_n.jpg",
    "id_album": "-437872736",
    "description": "Creature_307028",
    "title": "Creature_307028",
    "link_img": "https://live.staticflickr.com/65535/49711184641_c54b4feb8c_o.jpg",
    "id_image": "Creature_307028",
    "count_view": 0
  },
  {
    "link_thumb": "https://live.staticflickr.com/65535/49798843706_817a6f6ab6_n.jpg",
    "id_album": "-1703946758",
    "description": "ANIME_PIC_e22bebb478c0d75aedb432403fe4b249",
    "title": "ANIME_PIC_e22bebb478c0d75aedb432403fe4b249",
    "link_img": "https://live.staticflickr.com/65535/49798843706_da71940444_o.jpg",
    "id_image": "ANIME_PIC_e22bebb478c0d75aedb432403fe4b249",
    "count_view": 0
  },
  {
    "link_thumb": "https://live.staticflickr.com/65535/49710607133_036328d0d9_n.jpg",
    "id_album": "-437872736",
    "description": "Creature_145132",
    "title": "Creature_145132",
    "link_img": "https://live.staticflickr.com/65535/49710607133_932aa011b5_o.jpg",
    "id_image": "Creature_145132",
    "count_view": 0
  },
  {
    "link_thumb": "https://live.staticflickr.com/65535/49711549221_2d622dd0ca_n.jpg",
    "id_album": "850176884",
    "description": "Dragon_881760",
    "title": "Dragon_881760",
    "link_img": "https://live.staticflickr.com/65535/49711549221_5e0e669055_o.jpg",
    "id_image": "Dragon_881760",
    "count_view": 0
  },
  {
    "link_thumb": "https://live.staticflickr.com/65535/49711839568_d45591ed78_n.jpg",
    "id_album": "295204930",
    "description": "Women_311074",
    "title": "Women_311074",
    "link_img": "https://live.staticflickr.com/65535/49711839568_191ec5ca03_o.jpg",
    "id_image": "Women_311074",
    "count_view": 0
  },
  {
    "link_thumb": "https://live.staticflickr.com/65535/49711163306_f41243c71f_n.jpg",
    "id_album": "-437872736",
    "description": "Creature_235384",
    "title": "Creature_235384",
    "link_img": "https://live.staticflickr.com/65535/49711163306_7a5cd30c5d_o.jpg",
    "id_image": "Creature_235384",
    "count_view": 0
  },
  {
    "link_thumb": "https://live.staticflickr.com/65535/49710852113_a432afdd34_n.jpg",
    "id_album": "850176884",
    "description": "Dragon_222879",
    "title": "Dragon_222879",
    "link_img": "https://live.staticflickr.com/65535/49710852113_631bd38ac9_o.jpg",
    "id_image": "Dragon_222879",
    "count_view": 0
  },
  {
    "link_thumb": "https://live.staticflickr.com/65535/49712137501_caf6ca8811_n.jpg",
    "id_album": "-395228614",
    "description": "Ship_695093",
    "title": "Ship_695093",
    "link_img": "https://live.staticflickr.com/65535/49712137501_d1e7f4e738_o.jpg",
    "id_image": "Ship_695093",
    "count_view": 0
  },
  {
    "link_thumb": "https://live.staticflickr.com/65535/49711220027_7d89235064_n.jpg",
    "id_album": "-1913845949",
    "description": "Animal_207492",
    "title": "Animal_207492",
    "link_img": "https://live.staticflickr.com/65535/49711220027_9e6d3551de_o.jpg",
    "id_image": "Animal_207492",
    "count_view": 0
  },
  {
    "link_thumb": "https://live.staticflickr.com/65535/49711896917_5058eaf4b4_n.jpg",
    "id_album": "850176884",
    "description": "Dragon_944743",
    "title": "Dragon_944743",
    "link_img": "https://live.staticflickr.com/65535/49711896917_c7d03a018c_o.jpg",
    "id_image": "Dragon_944743",
    "count_view": 0
  },
  {
    "link_thumb": "https://live.staticflickr.com/65535/49710927378_427fac627c_n.jpg",
    "id_album": "850176884",
    "description": "Dragon_497452",
    "title": "Dragon_497452",
    "link_img": "https://live.staticflickr.com/65535/49710927378_41cdc5dde2_o.jpg",
    "id_image": "Dragon_497452",
    "count_view": 0
  },
  {
    "link_thumb": "https://live.staticflickr.com/65535/49710690203_0aa77b6f2b_n.jpg",
    "id_album": "-437872736",
    "description": "Creature_393167",
    "title": "Creature_393167",
    "link_img": "https://live.staticflickr.com/65535/49710690203_032b6796dd_o.jpg",
    "id_image": "Creature_393167",
    "count_view": 0
  },
  {
    "link_thumb": "https://live.staticflickr.com/65535/49710591863_c2f0677907_n.jpg",
    "id_album": "-1964113117",
    "description": "City_886576",
    "title": "City_886576",
    "link_img": "https://live.staticflickr.com/65535/49710591863_157da66c9a_o.jpg",
    "id_image": "City_886576",
    "count_view": 0
  },
  {
    "link_thumb": "https://live.staticflickr.com/65535/49711470718_be47cce660_n.jpg",
    "id_album": "-1613076477",
    "description": "Magic_953099",
    "title": "Magic_953099",
    "link_img": "https://live.staticflickr.com/65535/49711470718_531f9ae8fa_o.jpg",
    "id_image": "Magic_953099",
    "count_view": 0
  },
  {
    "link_thumb": "https://live.staticflickr.com/65535/49710980296_9838bd6c0c_n.jpg",
    "id_album": "523598895",
    "description": "Artistic_806350",
    "title": "Artistic_806350",
    "link_img": "https://live.staticflickr.com/65535/49710980296_2c907b12f6_o.jpg",
    "id_image": "Artistic_806350",
    "count_view": 0
  },
  {
    "link_thumb": "https://live.staticflickr.com/65535/49712050357_1a8c1dfabb_n.jpg",
    "id_album": "-128218148",
    "description": "Fox_941438",
    "title": "Fox_941438",
    "link_img": "https://live.staticflickr.com/65535/49712050357_cf91e4dc96_o.jpg",
    "id_image": "Fox_941438",
    "count_view": 0
  },
  {
    "link_thumb": "https://live.staticflickr.com/65535/49711423413_34a767ccbc_n.jpg",
    "id_album": "-833110404",
    "description": "Landscape_518014",
    "title": "Landscape_518014",
    "link_img": "https://live.staticflickr.com/65535/49711423413_cf369e8b87_o.jpg",
    "id_image": "Landscape_518014",
    "count_view": 0
  },
  {
    "link_thumb": "https://live.staticflickr.com/65535/49711199702_966fecaa8f_n.jpg",
    "id_album": "-1000175186",
    "description": "AngelWarrior_182955",
    "title": "AngelWarrior_182955",
    "link_img": "https://live.staticflickr.com/65535/49711199702_447a68bebd_o.jpg",
    "id_image": "AngelWarrior_182955",
    "count_view": 0
  },
  {
    "link_thumb": "https://live.staticflickr.com/65535/49711743631_ff2ed2d6ef_n.jpg",
    "id_album": "1131236559",
    "description": "Gods_252881",
    "title": "Gods_252881",
    "link_img": "https://live.staticflickr.com/65535/49711743631_d389636a45_o.jpg",
    "id_image": "Gods_252881",
    "count_view": 0
  },
  {
    "link_thumb": "https://live.staticflickr.com/65535/49712291806_8aecd9a33d_n.jpg",
    "id_album": "-709711865",
    "description": "Wolf_869176",
    "title": "Wolf_869176",
    "link_img": "https://live.staticflickr.com/65535/49712291806_6c8ac9c4cb_o.jpg",
    "id_image": "Wolf_869176",
    "count_view": 0
  },
  {
    "link_thumb": "https://live.staticflickr.com/65535/49711799058_d3a2386445_n.jpg",
    "id_album": "-1126835654",
    "description": "Women_903067",
    "title": "Women_903067",
    "link_img": "https://live.staticflickr.com/65535/49711799058_f8db2a4b4b_o.jpg",
    "id_image": "Women_903067",
    "count_view": 0
  },
  {
    "link_thumb": "https://live.staticflickr.com/65535/49710805168_a3bdabe426_n.jpg",
    "id_album": "7198985",
    "description": "Demon_699892",
    "title": "Demon_699892",
    "link_img": "https://live.staticflickr.com/65535/49710805168_42fc961f09_o.jpg",
    "id_image": "Demon_699892",
    "count_view": 0
  },
  {
    "link_thumb": "https://live.staticflickr.com/65535/49711283357_e0e16de07a_n.jpg",
    "id_album": "523598895",
    "description": "Artistic_296490",
    "title": "Artistic_296490",
    "link_img": "https://live.staticflickr.com/65535/49711283357_5fd502a77c_o.jpg",
    "id_image": "Artistic_296490",
    "count_view": 0
  },
  {
    "link_thumb": "https://live.staticflickr.com/65535/49711320627_3314c6c977_n.jpg",
    "id_album": "1187037014",
    "description": "Battle_378478",
    "title": "Battle_378478",
    "link_img": "https://live.staticflickr.com/65535/49711320627_0765100c34_o.jpg",
    "id_image": "Battle_378478",
    "count_view": 0
  },
  {
    "link_thumb": "https://live.staticflickr.com/65535/49710642993_b2651a574b_n.jpg",
    "id_album": "-437872736",
    "description": "Creature_292000",
    "title": "Creature_292000",
    "link_img": "https://live.staticflickr.com/65535/49710642993_3690010e8e_o.jpg",
    "id_image": "Creature_292000",
    "count_view": 0
  },
  {
    "link_thumb": "https://live.staticflickr.com/65535/49711450217_2485107a0a_n.jpg",
    "id_album": "-1964113117",
    "description": "City_876298",
    "title": "City_876298",
    "link_img": "https://live.staticflickr.com/65535/49711450217_f47004593f_o.jpg",
    "id_image": "City_876298",
    "count_view": 0
  },
  {
    "link_thumb": "https://live.staticflickr.com/65535/49711390807_22bb4380d4_n.jpg",
    "id_album": "-1541846310",
    "description": "Castle_904750",
    "title": "Castle_904750",
    "link_img": "https://live.staticflickr.com/65535/49711390807_e8919f5a3e_o.jpg",
    "id_image": "Castle_904750",
    "count_view": 0
  },
  {
    "link_thumb": "https://live.staticflickr.com/65535/49711782047_32a09b9c5b_n.jpg",
    "id_album": "850176884",
    "description": "Dragon_491436",
    "title": "Dragon_491436",
    "link_img": "https://live.staticflickr.com/65535/49711782047_96e5f3a5cf_o.jpg",
    "id_image": "Dragon_491436",
    "count_view": 0
  },
  {
    "link_thumb": "https://live.staticflickr.com/65535/49712817507_1606396195_n.jpg",
    "id_album": "-867594484",
    "description": "Women_518844",
    "title": "Women_518844",
    "link_img": "https://live.staticflickr.com/65535/49712817507_c82c69d01e_o.jpg",
    "id_image": "Women_518844",
    "count_view": 0
  },
  {
    "link_thumb": "https://live.staticflickr.com/65535/49710642118_c8e811f6f0_n.jpg",
    "id_album": "-437872736",
    "description": "Creature_288152",
    "title": "Creature_288152",
    "link_img": "https://live.staticflickr.com/65535/49710642118_026dc933ca_o.jpg",
    "id_image": "Creature_288152",
    "count_view": 0
  },
  {
    "link_thumb": "https://live.staticflickr.com/65535/49712411351_fe8ed8820d_n.jpg",
    "id_album": "295204930",
    "description": "Women_706754",
    "title": "Women_706754",
    "link_img": "https://live.staticflickr.com/65535/49712411351_b7dc784a33_o.jpg",
    "id_image": "Women_706754",
    "count_view": 0
  },
  {
    "link_thumb": "https://live.staticflickr.com/65535/49712833962_e8c314c5b0_n.jpg",
    "id_album": "-867594484",
    "description": "Women_567073",
    "title": "Women_567073",
    "link_img": "https://live.staticflickr.com/65535/49712833962_503a85d15d_o.jpg",
    "id_image": "Women_567073",
    "count_view": 0
  },
  {
    "link_thumb": "https://live.staticflickr.com/65535/49711183436_e4d09ddfd2_n.jpg",
    "id_album": "-437872736",
    "description": "Creature_304257",
    "title": "Creature_304257",
    "link_img": "https://live.staticflickr.com/65535/49711183436_bef45c8f4e_o.jpg",
    "id_image": "Creature_304257",
    "count_view": 0
  },
  {
    "link_thumb": "https://live.staticflickr.com/65535/49712312201_c501c55573_n.jpg",
    "id_album": "-1126835654",
    "description": "Women_863469",
    "title": "Women_863469",
    "link_img": "https://live.staticflickr.com/65535/49712312201_b57099a6ee_o.jpg",
    "id_image": "Women_863469",
    "count_view": 0
  },
  {
    "link_thumb": "https://live.staticflickr.com/65535/49711813951_b2ca81e6af_n.jpg",
    "id_album": "1402713104",
    "description": "Landscape_732240",
    "title": "Landscape_732240",
    "link_img": "https://live.staticflickr.com/65535/49711813951_0255a4c97b_o.jpg",
    "id_image": "Landscape_732240",
    "count_view": 0
  },
  {
    "link_thumb": "https://live.staticflickr.com/65535/49711672516_6c28db9ffc_n.jpg",
    "id_album": "-1972042284",
    "description": "Fairy_677183",
    "title": "Fairy_677183",
    "link_img": "https://live.staticflickr.com/65535/49711672516_d2ded91480_o.jpg",
    "id_image": "Fairy_677183",
    "count_view": 0
  },
  {
    "link_thumb": "https://live.staticflickr.com/65535/49711633882_14149a578d_n.jpg",
    "id_album": "-437872736",
    "description": "Creature_987583",
    "title": "Creature_987583",
    "link_img": "https://live.staticflickr.com/65535/49711633882_f84d4e978a_o.jpg",
    "id_image": "Creature_987583",
    "count_view": 0
  },
  {
    "link_thumb": "https://live.staticflickr.com/65535/49711331811_74273252c4_n.jpg",
    "id_album": "1903411565",
    "description": "Deer_997948",
    "title": "Deer_997948",
    "link_img": "https://live.staticflickr.com/65535/49711331811_a917be6d7b_o.jpg",
    "id_image": "Deer_997948",
    "count_view": 0
  },
  {
    "link_thumb": "https://live.staticflickr.com/65535/49711976612_67c4ea50c6_n.jpg",
    "id_album": "-1972042284",
    "description": "Fairy_283673",
    "title": "Fairy_283673",
    "link_img": "https://live.staticflickr.com/65535/49711976612_e6021b83f2_o.jpg",
    "id_image": "Fairy_283673",
    "count_view": 0
  },
  {
    "link_thumb": "https://live.staticflickr.com/65535/49713016567_e814b2c79e_n.jpg",
    "id_album": "-1675918237",
    "description": "WomenWarrior_881853",
    "title": "WomenWarrior_881853",
    "link_img": "https://live.staticflickr.com/65535/49713016567_1c1013ecfc_o.jpg",
    "id_image": "WomenWarrior_881853",
    "count_view": 0
  },
  {
    "link_thumb": "https://live.staticflickr.com/65535/49710497678_a31462a059_n.jpg",
    "id_album": "-1541846310",
    "description": "Castle_145934",
    "title": "Castle_145934",
    "link_img": "https://live.staticflickr.com/65535/49710497678_888fce9322_o.jpg",
    "id_image": "Castle_145934",
    "count_view": 0
  },
  {
    "link_thumb": "https://live.staticflickr.com/65535/49712768062_aac981c3d9_n.jpg",
    "id_album": "1861288871",
    "description": "Women_488053",
    "title": "Women_488053",
    "link_img": "https://live.staticflickr.com/65535/49712768062_1d3f7447c9_o.jpg",
    "id_image": "Women_488053",
    "count_view": 0
  },
  {
    "link_thumb": "https://live.staticflickr.com/65535/49711570136_e66ba669bb_n.jpg",
    "id_album": "850176884",
    "description": "Dragon_930293",
    "title": "Dragon_930293",
    "link_img": "https://live.staticflickr.com/65535/49711570136_eba6e79647_o.jpg",
    "id_image": "Dragon_930293",
    "count_view": 0
  },
  {
    "link_thumb": "https://live.staticflickr.com/65535/49712173141_29f21d8949_n.jpg",
    "id_album": "46520366",
    "description": "Turtle_666432",
    "title": "Turtle_666432",
    "link_img": "https://live.staticflickr.com/65535/49712173141_5f2cd884ec_o.jpg",
    "id_image": "Turtle_666432",
    "count_view": 0
  },
  {
    "link_thumb": "https://live.staticflickr.com/65535/49710457738_c883469f6f_n.jpg",
    "id_album": "1187037014",
    "description": "Battle_299651",
    "title": "Battle_299651",
    "link_img": "https://live.staticflickr.com/65535/49710457738_37252e18dc_o.jpg",
    "id_image": "Battle_299651",
    "count_view": 0
  },
  {
    "link_thumb": "https://live.staticflickr.com/65535/49710782518_ce3657c152_n.jpg",
    "id_album": "2021464556",
    "description": "Dark_423154",
    "title": "Dark_423154",
    "link_img": "https://live.staticflickr.com/65535/49710782518_c14b9b21e5_o.jpg",
    "id_image": "Dark_423154",
    "count_view": 0
  },
  {
    "link_thumb": "https://live.staticflickr.com/65535/49711483287_b598f93c17_n.jpg",
    "id_album": "-437872736",
    "description": "Creature_214275",
    "title": "Creature_214275",
    "link_img": "https://live.staticflickr.com/65535/49711483287_5fee0ee37b_o.jpg",
    "id_image": "Creature_214275",
    "count_view": 0
  },
  {
    "link_thumb": "https://live.staticflickr.com/65535/49710432333_a46ea9b542_n.jpg",
    "id_album": "523598895",
    "description": "Artistic_396988",
    "title": "Artistic_396988",
    "link_img": "https://live.staticflickr.com/65535/49710432333_ab46b3847b_o.jpg",
    "id_image": "Artistic_396988",
    "count_view": 0
  },
  {
    "link_thumb": "https://live.staticflickr.com/65535/49710873411_3e3e77bc23_n.jpg",
    "id_album": "-1000175186",
    "description": "AngelWarrior_112323",
    "title": "AngelWarrior_112323",
    "link_img": "https://live.staticflickr.com/65535/49710873411_a01fa679f3_o.jpg",
    "id_image": "AngelWarrior_112323",
    "count_view": 0
  },
  {
    "link_thumb": "https://live.staticflickr.com/65535/49711200747_744e37786b_n.jpg",
    "id_album": "-1000175186",
    "description": "AngelWarrior_25980",
    "title": "AngelWarrior_25980",
    "link_img": "https://live.staticflickr.com/65535/49711200747_01c446e383_o.jpg",
    "id_image": "AngelWarrior_25980",
    "count_view": 0
  },
  {
    "link_thumb": "https://live.staticflickr.com/65535/49711352763_59ac2edae0_n.jpg",
    "id_album": "-833110404",
    "description": "Landscape_145257",
    "title": "Landscape_145257",
    "link_img": "https://live.staticflickr.com/65535/49711352763_68b41004a6_o.jpg",
    "id_image": "Landscape_145257",
    "count_view": 0
  },
  {
    "link_thumb": "https://live.staticflickr.com/65535/49711607143_4824903a4e_n.jpg",
    "id_album": "-5356651",
    "description": "Sorcerer_278049",
    "title": "Sorcerer_278049",
    "link_img": "https://live.staticflickr.com/65535/49711607143_2f8790e5a0_o.jpg",
    "id_image": "Sorcerer_278049",
    "count_view": 0
  },
  {
    "link_thumb": "https://live.staticflickr.com/65535/49710668908_ff5654eede_n.jpg",
    "id_album": "-437872736",
    "description": "Creature_338439",
    "title": "Creature_338439",
    "link_img": "https://live.staticflickr.com/65535/49710668908_fd4fe94e1c_o.jpg",
    "id_image": "Creature_338439",
    "count_view": 0
  },
  {
    "link_thumb": "https://live.staticflickr.com/65535/49712123023_a9219ef2c1_n.jpg",
    "id_album": "-1675918237",
    "description": "WomenWarrior_703158",
    "title": "WomenWarrior_703158",
    "link_img": "https://live.staticflickr.com/65535/49712123023_d68347925c_o.jpg",
    "id_image": "WomenWarrior_703158",
    "count_view": 0
  },
  {
    "link_thumb": "https://live.staticflickr.com/65535/49711807163_213da1d5a7_n.jpg",
    "id_album": "-1126835654",
    "description": "Women_939066",
    "title": "Women_939066",
    "link_img": "https://live.staticflickr.com/65535/49711807163_1c7c8a5565_o.jpg",
    "id_image": "Women_939066",
    "count_view": 0
  },
  {
    "link_thumb": "https://live.staticflickr.com/65535/49712087791_55f3ea4a2a_n.jpg",
    "id_album": "1587588550",
    "description": "Place_333630",
    "title": "Place_333630",
    "link_img": "https://live.staticflickr.com/65535/49712087791_53b3459432_o.jpg",
    "id_image": "Place_333630",
    "count_view": 0
  },
  {
    "link_thumb": "https://live.staticflickr.com/65535/49710809598_5731fbb7f2_n.jpg",
    "id_album": "7198985",
    "description": "Demon_994885",
    "title": "Demon_994885",
    "link_img": "https://live.staticflickr.com/65535/49710809598_bc2fce0830_o.jpg",
    "id_image": "Demon_994885",
    "count_view": 0
  },
  {
    "link_thumb": "https://live.staticflickr.com/65535/49711444497_5dce60b7e4_n.jpg",
    "id_album": "-1964113117",
    "description": "City_853221",
    "title": "City_853221",
    "link_img": "https://live.staticflickr.com/65535/49711444497_868794981f_o.jpg",
    "id_image": "City_853221",
    "count_view": 0
  },
  {
    "link_thumb": "https://live.staticflickr.com/65535/49711373833_33902ec517_n.jpg",
    "id_album": "-833110404",
    "description": "Landscape_283714",
    "title": "Landscape_283714",
    "link_img": "https://live.staticflickr.com/65535/49711373833_747fb01242_o.jpg",
    "id_image": "Landscape_283714",
    "count_view": 0
  },
  {
    "link_thumb": "https://live.staticflickr.com/65535/49711901142_921361c08c_n.jpg",
    "id_album": "850176884",
    "description": "Dragon_958580",
    "title": "Dragon_958580",
    "link_img": "https://live.staticflickr.com/65535/49711901142_a4f556ff0e_o.jpg",
    "id_image": "Dragon_958580",
    "count_view": 0
  },
  {
    "link_thumb": "https://live.staticflickr.com/65535/49710680703_f7a0fcb0b5_n.jpg",
    "id_album": "-437872736",
    "description": "Creature_367531",
    "title": "Creature_367531",
    "link_img": "https://live.staticflickr.com/65535/49710680703_f29969efcd_o.jpg",
    "id_image": "Creature_367531",
    "count_view": 0
  },
  {
    "link_thumb": "https://live.staticflickr.com/65535/49711127091_be5e2ac0d9_n.jpg",
    "id_album": "-1964113117",
    "description": "City_888578",
    "title": "City_888578",
    "link_img": "https://live.staticflickr.com/65535/49711127091_0fbe9c1490_o.jpg",
    "id_image": "City_888578",
    "count_view": 0
  },
  {
    "link_thumb": "https://live.staticflickr.com/65535/49710712703_e269652d0a_n.jpg",
    "id_album": "-437872736",
    "description": "Creature_562707",
    "title": "Creature_562707",
    "link_img": "https://live.staticflickr.com/65535/49710712703_745cacd517_o.jpg",
    "id_image": "Creature_562707",
    "count_view": 0
  },
  {
    "link_thumb": "https://live.staticflickr.com/65535/49711438247_5e3d8ba275_n.jpg",
    "id_album": "-1964113117",
    "description": "City_701063",
    "title": "City_701063",
    "link_img": "https://live.staticflickr.com/65535/49711438247_e59f3b56f2_o.jpg",
    "id_image": "City_701063",
    "count_view": 0
  },
  {
    "link_thumb": "https://live.staticflickr.com/65535/49712484352_000dfca9d2_n.jpg",
    "id_album": "405170427",
    "description": "Tiger_702324",
    "title": "Tiger_702324",
    "link_img": "https://live.staticflickr.com/65535/49712484352_088c5c597d_o.jpg",
    "id_image": "Tiger_702324",
    "count_view": 0
  },
  {
    "link_thumb": "https://live.staticflickr.com/65535/49710591298_80aefedd28_n.jpg",
    "id_album": "-1964113117",
    "description": "City_878051",
    "title": "City_878051",
    "link_img": "https://live.staticflickr.com/65535/49710591298_beb7fec601_o.jpg",
    "id_image": "City_878051",
    "count_view": 0
  },
  {
    "link_thumb": "https://live.staticflickr.com/65535/49711757857_fa1401e999_n.jpg",
    "id_album": "850176884",
    "description": "Dragon_378443",
    "title": "Dragon_378443",
    "link_img": "https://live.staticflickr.com/65535/49711757857_fa3ab63dde_o.jpg",
    "id_image": "Dragon_378443",
    "count_view": 0
  },
  {
    "link_thumb": "https://live.staticflickr.com/65535/49711621287_6aa0abf88e_n.jpg",
    "id_album": "-437872736",
    "description": "Creature_958926",
    "title": "Creature_958926",
    "link_img": "https://live.staticflickr.com/65535/49711621287_3d71904335_o.jpg",
    "id_image": "Creature_958926",
    "count_view": 0
  },
  {
    "link_thumb": "https://live.staticflickr.com/65535/49710936716_87d2a1e59d_n.jpg",
    "id_album": "523598895",
    "description": "Artistic_114205",
    "title": "Artistic_114205",
    "link_img": "https://live.staticflickr.com/65535/49710936716_d32d5fd260_o.jpg",
    "id_image": "Artistic_114205",
    "count_view": 0
  },
  {
    "link_thumb": "https://live.staticflickr.com/65535/49711923352_5d81198df8_n.jpg",
    "id_album": "134100487",
    "description": "Elf_107006",
    "title": "Elf_107006",
    "link_img": "https://live.staticflickr.com/65535/49711923352_255dafb204_o.jpg",
    "id_image": "Elf_107006",
    "count_view": 0
  },
  {
    "link_thumb": "https://live.staticflickr.com/65535/49710922188_3701a02e1b_n.jpg",
    "id_album": "850176884",
    "description": "Dragon_477073",
    "title": "Dragon_477073",
    "link_img": "https://live.staticflickr.com/65535/49710922188_139a091596_o.jpg",
    "id_image": "Dragon_477073",
    "count_view": 0
  },
  {
    "link_thumb": "https://live.staticflickr.com/65535/49710605828_9bf810c49e_n.jpg",
    "id_album": "-437872736",
    "description": "Creature_130057",
    "title": "Creature_130057",
    "link_img": "https://live.staticflickr.com/65535/49710605828_d6ecd38d4f_o.jpg",
    "id_image": "Creature_130057",
    "count_view": 0
  },
  {
    "link_thumb": "https://live.staticflickr.com/65535/49710394903_420b547192_n.jpg",
    "id_album": "-1560111795",
    "description": "Archer_172972",
    "title": "Archer_172972",
    "link_img": "https://live.staticflickr.com/65535/49710394903_bafb1fb978_o.jpg",
    "id_image": "Archer_172972",
    "count_view": 0
  },
  {
    "link_thumb": "https://live.staticflickr.com/65535/49711763476_57b597985f_n.jpg",
    "id_album": "-1933715543",
    "description": "Horse_928549",
    "title": "Horse_928549",
    "link_img": "https://live.staticflickr.com/65535/49711763476_32c3ca4c23_o.jpg",
    "id_image": "Horse_928549",
    "count_view": 0
  },
  {
    "link_thumb": "https://live.staticflickr.com/65535/49711330823_d7ba0c2830_n.jpg",
    "id_album": "1402713104",
    "description": "Landscape_945949",
    "title": "Landscape_945949",
    "link_img": "https://live.staticflickr.com/65535/49711330823_1957a9518c_o.jpg",
    "id_image": "Landscape_945949",
    "count_view": 0
  },
  {
    "link_thumb": "https://live.staticflickr.com/65535/49711756838_2c816f6625_n.jpg",
    "id_album": "-709711865",
    "description": "Wolf_844166",
    "title": "Wolf_844166",
    "link_img": "https://live.staticflickr.com/65535/49711756838_bb1a2ed61c_o.jpg",
    "id_image": "Wolf_844166",
    "count_view": 0
  },
  {
    "link_thumb": "https://live.staticflickr.com/65535/49710525508_4766b1334f_n.jpg",
    "id_album": "-1541846310",
    "description": "Castle_864506",
    "title": "Castle_864506",
    "link_img": "https://live.staticflickr.com/65535/49710525508_f4b12e969e_o.jpg",
    "id_image": "Castle_864506",
    "count_view": 0
  },
  {
    "link_thumb": "https://live.staticflickr.com/65535/49711272201_f730ac3ff5_n.jpg",
    "id_album": "-437872736",
    "description": "Creature_911866",
    "title": "Creature_911866",
    "link_img": "https://live.staticflickr.com/65535/49711272201_4f651fcd62_o.jpg",
    "id_image": "Creature_911866",
    "count_view": 0
  },
  {
    "link_thumb": "https://live.staticflickr.com/65535/49712460341_0710c2897d_n.jpg",
    "id_album": "1861288871",
    "description": "Women_769628",
    "title": "Women_769628",
    "link_img": "https://live.staticflickr.com/65535/49712460341_74431e1987_o.jpg",
    "id_image": "Women_769628",
    "count_view": 0
  },
  {
    "link_thumb": "https://live.staticflickr.com/65535/49711599397_48e60c42ce_n.jpg",
    "id_album": "-437872736",
    "description": "Creature_922867",
    "title": "Creature_922867",
    "link_img": "https://live.staticflickr.com/65535/49711599397_4be1714f2f_o.jpg",
    "id_image": "Creature_922867",
    "count_view": 0
  },
  {
    "link_thumb": "https://live.staticflickr.com/65535/49712541957_2de811757d_n.jpg",
    "id_album": "-1261420436",
    "description": "Warrior_709711",
    "title": "Warrior_709711",
    "link_img": "https://live.staticflickr.com/65535/49712541957_17aa140e2b_o.jpg",
    "id_image": "Warrior_709711",
    "count_view": 0
  },
  {
    "link_thumb": "https://live.staticflickr.com/65535/49712194771_d308f38408_n.jpg",
    "id_album": "19263973",
    "description": "Viking_991007",
    "title": "Viking_991007",
    "link_img": "https://live.staticflickr.com/65535/49712194771_0efdf74485_o.jpg",
    "id_image": "Viking_991007",
    "count_view": 0
  },
  {
    "link_thumb": "https://live.staticflickr.com/65535/49711841436_5f5080ffea_n.jpg",
    "id_album": "1402713104",
    "description": "Landscape_867646",
    "title": "Landscape_867646",
    "link_img": "https://live.staticflickr.com/65535/49711841436_21d5991933_o.jpg",
    "id_image": "Landscape_867646",
    "count_view": 0
  },
  {
    "link_thumb": "https://live.staticflickr.com/65535/49712506756_a340acd65b_n.jpg",
    "id_album": "-867594484",
    "description": "Women_562218",
    "title": "Women_562218",
    "link_img": "https://live.staticflickr.com/65535/49712506756_c7da316244_o.jpg",
    "id_image": "Women_562218",
    "count_view": 0
  },
  {
    "link_thumb": "https://live.staticflickr.com/65535/49711977361_4179eb4580_n.jpg",
    "id_album": "-1284959130",
    "description": "LegendOfTheFiveRings_275461",
    "title": "LegendOfTheFiveRings_275461",
    "link_img": "https://live.staticflickr.com/65535/49711977361_2e0fcb2fca_o.jpg",
    "id_image": "LegendOfTheFiveRings_275461",
    "count_view": 0
  },
  {
    "link_thumb": "https://live.staticflickr.com/65535/49710716058_ac8f1f6b83_n.jpg",
    "id_album": "-437872736",
    "description": "Creature_599826",
    "title": "Creature_599826",
    "link_img": "https://live.staticflickr.com/65535/49710716058_291e73aa86_o.jpg",
    "id_image": "Creature_599826",
    "count_view": 0
  },
  {
    "link_thumb": "https://live.staticflickr.com/65535/49712418432_9553d8a422_n.jpg",
    "id_album": "1223576123",
    "description": "Ruin_681177",
    "title": "Ruin_681177",
    "link_img": "https://live.staticflickr.com/65535/49712418432_e45c2183e1_o.jpg",
    "id_image": "Ruin_681177",
    "count_view": 0
  },
  {
    "link_thumb": "https://live.staticflickr.com/65535/49711316617_6b4d01f50e_n.jpg",
    "id_album": "1187037014",
    "description": "Battle_322210",
    "title": "Battle_322210",
    "link_img": "https://live.staticflickr.com/65535/49711316617_270eaf8157_o.jpg",
    "id_image": "Battle_322210",
    "count_view": 0
  },
  {
    "link_thumb": "https://live.staticflickr.com/65535/49711606003_4d23a2d6b7_n.jpg",
    "id_album": "-5356651",
    "description": "Sorcerer_131633",
    "title": "Sorcerer_131633",
    "link_img": "https://live.staticflickr.com/65535/49711606003_c7abcfd9f5_o.jpg",
    "id_image": "Sorcerer_131633",
    "count_view": 0
  },
  {
    "link_thumb": "https://live.staticflickr.com/65535/49710527028_db81f7f9aa_n.jpg",
    "id_album": "-1541846310",
    "description": "Castle_868839",
    "title": "Castle_868839",
    "link_img": "https://live.staticflickr.com/65535/49710527028_c79ee33f76_o.jpg",
    "id_image": "Castle_868839",
    "count_view": 0
  },
  {
    "link_thumb": "https://live.staticflickr.com/65535/49710649778_79d7858d37_n.jpg",
    "id_album": "-437872736",
    "description": "Creature_307402",
    "title": "Creature_307402",
    "link_img": "https://live.staticflickr.com/65535/49710649778_174684a110_o.jpg",
    "id_image": "Creature_307402",
    "count_view": 0
  },
  {
    "link_thumb": "https://live.staticflickr.com/65535/49711523908_61c5d27367_n.jpg",
    "id_album": "-1862561193",
    "description": "Other_75603",
    "title": "Other_75603",
    "link_img": "https://live.staticflickr.com/65535/49711523908_8479305699_o.jpg",
    "id_image": "Other_75603",
    "count_view": 0
  },
  {
    "link_thumb": "https://live.staticflickr.com/65535/49711126173_4abd91ac76_n.jpg",
    "id_album": "-1972042284",
    "description": "Fairy_357610",
    "title": "Fairy_357610",
    "link_img": "https://live.staticflickr.com/65535/49711126173_c3abde5598_o.jpg",
    "id_image": "Fairy_357610",
    "count_view": 0
  },
  {
    "link_thumb": "https://live.staticflickr.com/65535/49711293418_c131e920d4_n.jpg",
    "id_album": "1402713104",
    "description": "Landscape_860516",
    "title": "Landscape_860516",
    "link_img": "https://live.staticflickr.com/65535/49711293418_9c845d237e_o.jpg",
    "id_image": "Landscape_860516",
    "count_view": 0
  },
  {
    "link_thumb": "https://live.staticflickr.com/65535/49712120697_ff2d3e1e98_n.jpg",
    "id_album": "1402713104",
    "description": "Landscape_676285",
    "title": "Landscape_676285",
    "link_img": "https://live.staticflickr.com/65535/49712120697_25e5a6bdfd_o.jpg",
    "id_image": "Landscape_676285",
    "count_view": 0
  },
  {
    "link_thumb": "https://live.staticflickr.com/65535/49711456357_1f0bb53275_n.jpg",
    "id_album": "-1964113117",
    "description": "City_937797",
    "title": "City_937797",
    "link_img": "https://live.staticflickr.com/65535/49711456357_a2a3f90137_o.jpg",
    "id_image": "City_937797",
    "count_view": 0
  },
  {
    "link_thumb": "https://live.staticflickr.com/65535/49710926113_a26f8d9f16_n.jpg",
    "id_album": "850176884",
    "description": "Dragon_493976",
    "title": "Dragon_493976",
    "link_img": "https://live.staticflickr.com/65535/49710926113_159f994bbe_o.jpg",
    "id_image": "Dragon_493976",
    "count_view": 0
  },
  {
    "link_thumb": "https://live.staticflickr.com/65535/49710863726_504f3d161a_n.jpg",
    "id_album": "-2109465612",
    "description": "Adventure_244608",
    "title": "Adventure_244608",
    "link_img": "https://live.staticflickr.com/65535/49710863726_cbfa6063e9_o.jpg",
    "id_image": "Adventure_244608",
    "count_view": 0
  },
  {
    "link_thumb": "https://live.staticflickr.com/65535/49712676146_5fabc74bc1_n.jpg",
    "id_album": "-1675918237",
    "description": "WomenWarrior_807134",
    "title": "WomenWarrior_807134",
    "link_img": "https://live.staticflickr.com/65535/49712676146_ec52da3a61_o.jpg",
    "id_image": "WomenWarrior_807134",
    "count_view": 0
  },
  {
    "link_thumb": "https://live.staticflickr.com/65535/49711888053_464535e030_n.jpg",
    "id_album": "1861288871",
    "description": "Women_114239",
    "title": "Women_114239",
    "link_img": "https://live.staticflickr.com/65535/49711888053_e272f4c4f6_o.jpg",
    "id_image": "Women_114239",
    "count_view": 0
  },
  {
    "link_thumb": "https://live.staticflickr.com/65535/49711163826_d1572896f6_n.jpg",
    "id_album": "-437872736",
    "description": "Creature_237829",
    "title": "Creature_237829",
    "link_img": "https://live.staticflickr.com/65535/49711163826_5d62c683bf_o.jpg",
    "id_image": "Creature_237829",
    "count_view": 0
  },
  {
    "link_thumb": "https://live.staticflickr.com/65535/49711570847_c8eb7bd854_n.jpg",
    "id_album": "-437872736",
    "description": "Creature_542100",
    "title": "Creature_542100",
    "link_img": "https://live.staticflickr.com/65535/49711570847_9e13138328_o.jpg",
    "id_image": "Creature_542100",
    "count_view": 0
  },
  {
    "link_thumb": "https://live.staticflickr.com/65535/49711475476_12e5a5b0cb_n.jpg",
    "id_album": "850176884",
    "description": "Dragon_533704",
    "title": "Dragon_533704",
    "link_img": "https://live.staticflickr.com/65535/49711475476_3def4ea963_o.jpg",
    "id_image": "Dragon_533704",
    "count_view": 0
  },
  {
    "link_thumb": "https://live.staticflickr.com/65535/49711640968_c1b880481d_n.jpg",
    "id_album": "431597977",
    "description": "Unicorn_224669",
    "title": "Unicorn_224669",
    "link_img": "https://live.staticflickr.com/65535/49711640968_374aaff833_o.jpg",
    "id_image": "Unicorn_224669",
    "count_view": 0
  },
  {
    "link_thumb": "https://live.staticflickr.com/65535/49712043407_b51683cbde_n.jpg",
    "id_album": "-1083189875",
    "description": "Forest_906150",
    "title": "Forest_906150",
    "link_img": "https://live.staticflickr.com/65535/49712043407_595bf31a06_o.jpg",
    "id_image": "Forest_906150",
    "count_view": 0
  },
  {
    "link_thumb": "https://live.staticflickr.com/65535/49710736338_febed75565_n.jpg",
    "id_album": "-437872736",
    "description": "Creature_913001",
    "title": "Creature_913001",
    "link_img": "https://live.staticflickr.com/65535/49710736338_763da22e5b_o.jpg",
    "id_image": "Creature_913001",
    "count_view": 0
  },
  {
    "link_thumb": "https://live.staticflickr.com/65535/49711172121_f24ee6e7e1_n.jpg",
    "id_album": "-437872736",
    "description": "Creature_270094",
    "title": "Creature_270094",
    "link_img": "https://live.staticflickr.com/65535/49711172121_fdcd9a8790_o.jpg",
    "id_image": "Creature_270094",
    "count_view": 0
  },
  {
    "link_thumb": "https://live.staticflickr.com/65535/49711719492_9db11c356f_n.jpg",
    "id_album": "850176884",
    "description": "Dragon_244186",
    "title": "Dragon_244186",
    "link_img": "https://live.staticflickr.com/65535/49711719492_1d83f1fe1b_o.jpg",
    "id_image": "Dragon_244186",
    "count_view": 0
  },
  {
    "link_thumb": "https://live.staticflickr.com/65535/49711322277_01e77121a7_n.jpg",
    "id_album": "1187037014",
    "description": "Battle_395527",
    "title": "Battle_395527",
    "link_img": "https://live.staticflickr.com/65535/49711322277_6f58f6e676_o.jpg",
    "id_image": "Battle_395527",
    "count_view": 0
  },
  {
    "link_thumb": "https://live.staticflickr.com/65535/49710966448_88b1609316_n.jpg",
    "id_album": "850176884",
    "description": "Dragon_655675",
    "title": "Dragon_655675",
    "link_img": "https://live.staticflickr.com/65535/49710966448_1b1b7c4284_o.jpg",
    "id_image": "Dragon_655675",
    "count_view": 0
  },
  {
    "link_thumb": "https://live.staticflickr.com/65535/49711799606_35faa049fc_n.jpg",
    "id_album": "1402713104",
    "description": "Landscape_677172",
    "title": "Landscape_677172",
    "link_img": "https://live.staticflickr.com/65535/49711799606_39e6b2a3aa_o.jpg",
    "id_image": "Landscape_677172",
    "count_view": 0
  },
  {
    "link_thumb": "https://live.staticflickr.com/65535/49711296073_e4d9e415e9_n.jpg",
    "id_album": "1402713104",
    "description": "Landscape_861563",
    "title": "Landscape_861563",
    "link_img": "https://live.staticflickr.com/65535/49711296073_432a7098a6_o.jpg",
    "id_image": "Landscape_861563",
    "count_view": 0
  },
  {
    "link_thumb": "https://live.staticflickr.com/65535/49711141131_a477e70bb2_n.jpg",
    "id_album": "-437872736",
    "description": "Creature_129890",
    "title": "Creature_129890",
    "link_img": "https://live.staticflickr.com/65535/49711141131_ae57349531_o.jpg",
    "id_image": "Creature_129890",
    "count_view": 0
  },
  {
    "link_thumb": "https://live.staticflickr.com/65535/49712134346_b479d08ec9_n.jpg",
    "id_album": "-395228614",
    "description": "Ship_423267",
    "title": "Ship_423267",
    "link_img": "https://live.staticflickr.com/65535/49712134346_54c73422e2_o.jpg",
    "id_image": "Ship_423267",
    "count_view": 0
  },
  {
    "link_thumb": "https://live.staticflickr.com/65535/49711444588_cb5ddae750_n.jpg",
    "id_album": "416744915",
    "description": "Lion_214927",
    "title": "Lion_214927",
    "link_img": "https://live.staticflickr.com/65535/49711444588_52edf1d33d_o.jpg",
    "id_image": "Lion_214927",
    "count_view": 0
  },
  {
    "link_thumb": "https://live.staticflickr.com/65535/49711356937_7386ea7a49_n.jpg",
    "id_album": "-1541846310",
    "description": "Castle_154739",
    "title": "Castle_154739",
    "link_img": "https://live.staticflickr.com/65535/49711356937_fc1a845bb5_o.jpg",
    "id_image": "Castle_154739",
    "count_view": 0
  },
  {
    "link_thumb": "https://live.staticflickr.com/65535/49712690481_db3f39d327_n.jpg",
    "id_album": "-1675918237",
    "description": "WomenWarrior_877492",
    "title": "WomenWarrior_877492",
    "link_img": "https://live.staticflickr.com/65535/49712690481_edc96bfb9c_o.jpg",
    "id_image": "WomenWarrior_877492",
    "count_view": 0
  },
  {
    "link_thumb": "https://live.staticflickr.com/65535/49711470417_d0a3e4628e_n.jpg",
    "id_album": "-437872736",
    "description": "Creature_154696",
    "title": "Creature_154696",
    "link_img": "https://live.staticflickr.com/65535/49711470417_bfb9074cc4_o.jpg",
    "id_image": "Creature_154696",
    "count_view": 0
  },
  {
    "link_thumb": "https://live.staticflickr.com/65535/49711389967_e159b1f8c6_n.jpg",
    "id_album": "-1541846310",
    "description": "Castle_894437",
    "title": "Castle_894437",
    "link_img": "https://live.staticflickr.com/65535/49711389967_8e5ba3a0f1_o.jpg",
    "id_image": "Castle_894437",
    "count_view": 0
  },
  {
    "link_thumb": "https://live.staticflickr.com/65535/49712494846_bb923aba2d_n.jpg",
    "id_album": "-867594484",
    "description": "Women_521271",
    "title": "Women_521271",
    "link_img": "https://live.staticflickr.com/65535/49712494846_c8755afbec_o.jpg",
    "id_image": "Women_521271",
    "count_view": 0
  },
  {
    "link_thumb": "https://live.staticflickr.com/65535/49711696223_3d7a65628f_n.jpg",
    "id_album": "-1261420436",
    "description": "Warrior_901638",
    "title": "Warrior_901638",
    "link_img": "https://live.staticflickr.com/65535/49711696223_dec2cc3470_o.jpg",
    "id_image": "Warrior_901638",
    "count_view": 0
  },
  {
    "link_thumb": "https://live.staticflickr.com/65535/49712336427_01d1c6f774_n.jpg",
    "id_album": "-222719689",
    "description": "Men_165530",
    "title": "Men_165530",
    "link_img": "https://live.staticflickr.com/65535/49712336427_85511f563c_o.jpg",
    "id_image": "Men_165530",
    "count_view": 0
  },
  {
    "link_thumb": "https://live.staticflickr.com/65535/49711743171_78e6e46df4_n.jpg",
    "id_album": "1131236559",
    "description": "Gods_239343",
    "title": "Gods_239343",
    "link_img": "https://live.staticflickr.com/65535/49711743171_90b846eddc_o.jpg",
    "id_image": "Gods_239343",
    "count_view": 0
  },
  {
    "link_thumb": "https://live.staticflickr.com/65535/49712418606_b01e0e006b_n.jpg",
    "id_album": "295204930",
    "description": "Women_732281",
    "title": "Women_732281",
    "link_img": "https://live.staticflickr.com/65535/49712418606_668842a252_o.jpg",
    "id_image": "Women_732281",
    "count_view": 0
  },
  {
    "link_thumb": "https://live.staticflickr.com/65535/49711405697_3f908271e3_n.jpg",
    "id_album": "430704260",
    "description": "Child_747963",
    "title": "Child_747963",
    "link_img": "https://live.staticflickr.com/65535/49711405697_0aba42e763_o.jpg",
    "id_image": "Child_747963",
    "count_view": 0
  },
  {
    "link_thumb": "https://live.staticflickr.com/65535/49711839091_2ddacec00e_n.jpg",
    "id_album": "1402713104",
    "description": "Landscape_866894",
    "title": "Landscape_866894",
    "link_img": "https://live.staticflickr.com/65535/49711839091_5f614f16b6_o.jpg",
    "id_image": "Landscape_866894",
    "count_view": 0
  },
  {
    "link_thumb": "https://live.staticflickr.com/65535/49711354361_87bc18ca67_n.jpg",
    "id_album": "850176884",
    "description": "Dragon_106143",
    "title": "Dragon_106143",
    "link_img": "https://live.staticflickr.com/65535/49711354361_dc9ce69348_o.jpg",
    "id_image": "Dragon_106143",
    "count_view": 0
  },
  {
    "link_thumb": "https://live.staticflickr.com/65535/49711605167_efafa57a96_n.jpg",
    "id_album": "-437872736",
    "description": "Creature_958666",
    "title": "Creature_958666",
    "link_img": "https://live.staticflickr.com/65535/49711605167_ff7d62f127_o.jpg",
    "id_image": "Creature_958666",
    "count_view": 0
  },
  {
    "link_thumb": "https://live.staticflickr.com/65535/49711079881_fb35a12fe3_n.jpg",
    "id_album": "430704260",
    "description": "Child_724557",
    "title": "Child_724557",
    "link_img": "https://live.staticflickr.com/65535/49711079881_d35bdcc852_o.jpg",
    "id_image": "Child_724557",
    "count_view": 0
  },
  {
    "link_thumb": "https://live.staticflickr.com/65535/49711042188_716f2bbdd7_n.jpg",
    "id_album": "850176884",
    "description": "Dragon_955764",
    "title": "Dragon_955764",
    "link_img": "https://live.staticflickr.com/65535/49711042188_7e8b05b0ea_o.jpg",
    "id_image": "Dragon_955764",
    "count_view": 0
  },
  {
    "link_thumb": "https://live.staticflickr.com/65535/49711300986_023c8a860d_n.jpg",
    "id_album": "-437872736",
    "description": "Creature_958948",
    "title": "Creature_958948",
    "link_img": "https://live.staticflickr.com/65535/49711300986_f6f284b3c6_o.jpg",
    "id_image": "Creature_958948",
    "count_view": 0
  },
  {
    "link_thumb": "https://live.staticflickr.com/65535/49711483191_0ae2c2a177_n.jpg",
    "id_album": "850176884",
    "description": "Dragon_563005",
    "title": "Dragon_563005",
    "link_img": "https://live.staticflickr.com/65535/49711483191_a4e6cf080e_o.jpg",
    "id_image": "Dragon_563005",
    "count_view": 0
  },
  {
    "link_thumb": "https://live.staticflickr.com/65535/49711940576_e3c833517b_n.jpg",
    "id_album": "-833110404",
    "description": "Landscape_416812",
    "title": "Landscape_416812",
    "link_img": "https://live.staticflickr.com/65535/49711940576_2a3f43b2a4_o.jpg",
    "id_image": "Landscape_416812",
    "count_view": 0
  },
  {
    "link_thumb": "https://live.staticflickr.com/65535/49711819798_0414a08e6d_n.jpg",
    "id_album": "-1126835654",
    "description": "Women_999159",
    "title": "Women_999159",
    "link_img": "https://live.staticflickr.com/65535/49711819798_766676dd31_o.jpg",
    "id_image": "Women_999159",
    "count_view": 0
  },
  {
    "link_thumb": "https://live.staticflickr.com/65535/49711707027_b3b5465774_n.jpg",
    "id_album": "850176884",
    "description": "Dragon_204163",
    "title": "Dragon_204163",
    "link_img": "https://live.staticflickr.com/65535/49711707027_e186c9a0d6_o.jpg",
    "id_image": "Dragon_204163",
    "count_view": 0
  },
  {
    "link_thumb": "https://live.staticflickr.com/65535/49710923251_a445d9c158_n.jpg",
    "id_album": "-1913845949",
    "description": "Animal_948827",
    "title": "Animal_948827",
    "link_img": "https://live.staticflickr.com/65535/49710923251_a635963e90_o.jpg",
    "id_image": "Animal_948827",
    "count_view": 0
  },
  {
    "link_thumb": "https://live.staticflickr.com/65535/49711909172_a89f226c30_n.jpg",
    "id_album": "850176884",
    "description": "Dragon_977564",
    "title": "Dragon_977564",
    "link_img": "https://live.staticflickr.com/65535/49711909172_1f1b143e78_o.jpg",
    "id_image": "Dragon_977564",
    "count_view": 0
  },
  {
    "link_thumb": "https://live.staticflickr.com/65535/49711223126_b328cb4d80_n.jpg",
    "id_album": "-437872736",
    "description": "Creature_384541",
    "title": "Creature_384541",
    "link_img": "https://live.staticflickr.com/65535/49711223126_69415a9042_o.jpg",
    "id_image": "Creature_384541",
    "count_view": 0
  },
  {
    "link_thumb": "https://live.staticflickr.com/65535/49710942621_479aa2ce3b_n.jpg",
    "id_album": "523598895",
    "description": "Artistic_149869",
    "title": "Artistic_149869",
    "link_img": "https://live.staticflickr.com/65535/49710942621_313b88b273_o.jpg",
    "id_image": "Artistic_149869",
    "count_view": 0
  },
  {
    "link_thumb": "https://live.staticflickr.com/65535/49712556912_af7b249a7f_n.jpg",
    "id_album": "-1261420436",
    "description": "Warrior_916113",
    "title": "Warrior_916113",
    "link_img": "https://live.staticflickr.com/65535/49712556912_c9217d2fe0_o.jpg",
    "id_image": "Warrior_916113",
    "count_view": 0
  },
  {
    "link_thumb": "https://live.staticflickr.com/65535/49712417681_671689ba5c_n.jpg",
    "id_album": "295204930",
    "description": "Women_731455",
    "title": "Women_731455",
    "link_img": "https://live.staticflickr.com/65535/49712417681_3df0c979b7_o.jpg",
    "id_image": "Women_731455",
    "count_view": 0
  },
  {
    "link_thumb": "https://live.staticflickr.com/65535/49710937086_386d6b3712_n.jpg",
    "id_album": "523598895",
    "description": "Artistic_114784",
    "title": "Artistic_114784",
    "link_img": "https://live.staticflickr.com/65535/49710937086_695a94a80d_o.jpg",
    "id_image": "Artistic_114784",
    "count_view": 0
  },
  {
    "link_thumb": "https://live.staticflickr.com/65535/49711389246_aedd4b6111_n.jpg",
    "id_album": "850176884",
    "description": "Dragon_225880",
    "title": "Dragon_225880",
    "link_img": "https://live.staticflickr.com/65535/49711389246_e33b9d1725_o.jpg",
    "id_image": "Dragon_225880",
    "count_view": 0
  },
  {
    "link_thumb": "https://live.staticflickr.com/65535/49710539788_94a0987dc0_n.jpg",
    "id_album": "-1741487325",
    "description": "Cat_970320",
    "title": "Cat_970320",
    "link_img": "https://live.staticflickr.com/65535/49710539788_cb6f166e9b_o.jpg",
    "id_image": "Cat_970320",
    "count_view": 0
  },
  {
    "link_thumb": "https://live.staticflickr.com/65535/49711717728_d02a4ae1fc_n.jpg",
    "id_album": "786934945",
    "description": "Whale_872948",
    "title": "Whale_872948",
    "link_img": "https://live.staticflickr.com/65535/49711717728_a3176e4b4a_o.jpg",
    "id_image": "Whale_872948",
    "count_view": 0
  },
  {
    "link_thumb": "https://live.staticflickr.com/65535/49711764543_59d3ef141f_n.jpg",
    "id_album": "-709711865",
    "description": "Wolf_945463",
    "title": "Wolf_945463",
    "link_img": "https://live.staticflickr.com/65535/49711764543_636da35b46_o.jpg",
    "id_image": "Wolf_945463",
    "count_view": 0
  },
  {
    "link_thumb": "https://live.staticflickr.com/65535/49712162842_e2b93173ea_n.jpg",
    "id_album": "1402713104",
    "description": "Landscape_867424",
    "title": "Landscape_867424",
    "link_img": "https://live.staticflickr.com/65535/49712162842_a3f3c49a9b_o.jpg",
    "id_image": "Landscape_867424",
    "count_view": 0
  },
  {
    "link_thumb": "https://live.staticflickr.com/65535/49712131061_515ea37b99_n.jpg",
    "id_album": "-395228614",
    "description": "Ship_211337",
    "title": "Ship_211337",
    "link_img": "https://live.staticflickr.com/65535/49712131061_dd3980d4be_o.jpg",
    "id_image": "Ship_211337",
    "count_view": 0
  },
  {
    "link_thumb": "https://live.staticflickr.com/65535/49710551868_0480b6bea7_n.jpg",
    "id_album": "-1964113117",
    "description": "City_118394",
    "title": "City_118394",
    "link_img": "https://live.staticflickr.com/65535/49710551868_3bd2bf9767_o.jpg",
    "id_image": "City_118394",
    "count_view": 0
  },
  {
    "link_thumb": "https://live.staticflickr.com/65535/49710999891_22588892a3_n.jpg",
    "id_album": "1187037014",
    "description": "Battle_427810",
    "title": "Battle_427810",
    "link_img": "https://live.staticflickr.com/65535/49710999891_1b4ebb0be3_o.jpg",
    "id_image": "Battle_427810",
    "count_view": 0
  },
  {
    "link_thumb": "https://live.staticflickr.com/65535/49710333208_4ca34dee9f_n.jpg",
    "id_album": "-2109465612",
    "description": "Adventure_301786",
    "title": "Adventure_301786",
    "link_img": "https://live.staticflickr.com/65535/49710333208_92d8618a97_o.jpg",
    "id_image": "Adventure_301786",
    "count_view": 0
  },
  {
    "link_thumb": "https://live.staticflickr.com/65535/49712000033_edc87669a5_n.jpg",
    "id_album": "-867594484",
    "description": "Women_686611",
    "title": "Women_686611",
    "link_img": "https://live.staticflickr.com/65535/49712000033_be1f5b24f1_o.jpg",
    "id_image": "Women_686611",
    "count_view": 0
  },
  {
    "link_thumb": "https://live.staticflickr.com/65535/49712384262_020cd943ec_n.jpg",
    "id_album": "-639976841",
    "description": "Pegasus_249707",
    "title": "Pegasus_249707",
    "link_img": "https://live.staticflickr.com/65535/49712384262_47d41d8627_o.jpg",
    "id_image": "Pegasus_249707",
    "count_view": 0
  },
  {
    "link_thumb": "https://live.staticflickr.com/65535/49912346071_50fa8e8195_n.jpg",
    "id_album": "-1703946758",
    "description": "ANIME_PIC_07a5bf899bef58611b8bf890784483c8",
    "title": "ANIME_PIC_07a5bf899bef58611b8bf890784483c8",
    "link_img": "https://live.staticflickr.com/65535/49912346071_70b94c3b7b_o.jpg",
    "id_image": "ANIME_PIC_07a5bf899bef58611b8bf890784483c8",
    "count_view": 0
  },
  {
    "link_thumb": "https://live.staticflickr.com/65535/49712623517_d7c9954380_n.jpg",
    "id_album": "-709711865",
    "description": "Wolf_995702",
    "title": "Wolf_995702",
    "link_img": "https://live.staticflickr.com/65535/49712623517_beccd8d2d8_o.jpg",
    "id_image": "Wolf_995702",
    "count_view": 0
  },
  {
    "link_thumb": "https://live.staticflickr.com/65535/49711789808_b5e9ddb888_n.jpg",
    "id_album": "-1126835654",
    "description": "Women_880523",
    "title": "Women_880523",
    "link_img": "https://live.staticflickr.com/65535/49711789808_eec0e693fd_o.jpg",
    "id_image": "Women_880523",
    "count_view": 0
  },
  {
    "link_thumb": "https://live.staticflickr.com/65535/49710925173_b96674434b_n.jpg",
    "id_album": "850176884",
    "description": "Dragon_491440",
    "title": "Dragon_491440",
    "link_img": "https://live.staticflickr.com/65535/49710925173_d883f6600e_o.jpg",
    "id_image": "Dragon_491440",
    "count_view": 0
  },
  {
    "link_thumb": "https://live.staticflickr.com/65535/49711299028_3b0d9e94eb_n.jpg",
    "id_album": "1402713104",
    "description": "Landscape_864112",
    "title": "Landscape_864112",
    "link_img": "https://live.staticflickr.com/65535/49711299028_3beed99193_o.jpg",
    "id_image": "Landscape_864112",
    "count_view": 0
  },
  {
    "link_thumb": "https://live.staticflickr.com/65535/49712643952_81fd59c228_n.jpg",
    "id_album": "-1126835654",
    "description": "Women_878468",
    "title": "Women_878468",
    "link_img": "https://live.staticflickr.com/65535/49712643952_a4b45b4e88_o.jpg",
    "id_image": "Women_878468",
    "count_view": 0
  },
  {
    "link_thumb": "https://live.staticflickr.com/65535/49712994422_fd07f283f9_n.jpg",
    "id_album": "-1675918237",
    "description": "WomenWarrior_777996",
    "title": "WomenWarrior_777996",
    "link_img": "https://live.staticflickr.com/65535/49712994422_1db63065b8_o.jpg",
    "id_image": "WomenWarrior_777996",
    "count_view": 0
  },
  {
    "link_thumb": "https://live.staticflickr.com/65535/49711368387_cd93006c79_n.jpg",
    "id_album": "-1541846310",
    "description": "Castle_381125",
    "title": "Castle_381125",
    "link_img": "https://live.staticflickr.com/65535/49711368387_f155a0ac52_o.jpg",
    "id_image": "Castle_381125",
    "count_view": 0
  },
  {
    "link_thumb": "https://live.staticflickr.com/65535/49710584738_e8d85efbf8_n.jpg",
    "id_album": "-1964113117",
    "description": "City_831208",
    "title": "City_831208",
    "link_img": "https://live.staticflickr.com/65535/49710584738_369eced570_o.jpg",
    "id_image": "City_831208",
    "count_view": 0
  },
  {
    "link_thumb": "https://live.staticflickr.com/65535/49712426566_b6c1aabc05_n.jpg",
    "id_album": "1861288871",
    "description": "Women_136363",
    "title": "Women_136363",
    "link_img": "https://live.staticflickr.com/65535/49712426566_f5e8f1f96a_o.jpg",
    "id_image": "Women_136363",
    "count_view": 0
  },
  {
    "link_thumb": "https://live.staticflickr.com/65535/49712651102_7c8a843b17_n.jpg",
    "id_album": "-1126835654",
    "description": "Women_886687",
    "title": "Women_886687",
    "link_img": "https://live.staticflickr.com/65535/49712651102_d98b2ef6ce_o.jpg",
    "id_image": "Women_886687",
    "count_view": 0
  },
  {
    "link_thumb": "https://live.staticflickr.com/65535/49712015037_f6c8b13a21_n.jpg",
    "id_album": "-1083189875",
    "description": "Forest_227258",
    "title": "Forest_227258",
    "link_img": "https://live.staticflickr.com/65535/49712015037_c1a374c263_o.jpg",
    "id_image": "Forest_227258",
    "count_view": 0
  },
  {
    "link_thumb": "https://live.staticflickr.com/65535/49711057726_ed3b54e84a_n.jpg",
    "id_album": "-1541846310",
    "description": "Castle_816095",
    "title": "Castle_816095",
    "link_img": "https://live.staticflickr.com/65535/49711057726_ed6f139cac_o.jpg",
    "id_image": "Castle_816095",
    "count_view": 0
  },
  {
    "link_thumb": "https://live.staticflickr.com/65535/49711112201_aff4a447d0_n.jpg",
    "id_album": "-1964113117",
    "description": "City_681133",
    "title": "City_681133",
    "link_img": "https://live.staticflickr.com/65535/49711112201_ddb95f2c11_o.jpg",
    "id_image": "City_681133",
    "count_view": 0
  },
  {
    "link_thumb": "https://live.staticflickr.com/65535/49712191627_c63833c3fe_n.jpg",
    "id_album": "1402713104",
    "description": "Landscape_952444",
    "title": "Landscape_952444",
    "link_img": "https://live.staticflickr.com/65535/49712191627_743da4029e_o.jpg",
    "id_image": "Landscape_952444",
    "count_view": 0
  },
  {
    "link_thumb": "https://live.staticflickr.com/65535/49711981603_413b8846f9_n.jpg",
    "id_album": "-867594484",
    "description": "Women_585181",
    "title": "Women_585181",
    "link_img": "https://live.staticflickr.com/65535/49711981603_df1a9e462e_o.jpg",
    "id_image": "Women_585181",
    "count_view": 0
  },
  {
    "link_thumb": "https://live.staticflickr.com/65535/49711111588_fabe0e3735_n.jpg",
    "id_album": "-1972042284",
    "description": "Fairy_146071",
    "title": "Fairy_146071",
    "link_img": "https://live.staticflickr.com/65535/49711111588_0b7f36a1d2_o.jpg",
    "id_image": "Fairy_146071",
    "count_view": 0
  },
  {
    "link_thumb": "https://live.staticflickr.com/65535/49710946601_31f87f74af_n.jpg",
    "id_album": "523598895",
    "description": "Artistic_163943",
    "title": "Artistic_163943",
    "link_img": "https://live.staticflickr.com/65535/49710946601_3f6b10af85_o.jpg",
    "id_image": "Artistic_163943",
    "count_view": 0
  },
  {
    "link_thumb": "https://live.staticflickr.com/65535/49711356246_3d1a446178_n.jpg",
    "id_album": "850176884",
    "description": "Dragon_115464",
    "title": "Dragon_115464",
    "link_img": "https://live.staticflickr.com/65535/49711356246_418ccaf5b7_o.jpg",
    "id_image": "Dragon_115464",
    "count_view": 0
  },
  {
    "link_thumb": "https://live.staticflickr.com/65535/49711902276_5055c2b94a_n.jpg",
    "id_album": "-833110404",
    "description": "Landscape_267742",
    "title": "Landscape_267742",
    "link_img": "https://live.staticflickr.com/65535/49711902276_af8ea26307_o.jpg",
    "id_image": "Landscape_267742",
    "count_view": 0
  },
  {
    "link_thumb": "https://live.staticflickr.com/65535/49710988691_ab4f693cef_n.jpg",
    "id_album": "1187037014",
    "description": "Battle_249942",
    "title": "Battle_249942",
    "link_img": "https://live.staticflickr.com/65535/49710988691_e48f066a05_o.jpg",
    "id_image": "Battle_249942",
    "count_view": 0
  }
]