[
  {
    "link_thumb": "https://live.staticflickr.com/65535/49711454402_2250527d63_n.jpg",
    "id_album": "-1964113117",
    "description": "City_921862",
    "title": "City_921862",
    "link_img": "https://live.staticflickr.com/65535/49711454402_5c6e223295_o.jpg",
    "id_image": "City_921862",
    "count_view": 0
  },
  {
    "link_thumb": "https://live.staticflickr.com/65535/49710401733_ed3ca79127_n.jpg",
    "id_album": "-1560111795",
    "description": "Archer_85350",
    "title": "Archer_85350",
    "link_img": "https://live.staticflickr.com/65535/49710401733_442e5548f8_o.jpg",
    "id_image": "Archer_85350",
    "count_view": 0
  },
  {
    "link_thumb": "https://live.staticflickr.com/65535/49712072552_bde8416ef2_n.jpg",
    "id_album": "857581314",
    "description": "Griffin_113077",
    "title": "Griffin_113077",
    "link_img": "https://live.staticflickr.com/65535/49712072552_8ebb4525d0_o.jpg",
    "id_image": "Griffin_113077",
    "count_view": 0
  },
  {
    "link_thumb": "https://live.staticflickr.com/65535/49711350558_6f60a4ecf4_n.jpg",
    "id_album": "1402713104",
    "description": "Landscape_994582",
    "title": "Landscape_994582",
    "link_img": "https://live.staticflickr.com/65535/49711350558_0d55e0d679_o.jpg",
    "id_image": "Landscape_994582",
    "count_view": 0
  },
  {
    "link_thumb": "https://live.staticflickr.com/65535/49711438321_f91c1e4397_n.jpg",
    "id_album": "850176884",
    "description": "Dragon_384165",
    "title": "Dragon_384165",
    "link_img": "https://live.staticflickr.com/65535/49711438321_2daa6220a8_o.jpg",
    "id_image": "Dragon_384165",
    "count_view": 0
  },
  {
    "link_thumb": "https://live.staticflickr.com/65535/49711325461_3c2264c624_n.jpg",
    "id_album": "2021464556",
    "description": "Dark_964473",
    "title": "Dark_964473",
    "link_img": "https://live.staticflickr.com/65535/49711325461_e632f7a8f1_o.jpg",
    "id_image": "Dark_964473",
    "count_view": 0
  },
  {
    "link_thumb": "https://live.staticflickr.com/65535/49710392928_3022d02102_n.jpg",
    "id_album": "-1913845949",
    "description": "Animal_991387",
    "title": "Animal_991387",
    "link_img": "https://live.staticflickr.com/65535/49710392928_d12dc44efd_o.jpg",
    "id_image": "Animal_991387",
    "count_view": 0
  },
  {
    "link_thumb": "https://live.staticflickr.com/65535/49712768062_aac981c3d9_n.jpg",
    "id_album": "1861288871",
    "description": "Women_488053",
    "title": "Women_488053",
    "link_img": "https://live.staticflickr.com/65535/49712768062_1d3f7447c9_o.jpg",
    "id_image": "Women_488053",
    "count_view": 0
  },
  {
    "link_thumb": "https://live.staticflickr.com/65535/49711760292_899815cde1_n.jpg",
    "id_album": "850176884",
    "description": "Dragon_387893",
    "title": "Dragon_387893",
    "link_img": "https://live.staticflickr.com/65535/49711760292_0a6c1a640a_o.jpg",
    "id_image": "Dragon_387893",
    "count_view": 0
  },
  {
    "link_thumb": "https://live.staticflickr.com/65535/49711534956_be10c3d17b_n.jpg",
    "id_album": "850176884",
    "description": "Dragon_852651",
    "title": "Dragon_852651",
    "link_img": "https://live.staticflickr.com/65535/49711534956_0cfe57fef1_o.jpg",
    "id_image": "Dragon_852651",
    "count_view": 0
  },
  {
    "link_thumb": "https://live.staticflickr.com/65535/49711327053_8598dbe82c_n.jpg",
    "id_album": "1402713104",
    "description": "Landscape_940272",
    "title": "Landscape_940272",
    "link_img": "https://live.staticflickr.com/65535/49711327053_2505e3c638_o.jpg",
    "id_image": "Landscape_940272",
    "count_view": 0
  },
  {
    "link_thumb": "https://live.staticflickr.com/65535/49712175901_9c577e9c91_n.jpg",
    "id_album": "431597977",
    "description": "Unicorn_224470",
    "title": "Unicorn_224470",
    "link_img": "https://live.staticflickr.com/65535/49712175901_5fdf49ffd4_o.jpg",
    "id_image": "Unicorn_224470",
    "count_view": 0
  },
  {
    "link_thumb": "https://live.staticflickr.com/65535/49711778857_b73608c96c_n.jpg",
    "id_album": "850176884",
    "description": "Dragon_47699",
    "title": "Dragon_47699",
    "link_img": "https://live.staticflickr.com/65535/49711778857_488b905cc5_o.jpg",
    "id_image": "Dragon_47699",
    "count_view": 0
  },
  {
    "link_thumb": "https://live.staticflickr.com/65535/49711407666_3d312e9254_n.jpg",
    "id_album": "850176884",
    "description": "Dragon_272513",
    "title": "Dragon_272513",
    "link_img": "https://live.staticflickr.com/65535/49711407666_8364c942a1_o.jpg",
    "id_image": "Dragon_272513",
    "count_view": 0
  },
  {
    "link_thumb": "https://live.staticflickr.com/65535/49712220412_7463a4cbc7_n.jpg",
    "id_album": "-833110404",
    "description": "Landscape_242730",
    "title": "Landscape_242730",
    "link_img": "https://live.staticflickr.com/65535/49712220412_9a745f90d4_o.jpg",
    "id_image": "Landscape_242730",
    "count_view": 0
  },
  {
    "link_thumb": "https://live.staticflickr.com/65535/49710326113_3da75c330e_n.jpg",
    "id_album": "-2109465612",
    "description": "Adventure_238415",
    "title": "Adventure_238415",
    "link_img": "https://live.staticflickr.com/65535/49710326113_861d71ab96_o.jpg",
    "id_image": "Adventure_238415",
    "count_view": 0
  },
  {
    "link_thumb": "https://live.staticflickr.com/65535/49712343871_5fc3a63ae6_n.jpg",
    "id_album": "-1126835654",
    "description": "Women_958089",
    "title": "Women_958089",
    "link_img": "https://live.staticflickr.com/65535/49712343871_949c2f1076_o.jpg",
    "id_image": "Women_958089",
    "count_view": 0
  },
  {
    "link_thumb": "https://live.staticflickr.com/65535/49710400043_52416115e7_n.jpg",
    "id_album": "-1560111795",
    "description": "Archer_706858",
    "title": "Archer_706858",
    "link_img": "https://live.staticflickr.com/65535/49710400043_989f000ec6_o.jpg",
    "id_image": "Archer_706858",
    "count_view": 0
  },
  {
    "link_thumb": "https://live.staticflickr.com/65535/49710892963_a647f28872_n.jpg",
    "id_album": "850176884",
    "description": "Dragon_343583",
    "title": "Dragon_343583",
    "link_img": "https://live.staticflickr.com/65535/49710892963_e71d562c0c_o.jpg",
    "id_image": "Dragon_343583",
    "count_view": 0
  },
  {
    "link_thumb": "https://live.staticflickr.com/65535/49712425222_387736922a_n.jpg",
    "id_album": "-1611961467",
    "description": "Samurai_169088",
    "title": "Samurai_169088",
    "link_img": "https://live.staticflickr.com/65535/49712425222_16d1f503a5_o.jpg",
    "id_image": "Samurai_169088",
    "count_view": 0
  },
  {
    "link_thumb": "https://live.staticflickr.com/65535/49712329036_13b6ddd047_n.jpg",
    "id_album": "-1126835654",
    "description": "Women_886686",
    "title": "Women_886686",
    "link_img": "https://live.staticflickr.com/65535/49712329036_6bc9eee3d6_o.jpg",
    "id_image": "Women_886686",
    "count_view": 0
  },
  {
    "link_thumb": "https://live.staticflickr.com/65535/49711579123_1594d14abd_n.jpg",
    "id_album": "-1611961467",
    "description": "Samurai_934644",
    "title": "Samurai_934644",
    "link_img": "https://live.staticflickr.com/65535/49711579123_e6a8dd2105_o.jpg",
    "id_image": "Samurai_934644",
    "count_view": 0
  },
  {
    "link_thumb": "https://live.staticflickr.com/65535/49711168713_9251fe70ca_n.jpg",
    "id_album": "-1083189875",
    "description": "Forest_676685",
    "title": "Forest_676685",
    "link_img": "https://live.staticflickr.com/65535/49711168713_7f8b04ec0c_o.jpg",
    "id_image": "Forest_676685",
    "count_view": 0
  },
  {
    "link_thumb": "https://live.staticflickr.com/65535/49710988103_d60a98e8cb_n.jpg",
    "id_album": "850176884",
    "description": "Dragon_779580",
    "title": "Dragon_779580",
    "link_img": "https://live.staticflickr.com/65535/49710988103_3f5ac1409c_o.jpg",
    "id_image": "Dragon_779580",
    "count_view": 0
  },
  {
    "link_thumb": "https://live.staticflickr.com/65535/49712632852_3e9c0e0b54_n.jpg",
    "id_album": "-1126835654",
    "description": "Women_859499",
    "title": "Women_859499",
    "link_img": "https://live.staticflickr.com/65535/49712632852_20652f6343_o.jpg",
    "id_image": "Women_859499",
    "count_view": 0
  },
  {
    "link_thumb": "https://live.staticflickr.com/65535/49712266741_58684ffe5a_n.jpg",
    "id_album": "-656526651",
    "description": "Wizard_264311",
    "title": "Wizard_264311",
    "link_img": "https://live.staticflickr.com/65535/49712266741_ebfb9e4ea6_o.jpg",
    "id_image": "Wizard_264311",
    "count_view": 0
  },
  {
    "link_thumb": "https://live.staticflickr.com/65535/49711312267_39c1f114e8_n.jpg",
    "id_album": "1187037014",
    "description": "Battle_243478",
    "title": "Battle_243478",
    "link_img": "https://live.staticflickr.com/65535/49711312267_377f51d74d_o.jpg",
    "id_image": "Battle_243478",
    "count_view": 0
  },
  {
    "link_thumb": "https://live.staticflickr.com/65535/49710525368_892628c84e_n.jpg",
    "id_album": "-1541846310",
    "description": "Castle_864503",
    "title": "Castle_864503",
    "link_img": "https://live.staticflickr.com/65535/49710525368_0fc67b52fa_o.jpg",
    "id_image": "Castle_864503",
    "count_view": 0
  },
  {
    "link_thumb": "https://live.staticflickr.com/65535/49711268982_d4576844fb_n.jpg",
    "id_album": "523598895",
    "description": "Artistic_152438",
    "title": "Artistic_152438",
    "link_img": "https://live.staticflickr.com/65535/49711268982_dac977a3b7_o.jpg",
    "id_image": "Artistic_152438",
    "count_view": 0
  },
  {
    "link_thumb": "https://live.staticflickr.com/65535/49710690908_6dd3629dd7_n.jpg",
    "id_album": "-437872736",
    "description": "Creature_396027",
    "title": "Creature_396027",
    "link_img": "https://live.staticflickr.com/65535/49710690908_507f3fe4c8_o.jpg",
    "id_image": "Creature_396027",
    "count_view": 0
  },
  {
    "link_thumb": "https://live.staticflickr.com/65535/49710554168_b99a8c4687_n.jpg",
    "id_album": "-1964113117",
    "description": "City_169705",
    "title": "City_169705",
    "link_img": "https://live.staticflickr.com/65535/49710554168_1c81002417_o.jpg",
    "id_image": "City_169705",
    "count_view": 0
  },
  {
    "link_thumb": "https://live.staticflickr.com/65535/49711206077_7c50b8591b_n.jpg",
    "id_album": "-1000175186",
    "description": "AngelWarrior_510933",
    "title": "AngelWarrior_510933",
    "link_img": "https://live.staticflickr.com/65535/49711206077_e898bdf713_o.jpg",
    "id_image": "AngelWarrior_510933",
    "count_view": 0
  },
  {
    "link_thumb": "https://live.staticflickr.com/65535/49711477901_72bcc7a3c1_n.jpg",
    "id_album": "850176884",
    "description": "Dragon_541853",
    "title": "Dragon_541853",
    "link_img": "https://live.staticflickr.com/65535/49711477901_ca099ae6c8_o.jpg",
    "id_image": "Dragon_541853",
    "count_view": 0
  },
  {
    "link_thumb": "https://live.staticflickr.com/65535/49711409406_a7ec3d199a_n.jpg",
    "id_album": "850176884",
    "description": "Dragon_280842",
    "title": "Dragon_280842",
    "link_img": "https://live.staticflickr.com/65535/49711409406_e38afb9ab5_o.jpg",
    "id_image": "Dragon_280842",
    "count_view": 0
  },
  {
    "link_thumb": "https://live.staticflickr.com/65535/49710480643_47b59e913a_n.jpg",
    "id_album": "-1846011410",
    "description": "Bird_194544",
    "title": "Bird_194544",
    "link_img": "https://live.staticflickr.com/65535/49710480643_98315bef32_o.jpg",
    "id_image": "Bird_194544",
    "count_view": 0
  },
  {
    "link_thumb": "https://live.staticflickr.com/65535/49711230013_78e5738d44_n.jpg",
    "id_album": "1957967226",
    "description": "House_357503",
    "title": "House_357503",
    "link_img": "https://live.staticflickr.com/65535/49711230013_70d6251ce7_o.jpg",
    "id_image": "House_357503",
    "count_view": 0
  },
  {
    "link_thumb": "https://live.staticflickr.com/65535/49711161766_a937cc6be6_n.jpg",
    "id_album": "-437872736",
    "description": "Creature_227544",
    "title": "Creature_227544",
    "link_img": "https://live.staticflickr.com/65535/49711161766_c52efa6f93_o.jpg",
    "id_image": "Creature_227544",
    "count_view": 0
  },
  {
    "link_thumb": "https://live.staticflickr.com/65535/49712336006_c8a3c9180f_n.jpg",
    "id_album": "-1126835654",
    "description": "Women_911880",
    "title": "Women_911880",
    "link_img": "https://live.staticflickr.com/65535/49712336006_b4fe7cf489_o.jpg",
    "id_image": "Women_911880",
    "count_view": 0
  },
  {
    "link_thumb": "https://live.staticflickr.com/65535/49712064176_4b7111984d_n.jpg",
    "id_album": "-639976841",
    "description": "Pegasus_481401",
    "title": "Pegasus_481401",
    "link_img": "https://live.staticflickr.com/65535/49712064176_7f350b439a_o.jpg",
    "id_image": "Pegasus_481401",
    "count_view": 0
  },
  {
    "link_thumb": "https://live.staticflickr.com/65535/49711690597_2faced9b61_n.jpg",
    "id_album": "850176884",
    "description": "Dragon_125479",
    "title": "Dragon_125479",
    "link_img": "https://live.staticflickr.com/65535/49711690597_1aa7c2084a_o.jpg",
    "id_image": "Dragon_125479",
    "count_view": 0
  },
  {
    "link_thumb": "https://live.staticflickr.com/65535/49711464526_da3e54a0fb_n.jpg",
    "id_album": "850176884",
    "description": "Dragon_497502",
    "title": "Dragon_497502",
    "link_img": "https://live.staticflickr.com/65535/49711464526_ccdc76b633_o.jpg",
    "id_image": "Dragon_497502",
    "count_view": 0
  },
  {
    "link_thumb": "https://live.staticflickr.com/65535/49711513346_48b0fc5e02_n.jpg",
    "id_album": "850176884",
    "description": "Dragon_713150",
    "title": "Dragon_713150",
    "link_img": "https://live.staticflickr.com/65535/49711513346_4acebf29bf_o.jpg",
    "id_image": "Dragon_713150",
    "count_view": 0
  },
  {
    "link_thumb": "https://live.staticflickr.com/65535/49710908853_37330b1e2a_n.jpg",
    "id_album": "850176884",
    "description": "Dragon_429554",
    "title": "Dragon_429554",
    "link_img": "https://live.staticflickr.com/65535/49710908853_1d28c76507_o.jpg",
    "id_image": "Dragon_429554",
    "count_view": 0
  },
  {
    "link_thumb": "https://live.staticflickr.com/65535/49710865243_72c9ab4968_n.jpg",
    "id_album": "850176884",
    "description": "Dragon_251222",
    "title": "Dragon_251222",
    "link_img": "https://live.staticflickr.com/65535/49710865243_fd3c792edd_o.jpg",
    "id_image": "Dragon_251222",
    "count_view": 0
  },
  {
    "link_thumb": "https://live.staticflickr.com/65535/49711912456_fe97a7c741_n.jpg",
    "id_album": "-833110404",
    "description": "Landscape_288261",
    "title": "Landscape_288261",
    "link_img": "https://live.staticflickr.com/65535/49711912456_d915a65d4b_o.jpg",
    "id_image": "Landscape_288261",
    "count_view": 0
  },
  {
    "link_thumb": "https://live.staticflickr.com/65535/49711643112_9bcfdf4081_n.jpg",
    "id_album": "2021464556",
    "description": "Dark_467328",
    "title": "Dark_467328",
    "link_img": "https://live.staticflickr.com/65535/49711643112_527b64b46c_o.jpg",
    "id_image": "Dark_467328",
    "count_view": 0
  },
  {
    "link_thumb": "https://live.staticflickr.com/65535/49712493671_3fb39d5b2d_n.jpg",
    "id_album": "-867594484",
    "description": "Women_518985",
    "title": "Women_518985",
    "link_img": "https://live.staticflickr.com/65535/49712493671_9235b10089_o.jpg",
    "id_image": "Women_518985",
    "count_view": 0
  },
  {
    "link_thumb": "https://live.staticflickr.com/65535/49711346232_90ac229a81_n.jpg",
    "id_album": "406431601",
    "description": "Building_148939",
    "title": "Building_148939",
    "link_img": "https://live.staticflickr.com/65535/49711346232_043497c292_o.jpg",
    "id_image": "Building_148939",
    "count_view": 0
  },
  {
    "link_thumb": "https://live.staticflickr.com/65535/49799134857_32e16f7763_n.jpg",
    "id_album": "-1703946758",
    "description": "ANIME_PIC_89395421708994e2ee9c1bc1693a7ab3",
    "title": "ANIME_PIC_89395421708994e2ee9c1bc1693a7ab3",
    "link_img": "https://live.staticflickr.com/65535/49799134857_e86ed692af_o.jpg",
    "id_image": "ANIME_PIC_89395421708994e2ee9c1bc1693a7ab3",
    "count_view": 0
  },
  {
    "link_thumb": "https://live.staticflickr.com/65535/49712444847_6b4ed55a3c_n.jpg",
    "id_album": "407101116",
    "description": "SeaMonster_560158",
    "title": "SeaMonster_560158",
    "link_img": "https://live.staticflickr.com/65535/49712444847_a27b6646a6_o.jpg",
    "id_image": "SeaMonster_560158",
    "count_view": 0
  },
  {
    "link_thumb": "https://live.staticflickr.com/65535/49712139241_022531657c_n.jpg",
    "id_album": "-395228614",
    "description": "Ship_912070",
    "title": "Ship_912070",
    "link_img": "https://live.staticflickr.com/65535/49712139241_db872deef6_o.jpg",
    "id_image": "Ship_912070",
    "count_view": 0
  },
  {
    "link_thumb": "https://live.staticflickr.com/65535/49711278546_839cdb6970_n.jpg",
    "id_album": "-437872736",
    "description": "Creature_958645",
    "title": "Creature_958645",
    "link_img": "https://live.staticflickr.com/65535/49711278546_ee8719ba0a_o.jpg",
    "id_image": "Creature_958645",
    "count_view": 0
  },
  {
    "link_thumb": "https://live.staticflickr.com/65535/49712497442_1d5a9cc13c_n.jpg",
    "id_album": "431597977",
    "description": "Unicorn_132999",
    "title": "Unicorn_132999",
    "link_img": "https://live.staticflickr.com/65535/49712497442_83e0f01776_o.jpg",
    "id_image": "Unicorn_132999",
    "count_view": 0
  },
  {
    "link_thumb": "https://live.staticflickr.com/65535/49711931621_e0dc6c160e_n.jpg",
    "id_album": "-833110404",
    "description": "Landscape_391604",
    "title": "Landscape_391604",
    "link_img": "https://live.staticflickr.com/65535/49711931621_0cfa8c3529_o.jpg",
    "id_image": "Landscape_391604",
    "count_view": 0
  },
  {
    "link_thumb": "https://live.staticflickr.com/65535/49710353083_139123fa66_n.jpg",
    "id_album": "-1000175186",
    "description": "AngelWarrior_787922",
    "title": "AngelWarrior_787922",
    "link_img": "https://live.staticflickr.com/65535/49710353083_6c6e45dafe_o.jpg",
    "id_image": "AngelWarrior_787922",
    "count_view": 0
  },
  {
    "link_thumb": "https://live.staticflickr.com/65535/49710627208_5362ab0a49_n.jpg",
    "id_album": "-437872736",
    "description": "Creature_233882",
    "title": "Creature_233882",
    "link_img": "https://live.staticflickr.com/65535/49710627208_ec3af82916_o.jpg",
    "id_image": "Creature_233882",
    "count_view": 0
  },
  {
    "link_thumb": "https://live.staticflickr.com/65535/49711436403_b72a88a3c2_n.jpg",
    "id_album": "-833110404",
    "description": "Landscape_565977",
    "title": "Landscape_565977",
    "link_img": "https://live.staticflickr.com/65535/49711436403_a680e04ffd_o.jpg",
    "id_image": "Landscape_565977",
    "count_view": 0
  },
  {
    "link_thumb": "https://live.staticflickr.com/65535/49712095352_6a8144712a_n.jpg",
    "id_album": "1957967226",
    "description": "House_939078",
    "title": "House_939078",
    "link_img": "https://live.staticflickr.com/65535/49712095352_1a0cce5052_o.jpg",
    "id_image": "House_939078",
    "count_view": 0
  },
  {
    "link_thumb": "https://live.staticflickr.com/65535/49711283357_e0e16de07a_n.jpg",
    "id_album": "523598895",
    "description": "Artistic_296490",
    "title": "Artistic_296490",
    "link_img": "https://live.staticflickr.com/65535/49711283357_5fd502a77c_o.jpg",
    "id_image": "Artistic_296490",
    "count_view": 0
  },
  {
    "link_thumb": "https://live.staticflickr.com/65535/49711672428_fb492ffacf_n.jpg",
    "id_album": "-1261420436",
    "description": "Warrior_411720",
    "title": "Warrior_411720",
    "link_img": "https://live.staticflickr.com/65535/49711672428_4770c75417_o.jpg",
    "id_image": "Warrior_411720",
    "count_view": 0
  },
  {
    "link_thumb": "https://live.staticflickr.com/65535/49711639813_35c774f546_n.jpg",
    "id_album": "431597977",
    "description": "Unicorn_214449",
    "title": "Unicorn_214449",
    "link_img": "https://live.staticflickr.com/65535/49711639813_3cf4bc2b85_o.jpg",
    "id_image": "Unicorn_214449",
    "count_view": 0
  },
  {
    "link_thumb": "https://live.staticflickr.com/65535/49710907573_3ff6b83b01_n.jpg",
    "id_album": "850176884",
    "description": "Dragon_41519",
    "title": "Dragon_41519",
    "link_img": "https://live.staticflickr.com/65535/49710907573_89d08495a5_o.jpg",
    "id_image": "Dragon_41519",
    "count_view": 0
  },
  {
    "link_thumb": "https://live.staticflickr.com/65535/49712123402_29b4b48e5a_n.jpg",
    "id_album": "1402713104",
    "description": "Landscape_680389",
    "title": "Landscape_680389",
    "link_img": "https://live.staticflickr.com/65535/49712123402_3c66fc9951_o.jpg",
    "id_image": "Landscape_680389",
    "count_view": 0
  },
  {
    "link_thumb": "https://live.staticflickr.com/65535/49711140588_78d0f86437_n.jpg",
    "id_album": "-1972042284",
    "description": "Fairy_694776",
    "title": "Fairy_694776",
    "link_img": "https://live.staticflickr.com/65535/49711140588_1fed7b2151_o.jpg",
    "id_image": "Fairy_694776",
    "count_view": 0
  },
  {
    "link_thumb": "https://live.staticflickr.com/65535/49711480203_4a6cbe47e9_n.jpg",
    "id_album": "-222719689",
    "description": "Men_372528",
    "title": "Men_372528",
    "link_img": "https://live.staticflickr.com/65535/49711480203_09c4a58c1c_o.jpg",
    "id_image": "Men_372528",
    "count_view": 0
  },
  {
    "link_thumb": "https://live.staticflickr.com/65535/49711196913_3c155c351f_n.jpg",
    "id_album": "402434752",
    "description": "Giant_305946",
    "title": "Giant_305946",
    "link_img": "https://live.staticflickr.com/65535/49711196913_f49a1671ca_o.jpg",
    "id_image": "Giant_305946",
    "count_view": 0
  },
  {
    "link_thumb": "https://live.staticflickr.com/65535/49711430572_1a86d10d83_n.jpg",
    "id_album": "-1964113117",
    "description": "City_539289",
    "title": "City_539289",
    "link_img": "https://live.staticflickr.com/65535/49711430572_ecc8cfafd7_o.jpg",
    "id_image": "City_539289",
    "count_view": 0
  },
  {
    "link_thumb": "https://live.staticflickr.com/65535/49712186892_4eb222c3fd_n.jpg",
    "id_album": "1402713104",
    "description": "Landscape_943135",
    "title": "Landscape_943135",
    "link_img": "https://live.staticflickr.com/65535/49712186892_c754173753_o.jpg",
    "id_image": "Landscape_943135",
    "count_view": 0
  },
  {
    "link_thumb": "https://live.staticflickr.com/65535/49711724667_dfccd07346_n.jpg",
    "id_album": "850176884",
    "description": "Dragon_257231",
    "title": "Dragon_257231",
    "link_img": "https://live.staticflickr.com/65535/49711724667_230bbf1969_o.jpg",
    "id_image": "Dragon_257231",
    "count_view": 0
  },
  {
    "link_thumb": "https://live.staticflickr.com/65535/49710336563_dc1a272289_n.jpg",
    "id_album": "-956471126",
    "description": "AliceInWonderland_185049",
    "title": "AliceInWonderland_185049",
    "link_img": "https://live.staticflickr.com/65535/49710336563_dd08c38e69_o.jpg",
    "id_image": "AliceInWonderland_185049",
    "count_view": 0
  },
  {
    "link_thumb": "https://live.staticflickr.com/65535/49711351471_5b9c75fb84_n.jpg",
    "id_album": "850176884",
    "description": "DRAGON26101916502456",
    "title": "DRAGON26101916502456",
    "link_img": "https://live.staticflickr.com/65535/49711351471_7ea9cff823_o.jpg",
    "id_image": "DRAGON26101916502456",
    "count_view": 0
  },
  {
    "link_thumb": "https://live.staticflickr.com/65535/49711794436_7c6bc0fba2_n.jpg",
    "id_album": "1402713104",
    "description": "Landscape_641977",
    "title": "Landscape_641977",
    "link_img": "https://live.staticflickr.com/65535/49711794436_fa30977e2d_o.jpg",
    "id_image": "Landscape_641977",
    "count_view": 0
  },
  {
    "link_thumb": "https://live.staticflickr.com/65535/49710819568_c58f0d1509_n.jpg",
    "id_album": "850176884",
    "description": "Dragon_10767",
    "title": "Dragon_10767",
    "link_img": "https://live.staticflickr.com/65535/49710819568_e6abf54126_o.jpg",
    "id_image": "Dragon_10767",
    "count_view": 0
  },
  {
    "link_thumb": "https://live.staticflickr.com/65535/49712402657_07136ba730_n.jpg",
    "id_album": "-300361534",
    "description": "Pirate_252940",
    "title": "Pirate_252940",
    "link_img": "https://live.staticflickr.com/65535/49712402657_f80bfcdeba_o.jpg",
    "id_image": "Pirate_252940",
    "count_view": 0
  },
  {
    "link_thumb": "https://live.staticflickr.com/65535/49711703187_c23e0db5db_n.jpg",
    "id_album": "850176884",
    "description": "Dragon_188303",
    "title": "Dragon_188303",
    "link_img": "https://live.staticflickr.com/65535/49711703187_a78c584578_o.jpg",
    "id_image": "Dragon_188303",
    "count_view": 0
  },
  {
    "link_thumb": "https://live.staticflickr.com/65535/49710971833_535aa7cd65_n.jpg",
    "id_album": "850176884",
    "description": "Dragon_693909",
    "title": "Dragon_693909",
    "link_img": "https://live.staticflickr.com/65535/49710971833_fb27683a8a_o.jpg",
    "id_image": "Dragon_693909",
    "count_view": 0
  },
  {
    "link_thumb": "https://live.staticflickr.com/65535/49711865843_9f445093da_n.jpg",
    "id_album": "295204930",
    "description": "Women_452140",
    "title": "Women_452140",
    "link_img": "https://live.staticflickr.com/65535/49711865843_cc10ddf7be_o.jpg",
    "id_image": "Women_452140",
    "count_view": 0
  },
  {
    "link_thumb": "https://live.staticflickr.com/65535/49711330512_be4a459e00_n.jpg",
    "id_album": "1187037014",
    "description": "Battle_683007",
    "title": "Battle_683007",
    "link_img": "https://live.staticflickr.com/65535/49711330512_ea4d4bf02c_o.jpg",
    "id_image": "Battle_683007",
    "count_view": 0
  },
  {
    "link_thumb": "https://live.staticflickr.com/65535/49712624987_50531a5a71_n.jpg",
    "id_album": "-362161606",
    "description": "WOMAN2610191652122",
    "title": "WOMAN2610191652122",
    "link_img": "https://live.staticflickr.com/65535/49712624987_89bdc45d9b_o.jpg",
    "id_image": "WOMAN2610191652122",
    "count_view": 0
  },
  {
    "link_thumb": "https://live.staticflickr.com/65535/49711714243_b79a5edfbd_n.jpg",
    "id_album": "786934945",
    "description": "Whale_312434",
    "title": "Whale_312434",
    "link_img": "https://live.staticflickr.com/65535/49711714243_2d7d13a373_o.jpg",
    "id_image": "Whale_312434",
    "count_view": 0
  },
  {
    "link_thumb": "https://live.staticflickr.com/65535/49711293418_c131e920d4_n.jpg",
    "id_album": "1402713104",
    "description": "Landscape_860516",
    "title": "Landscape_860516",
    "link_img": "https://live.staticflickr.com/65535/49711293418_9c845d237e_o.jpg",
    "id_image": "Landscape_860516",
    "count_view": 0
  },
  {
    "link_thumb": "https://live.staticflickr.com/65535/49710919011_14f9544523_n.jpg",
    "id_album": "-1913845949",
    "description": "Animal_871982",
    "title": "Animal_871982",
    "link_img": "https://live.staticflickr.com/65535/49710919011_6936846fca_o.jpg",
    "id_image": "Animal_871982",
    "count_view": 0
  },
  {
    "link_thumb": "https://live.staticflickr.com/65535/49712698446_7e0c70f4c9_n.jpg",
    "id_album": "-1675918237",
    "description": "WomenWarrior_910706",
    "title": "WomenWarrior_910706",
    "link_img": "https://live.staticflickr.com/65535/49712698446_178c786600_o.jpg",
    "id_image": "WomenWarrior_910706",
    "count_view": 0
  },
  {
    "link_thumb": "https://live.staticflickr.com/65535/49711177741_641b7be58a_n.jpg",
    "id_album": "-437872736",
    "description": "Creature_291940",
    "title": "Creature_291940",
    "link_img": "https://live.staticflickr.com/65535/49711177741_529c40e9e7_o.jpg",
    "id_image": "Creature_291940",
    "count_view": 0
  },
  {
    "link_thumb": "https://live.staticflickr.com/65535/49710761598_336090b75e_n.jpg",
    "id_album": "-437872736",
    "description": "Creature_958929",
    "title": "Creature_958929",
    "link_img": "https://live.staticflickr.com/65535/49710761598_8fd9374458_o.jpg",
    "id_image": "Creature_958929",
    "count_view": 0
  },
  {
    "link_thumb": "https://live.staticflickr.com/65535/49712859002_4d4fd3a8af_n.jpg",
    "id_album": "-867594484",
    "description": "Women_686789",
    "title": "Women_686789",
    "link_img": "https://live.staticflickr.com/65535/49712859002_a507236b74_o.jpg",
    "id_image": "Women_686789",
    "count_view": 0
  },
  {
    "link_thumb": "https://live.staticflickr.com/65535/49711202106_d544eb3840_n.jpg",
    "id_album": "-437872736",
    "description": "Creature_332260",
    "title": "Creature_332260",
    "link_img": "https://live.staticflickr.com/65535/49711202106_74cd8d7ae4_o.jpg",
    "id_image": "Creature_332260",
    "count_view": 0
  },
  {
    "link_thumb": "https://live.staticflickr.com/65535/49711943066_898027c982_n.jpg",
    "id_album": "-833110404",
    "description": "Landscape_420133",
    "title": "Landscape_420133",
    "link_img": "https://live.staticflickr.com/65535/49711943066_71195e24e3_o.jpg",
    "id_image": "Landscape_420133",
    "count_view": 0
  },
  {
    "link_thumb": "https://live.staticflickr.com/65535/49711263376_32c93beae6_n.jpg",
    "id_album": "-437872736",
    "description": "Creature_711415",
    "title": "Creature_711415",
    "link_img": "https://live.staticflickr.com/65535/49711263376_f04a32cb03_o.jpg",
    "id_image": "Creature_711415",
    "count_view": 0
  },
  {
    "link_thumb": "https://live.staticflickr.com/65535/49710985943_0930daa533_n.jpg",
    "id_album": "850176884",
    "description": "Dragon_76450",
    "title": "Dragon_76450",
    "link_img": "https://live.staticflickr.com/65535/49710985943_42b38e4924_o.jpg",
    "id_image": "Dragon_76450",
    "count_view": 0
  },
  {
    "link_thumb": "https://live.staticflickr.com/65535/49711891372_87cb2d045f_n.jpg",
    "id_album": "850176884",
    "description": "Dragon_926863",
    "title": "Dragon_926863",
    "link_img": "https://live.staticflickr.com/65535/49711891372_4b56593115_o.jpg",
    "id_image": "Dragon_926863",
    "count_view": 0
  },
  {
    "link_thumb": "https://live.staticflickr.com/65535/49712326166_c8cc7f9e9f_n.jpg",
    "id_album": "-1126835654",
    "description": "Women_882807",
    "title": "Women_882807",
    "link_img": "https://live.staticflickr.com/65535/49712326166_9f486d8675_o.jpg",
    "id_image": "Women_882807",
    "count_view": 0
  },
  {
    "link_thumb": "https://live.staticflickr.com/65535/49712238481_1bf304b95a_n.jpg",
    "id_album": "-1261420436",
    "description": "Warrior_940180",
    "title": "Warrior_940180",
    "link_img": "https://live.staticflickr.com/65535/49712238481_f580e0cbf0_o.jpg",
    "id_image": "Warrior_940180",
    "count_view": 0
  },
  {
    "link_thumb": "https://live.staticflickr.com/65535/49711679152_bf9b937ff2_n.jpg",
    "id_album": "850176884",
    "description": "Dragon_112640",
    "title": "Dragon_112640",
    "link_img": "https://live.staticflickr.com/65535/49711679152_eb0dcae9c4_o.jpg",
    "id_image": "Dragon_112640",
    "count_view": 0
  },
  {
    "link_thumb": "https://live.staticflickr.com/65535/49712652626_c75eb05030_n.jpg",
    "id_album": "-1675918237",
    "description": "WomenWarrior_687573",
    "title": "WomenWarrior_687573",
    "link_img": "https://live.staticflickr.com/65535/49712652626_a4d102fded_o.jpg",
    "id_image": "WomenWarrior_687573",
    "count_view": 0
  },
  {
    "link_thumb": "https://live.staticflickr.com/65535/49711861691_4bef81678b_n.jpg",
    "id_album": "1402713104",
    "description": "Landscape_940265",
    "title": "Landscape_940265",
    "link_img": "https://live.staticflickr.com/65535/49711861691_eea28305f6_o.jpg",
    "id_image": "Landscape_940265",
    "count_view": 0
  },
  {
    "link_thumb": "https://live.staticflickr.com/65535/49710922091_0d2e4ebaa5_n.jpg",
    "id_album": "-1913845949",
    "description": "Animal_926845",
    "title": "Animal_926845",
    "link_img": "https://live.staticflickr.com/65535/49710922091_a6a85e1ab1_o.jpg",
    "id_image": "Animal_926845",
    "count_view": 0
  },
  {
    "link_thumb": "https://live.staticflickr.com/65535/49711014008_d8715c3439_n.jpg",
    "id_album": "850176884",
    "description": "Dragon_880992",
    "title": "Dragon_880992",
    "link_img": "https://live.staticflickr.com/65535/49711014008_dd07dab560_o.jpg",
    "id_image": "Dragon_880992",
    "count_view": 0
  },
  {
    "link_thumb": "https://live.staticflickr.com/65535/49710978701_b6d37e6ff0_n.jpg",
    "id_album": "523598895",
    "description": "Artistic_705798",
    "title": "Artistic_705798",
    "link_img": "https://live.staticflickr.com/65535/49710978701_2f5c89a887_o.jpg",
    "id_image": "Artistic_705798",
    "count_view": 0
  },
  {
    "link_thumb": "https://live.staticflickr.com/65535/49711193403_7014d931fc_n.jpg",
    "id_album": "-128218148",
    "description": "Fox_973223",
    "title": "Fox_973223",
    "link_img": "https://live.staticflickr.com/65535/49711193403_b78121be58_o.jpg",
    "id_image": "Fox_973223",
    "count_view": 0
  },
  {
    "link_thumb": "https://live.staticflickr.com/65535/49712575902_9526d9ff5b_n.jpg",
    "id_album": "786934945",
    "description": "Whale_914714",
    "title": "Whale_914714",
    "link_img": "https://live.staticflickr.com/65535/49712575902_5a9e5ce458_o.jpg",
    "id_image": "Whale_914714",
    "count_view": 0
  },
  {
    "link_thumb": "https://live.staticflickr.com/65535/49712072806_3487bf40df_n.jpg",
    "id_album": "-1326601535",
    "description": "Phoenix_451365",
    "title": "Phoenix_451365",
    "link_img": "https://live.staticflickr.com/65535/49712072806_64ecdd4574_o.jpg",
    "id_image": "Phoenix_451365",
    "count_view": 0
  },
  {
    "link_thumb": "https://live.staticflickr.com/65535/49711227162_7ebe67552e_n.jpg",
    "id_album": "-1913845949",
    "description": "Animal_546348",
    "title": "Animal_546348",
    "link_img": "https://live.staticflickr.com/65535/49711227162_33bf181c90_o.jpg",
    "id_image": "Animal_546348",
    "count_view": 0
  },
  {
    "link_thumb": "https://live.staticflickr.com/65535/49710974156_851e54aed9_n.jpg",
    "id_album": "523598895",
    "description": "Artistic_589444",
    "title": "Artistic_589444",
    "link_img": "https://live.staticflickr.com/65535/49710974156_d5a64e2955_o.jpg",
    "id_image": "Artistic_589444",
    "count_view": 0
  },
  {
    "link_thumb": "https://live.staticflickr.com/65535/49712788737_87836bde83_n.jpg",
    "id_album": "1861288871",
    "description": "Women_783561",
    "title": "Women_783561",
    "link_img": "https://live.staticflickr.com/65535/49712788737_c506539682_o.jpg",
    "id_image": "Women_783561",
    "count_view": 0
  },
  {
    "link_thumb": "https://live.staticflickr.com/65535/49712498516_da47e3c27b_n.jpg",
    "id_album": "-867594484",
    "description": "Women_528449",
    "title": "Women_528449",
    "link_img": "https://live.staticflickr.com/65535/49712498516_a6abdae43b_o.jpg",
    "id_image": "Women_528449",
    "count_view": 0
  },
  {
    "link_thumb": "https://live.staticflickr.com/65535/49710981556_7fd5e001fb_n.jpg",
    "id_album": "1187037014",
    "description": "Battle_105741",
    "title": "Battle_105741",
    "link_img": "https://live.staticflickr.com/65535/49710981556_178a81560f_o.jpg",
    "id_image": "Battle_105741",
    "count_view": 0
  },
  {
    "link_thumb": "https://live.staticflickr.com/65535/49711176056_c22f90df56_n.jpg",
    "id_album": "-437872736",
    "description": "Creature_284425",
    "title": "Creature_284425",
    "link_img": "https://live.staticflickr.com/65535/49711176056_a0a3ab5f84_o.jpg",
    "id_image": "Creature_284425",
    "count_view": 0
  },
  {
    "link_thumb": "https://live.staticflickr.com/65535/49712347822_4d3de1a609_n.jpg",
    "id_album": "1721880108",
    "description": "Mermaid_316325",
    "title": "Mermaid_316325",
    "link_img": "https://live.staticflickr.com/65535/49712347822_bce3fce159_o.jpg",
    "id_image": "Mermaid_316325",
    "count_view": 0
  },
  {
    "link_thumb": "https://live.staticflickr.com/65535/49712093276_ebaa834332_n.jpg",
    "id_album": "606798642",
    "description": "RedRidingHood_991069",
    "title": "RedRidingHood_991069",
    "link_img": "https://live.staticflickr.com/65535/49712093276_1b06c6eb00_o.jpg",
    "id_image": "RedRidingHood_991069",
    "count_view": 0
  },
  {
    "link_thumb": "https://live.staticflickr.com/65535/49711371802_a1b220228c_n.jpg",
    "id_album": "-1541846310",
    "description": "Castle_557050",
    "title": "Castle_557050",
    "link_img": "https://live.staticflickr.com/65535/49711371802_7a80b40f39_o.jpg",
    "id_image": "Castle_557050",
    "count_view": 0
  },
  {
    "link_thumb": "https://live.staticflickr.com/65535/49712538781_05dd1655f2_n.jpg",
    "id_album": "-867594484",
    "description": "Women_692952",
    "title": "Women_692952",
    "link_img": "https://live.staticflickr.com/65535/49712538781_cf59fab768_o.jpg",
    "id_image": "Women_692952",
    "count_view": 0
  },
  {
    "link_thumb": "https://live.staticflickr.com/65535/49711061528_34fea19550_n.jpg",
    "id_album": "-1594184835",
    "description": "Dwarf_326237",
    "title": "Dwarf_326237",
    "link_img": "https://live.staticflickr.com/65535/49711061528_14601f32d5_o.jpg",
    "id_image": "Dwarf_326237",
    "count_view": 0
  },
  {
    "link_thumb": "https://live.staticflickr.com/65535/49710872071_00279cc5ac_n.jpg",
    "id_album": "-956471126",
    "description": "AliceInWonderland_557324",
    "title": "AliceInWonderland_557324",
    "link_img": "https://live.staticflickr.com/65535/49710872071_6b530a2d61_o.jpg",
    "id_image": "AliceInWonderland_557324",
    "count_view": 0
  },
  {
    "link_thumb": "https://live.staticflickr.com/65535/49712516486_5d16b73215_n.jpg",
    "id_album": "-867594484",
    "description": "Women_587817",
    "title": "Women_587817",
    "link_img": "https://live.staticflickr.com/65535/49712516486_f2299015e6_o.jpg",
    "id_image": "Women_587817",
    "count_view": 0
  },
  {
    "link_thumb": "https://live.staticflickr.com/65535/49711260697_a01fa94280_n.jpg",
    "id_album": "523598895",
    "description": "Artistic_112740",
    "title": "Artistic_112740",
    "link_img": "https://live.staticflickr.com/65535/49711260697_96b5bdd6e6_o.jpg",
    "id_image": "Artistic_112740",
    "count_view": 0
  },
  {
    "link_thumb": "https://live.staticflickr.com/65535/49711290377_6561d73256_n.jpg",
    "id_album": "523598895",
    "description": "Artistic_400018",
    "title": "Artistic_400018",
    "link_img": "https://live.staticflickr.com/65535/49711290377_a227f9ff48_o.jpg",
    "id_image": "Artistic_400018",
    "count_view": 0
  },
  {
    "link_thumb": "https://live.staticflickr.com/65535/49712114173_a22f6fe5ca_n.jpg",
    "id_album": "-1675918237",
    "description": "WomenWarrior_615968",
    "title": "WomenWarrior_615968",
    "link_img": "https://live.staticflickr.com/65535/49712114173_d7639343e1_o.jpg",
    "id_image": "WomenWarrior_615968",
    "count_view": 0
  },
  {
    "link_thumb": "https://live.staticflickr.com/65535/49712208477_14357d3587_n.jpg",
    "id_album": "1402713104",
    "description": "Landscape_994323",
    "title": "Landscape_994323",
    "link_img": "https://live.staticflickr.com/65535/49712208477_d29b9a9eb6_o.jpg",
    "id_image": "Landscape_994323",
    "count_view": 0
  },
  {
    "link_thumb": "https://live.staticflickr.com/65535/49711509701_4c3f723ee6_n.jpg",
    "id_album": "850176884",
    "description": "Dragon_697534",
    "title": "Dragon_697534",
    "link_img": "https://live.staticflickr.com/65535/49711509701_dac242411e_o.jpg",
    "id_image": "Dragon_697534",
    "count_view": 0
  },
  {
    "link_thumb": "https://live.staticflickr.com/65535/49712695412_a2ed536b9a_n.jpg",
    "id_album": "295204930",
    "description": "Women_291937",
    "title": "Women_291937",
    "link_img": "https://live.staticflickr.com/65535/49712695412_845f3fd70f_o.jpg",
    "id_image": "Women_291937",
    "count_view": 0
  },
  {
    "link_thumb": "https://live.staticflickr.com/65535/49711045488_52d2221520_n.jpg",
    "id_album": "850176884",
    "description": "Dragon_962378",
    "title": "Dragon_962378",
    "link_img": "https://live.staticflickr.com/65535/49711045488_87d842a440_o.jpg",
    "id_image": "Dragon_962378",
    "count_view": 0
  },
  {
    "link_thumb": "https://live.staticflickr.com/65535/49711406097_9e6c682255_n.jpg",
    "id_album": "430704260",
    "description": "Child_772582",
    "title": "Child_772582",
    "link_img": "https://live.staticflickr.com/65535/49711406097_53aaa42d46_o.jpg",
    "id_image": "Child_772582",
    "count_view": 0
  },
  {
    "link_thumb": "https://live.staticflickr.com/65535/49711664987_15af3ef925_n.jpg",
    "id_album": "7198985",
    "description": "Demon_716397",
    "title": "Demon_716397",
    "link_img": "https://live.staticflickr.com/65535/49711664987_bdc766f482_o.jpg",
    "id_image": "Demon_716397",
    "count_view": 0
  },
  {
    "link_thumb": "https://live.staticflickr.com/65535/49710856088_70ebd9ffc0_n.jpg",
    "id_album": "850176884",
    "description": "Dragon_234445",
    "title": "Dragon_234445",
    "link_img": "https://live.staticflickr.com/65535/49710856088_04ed4f785c_o.jpg",
    "id_image": "Dragon_234445",
    "count_view": 0
  },
  {
    "link_thumb": "https://live.staticflickr.com/65535/49712140898_4fd93625ef_n.jpg",
    "id_album": "-1675918237",
    "description": "WomenWarrior_805253",
    "title": "WomenWarrior_805253",
    "link_img": "https://live.staticflickr.com/65535/49712140898_2b05e47255_o.jpg",
    "id_image": "WomenWarrior_805253",
    "count_view": 0
  },
  {
    "link_thumb": "https://live.staticflickr.com/65535/49710548303_b4c2a4ea02_n.jpg",
    "id_album": "430704260",
    "description": "Child_880095",
    "title": "Child_880095",
    "link_img": "https://live.staticflickr.com/65535/49710548303_06bf07eb13_o.jpg",
    "id_image": "Child_880095",
    "count_view": 0
  },
  {
    "link_thumb": "https://live.staticflickr.com/65535/49711267431_5b60593b59_n.jpg",
    "id_album": "-437872736",
    "description": "Creature_814495",
    "title": "Creature_814495",
    "link_img": "https://live.staticflickr.com/65535/49711267431_794cd58933_o.jpg",
    "id_image": "Creature_814495",
    "count_view": 0
  },
  {
    "link_thumb": "https://live.staticflickr.com/65535/49710481248_63a8e86998_n.jpg",
    "id_album": "-1846011410",
    "description": "Bird_262693",
    "title": "Bird_262693",
    "link_img": "https://live.staticflickr.com/65535/49710481248_81fe591fe2_o.jpg",
    "id_image": "Bird_262693",
    "count_view": 0
  },
  {
    "link_thumb": "https://live.staticflickr.com/65535/49726863618_4ec04bce08_n.jpg",
    "id_album": "-437872736",
    "description": "Creature_89509",
    "title": "Creature_89509",
    "link_img": "https://live.staticflickr.com/65535/49726863618_c2c1a424ef_o.jpg",
    "id_image": "Creature_89509",
    "count_view": 0
  },
  {
    "link_thumb": "https://live.staticflickr.com/65535/49712051441_f7aff9b658_n.jpg",
    "id_album": "1892085513",
    "description": "Oriental_971389",
    "title": "Oriental_971389",
    "link_img": "https://live.staticflickr.com/65535/49712051441_ca884d87f5_o.jpg",
    "id_image": "Oriental_971389",
    "count_view": 0
  },
  {
    "link_thumb": "https://live.staticflickr.com/65535/49711643838_53e4313803_n.jpg",
    "id_album": "431597977",
    "description": "Unicorn_469481",
    "title": "Unicorn_469481",
    "link_img": "https://live.staticflickr.com/65535/49711643838_ac8e822a3b_o.jpg",
    "id_image": "Unicorn_469481",
    "count_view": 0
  },
  {
    "link_thumb": "https://live.staticflickr.com/65535/49711660626_6d128ef255_n.jpg",
    "id_album": "-1972042284",
    "description": "Fairy_357600",
    "title": "Fairy_357600",
    "link_img": "https://live.staticflickr.com/65535/49711660626_195880bd34_o.jpg",
    "id_image": "Fairy_357600",
    "count_view": 0
  },
  {
    "link_thumb": "https://live.staticflickr.com/65535/49711729298_dc44c85e67_n.jpg",
    "id_album": "478331085",
    "description": "Witch_91300",
    "title": "Witch_91300",
    "link_img": "https://live.staticflickr.com/65535/49711729298_42b2753b73_o.jpg",
    "id_image": "Witch_91300",
    "count_view": 0
  },
  {
    "link_thumb": "https://live.staticflickr.com/65535/49711375577_74e3d21536_n.jpg",
    "id_album": "-1541846310",
    "description": "Castle_686069",
    "title": "Castle_686069",
    "link_img": "https://live.staticflickr.com/65535/49711375577_fa19ea7963_o.jpg",
    "id_image": "Castle_686069",
    "count_view": 0
  },
  {
    "link_thumb": "https://live.staticflickr.com/65535/49711882447_3812880e1d_n.jpg",
    "id_album": "850176884",
    "description": "Dragon_910941",
    "title": "Dragon_910941",
    "link_img": "https://live.staticflickr.com/65535/49711882447_54696f9055_o.jpg",
    "id_image": "Dragon_910941",
    "count_view": 0
  },
  {
    "link_thumb": "https://live.staticflickr.com/65535/49711449253_1406d4cbe8_n.jpg",
    "id_album": "416744915",
    "description": "Lion_889230",
    "title": "Lion_889230",
    "link_img": "https://live.staticflickr.com/65535/49711449253_32a76b3839_o.jpg",
    "id_image": "Lion_889230",
    "count_view": 0
  },
  {
    "link_thumb": "https://live.staticflickr.com/65535/49711125916_b26a6dcda3_n.jpg",
    "id_album": "-1964113117",
    "description": "City_877865",
    "title": "City_877865",
    "link_img": "https://live.staticflickr.com/65535/49711125916_377bb580d4_o.jpg",
    "id_image": "City_877865",
    "count_view": 0
  },
  {
    "link_thumb": "https://live.staticflickr.com/65535/49710560548_271b88be8c_n.jpg",
    "id_album": "-1964113117",
    "description": "City_304908",
    "title": "City_304908",
    "link_img": "https://live.staticflickr.com/65535/49710560548_9fdf3c6861_o.jpg",
    "id_image": "City_304908",
    "count_view": 0
  },
  {
    "link_thumb": "https://live.staticflickr.com/65535/49712193736_7543b90d93_n.jpg",
    "id_album": "19263973",
    "description": "Viking_877062",
    "title": "Viking_877062",
    "link_img": "https://live.staticflickr.com/65535/49712193736_42e8991724_o.jpg",
    "id_image": "Viking_877062",
    "count_view": 0
  },
  {
    "link_thumb": "https://live.staticflickr.com/65535/49710474998_4b9e310084_n.jpg",
    "id_album": "1187037014",
    "description": "Battle_740998",
    "title": "Battle_740998",
    "link_img": "https://live.staticflickr.com/65535/49710474998_1ae846926b_o.jpg",
    "id_image": "Battle_740998",
    "count_view": 0
  },
  {
    "link_thumb": "https://live.staticflickr.com/65535/49711107011_6dcd3385fd_n.jpg",
    "id_album": "-1964113117",
    "description": "City_561983",
    "title": "City_561983",
    "link_img": "https://live.staticflickr.com/65535/49711107011_898b26db41_o.jpg",
    "id_image": "City_561983",
    "count_view": 0
  },
  {
    "link_thumb": "https://live.staticflickr.com/65535/49710736943_7c183277d4_n.jpg",
    "id_album": "-437872736",
    "description": "Creature_918791",
    "title": "Creature_918791",
    "link_img": "https://live.staticflickr.com/65535/49710736943_61490d290e_o.jpg",
    "id_image": "Creature_918791",
    "count_view": 0
  },
  {
    "link_thumb": "https://live.staticflickr.com/65535/49712112472_f54ee54567_n.jpg",
    "id_album": "469960528",
    "description": "Knight_942092",
    "title": "Knight_942092",
    "link_img": "https://live.staticflickr.com/65535/49712112472_788902d454_o.jpg",
    "id_image": "Knight_942092",
    "count_view": 0
  },
  {
    "link_thumb": "https://live.staticflickr.com/65535/49712179467_33fb748332_n.jpg",
    "id_album": "1402713104",
    "description": "Landscape_915553",
    "title": "Landscape_915553",
    "link_img": "https://live.staticflickr.com/65535/49712179467_6f1a447153_o.jpg",
    "id_image": "Landscape_915553",
    "count_view": 0
  },
  {
    "link_thumb": "https://live.staticflickr.com/65535/49711532831_34b6ae95e3_n.jpg",
    "id_album": "850176884",
    "description": "Dragon_836307",
    "title": "Dragon_836307",
    "link_img": "https://live.staticflickr.com/65535/49711532831_fe85d2aab8_o.jpg",
    "id_image": "Dragon_836307",
    "count_view": 0
  },
  {
    "link_thumb": "https://live.staticflickr.com/65535/49712672306_43f76b345b_n.jpg",
    "id_album": "-1675918237",
    "description": "WomenWarrior_792214",
    "title": "WomenWarrior_792214",
    "link_img": "https://live.staticflickr.com/65535/49712672306_711f433ee0_o.jpg",
    "id_image": "WomenWarrior_792214",
    "count_view": 0
  },
  {
    "link_thumb": "https://live.staticflickr.com/65535/49711602187_3de8393cfa_n.jpg",
    "id_album": "-437872736",
    "description": "Creature_958640",
    "title": "Creature_958640",
    "link_img": "https://live.staticflickr.com/65535/49711602187_9c09e433f9_o.jpg",
    "id_image": "Creature_958640",
    "count_view": 0
  },
  {
    "link_thumb": "https://live.staticflickr.com/65535/49711047596_ccaeb7484d_n.jpg",
    "id_album": "-1541846310",
    "description": "Castle_527927",
    "title": "Castle_527927",
    "link_img": "https://live.staticflickr.com/65535/49711047596_6af9730c8b_o.jpg",
    "id_image": "Castle_527927",
    "count_view": 0
  },
  {
    "link_thumb": "https://live.staticflickr.com/65535/49711525716_66ea85e06e_n.jpg",
    "id_album": "850176884",
    "description": "Dragon_784926",
    "title": "Dragon_784926",
    "link_img": "https://live.staticflickr.com/65535/49711525716_3c75d29674_o.jpg",
    "id_image": "Dragon_784926",
    "count_view": 0
  },
  {
    "link_thumb": "https://live.staticflickr.com/65535/49893363431_b829475d5e_n.jpg",
    "id_album": "-1703946758",
    "description": "ANIME_PIC_516807fcc2612e120c9ed0e45a95b00d",
    "title": "ANIME_PIC_516807fcc2612e120c9ed0e45a95b00d",
    "link_img": "https://live.staticflickr.com/65535/49893363431_0dcfb94fe8_o.jpg",
    "id_image": "ANIME_PIC_516807fcc2612e120c9ed0e45a95b00d",
    "count_view": 0
  },
  {
    "link_thumb": "https://live.staticflickr.com/65535/49711756596_302f38b9ae_n.jpg",
    "id_album": "-1933715543",
    "description": "Horse_123856",
    "title": "Horse_123856",
    "link_img": "https://live.staticflickr.com/65535/49711756596_76eed336f3_o.jpg",
    "id_image": "Horse_123856",
    "count_view": 0
  },
  {
    "link_thumb": "https://live.staticflickr.com/65535/49711601373_74d539d5bf_n.jpg",
    "id_album": "-395228614",
    "description": "Ship_62185",
    "title": "Ship_62185",
    "link_img": "https://live.staticflickr.com/65535/49711601373_999b8b4d68_o.jpg",
    "id_image": "Ship_62185",
    "count_view": 0
  },
  {
    "link_thumb": "https://live.staticflickr.com/65535/49711434078_22de9c44c0_n.jpg",
    "id_album": "-833110404",
    "description": "Landscape_555457",
    "title": "Landscape_555457",
    "link_img": "https://live.staticflickr.com/65535/49711434078_efcdb18571_o.jpg",
    "id_image": "Landscape_555457",
    "count_view": 0
  },
  {
    "link_thumb": "https://live.staticflickr.com/65535/49710699323_e9fd9472fd_n.jpg",
    "id_album": "-437872736",
    "description": "Creature_486565",
    "title": "Creature_486565",
    "link_img": "https://live.staticflickr.com/65535/49710699323_1f0813c479_o.jpg",
    "id_image": "Creature_486565",
    "count_view": 0
  },
  {
    "link_thumb": "https://live.staticflickr.com/65535/49711755187_9140f5b796_n.jpg",
    "id_album": "850176884",
    "description": "Dragon_371619",
    "title": "Dragon_371619",
    "link_img": "https://live.staticflickr.com/65535/49711755187_8c452c2842_o.jpg",
    "id_image": "Dragon_371619",
    "count_view": 0
  },
  {
    "link_thumb": "https://live.staticflickr.com/65535/49712448251_c371538ace_n.jpg",
    "id_album": "1861288871",
    "description": "Women_496367",
    "title": "Women_496367",
    "link_img": "https://live.staticflickr.com/65535/49712448251_0fc549100e_o.jpg",
    "id_image": "Women_496367",
    "count_view": 0
  },
  {
    "link_thumb": "https://live.staticflickr.com/65535/49711360012_814743db75_n.jpg",
    "id_album": "-1541846310",
    "description": "Castle_189299",
    "title": "Castle_189299",
    "link_img": "https://live.staticflickr.com/65535/49711360012_b56679532c_o.jpg",
    "id_image": "Castle_189299",
    "count_view": 0
  },
  {
    "link_thumb": "https://live.staticflickr.com/65535/49711579957_5841afe1d3_n.jpg",
    "id_album": "-437872736",
    "description": "Creature_639486",
    "title": "Creature_639486",
    "link_img": "https://live.staticflickr.com/65535/49711579957_0e48741924_o.jpg",
    "id_image": "Creature_639486",
    "count_view": 0
  },
  {
    "link_thumb": "https://live.staticflickr.com/65535/49710636273_e8573d871a_n.jpg",
    "id_album": "-437872736",
    "description": "Creature_269338",
    "title": "Creature_269338",
    "link_img": "https://live.staticflickr.com/65535/49710636273_e544f8d891_o.jpg",
    "id_image": "Creature_269338",
    "count_view": 0
  },
  {
    "link_thumb": "https://live.staticflickr.com/65535/49711181536_cfa18a1136_n.jpg",
    "id_album": "-437872736",
    "description": "Creature_302405",
    "title": "Creature_302405",
    "link_img": "https://live.staticflickr.com/65535/49711181536_494e7f5271_o.jpg",
    "id_image": "Creature_302405",
    "count_view": 0
  },
  {
    "link_thumb": "https://live.staticflickr.com/65535/49712092993_ae151fff22_n.jpg",
    "id_album": "-1675918237",
    "description": "WomenWarrior_527129",
    "title": "WomenWarrior_527129",
    "link_img": "https://live.staticflickr.com/65535/49712092993_e883b04b1b_o.jpg",
    "id_image": "WomenWarrior_527129",
    "count_view": 0
  },
  {
    "link_thumb": "https://live.staticflickr.com/65535/49893363651_f5b9386424_n.jpg",
    "id_album": "-1703946758",
    "description": "ANIME_PIC_6592f7364775a87033db2fa661988b1e",
    "title": "ANIME_PIC_6592f7364775a87033db2fa661988b1e",
    "link_img": "https://live.staticflickr.com/65535/49893363651_49694b1dff_o.jpg",
    "id_image": "ANIME_PIC_6592f7364775a87033db2fa661988b1e",
    "count_view": 0
  },
  {
    "link_thumb": "https://live.staticflickr.com/65535/49710863526_16f85524c2_n.jpg",
    "id_album": "-2109465612",
    "description": "Adventure_244600",
    "title": "Adventure_244600",
    "link_img": "https://live.staticflickr.com/65535/49710863526_e65c9b174d_o.jpg",
    "id_image": "Adventure_244600",
    "count_view": 0
  },
  {
    "link_thumb": "https://live.staticflickr.com/65535/49710564913_2403447102_n.jpg",
    "id_album": "-1964113117",
    "description": "City_426864",
    "title": "City_426864",
    "link_img": "https://live.staticflickr.com/65535/49710564913_e6a5e2f6c6_o.jpg",
    "id_image": "City_426864",
    "count_view": 0
  },
  {
    "link_thumb": "https://live.staticflickr.com/65535/49711308671_ac1653ee6c_n.jpg",
    "id_album": "-437872736",
    "description": "Creature_966470",
    "title": "Creature_966470",
    "link_img": "https://live.staticflickr.com/65535/49711308671_1baba1f698_o.jpg",
    "id_image": "Creature_966470",
    "count_view": 0
  },
  {
    "link_thumb": "https://live.staticflickr.com/65535/49711235092_3253768f55_n.jpg",
    "id_album": "-1913845949",
    "description": "Animal_636078",
    "title": "Animal_636078",
    "link_img": "https://live.staticflickr.com/65535/49711235092_1cb693ce41_o.jpg",
    "id_image": "Animal_636078",
    "count_view": 0
  },
  {
    "link_thumb": "https://live.staticflickr.com/65535/49711360446_712bc061c3_n.jpg",
    "id_album": "850176884",
    "description": "Dragon_122295",
    "title": "Dragon_122295",
    "link_img": "https://live.staticflickr.com/65535/49711360446_9f5dfe7499_o.jpg",
    "id_image": "Dragon_122295",
    "count_view": 0
  },
  {
    "link_thumb": "https://live.staticflickr.com/65535/49710421823_d16888133a_n.jpg",
    "id_album": "523598895",
    "description": "Artistic_226314",
    "title": "Artistic_226314",
    "link_img": "https://live.staticflickr.com/65535/49710421823_0327ca8869_o.jpg",
    "id_image": "Artistic_226314",
    "count_view": 0
  },
  {
    "link_thumb": "https://live.staticflickr.com/65535/49712597036_2650764c8f_n.jpg",
    "id_album": "-1675918237",
    "description": "WomenWarrior_455988",
    "title": "WomenWarrior_455988",
    "link_img": "https://live.staticflickr.com/65535/49712597036_127abb1b06_o.jpg",
    "id_image": "WomenWarrior_455988",
    "count_view": 0
  },
  {
    "link_thumb": "https://live.staticflickr.com/65535/49711739971_9605aab64e_n.jpg",
    "id_album": "402434752",
    "description": "Giant_987361",
    "title": "Giant_987361",
    "link_img": "https://live.staticflickr.com/65535/49711739971_c5f5d6e59a_o.jpg",
    "id_image": "Giant_987361",
    "count_view": 0
  },
  {
    "link_thumb": "https://live.staticflickr.com/65535/49711539257_21b59f6874_n.jpg",
    "id_album": "-437872736",
    "description": "Creature_357252",
    "title": "Creature_357252",
    "link_img": "https://live.staticflickr.com/65535/49711539257_e48e1796a2_o.jpg",
    "id_image": "Creature_357252",
    "count_view": 0
  },
  {
    "link_thumb": "https://live.staticflickr.com/65535/49711754058_58c70c8e5f_n.jpg",
    "id_album": "-709711865",
    "description": "Wolf_739404",
    "title": "Wolf_739404",
    "link_img": "https://live.staticflickr.com/65535/49711754058_b85a24e222_o.jpg",
    "id_image": "Wolf_739404",
    "count_view": 0
  },
  {
    "link_thumb": "https://live.staticflickr.com/65535/49711696908_f127899e89_n.jpg",
    "id_album": "-1261420436",
    "description": "Warrior_902765",
    "title": "Warrior_902765",
    "link_img": "https://live.staticflickr.com/65535/49711696908_ef43bccf10_o.jpg",
    "id_image": "Warrior_902765",
    "count_view": 0
  },
  {
    "link_thumb": "https://live.staticflickr.com/65535/49710703688_4cc8579cc1_n.jpg",
    "id_album": "-437872736",
    "description": "Creature_511602",
    "title": "Creature_511602",
    "link_img": "https://live.staticflickr.com/65535/49710703688_c8368597a4_o.jpg",
    "id_image": "Creature_511602",
    "count_view": 0
  },
  {
    "link_thumb": "https://live.staticflickr.com/65535/49711468532_62fd489388_n.jpg",
    "id_album": "-437872736",
    "description": "Creature_147410",
    "title": "Creature_147410",
    "link_img": "https://live.staticflickr.com/65535/49711468532_10c6c68042_o.jpg",
    "id_image": "Creature_147410",
    "count_view": 0
  },
  {
    "link_thumb": "https://live.staticflickr.com/65535/49710757883_5625439a25_n.jpg",
    "id_album": "-437872736",
    "description": "Creature_958897",
    "title": "Creature_958897",
    "link_img": "https://live.staticflickr.com/65535/49710757883_a4a97231ae_o.jpg",
    "id_image": "Creature_958897",
    "count_view": 0
  },
  {
    "link_thumb": "https://live.staticflickr.com/65535/49710565648_aa643d69f7_n.jpg",
    "id_album": "-1964113117",
    "description": "City_445623",
    "title": "City_445623",
    "link_img": "https://live.staticflickr.com/65535/49710565648_ba4f2fc325_o.jpg",
    "id_image": "City_445623",
    "count_view": 0
  },
  {
    "link_thumb": "https://live.staticflickr.com/65535/49711511887_210e571280_n.jpg",
    "id_album": "-437872736",
    "description": "Creature_310285",
    "title": "Creature_310285",
    "link_img": "https://live.staticflickr.com/65535/49711511887_0ac11cca08_o.jpg",
    "id_image": "Creature_310285",
    "count_view": 0
  },
  {
    "link_thumb": "https://live.staticflickr.com/65535/49711836692_21827dce21_n.jpg",
    "id_album": "850176884",
    "description": "Dragon_732256",
    "title": "Dragon_732256",
    "link_img": "https://live.staticflickr.com/65535/49711836692_63d3f6cef4_o.jpg",
    "id_image": "Dragon_732256",
    "count_view": 0
  },
  {
    "link_thumb": "https://live.staticflickr.com/65535/49712608212_20c18e0f4b_n.jpg",
    "id_album": "-709711865",
    "description": "Wolf_680906",
    "title": "Wolf_680906",
    "link_img": "https://live.staticflickr.com/65535/49712608212_030a86cd22_o.jpg",
    "id_image": "Wolf_680906",
    "count_view": 0
  },
  {
    "link_thumb": "https://live.staticflickr.com/65535/49711424036_c77e37d794_n.jpg",
    "id_album": "850176884",
    "description": "Dragon_328306",
    "title": "Dragon_328306",
    "link_img": "https://live.staticflickr.com/65535/49711424036_2ea5c0071f_o.jpg",
    "id_image": "Dragon_328306",
    "count_view": 0
  },
  {
    "link_thumb": "https://live.staticflickr.com/65535/49710498303_0833aa27cf_n.jpg",
    "id_album": "-1541846310",
    "description": "Castle_147452",
    "title": "Castle_147452",
    "link_img": "https://live.staticflickr.com/65535/49710498303_092044ae1b_o.jpg",
    "id_image": "Castle_147452",
    "count_view": 0
  },
  {
    "link_thumb": "https://live.staticflickr.com/65535/49712758202_8014f79953_n.jpg",
    "id_album": "1861288871",
    "description": "Women_215361",
    "title": "Women_215361",
    "link_img": "https://live.staticflickr.com/65535/49712758202_2669076795_o.jpg",
    "id_image": "Women_215361",
    "count_view": 0
  },
  {
    "link_thumb": "https://live.staticflickr.com/65535/49710789178_1e4e192b9b_n.jpg",
    "id_album": "2021464556",
    "description": "Dark_955561",
    "title": "Dark_955561",
    "link_img": "https://live.staticflickr.com/65535/49710789178_2431ef6384_o.jpg",
    "id_image": "Dark_955561",
    "count_view": 0
  },
  {
    "link_thumb": "https://live.staticflickr.com/65535/49711976231_dbb22df5d1_n.jpg",
    "id_album": "-1284959130",
    "description": "LegendOfTheFiveRings_234169",
    "title": "LegendOfTheFiveRings_234169",
    "link_img": "https://live.staticflickr.com/65535/49711976231_465f87e596_o.jpg",
    "id_image": "LegendOfTheFiveRings_234169",
    "count_view": 0
  },
  {
    "link_thumb": "https://live.staticflickr.com/65535/49711263232_24ae449351_n.jpg",
    "id_album": "523598895",
    "description": "Artistic_118667",
    "title": "Artistic_118667",
    "link_img": "https://live.staticflickr.com/65535/49711263232_76a2da7b71_o.jpg",
    "id_image": "Artistic_118667",
    "count_view": 0
  },
  {
    "link_thumb": "https://live.staticflickr.com/65535/49711412047_87889314d1_n.jpg",
    "id_album": "-1964113117",
    "description": "City_130340",
    "title": "City_130340",
    "link_img": "https://live.staticflickr.com/65535/49711412047_aab1d1e4c2_o.jpg",
    "id_image": "City_130340",
    "count_view": 0
  },
  {
    "link_thumb": "https://live.staticflickr.com/65535/49712137716_52e0245e1e_n.jpg",
    "id_album": "-395228614",
    "description": "Ship_698232",
    "title": "Ship_698232",
    "link_img": "https://live.staticflickr.com/65535/49712137716_e327a5e090_o.jpg",
    "id_image": "Ship_698232",
    "count_view": 0
  },
  {
    "link_thumb": "https://live.staticflickr.com/65535/49712701831_397512bbda_n.jpg",
    "id_album": "-1675918237",
    "description": "WomenWarrior_954307",
    "title": "WomenWarrior_954307",
    "link_img": "https://live.staticflickr.com/65535/49712701831_c2bfcd3e50_o.jpg",
    "id_image": "WomenWarrior_954307",
    "count_view": 0
  },
  {
    "link_thumb": "https://live.staticflickr.com/65535/49710633988_a268fc3e4f_n.jpg",
    "id_album": "-437872736",
    "description": "Creature_265614",
    "title": "Creature_265614",
    "link_img": "https://live.staticflickr.com/65535/49710633988_1f21f3faba_o.jpg",
    "id_image": "Creature_265614",
    "count_view": 0
  },
  {
    "link_thumb": "https://live.staticflickr.com/65535/49712174251_af77d64810_n.jpg",
    "id_album": "46520366",
    "description": "Turtle_863877",
    "title": "Turtle_863877",
    "link_img": "https://live.staticflickr.com/65535/49712174251_6fae3d9aba_o.jpg",
    "id_image": "Turtle_863877",
    "count_view": 0
  },
  {
    "link_thumb": "https://live.staticflickr.com/65535/49710591298_80aefedd28_n.jpg",
    "id_album": "-1964113117",
    "description": "City_878051",
    "title": "City_878051",
    "link_img": "https://live.staticflickr.com/65535/49710591298_beb7fec601_o.jpg",
    "id_image": "City_878051",
    "count_view": 0
  },
  {
    "link_thumb": "https://live.staticflickr.com/65535/49711386426_71b1e81ee3_n.jpg",
    "id_album": "850176884",
    "description": "Dragon_213667",
    "title": "Dragon_213667",
    "link_img": "https://live.staticflickr.com/65535/49711386426_fc4314a467_o.jpg",
    "id_image": "Dragon_213667",
    "count_view": 0
  },
  {
    "link_thumb": "https://live.staticflickr.com/65535/49712080278_c0f4d06018_n.jpg",
    "id_album": "-1675918237",
    "description": "WomenWarrior_492547",
    "title": "WomenWarrior_492547",
    "link_img": "https://live.staticflickr.com/65535/49712080278_3f4b146aa1_o.jpg",
    "id_image": "WomenWarrior_492547",
    "count_view": 0
  },
  {
    "link_thumb": "https://live.staticflickr.com/65535/49712155682_9e020c13d5_n.jpg",
    "id_album": "1402713104",
    "description": "Landscape_864102",
    "title": "Landscape_864102",
    "link_img": "https://live.staticflickr.com/65535/49712155682_2d88cca2b5_o.jpg",
    "id_image": "Landscape_864102",
    "count_view": 0
  },
  {
    "link_thumb": "https://live.staticflickr.com/65535/49711983436_d91676c42e_n.jpg",
    "id_album": "416744915",
    "description": "Lion_702757",
    "title": "Lion_702757",
    "link_img": "https://live.staticflickr.com/65535/49711983436_c35c6dbaa6_o.jpg",
    "id_image": "Lion_702757",
    "count_view": 0
  },
  {
    "link_thumb": "https://live.staticflickr.com/65535/49711321502_26e8d112b2_n.jpg",
    "id_album": "1187037014",
    "description": "Battle_388196",
    "title": "Battle_388196",
    "link_img": "https://live.staticflickr.com/65535/49711321502_918a76145f_o.jpg",
    "id_image": "Battle_388196",
    "count_view": 0
  },
  {
    "link_thumb": "https://live.staticflickr.com/65535/49711701347_7319246871_n.jpg",
    "id_album": "850176884",
    "description": "Dragon_188253",
    "title": "Dragon_188253",
    "link_img": "https://live.staticflickr.com/65535/49711701347_f40b2f808d_o.jpg",
    "id_image": "Dragon_188253",
    "count_view": 0
  },
  {
    "link_thumb": "https://live.staticflickr.com/65535/49712055197_1c9f354053_n.jpg",
    "id_album": "402434752",
    "description": "Giant_330870",
    "title": "Giant_330870",
    "link_img": "https://live.staticflickr.com/65535/49712055197_6baf1e4041_o.jpg",
    "id_image": "Giant_330870",
    "count_view": 0
  },
  {
    "link_thumb": "https://live.staticflickr.com/65535/49711442128_d408e801ff_n.jpg",
    "id_album": "-1284959130",
    "description": "LegendOfTheFiveRings_394701",
    "title": "LegendOfTheFiveRings_394701",
    "link_img": "https://live.staticflickr.com/65535/49711442128_f57942fe15_o.jpg",
    "id_image": "LegendOfTheFiveRings_394701",
    "count_view": 0
  },
  {
    "link_thumb": "https://live.staticflickr.com/65535/49710441713_446537a964_n.jpg",
    "id_album": "523598895",
    "description": "Artistic_600847",
    "title": "Artistic_600847",
    "link_img": "https://live.staticflickr.com/65535/49710441713_afa7798b11_o.jpg",
    "id_image": "Artistic_600847",
    "count_view": 0
  },
  {
    "link_thumb": "https://live.staticflickr.com/65535/49710654088_1caa868a46_n.jpg",
    "id_album": "-437872736",
    "description": "Creature_313377",
    "title": "Creature_313377",
    "link_img": "https://live.staticflickr.com/65535/49710654088_166a8893b6_o.jpg",
    "id_image": "Creature_313377",
    "count_view": 0
  },
  {
    "link_thumb": "https://live.staticflickr.com/65535/49711135996_a1ebd1ce0c_n.jpg",
    "id_album": "-1964113117",
    "description": "City_974915",
    "title": "City_974915",
    "link_img": "https://live.staticflickr.com/65535/49711135996_a975af8919_o.jpg",
    "id_image": "City_974915",
    "count_view": 0
  },
  {
    "link_thumb": "https://live.staticflickr.com/65535/49712202566_72d4844809_n.jpg",
    "id_album": "-1261420436",
    "description": "Warrior_249222",
    "title": "Warrior_249222",
    "link_img": "https://live.staticflickr.com/65535/49712202566_975e8ba642_o.jpg",
    "id_image": "Warrior_249222",
    "count_view": 0
  },
  {
    "link_thumb": "https://live.staticflickr.com/65535/49711863486_35e3511d70_n.jpg",
    "id_album": "1402713104",
    "description": "Landscape_943134",
    "title": "Landscape_943134",
    "link_img": "https://live.staticflickr.com/65535/49711863486_ee35b89765_o.jpg",
    "id_image": "Landscape_943134",
    "count_view": 0
  },
  {
    "link_thumb": "https://live.staticflickr.com/65535/49711846657_257e8171b0_n.jpg",
    "id_album": "850176884",
    "description": "Dragon_784049",
    "title": "Dragon_784049",
    "link_img": "https://live.staticflickr.com/65535/49711846657_4941fce8c3_o.jpg",
    "id_image": "Dragon_784049",
    "count_view": 0
  },
  {
    "link_thumb": "https://live.staticflickr.com/65535/49798809426_cdab9b10d4_n.jpg",
    "id_album": "-1703946758",
    "description": "ANIME_PIC_1b881951e9057df5db987ab7add14d60",
    "title": "ANIME_PIC_1b881951e9057df5db987ab7add14d60",
    "link_img": "https://live.staticflickr.com/65535/49798809426_0423535827_o.jpg",
    "id_image": "ANIME_PIC_1b881951e9057df5db987ab7add14d60",
    "count_view": 0
  },
  {
    "link_thumb": "https://live.staticflickr.com/65535/49712278432_8c76ac7620_n.jpg",
    "id_album": "-833110404",
    "description": "Landscape_504302",
    "title": "Landscape_504302",
    "link_img": "https://live.staticflickr.com/65535/49712278432_568407a7a4_o.jpg",
    "id_image": "Landscape_504302",
    "count_view": 0
  },
  {
    "link_thumb": "https://live.staticflickr.com/65535/49712263032_490036912b_n.jpg",
    "id_album": "-833110404",
    "description": "Landscape_416002",
    "title": "Landscape_416002",
    "link_img": "https://live.staticflickr.com/65535/49712263032_7a21b5b892_o.jpg",
    "id_image": "Landscape_416002",
    "count_view": 0
  },
  {
    "link_thumb": "https://live.staticflickr.com/65535/49711225957_680620141d_n.jpg",
    "id_album": "-1913845949",
    "description": "Animal_479548",
    "title": "Animal_479548",
    "link_img": "https://live.staticflickr.com/65535/49711225957_4593510f86_o.jpg",
    "id_image": "Animal_479548",
    "count_view": 0
  },
  {
    "link_thumb": "https://live.staticflickr.com/65535/49710924418_f1d4922fb1_n.jpg",
    "id_album": "850176884",
    "description": "Dragon_489933",
    "title": "Dragon_489933",
    "link_img": "https://live.staticflickr.com/65535/49710924418_bbe2268211_o.jpg",
    "id_image": "Dragon_489933",
    "count_view": 0
  },
  {
    "link_thumb": "https://live.staticflickr.com/65535/49712096213_9a50f1c88e_n.jpg",
    "id_album": "-1675918237",
    "description": "WomenWarrior_534419",
    "title": "WomenWarrior_534419",
    "link_img": "https://live.staticflickr.com/65535/49712096213_b0bcdcecf8_o.jpg",
    "id_image": "WomenWarrior_534419",
    "count_view": 0
  },
  {
    "link_thumb": "https://live.staticflickr.com/65535/49711210127_d2e97f266c_n.jpg",
    "id_album": "-1000175186",
    "description": "AngelWarrior_733337",
    "title": "AngelWarrior_733337",
    "link_img": "https://live.staticflickr.com/65535/49711210127_ae69a3929e_o.jpg",
    "id_image": "AngelWarrior_733337",
    "count_view": 0
  },
  {
    "link_thumb": "https://live.staticflickr.com/65535/49710944993_2fe74d92f4_n.jpg",
    "id_album": "850176884",
    "description": "Dragon_559688",
    "title": "Dragon_559688",
    "link_img": "https://live.staticflickr.com/65535/49710944993_a7dc29bf6a_o.jpg",
    "id_image": "Dragon_559688",
    "count_view": 0
  },
  {
    "link_thumb": "https://live.staticflickr.com/65535/49711356407_2062db5e10_n.jpg",
    "id_album": "-1541846310",
    "description": "Castle_146497",
    "title": "Castle_146497",
    "link_img": "https://live.staticflickr.com/65535/49711356407_82b7ef4378_o.jpg",
    "id_image": "Castle_146497",
    "count_view": 0
  },
  {
    "link_thumb": "https://live.staticflickr.com/65535/49711964411_dabe62395c_n.jpg",
    "id_album": "-833110404",
    "description": "Landscape_539864",
    "title": "Landscape_539864",
    "link_img": "https://live.staticflickr.com/65535/49711964411_aba474ae10_o.jpg",
    "id_image": "Landscape_539864",
    "count_view": 0
  },
  {
    "link_thumb": "https://live.staticflickr.com/65535/49710352583_3f86849fb6_n.jpg",
    "id_album": "-1000175186",
    "description": "AngelWarrior_766476",
    "title": "AngelWarrior_766476",
    "link_img": "https://live.staticflickr.com/65535/49710352583_b1229e9bbc_o.jpg",
    "id_image": "AngelWarrior_766476",
    "count_view": 0
  },
  {
    "link_thumb": "https://live.staticflickr.com/65535/49712215172_5a151a171e_n.jpg",
    "id_album": "-833110404",
    "description": "Landscape_202889",
    "title": "Landscape_202889",
    "link_img": "https://live.staticflickr.com/65535/49712215172_7316923221_o.jpg",
    "id_image": "Landscape_202889",
    "count_view": 0
  },
  {
    "link_thumb": "https://live.staticflickr.com/65535/49710985861_3cfe5489f9_n.jpg",
    "id_album": "1187037014",
    "description": "Battle_222941",
    "title": "Battle_222941",
    "link_img": "https://live.staticflickr.com/65535/49710985861_c29007bb25_o.jpg",
    "id_image": "Battle_222941",
    "count_view": 0
  },
  {
    "link_thumb": "https://live.staticflickr.com/65535/49711744157_7228e25684_n.jpg",
    "id_album": "850176884",
    "description": "Dragon_327055",
    "title": "Dragon_327055",
    "link_img": "https://live.staticflickr.com/65535/49711744157_9b74ec19a3_o.jpg",
    "id_image": "Dragon_327055",
    "count_view": 0
  },
  {
    "link_thumb": "https://live.staticflickr.com/65535/49710610588_0f9e06da8c_n.jpg",
    "id_album": "-437872736",
    "description": "Creature_154765",
    "title": "Creature_154765",
    "link_img": "https://live.staticflickr.com/65535/49710610588_78113d01fb_o.jpg",
    "id_image": "Creature_154765",
    "count_view": 0
  },
  {
    "link_thumb": "https://live.staticflickr.com/65535/49712645797_015ee55485_n.jpg",
    "id_album": "-1126835654",
    "description": "Women_880079",
    "title": "Women_880079",
    "link_img": "https://live.staticflickr.com/65535/49712645797_e699d9667f_o.jpg",
    "id_image": "Women_880079",
    "count_view": 0
  },
  {
    "link_thumb": "https://live.staticflickr.com/65535/49711351037_bb0a389bb2_n.jpg",
    "id_album": "406431601",
    "description": "Building_871007",
    "title": "Building_871007",
    "link_img": "https://live.staticflickr.com/65535/49711351037_06a41c0e17_o.jpg",
    "id_image": "Building_871007",
    "count_view": 0
  },
  {
    "link_thumb": "https://live.staticflickr.com/65535/49710565008_9c18db95f6_n.jpg",
    "id_album": "-1964113117",
    "description": "City_435645",
    "title": "City_435645",
    "link_img": "https://live.staticflickr.com/65535/49710565008_10c87f7d23_o.jpg",
    "id_image": "City_435645",
    "count_view": 0
  },
  {
    "link_thumb": "https://live.staticflickr.com/65535/49712023037_39d92af963_n.jpg",
    "id_album": "-1083189875",
    "description": "Forest_554591",
    "title": "Forest_554591",
    "link_img": "https://live.staticflickr.com/65535/49712023037_5f3915ec1b_o.jpg",
    "id_image": "Forest_554591",
    "count_view": 0
  },
  {
    "link_thumb": "https://live.staticflickr.com/65535/49711378063_e0d9acdaf1_n.jpg",
    "id_album": "-833110404",
    "description": "Landscape_288852",
    "title": "Landscape_288852",
    "link_img": "https://live.staticflickr.com/65535/49711378063_f7132fb2be_o.jpg",
    "id_image": "Landscape_288852",
    "count_view": 0
  },
  {
    "link_thumb": "https://live.staticflickr.com/65535/49710509663_5291072891_n.jpg",
    "id_album": "-1541846310",
    "description": "Castle_379901",
    "title": "Castle_379901",
    "link_img": "https://live.staticflickr.com/65535/49710509663_0f42a36d15_o.jpg",
    "id_image": "Castle_379901",
    "count_view": 0
  },
  {
    "link_thumb": "https://live.staticflickr.com/65535/49710542663_f880320e35_n.jpg",
    "id_album": "430704260",
    "description": "Child_700060",
    "title": "Child_700060",
    "link_img": "https://live.staticflickr.com/65535/49710542663_8b6482db39_o.jpg",
    "id_image": "Child_700060",
    "count_view": 0
  },
  {
    "link_thumb": "https://live.staticflickr.com/65535/49711217437_b117bd9883_n.jpg",
    "id_album": "-1913845949",
    "description": "Animal_153425",
    "title": "Animal_153425",
    "link_img": "https://live.staticflickr.com/65535/49711217437_f7aa6bd978_o.jpg",
    "id_image": "Animal_153425",
    "count_view": 0
  },
  {
    "link_thumb": "https://live.staticflickr.com/65535/49711755412_fecc13b3b2_n.jpg",
    "id_album": "850176884",
    "description": "Dragon_372697",
    "title": "Dragon_372697",
    "link_img": "https://live.staticflickr.com/65535/49711755412_8437347d80_o.jpg",
    "id_image": "Dragon_372697",
    "count_view": 0
  },
  {
    "link_thumb": "https://live.staticflickr.com/65535/49711296452_dd05ec2213_n.jpg",
    "id_album": "523598895",
    "description": "Artistic_549706",
    "title": "Artistic_549706",
    "link_img": "https://live.staticflickr.com/65535/49711296452_83e2db27eb_o.jpg",
    "id_image": "Artistic_549706",
    "count_view": 0
  },
  {
    "link_thumb": "https://live.staticflickr.com/65535/49711671187_7586179ff1_n.jpg",
    "id_album": "850176884",
    "description": "DRAGON26101916494417",
    "title": "DRAGON26101916494417",
    "link_img": "https://live.staticflickr.com/65535/49711671187_a33bfe7c11_o.jpg",
    "id_image": "DRAGON26101916494417",
    "count_view": 0
  },
  {
    "link_thumb": "https://live.staticflickr.com/65535/49710682388_2cb12e4c37_n.jpg",
    "id_album": "-437872736",
    "description": "Creature_373417",
    "title": "Creature_373417",
    "link_img": "https://live.staticflickr.com/65535/49710682388_d9b951cdbe_o.jpg",
    "id_image": "Creature_373417",
    "count_view": 0
  },
  {
    "link_thumb": "https://live.staticflickr.com/65535/49712057043_c065b41d9f_n.jpg",
    "id_album": "-1675918237",
    "description": "WomenWarrior_356082",
    "title": "WomenWarrior_356082",
    "link_img": "https://live.staticflickr.com/65535/49712057043_27f08a6e28_o.jpg",
    "id_image": "WomenWarrior_356082",
    "count_view": 0
  },
  {
    "link_thumb": "https://live.staticflickr.com/65535/49711557331_f7e0c89de4_n.jpg",
    "id_album": "850176884",
    "description": "Dragon_907913",
    "title": "Dragon_907913",
    "link_img": "https://live.staticflickr.com/65535/49711557331_84feeeab79_o.jpg",
    "id_image": "Dragon_907913",
    "count_view": 0
  },
  {
    "link_thumb": "https://live.staticflickr.com/65535/49712167281_a8517448aa_n.jpg",
    "id_album": "405170427",
    "description": "Tiger_879740",
    "title": "Tiger_879740",
    "link_img": "https://live.staticflickr.com/65535/49712167281_aa3d395840_o.jpg",
    "id_image": "Tiger_879740",
    "count_view": 0
  },
  {
    "link_thumb": "https://live.staticflickr.com/65535/49712162842_e2b93173ea_n.jpg",
    "id_album": "1402713104",
    "description": "Landscape_867424",
    "title": "Landscape_867424",
    "link_img": "https://live.staticflickr.com/65535/49712162842_a3f3c49a9b_o.jpg",
    "id_image": "Landscape_867424",
    "count_view": 0
  },
  {
    "link_thumb": "https://live.staticflickr.com/65535/49712490437_3ee28e3195_n.jpg",
    "id_album": "405170427",
    "description": "Tiger_926767",
    "title": "Tiger_926767",
    "link_img": "https://live.staticflickr.com/65535/49712490437_45c1894a37_o.jpg",
    "id_image": "Tiger_926767",
    "count_view": 0
  },
  {
    "link_thumb": "https://live.staticflickr.com/65535/49712184586_ecc3971227_n.jpg",
    "id_album": "431597977",
    "description": "Unicorn_792841",
    "title": "Unicorn_792841",
    "link_img": "https://live.staticflickr.com/65535/49712184586_856644a990_o.jpg",
    "id_image": "Unicorn_792841",
    "count_view": 0
  },
  {
    "link_thumb": "https://live.staticflickr.com/65535/49710406478_b6d2513295_n.jpg",
    "id_album": "523598895",
    "description": "Artistic_119736",
    "title": "Artistic_119736",
    "link_img": "https://live.staticflickr.com/65535/49710406478_60449b7925_o.jpg",
    "id_image": "Artistic_119736",
    "count_view": 0
  },
  {
    "link_thumb": "https://live.staticflickr.com/65535/49712175382_340079ffcc_n.jpg",
    "id_album": "1402713104",
    "description": "Landscape_896221",
    "title": "Landscape_896221",
    "link_img": "https://live.staticflickr.com/65535/49712175382_db71dcc81b_o.jpg",
    "id_image": "Landscape_896221",
    "count_view": 0
  },
  {
    "link_thumb": "https://live.staticflickr.com/65535/49711317217_3d5a5b343e_n.jpg",
    "id_album": "1187037014",
    "description": "Battle_325723",
    "title": "Battle_325723",
    "link_img": "https://live.staticflickr.com/65535/49711317217_c2a41a8eec_o.jpg",
    "id_image": "Battle_325723",
    "count_view": 0
  },
  {
    "link_thumb": "https://live.staticflickr.com/65535/49711766392_97c7d5033a_n.jpg",
    "id_album": "850176884",
    "description": "Dragon_430958",
    "title": "Dragon_430958",
    "link_img": "https://live.staticflickr.com/65535/49711766392_89ed9834c3_o.jpg",
    "id_image": "Dragon_430958",
    "count_view": 0
  },
  {
    "link_thumb": "https://live.staticflickr.com/65535/49711820831_8c06f02df4_n.jpg",
    "id_album": "1402713104",
    "description": "Landscape_788786",
    "title": "Landscape_788786",
    "link_img": "https://live.staticflickr.com/65535/49711820831_95948b2126_o.jpg",
    "id_image": "Landscape_788786",
    "count_view": 0
  },
  {
    "link_thumb": "https://live.staticflickr.com/65535/49798837726_eea59d86a8_n.jpg",
    "id_album": "-1703946758",
    "description": "ANIME_PIC_c15a6c4649f53c596106a373b69d2ae3",
    "title": "ANIME_PIC_c15a6c4649f53c596106a373b69d2ae3",
    "link_img": "https://live.staticflickr.com/65535/49798837726_85bbd14914_o.jpg",
    "id_image": "ANIME_PIC_c15a6c4649f53c596106a373b69d2ae3",
    "count_view": 0
  },
  {
    "link_thumb": "https://live.staticflickr.com/65535/49710604758_4d9d1fbd1c_n.jpg",
    "id_album": "-437872736",
    "description": "Creature_117471",
    "title": "Creature_117471",
    "link_img": "https://live.staticflickr.com/65535/49710604758_6f003c328c_o.jpg",
    "id_image": "Creature_117471",
    "count_view": 0
  },
  {
    "link_thumb": "https://live.staticflickr.com/65535/49711691647_f31717756c_n.jpg",
    "id_album": "850176884",
    "description": "Dragon_134152",
    "title": "Dragon_134152",
    "link_img": "https://live.staticflickr.com/65535/49711691647_74d39f7c5b_o.jpg",
    "id_image": "Dragon_134152",
    "count_view": 0
  },
  {
    "link_thumb": "https://live.staticflickr.com/65535/49711410426_f8b2136c6b_n.jpg",
    "id_album": "850176884",
    "description": "Dragon_284769",
    "title": "Dragon_284769",
    "link_img": "https://live.staticflickr.com/65535/49711410426_383e9e8ce6_o.jpg",
    "id_image": "Dragon_284769",
    "count_view": 0
  },
  {
    "link_thumb": "https://live.staticflickr.com/65535/49711689131_730697b8e9_n.jpg",
    "id_album": "-1083189875",
    "description": "Forest_145943",
    "title": "Forest_145943",
    "link_img": "https://live.staticflickr.com/65535/49711689131_bf904a42c8_o.jpg",
    "id_image": "Forest_145943",
    "count_view": 0
  }
]